M48
;Layer_Color=9474304
;FILE_FORMAT=2:5
INCH,LZ
;TYPE=PLATED
T1F00S00C0.02800
T2F00S00C0.03150
T3F00S00C0.03543
T4F00S00C0.03937
T5F00S00C0.04724
%
T01
X0630905Y0541339
X0638779
Y055315
X0630905
Y0564961
X0638779
X0653346Y0563779
Y0572047
Y0579921
X0661614
Y0572047
Y0563779
X0671063Y0564173
Y0572047
Y0579921
Y058937
X0661614
X0652953
X0623032Y0563976
X0616142
Y0555118
X0623032
Y0545276
X0616142
X0607283
Y0555118
Y0563976
X0567913Y0568898
Y0576772
X0560039
Y0568898
Y0584646
X0567913
Y059252
X0560039
Y0600394
X0567913
Y0608268
Y0616142
X0560039
Y0608268
Y0624016
X0523425Y058937
Y0579921
Y0572047
Y0564173
X0513976Y0563779
Y0572047
Y0579921
X0505709
Y0572047
Y0563779
X0491142Y0564961
X0483268
X0475394Y0563976
Y0555118
Y0545276
X0483268Y0541339
X0491142
Y055315
X0483268
X0505315Y058937
X0513976
X0468504Y0563976
Y0555118
X0459646
Y0563976
Y0545276
X0468504
X0420276Y0568898
Y0576772
X0412402
Y0568898
Y0584646
X0420276
Y059252
X0412402
Y0600394
X0420276
Y0608268
Y0616142
X0412402
Y0608268
Y0624016
X0375787Y058937
Y0579921
Y0572047
Y0564173
X0366339Y0563779
Y0572047
Y0579921
X0358071
Y0572047
Y0563779
X0343504Y0564961
X033563
X0327756Y0563976
X0320866
Y0555118
X0327756
Y0545276
X0320866
X033563Y0541339
X0343504
Y055315
X033563
X0357677Y058937
X0366339
X0312008Y0563976
Y0555118
Y0545276
X0272638Y0568898
Y0576772
X0264764
Y0568898
Y0584646
X0272638
Y059252
X0264764
Y0600394
X0272638
Y0608268
Y0616142
X0264764
Y0608268
Y0624016
X022815Y058937
Y0579921
Y0572047
Y0564173
X0218701Y0563779
Y0572047
Y0579921
X0210433
Y0572047
Y0563779
X0195866Y0564961
X0187992
X0180118Y0563976
X0173228
Y0555118
X0180118
Y0545276
X0173228
X016437
Y0555118
Y0563976
X0187992Y055315
X0195866
Y0541339
X0187992
X0210039Y058937
X0218701
X0125Y059252
Y0584646
X0117126
Y059252
Y0600394
X0125
Y0608268
Y0616142
X0117126
Y0608268
Y0624016
Y0576772
X0125
Y0568898
X0117126
Y063189
X0117913Y0701181
Y0707874
X0123425Y0704724
X0213189Y0709449
Y0717717
X0216339Y0737008
Y0744488
Y0751575
X0208858Y0751575
Y0744488
Y0737008
Y0759449
Y0766929
X0216339Y0766929
Y0759449
X0265551Y0707874
Y0701181
X0271063Y0704724
X0264764Y063189
X0412402
X0413189Y0701181
Y0707874
X0418701Y0704724
X0360827Y0709449
Y0717717
X0363976Y0737008
Y0744488
Y0751575
X0356496Y0751575
Y0744488
Y0737008
Y0759449
Y0766929
X0363976Y0766929
Y0759449
X0504134Y0759449
Y0766929
X0511614Y0766929
Y0759449
Y0751575
Y0744488
Y0737008
X0504134
Y0744488
Y0751575
X0508465Y0717717
Y0709449
X0560827Y0707874
Y0701181
X0566339Y0704724
X0560039Y063189
X0656102Y0709449
Y0717717
X0659252Y0737008
Y0744488
Y0751575
X0651772Y0751575
Y0744488
Y0737008
Y0759449
Y0766929
X0659252Y0766929
Y0759449
X0612402Y0794488
Y0804724
X0582874Y0807087
Y0792126
X0464764Y0794488
Y0804724
X0435236Y0807087
Y0792126
X0317126Y0794488
Y0804724
X0287598Y0807087
Y0792126
X0169488Y0794488
Y0804724
X0139961Y0807087
Y0792126
T02
X0630512Y0606299
X0482874
X0335236
X0187598
X0125394Y071811
Y0728346
X0125394Y0738484
Y0748524
X0125689Y0758563
X0174606Y0740551
X0194291
X0273031Y0738484
Y0748524
X0273327Y0758563
X0273031Y0728346
Y071811
X0322244Y0740551
X0341929
X0420669Y0738484
Y0748524
X0420965Y0758563
X0420669Y0728346
Y071811
X0469882Y0740551
X0489567
X0568307Y0738484
Y0748524
X0568602Y0758563
X0568307Y0728346
Y071811
X061752Y0740551
X0637205
T03
X0641533Y0606241
X0651533
X0661533
X0619097Y0606357
X0609097
X0599097
X0513895Y0606241
X0503895
X0493895
X0471459Y0606357
X0461459
X0451459
X0366258Y0606241
X0356258
X0346257
X0323821Y0606357
X0313821
X0303821
X021862Y0606241
X020862
X019862
X0176183Y0606357
X0166183
X0156184
X0146656Y063746
X0136656
X0126656
X0136415Y0651123
X0146415
X0135178Y0728428
Y0738428
Y0748428
Y0758428
Y0768428
Y0778428
X0177783Y0774543
X0207783
X0282816Y0778428
Y0768428
Y0758428
Y0748428
Y0738428
Y0728428
X0284053Y0651123
X0294053
X0304053
X0304294Y063746
X0294294
X0284294
X0274294
X0217913Y0638976
Y0648519
Y0658661
X0156415Y0651123
X0156656Y063746
X0365551Y0638976
Y0648519
Y0658661
X0431691Y0651123
X044169
X045169
X0451931Y063746
X0441931
X0431931
X0421932
X0430453Y0728428
Y0738428
Y0748428
Y0758428
Y0768428
Y0778428
X0355421Y0774543
X0325421
X0473059
X0503059
X0578091Y0778428
Y0768428
Y0758428
Y0748428
Y0738428
Y0728428
X0579328Y0651123
X0589328
X0599328
X0599569Y063746
X0589569
X0579569
X0569569
X0513189Y0638976
Y0648519
Y0658661
X0620697Y0774543
X0650697
X0660827Y0658661
Y0648519
Y0638976
X0650697Y0784543
Y0794543
Y0804543
X0653682Y0863467
X0573425Y0863386
X0506044Y0863467
X0503059Y0804543
Y0794543
Y0784543
X0473059
Y0794543
Y0804543
X0620697
Y0794543
Y0784543
X0355421
Y0794543
Y0804543
X0325421
Y0794543
Y0784543
X0358406Y0863467
X0425787Y0863386
X027815
X0210769Y0863467
X0207783Y0804543
Y0794543
Y0784543
X0177783
Y0794543
Y0804543
X0130512Y0863386
T04
X0640945Y0509646
X0640748Y0523622
X0658284Y0527409
Y0507724
X0510646
X0493307Y0509646
X049311Y0523622
X0510646Y0527409
X0363008
Y0507724
X0345669Y0509646
X0345472Y0523622
X021537Y0527409
Y0507724
X0198031Y0509646
X0197835Y0523622
T05
X0626874Y0525591
X0585693
X0479236
X0438055
X0331598
X0290417
X0183961
X014278
M30
