%FSLAX25Y25*%
%MOIN*%
G70*
G01*
G75*
G04 Layer_Physical_Order=2*
G04 Layer_Color=16711680*
%ADD10R,0.06299X0.05906*%
%ADD11R,0.11024X0.07087*%
%ADD12R,0.11024X0.05906*%
%ADD13R,0.05906X0.11024*%
%ADD14O,0.02756X0.10236*%
%ADD15C,0.03937*%
%ADD16C,0.04724*%
%ADD17C,0.02362*%
%ADD18C,0.03150*%
%ADD19C,0.02756*%
%ADD20R,0.07374X0.10387*%
%ADD21R,0.17218X0.03200*%
%ADD22R,0.03937X0.07874*%
%ADD23R,0.04921X0.09843*%
%ADD24R,0.18701X0.04921*%
%ADD25R,0.01969X0.05118*%
%ADD26R,0.09055X0.63152*%
%ADD27R,0.02953X0.15748*%
%ADD28R,0.15748X0.03937*%
%ADD29R,1.37795X0.11811*%
%ADD30R,0.01969X0.27953*%
%ADD31R,0.19685X0.27559*%
%ADD32R,0.86614X0.10827*%
%ADD33R,0.47244X0.15748*%
%ADD34R,0.83465X0.14173*%
%ADD35R,0.17716X0.80709*%
%ADD36R,0.08661X0.35827*%
%ADD37R,0.10630X0.59055*%
%ADD38R,0.18110X0.34252*%
%ADD39R,1.07283X0.08858*%
%ADD40R,0.09055X0.10236*%
%ADD41R,0.10236X0.24803*%
%ADD42R,0.08661X0.30709*%
%ADD43R,0.09055X0.18898*%
%ADD44R,0.20866X0.24410*%
%ADD45R,0.17716X0.08268*%
%ADD46R,0.09055X0.06693*%
%ADD47R,0.24016X0.05906*%
%ADD48R,0.13386X0.09055*%
%ADD49R,0.07480X0.47638*%
%ADD50R,0.11417X0.14961*%
%ADD51R,0.17716X0.08661*%
%ADD52R,0.20079X0.25591*%
%ADD53R,0.03150X0.07480*%
%ADD54R,0.02362X0.26378*%
%ADD55R,0.05906X0.50000*%
%ADD56R,0.08661X0.42913*%
%ADD57R,0.13780X0.14567*%
%ADD58R,0.07874X0.07480*%
%ADD59R,0.14961X0.35827*%
%ADD60R,0.16929X0.03543*%
%ADD61R,0.26378X0.04724*%
%ADD62R,0.08661X0.08661*%
%ADD63R,0.18996X0.08760*%
%ADD64R,0.18996X0.08858*%
%ADD65R,0.35728X0.08957*%
%ADD66R,0.17323X0.09055*%
%ADD67R,0.17716X0.09055*%
%ADD68R,0.59055X0.21850*%
%ADD69R,0.28543X0.16732*%
%ADD70R,0.08661X0.08858*%
%ADD71R,0.17323X0.08268*%
%ADD72R,0.28543X0.07874*%
%ADD73R,0.09843X0.15748*%
%ADD74R,0.07874X0.15748*%
%ADD75R,0.15748X0.03937*%
%ADD76R,0.07087X0.07087*%
%ADD77C,0.07087*%
%ADD78C,0.07874*%
%ADD79R,0.07874X0.07874*%
%ADD80R,0.11811X0.11811*%
%ADD81C,0.11811*%
%ADD82O,0.07087X0.06000*%
%ADD83R,0.07874X0.07874*%
%ADD84C,0.05906*%
%ADD85C,0.09843*%
%ADD86C,0.05000*%
G36*
X97441Y498032D02*
Y915354D01*
X235236D01*
Y652124D01*
X234464Y651970D01*
X234173Y652674D01*
X233573Y653455D01*
X227802Y659226D01*
Y702756D01*
X227766Y702940D01*
X227793Y703150D01*
Y797638D01*
X227644Y798768D01*
X227208Y799822D01*
X226514Y800727D01*
X219608Y807632D01*
X218704Y808326D01*
X218395Y808454D01*
X217650Y808763D01*
X216520Y808911D01*
X211770D01*
X211080Y809477D01*
X210054Y810026D01*
X208941Y810363D01*
X207783Y810477D01*
X206626Y810363D01*
X205513Y810026D01*
X204487Y809477D01*
X204486Y809477D01*
X203774Y809813D01*
Y847198D01*
X218307D01*
X219229Y847381D01*
X220010Y847903D01*
X220532Y848685D01*
X220716Y849606D01*
Y875197D01*
X220532Y876118D01*
X220010Y876900D01*
X219229Y877422D01*
X218307Y877605D01*
X198228D01*
X197307Y877422D01*
X196525Y876900D01*
X196003Y876118D01*
X195820Y875197D01*
Y849606D01*
X195832Y849545D01*
Y794165D01*
X190182Y788514D01*
X184473D01*
X183974Y789123D01*
X184101Y789764D01*
Y798819D01*
X184049Y799080D01*
X184312Y799472D01*
X184495Y800394D01*
Y809449D01*
X184312Y810371D01*
X183790Y811152D01*
X183008Y811674D01*
X182087Y811857D01*
X164370D01*
X163448Y811674D01*
X162667Y811152D01*
X162145Y810371D01*
X161962Y809449D01*
Y800394D01*
X162118Y799606D01*
X161962Y798819D01*
Y789764D01*
X162145Y788842D01*
X162667Y788061D01*
X163448Y787539D01*
X164370Y787355D01*
X171804D01*
X172273Y786723D01*
X171963Y785701D01*
X171849Y784543D01*
X171963Y783386D01*
X172301Y782272D01*
X172850Y781247D01*
X173587Y780347D01*
X174087Y779937D01*
Y779150D01*
X173587Y778739D01*
X172850Y777840D01*
X172301Y776814D01*
X171963Y775701D01*
X171899Y775043D01*
X177782D01*
X183668D01*
X183604Y775701D01*
X183266Y776814D01*
X182718Y777840D01*
X181980Y778739D01*
X181480Y779150D01*
Y779937D01*
X181980Y780347D01*
X182164Y780572D01*
X191827D01*
X192854Y780708D01*
X193812Y781104D01*
X194635Y781735D01*
X196856Y783957D01*
X197607Y783858D01*
Y763386D01*
X194791D01*
Y758070D01*
X194292D01*
Y757571D01*
X188779D01*
Y754151D01*
X188651Y754065D01*
X188129Y753284D01*
X187946Y752362D01*
Y736614D01*
X188129Y735693D01*
X188651Y734911D01*
X189433Y734389D01*
X190354Y734206D01*
X190717D01*
Y730221D01*
X189953Y729456D01*
X189810Y729270D01*
X189025Y729219D01*
X186976Y731267D01*
X186236Y731835D01*
X185374Y732192D01*
X184449Y732314D01*
X180024D01*
X178859Y733478D01*
X179161Y734206D01*
X179527D01*
X180449Y734389D01*
X181231Y734911D01*
X181753Y735693D01*
X181936Y736614D01*
Y752362D01*
X181753Y753284D01*
X181231Y754065D01*
X180449Y754587D01*
X180118Y754653D01*
Y757571D01*
X174605D01*
X169095D01*
Y754653D01*
X168763Y754587D01*
X167982Y754065D01*
X167460Y753284D01*
X167277Y752362D01*
Y746877D01*
X166549Y746576D01*
X162170Y750955D01*
X161430Y751523D01*
X160568Y751880D01*
X159643Y752001D01*
X142271D01*
Y752854D01*
X142087Y753776D01*
X141565Y754557D01*
X140784Y755080D01*
X140665Y755331D01*
X141026Y756005D01*
X141386Y757193D01*
X141458Y757928D01*
X135177D01*
Y758928D01*
X141458D01*
X141386Y759662D01*
X141026Y760850D01*
X140441Y761944D01*
X139654Y762903D01*
X139495Y763034D01*
Y763821D01*
X139654Y763952D01*
X140441Y764911D01*
X141026Y766005D01*
X141386Y767193D01*
X141508Y768428D01*
X141386Y769662D01*
X141026Y770850D01*
X140441Y771944D01*
X139654Y772903D01*
X139495Y773034D01*
Y773821D01*
X139654Y773952D01*
X140441Y774911D01*
X141026Y776005D01*
X141386Y777193D01*
X141508Y778428D01*
X141386Y779662D01*
X141026Y780850D01*
X140441Y781944D01*
X139654Y782903D01*
X138695Y783691D01*
X137600Y784275D01*
X136413Y784636D01*
X135178Y784757D01*
X133943Y784636D01*
X132756Y784275D01*
X131661Y783691D01*
X130702Y782903D01*
X130125Y782200D01*
X121538D01*
X120561Y782071D01*
X120561Y782071D01*
X120561Y782071D01*
X119652Y781695D01*
X118870Y781095D01*
X107766Y769990D01*
X107166Y769209D01*
D01*
D01*
X107166D01*
X107166Y769209D01*
D01*
D01*
Y769209D01*
X107166D01*
D01*
Y769209D01*
X107166D01*
X106789Y768299D01*
X106661Y767323D01*
Y696457D01*
X106789Y695480D01*
X107166Y694570D01*
X107766Y693789D01*
X107766Y693789D01*
X107766Y693789D01*
X110915Y690640D01*
X111697Y690040D01*
X112606Y689663D01*
X113583Y689535D01*
X182040D01*
Y688976D01*
X182224Y688055D01*
X182695Y687349D01*
X182370Y686632D01*
X182480Y686647D01*
X182980Y686581D01*
Y671687D01*
X183457Y671750D01*
X184367Y672127D01*
X184980Y672598D01*
X185594Y672127D01*
X186504Y671750D01*
X187480Y671621D01*
X188457Y671750D01*
X188509Y671715D01*
Y647472D01*
X163376Y622338D01*
X162744Y621515D01*
X162348Y620558D01*
X162213Y619530D01*
Y612657D01*
X160154D01*
Y621271D01*
X180288Y641405D01*
X180919Y642227D01*
X181316Y643185D01*
X181451Y644213D01*
Y671160D01*
X182043Y671679D01*
X181980Y671687D01*
Y686581D01*
X181504Y686518D01*
X180594Y686141D01*
X179980Y685670D01*
X179367Y686141D01*
X178457Y686518D01*
X177480Y686647D01*
X176504Y686518D01*
X175594Y686141D01*
X174980Y685670D01*
X174366Y686141D01*
X173457Y686518D01*
X172480Y686647D01*
X171504Y686518D01*
X170594Y686141D01*
X169980Y685670D01*
X169367Y686141D01*
X168457Y686518D01*
X167480Y686647D01*
X166504Y686518D01*
X165594Y686141D01*
X164980Y685670D01*
X164366Y686141D01*
X163457Y686518D01*
X162480Y686647D01*
X161504Y686518D01*
X160594Y686141D01*
X159813Y685541D01*
X159213Y684760D01*
X158836Y683850D01*
X158708Y682874D01*
Y682708D01*
X153347D01*
X152421Y682586D01*
X151917Y682377D01*
X151559Y682229D01*
X150819Y681661D01*
X137315Y668156D01*
X132087D01*
X131165Y667973D01*
X130384Y667451D01*
X129861Y666670D01*
X129678Y665748D01*
Y646850D01*
X129861Y645929D01*
X130384Y645147D01*
X130963Y644760D01*
X130662Y644033D01*
X130118Y644141D01*
X112402D01*
X111480Y643957D01*
X110698Y643435D01*
X110176Y642654D01*
X109993Y641732D01*
Y561024D01*
X110176Y560102D01*
X110698Y559321D01*
X111480Y558799D01*
X112402Y558615D01*
X125984D01*
Y554634D01*
X133859D01*
Y554135D01*
X134358D01*
Y548228D01*
X134403D01*
Y517717D01*
X134586Y516795D01*
X135108Y516013D01*
X135889Y515491D01*
X136811Y515308D01*
X156496D01*
X157418Y515491D01*
X158199Y516013D01*
X158721Y516795D01*
X158905Y517717D01*
Y534993D01*
X173456D01*
X173956Y534384D01*
X173773Y533465D01*
Y517717D01*
X173956Y516795D01*
X174478Y516013D01*
X175259Y515491D01*
X176181Y515308D01*
X192335D01*
X192672Y514596D01*
X191946Y513712D01*
X191270Y512446D01*
X190853Y511073D01*
X190762Y510146D01*
X198030D01*
X205301D01*
X205210Y511073D01*
X204793Y512446D01*
X204117Y513712D01*
X203391Y514596D01*
X203728Y515308D01*
X207102D01*
Y508224D01*
X215369D01*
X223638D01*
Y515350D01*
X224347Y515491D01*
X225128Y516013D01*
X225650Y516795D01*
X225834Y517717D01*
Y533465D01*
X225650Y534386D01*
X225128Y535168D01*
Y535699D01*
X225650Y536480D01*
X225834Y537402D01*
Y548228D01*
X225650Y549150D01*
X225128Y549931D01*
X224347Y550454D01*
X223425Y550637D01*
X200797D01*
X200359Y551292D01*
X200603Y551880D01*
X200705Y552650D01*
X195865D01*
Y553650D01*
X200705D01*
X200603Y554419D01*
X200113Y555602D01*
X199334Y556617D01*
X198318Y557397D01*
X197241Y557843D01*
X197395Y558615D01*
X208071D01*
X223031D01*
X223953Y558799D01*
X224734Y559321D01*
X225257Y560102D01*
X225399Y560155D01*
X225697Y559926D01*
X226880Y559436D01*
X227650Y559335D01*
Y564174D01*
X228149D01*
Y564673D01*
X232988D01*
X232887Y565443D01*
X232397Y566625D01*
X231617Y567641D01*
X231519Y567717D01*
Y568504D01*
X231617Y568579D01*
X232397Y569595D01*
X232887Y570778D01*
X232988Y571547D01*
X228149D01*
Y572547D01*
X232988D01*
X232887Y573316D01*
X232397Y574499D01*
X231617Y575515D01*
X231519Y575591D01*
Y576378D01*
X231617Y576453D01*
X232397Y577469D01*
X232887Y578652D01*
X232988Y579421D01*
X228149D01*
Y580421D01*
X232988D01*
X232887Y581190D01*
X232397Y582373D01*
X231617Y583389D01*
X230602Y584168D01*
X230400Y584252D01*
Y585039D01*
X230602Y585123D01*
X231617Y585902D01*
X232397Y586918D01*
X232887Y588101D01*
X232988Y588870D01*
X228149D01*
Y589369D01*
X227650D01*
Y594208D01*
X226880Y594107D01*
X226095Y593782D01*
X225440Y594219D01*
Y621089D01*
X233573Y629222D01*
X234173Y630003D01*
X234464Y630707D01*
X235236Y630553D01*
Y498032D01*
X97441D01*
D02*
G37*
G36*
X212027Y638476D02*
X212146Y637577D01*
X212686Y636272D01*
X213546Y635152D01*
X214367Y634522D01*
X214163Y633761D01*
X214130Y633757D01*
X213172Y633360D01*
X212350Y632729D01*
X206050Y626430D01*
Y626430D01*
X206050Y626430D01*
Y626430D01*
X206050Y626430D01*
X206050D01*
X206050Y626430D01*
X206050D01*
X205419Y625607D01*
X205303Y625327D01*
X205023Y624650D01*
X204887Y623622D01*
Y611327D01*
X204144Y610717D01*
X204013Y610558D01*
X203226D01*
X203096Y610717D01*
X202136Y611504D01*
X201042Y612089D01*
X199855Y612449D01*
X199120Y612521D01*
Y599961D01*
X199855Y600033D01*
X201042Y600393D01*
X202136Y600978D01*
X203096Y601765D01*
X203226Y601924D01*
X204013D01*
X204144Y601765D01*
X205103Y600978D01*
X206197Y600393D01*
X207385Y600033D01*
X208620Y599911D01*
X209855Y600033D01*
X211042Y600393D01*
X211286Y600524D01*
X211962Y600119D01*
Y597684D01*
X204921D01*
X204000Y597501D01*
X203218Y596979D01*
X202696Y596197D01*
X202513Y595276D01*
Y578581D01*
X190354D01*
Y579528D01*
X174606D01*
X159252D01*
X143898D01*
Y578581D01*
X132527D01*
Y631161D01*
X132955D01*
Y631530D01*
X133631Y631934D01*
X134234Y631612D01*
X135421Y631252D01*
X136156Y631179D01*
Y637461D01*
X137156D01*
Y631179D01*
X137891Y631252D01*
X139078Y631612D01*
X140173Y632197D01*
X140346Y632171D01*
X140620Y631762D01*
X141401Y631239D01*
X142323Y631056D01*
X150984D01*
X151575Y631174D01*
X152165Y631056D01*
X157679D01*
X157981Y630329D01*
X153376Y625724D01*
Y625724D01*
X153376Y625724D01*
Y625724D01*
X153375Y625724D01*
X153376D01*
X153375Y625724D01*
X153376D01*
X152744Y624901D01*
X152628Y624621D01*
X152348Y623944D01*
X152213Y622916D01*
Y612657D01*
X149884D01*
Y600058D01*
X151878D01*
X152180Y599331D01*
X148964Y596115D01*
X148333Y595293D01*
X147936Y594335D01*
X147801Y593307D01*
Y591732D01*
X143898D01*
Y581102D01*
X159252D01*
X174606D01*
X190354D01*
Y591732D01*
X186451D01*
Y592126D01*
X186316Y593154D01*
X185919Y594111D01*
X185288Y594934D01*
X180154Y600068D01*
Y601467D01*
X180659Y601882D01*
X181446Y602841D01*
X181482Y602907D01*
X182269D01*
X182335Y602783D01*
X183123Y601823D01*
X184082Y601036D01*
X185176Y600451D01*
X186364Y600091D01*
X187098Y600019D01*
Y612580D01*
X186364Y612507D01*
X185176Y612147D01*
X184082Y611562D01*
X183123Y610775D01*
X182335Y609816D01*
X182300Y609750D01*
X181513D01*
X181446Y609874D01*
X180659Y610833D01*
X180154Y611247D01*
Y621586D01*
X200288Y641720D01*
X200919Y642542D01*
X201316Y643500D01*
X201451Y644527D01*
Y648400D01*
X202179Y648701D01*
X204875Y646005D01*
Y644488D01*
X205058Y643567D01*
X205580Y642785D01*
X206362Y642263D01*
X207283Y642080D01*
X212143D01*
X212580Y641425D01*
X212146Y640376D01*
X212027Y639476D01*
X217914D01*
Y638476D01*
X212027D01*
D02*
G37*
G36*
X113583Y700394D02*
Y716142D01*
X116339D01*
X130512Y701968D01*
X113583Y700394D01*
D02*
G37*
%LPC*%
G36*
X139461Y787288D02*
Y791626D01*
X135122D01*
X135224Y790857D01*
X135714Y789674D01*
X136493Y788658D01*
X137508Y787879D01*
X138691Y787389D01*
X139461Y787288D01*
D02*
G37*
G36*
Y802248D02*
Y806587D01*
X135122D01*
X135224Y805817D01*
X135714Y804635D01*
X136493Y803619D01*
X137508Y802839D01*
X138691Y802350D01*
X139461Y802248D01*
D02*
G37*
G36*
Y792626D02*
Y796964D01*
X138691Y796863D01*
X137508Y796373D01*
X136493Y795594D01*
X135714Y794578D01*
X135224Y793395D01*
X135122Y792626D01*
X139461D01*
D02*
G37*
G36*
X144799D02*
X144698Y793395D01*
X144208Y794578D01*
X143428Y795594D01*
X142413Y796373D01*
X141230Y796863D01*
X140461Y796964D01*
Y792626D01*
X144799D01*
D02*
G37*
G36*
Y806587D02*
X140461D01*
Y802248D01*
X141230Y802350D01*
X142413Y802839D01*
X143428Y803619D01*
X144208Y804635D01*
X144698Y805817D01*
X144799Y806587D01*
D02*
G37*
G36*
Y807587D02*
X144698Y808356D01*
X144208Y809539D01*
X143428Y810554D01*
X142413Y811334D01*
X141230Y811824D01*
X140461Y811925D01*
Y807587D01*
X144799D01*
D02*
G37*
G36*
X133358Y548228D02*
Y553634D01*
X125984D01*
Y548228D01*
X133358D01*
D02*
G37*
G36*
X130012Y857105D02*
Y862886D01*
X124231D01*
X124304Y862151D01*
X124664Y860964D01*
X125249Y859869D01*
X126036Y858910D01*
X126995Y858123D01*
X128089Y857538D01*
X129277Y857178D01*
X130012Y857105D01*
D02*
G37*
G36*
Y863886D02*
Y869666D01*
X129277Y869594D01*
X128089Y869234D01*
X126995Y868649D01*
X126036Y867862D01*
X125249Y866902D01*
X124664Y865808D01*
X124304Y864621D01*
X124231Y863886D01*
X130012D01*
D02*
G37*
G36*
X139461Y807587D02*
Y811925D01*
X138691Y811824D01*
X137508Y811334D01*
X136493Y810554D01*
X135714Y809539D01*
X135224Y808356D01*
X135122Y807587D01*
X139461D01*
D02*
G37*
G36*
X136792Y862886D02*
X131012D01*
Y857105D01*
X131747Y857178D01*
X132934Y857538D01*
X134028Y858123D01*
X134988Y858910D01*
X135775Y859869D01*
X136360Y860964D01*
X136720Y862151D01*
X136792Y862886D01*
D02*
G37*
G36*
Y863886D02*
X136720Y864621D01*
X136360Y865808D01*
X135775Y866902D01*
X134988Y867862D01*
X134028Y868649D01*
X132934Y869234D01*
X131747Y869594D01*
X131012Y869666D01*
Y863886D01*
X136792D01*
D02*
G37*
G36*
X214870Y499457D02*
Y507224D01*
X207102D01*
Y499457D01*
X214870D01*
D02*
G37*
G36*
X205301Y509146D02*
X198531D01*
Y502376D01*
X199459Y502468D01*
X200832Y502884D01*
X202098Y503560D01*
X203207Y504471D01*
X204117Y505580D01*
X204793Y506845D01*
X205210Y508218D01*
X205301Y509146D01*
D02*
G37*
G36*
X197531Y502376D02*
Y509146D01*
X190762D01*
X190853Y508218D01*
X191270Y506845D01*
X191946Y505580D01*
X192856Y504471D01*
X193965Y503560D01*
X195231Y502884D01*
X196604Y502468D01*
X197531Y502376D01*
D02*
G37*
G36*
X232988Y563673D02*
X228650D01*
Y559335D01*
X229419Y559436D01*
X230602Y559926D01*
X231617Y560706D01*
X232397Y561721D01*
X232887Y562904D01*
X232988Y563673D01*
D02*
G37*
G36*
Y589870D02*
X232887Y590639D01*
X232397Y591822D01*
X231617Y592838D01*
X230602Y593617D01*
X229419Y594107D01*
X228650Y594208D01*
Y589870D01*
X232988D01*
D02*
G37*
G36*
X223638Y499457D02*
Y507224D01*
X215870D01*
Y499457D01*
X223638D01*
D02*
G37*
G36*
X193791Y758571D02*
Y763386D01*
X188779D01*
Y758571D01*
X193791D01*
D02*
G37*
G36*
X177283Y768658D02*
Y774043D01*
X171899D01*
X171963Y773386D01*
X172301Y772272D01*
X172850Y771246D01*
X173587Y770347D01*
X174487Y769609D01*
X175513Y769061D01*
X176626Y768723D01*
X177283Y768658D01*
D02*
G37*
G36*
X174106Y758571D02*
Y763386D01*
X169095D01*
Y758571D01*
X174106D01*
D02*
G37*
G36*
X144799Y791626D02*
X140461D01*
Y787288D01*
X141230Y787389D01*
X142413Y787879D01*
X143428Y788658D01*
X144208Y789674D01*
X144698Y790857D01*
X144799Y791626D01*
D02*
G37*
G36*
X198120Y599961D02*
Y612521D01*
X197385Y612449D01*
X196197Y612089D01*
X195103Y611504D01*
X194144Y610717D01*
X193829Y610333D01*
X193140Y609965D01*
X192739D01*
X192074Y610775D01*
X191115Y611562D01*
X190021Y612147D01*
X188833Y612507D01*
X188098Y612580D01*
Y600019D01*
X188833Y600091D01*
X190021Y600451D01*
X191115Y601036D01*
X192074Y601823D01*
X192861Y602783D01*
X193326D01*
X193357Y602724D01*
X194144Y601765D01*
X195103Y600978D01*
X196197Y600393D01*
X197385Y600033D01*
X198120Y599961D01*
D02*
G37*
G36*
X183668Y774043D02*
X178283D01*
Y768658D01*
X178941Y768723D01*
X180054Y769061D01*
X181080Y769609D01*
X181980Y770347D01*
X182718Y771246D01*
X183266Y772272D01*
X183604Y773386D01*
X183668Y774043D01*
D02*
G37*
G36*
X180118Y758571D02*
Y763386D01*
X175106D01*
Y758571D01*
X180118D01*
D02*
G37*
%LPD*%
G36*
X245079Y498032D02*
Y915354D01*
X382874D01*
Y652124D01*
X382102Y651970D01*
X381810Y652674D01*
X381211Y653455D01*
X375440Y659226D01*
Y702756D01*
X375403Y702940D01*
X375431Y703150D01*
Y797638D01*
X375282Y798768D01*
X374846Y799822D01*
X374152Y800727D01*
X367246Y807632D01*
X366341Y808326D01*
X366033Y808454D01*
X365288Y808763D01*
X364158Y808911D01*
X359408D01*
X358718Y809477D01*
X357692Y810026D01*
X356579Y810363D01*
X355421Y810477D01*
X354264Y810363D01*
X353150Y810026D01*
X352124Y809477D01*
X352124Y809477D01*
X351412Y809813D01*
Y847198D01*
X365945D01*
X366867Y847381D01*
X367648Y847903D01*
X368170Y848685D01*
X368353Y849606D01*
Y875197D01*
X368170Y876118D01*
X367648Y876900D01*
X366867Y877422D01*
X365945Y877605D01*
X345866D01*
X344945Y877422D01*
X344163Y876900D01*
X343641Y876118D01*
X343458Y875197D01*
Y849606D01*
X343470Y849545D01*
Y794165D01*
X337820Y788514D01*
X332111D01*
X331612Y789123D01*
X331739Y789764D01*
Y798819D01*
X331687Y799080D01*
X331949Y799472D01*
X332133Y800394D01*
Y809449D01*
X331949Y810371D01*
X331427Y811152D01*
X330646Y811674D01*
X329724Y811857D01*
X312008D01*
X311086Y811674D01*
X310305Y811152D01*
X309783Y810371D01*
X309599Y809449D01*
Y800394D01*
X309756Y799606D01*
X309599Y798819D01*
Y789764D01*
X309783Y788842D01*
X310305Y788061D01*
X311086Y787539D01*
X312008Y787355D01*
X319442D01*
X319911Y786723D01*
X319601Y785701D01*
X319487Y784543D01*
X319601Y783386D01*
X319939Y782272D01*
X320487Y781247D01*
X321225Y780347D01*
X321725Y779937D01*
Y779150D01*
X321225Y778739D01*
X320487Y777840D01*
X319939Y776814D01*
X319601Y775701D01*
X319536Y775043D01*
X325420D01*
X331306D01*
X331241Y775701D01*
X330904Y776814D01*
X330355Y777840D01*
X329617Y778739D01*
X329117Y779150D01*
Y779937D01*
X329617Y780347D01*
X329802Y780572D01*
X339465D01*
X340492Y780708D01*
X341450Y781104D01*
X342272Y781735D01*
X344494Y783957D01*
X345245Y783858D01*
Y763386D01*
X342429D01*
Y758070D01*
X341930D01*
Y757571D01*
X336417D01*
Y754151D01*
X336289Y754065D01*
X335767Y753284D01*
X335584Y752362D01*
Y736614D01*
X335767Y735693D01*
X336289Y734911D01*
X337070Y734389D01*
X337992Y734206D01*
X338355D01*
Y730221D01*
X337591Y729456D01*
X337448Y729270D01*
X336662Y729219D01*
X334614Y731267D01*
X333874Y731835D01*
X333012Y732192D01*
X332087Y732314D01*
X327661D01*
X326497Y733478D01*
X326799Y734206D01*
X327165D01*
X328087Y734389D01*
X328868Y734911D01*
X329391Y735693D01*
X329574Y736614D01*
Y752362D01*
X329391Y753284D01*
X328868Y754065D01*
X328087Y754587D01*
X327756Y754653D01*
Y757571D01*
X322243D01*
X316732D01*
Y754653D01*
X316401Y754587D01*
X315620Y754065D01*
X315098Y753284D01*
X314914Y752362D01*
Y746877D01*
X314187Y746576D01*
X309808Y750955D01*
X309068Y751523D01*
X308206Y751880D01*
X307281Y752001D01*
X289909D01*
Y752854D01*
X289725Y753776D01*
X289203Y754557D01*
X288422Y755080D01*
X288303Y755331D01*
X288664Y756005D01*
X289024Y757193D01*
X289096Y757928D01*
X282815D01*
Y758928D01*
X289096D01*
X289024Y759662D01*
X288664Y760850D01*
X288079Y761944D01*
X287292Y762903D01*
X287133Y763034D01*
Y763821D01*
X287292Y763952D01*
X288079Y764911D01*
X288664Y766005D01*
X289024Y767193D01*
X289145Y768428D01*
X289024Y769662D01*
X288664Y770850D01*
X288079Y771944D01*
X287292Y772903D01*
X287133Y773034D01*
Y773821D01*
X287292Y773952D01*
X288079Y774911D01*
X288664Y776005D01*
X289024Y777193D01*
X289145Y778428D01*
X289024Y779662D01*
X288664Y780850D01*
X288079Y781944D01*
X287292Y782903D01*
X286332Y783691D01*
X285238Y784275D01*
X284051Y784636D01*
X282816Y784757D01*
X281581Y784636D01*
X280394Y784275D01*
X279299Y783691D01*
X278340Y782903D01*
X277763Y782200D01*
X269176D01*
X268199Y782071D01*
X268199Y782071D01*
X268199Y782071D01*
X267289Y781695D01*
X266508Y781095D01*
X255403Y769990D01*
X254804Y769209D01*
D01*
D01*
X254804D01*
X254804Y769209D01*
D01*
D01*
Y769209D01*
X254804D01*
D01*
Y769209D01*
X254804D01*
X254427Y768299D01*
X254298Y767323D01*
Y696457D01*
X254427Y695480D01*
X254804Y694570D01*
X255403Y693789D01*
X255403Y693789D01*
X255403Y693789D01*
X258553Y690640D01*
X259334Y690040D01*
X260244Y689663D01*
X261221Y689535D01*
X329678D01*
Y688976D01*
X329861Y688055D01*
X330333Y687349D01*
X330008Y686632D01*
X330118Y686647D01*
X330618Y686581D01*
Y671687D01*
X331095Y671750D01*
X332004Y672127D01*
X332618Y672598D01*
X333232Y672127D01*
X334142Y671750D01*
X335118Y671621D01*
X336094Y671750D01*
X336147Y671715D01*
Y647472D01*
X311013Y622338D01*
X310382Y621515D01*
X309986Y620558D01*
X309850Y619530D01*
Y612657D01*
X307792D01*
Y621271D01*
X327926Y641405D01*
X328557Y642227D01*
X328954Y643185D01*
X329089Y644213D01*
Y671160D01*
X329681Y671679D01*
X329618Y671687D01*
Y686581D01*
X329142Y686518D01*
X328232Y686141D01*
X327618Y685670D01*
X327004Y686141D01*
X326095Y686518D01*
X325118Y686647D01*
X324142Y686518D01*
X323232Y686141D01*
X322618Y685670D01*
X322004Y686141D01*
X321094Y686518D01*
X320118Y686647D01*
X319142Y686518D01*
X318232Y686141D01*
X317618Y685670D01*
X317004Y686141D01*
X316094Y686518D01*
X315118Y686647D01*
X314142Y686518D01*
X313232Y686141D01*
X312618Y685670D01*
X312004Y686141D01*
X311094Y686518D01*
X310118Y686647D01*
X309142Y686518D01*
X308232Y686141D01*
X307451Y685541D01*
X306851Y684760D01*
X306474Y683850D01*
X306346Y682874D01*
Y682708D01*
X300984D01*
X300059Y682586D01*
X299554Y682377D01*
X299197Y682229D01*
X298457Y681661D01*
X284953Y668156D01*
X279724D01*
X278803Y667973D01*
X278021Y667451D01*
X277499Y666670D01*
X277316Y665748D01*
Y646850D01*
X277499Y645929D01*
X278021Y645147D01*
X278601Y644760D01*
X278300Y644033D01*
X277756Y644141D01*
X260039D01*
X259118Y643957D01*
X258336Y643435D01*
X257814Y642654D01*
X257631Y641732D01*
Y561024D01*
X257814Y560102D01*
X258336Y559321D01*
X259118Y558799D01*
X260039Y558615D01*
X273622D01*
Y554634D01*
X281497D01*
Y554135D01*
X281996D01*
Y548228D01*
X282040D01*
Y517717D01*
X282224Y516795D01*
X282746Y516013D01*
X283527Y515491D01*
X284449Y515308D01*
X304134D01*
X305055Y515491D01*
X305837Y516013D01*
X306359Y516795D01*
X306542Y517717D01*
Y534993D01*
X321094D01*
X321593Y534384D01*
X321410Y533465D01*
Y517717D01*
X321594Y516795D01*
X322116Y516013D01*
X322897Y515491D01*
X323819Y515308D01*
X339973D01*
X340310Y514596D01*
X339584Y513712D01*
X338908Y512446D01*
X338491Y511073D01*
X338400Y510146D01*
X345668D01*
X352939D01*
X352847Y511073D01*
X352431Y512446D01*
X351755Y513712D01*
X351029Y514596D01*
X351365Y515308D01*
X354740D01*
Y508224D01*
X363007D01*
X371276D01*
Y515350D01*
X371985Y515491D01*
X372766Y516013D01*
X373288Y516795D01*
X373471Y517717D01*
Y533465D01*
X373288Y534386D01*
X372766Y535168D01*
Y535699D01*
X373288Y536480D01*
X373471Y537402D01*
Y548228D01*
X373288Y549150D01*
X372766Y549931D01*
X371985Y550454D01*
X371063Y550637D01*
X348435D01*
X347997Y551292D01*
X348241Y551880D01*
X348342Y552650D01*
X343503D01*
Y553650D01*
X348342D01*
X348241Y554419D01*
X347751Y555602D01*
X346972Y556617D01*
X345956Y557397D01*
X344879Y557843D01*
X345033Y558615D01*
X355709D01*
X370669D01*
X371591Y558799D01*
X372372Y559321D01*
X372894Y560102D01*
X373037Y560155D01*
X373335Y559926D01*
X374518Y559436D01*
X375287Y559335D01*
Y564174D01*
X375786D01*
Y564673D01*
X380626D01*
X380524Y565443D01*
X380034Y566625D01*
X379255Y567641D01*
X379157Y567717D01*
Y568504D01*
X379255Y568579D01*
X380034Y569595D01*
X380524Y570778D01*
X380626Y571547D01*
X375786D01*
Y572547D01*
X380626D01*
X380524Y573316D01*
X380034Y574499D01*
X379255Y575515D01*
X379157Y575591D01*
Y576378D01*
X379255Y576453D01*
X380034Y577469D01*
X380524Y578652D01*
X380626Y579421D01*
X375786D01*
Y580421D01*
X380626D01*
X380524Y581190D01*
X380034Y582373D01*
X379255Y583389D01*
X378239Y584168D01*
X378038Y584252D01*
Y585039D01*
X378239Y585123D01*
X379255Y585902D01*
X380034Y586918D01*
X380524Y588101D01*
X380626Y588870D01*
X375786D01*
Y589369D01*
X375287D01*
Y594208D01*
X374518Y594107D01*
X373732Y593782D01*
X373078Y594219D01*
Y621089D01*
X381211Y629222D01*
X381810Y630003D01*
X382102Y630707D01*
X382874Y630553D01*
Y498032D01*
X245079D01*
D02*
G37*
G36*
X359665Y638476D02*
X359784Y637577D01*
X360324Y636272D01*
X361184Y635152D01*
X362005Y634522D01*
X361801Y633761D01*
X361768Y633757D01*
X360810Y633360D01*
X359987Y632729D01*
X353688Y626430D01*
Y626430D01*
X353688Y626430D01*
Y626430D01*
X353688Y626430D01*
X353688D01*
X353688Y626430D01*
X353688D01*
X353057Y625607D01*
X352941Y625327D01*
X352660Y624650D01*
X352525Y623622D01*
Y611327D01*
X351782Y610717D01*
X351651Y610558D01*
X350864D01*
X350733Y610717D01*
X349774Y611504D01*
X348680Y612089D01*
X347492Y612449D01*
X346758Y612521D01*
Y599961D01*
X347492Y600033D01*
X348680Y600393D01*
X349774Y600978D01*
X350733Y601765D01*
X350864Y601924D01*
X351651D01*
X351782Y601765D01*
X352741Y600978D01*
X353835Y600393D01*
X355023Y600033D01*
X356258Y599911D01*
X357492Y600033D01*
X358680Y600393D01*
X358924Y600524D01*
X359599Y600119D01*
Y597684D01*
X352559D01*
X351637Y597501D01*
X350856Y596979D01*
X350334Y596197D01*
X350151Y595276D01*
Y578581D01*
X337992D01*
Y579528D01*
X322244D01*
X306890D01*
X291535D01*
Y578581D01*
X280164D01*
Y631161D01*
X280593D01*
Y631530D01*
X281268Y631934D01*
X281871Y631612D01*
X283059Y631252D01*
X283794Y631179D01*
Y637461D01*
X284794D01*
Y631179D01*
X285529Y631252D01*
X286716Y631612D01*
X287810Y632197D01*
X287984Y632171D01*
X288258Y631762D01*
X289039Y631239D01*
X289961Y631056D01*
X298622D01*
X299213Y631174D01*
X299803Y631056D01*
X305317D01*
X305618Y630329D01*
X301013Y625724D01*
Y625724D01*
X301013Y625724D01*
Y625724D01*
X301013Y625724D01*
X301013D01*
X301013Y625724D01*
X301013D01*
X300382Y624901D01*
X300266Y624621D01*
X299986Y623944D01*
X299850Y622916D01*
Y612657D01*
X297522D01*
Y600058D01*
X299516D01*
X299817Y599331D01*
X296602Y596115D01*
X295971Y595293D01*
X295574Y594335D01*
X295439Y593307D01*
Y591732D01*
X291535D01*
Y581102D01*
X306890D01*
X322244D01*
X337992D01*
Y591732D01*
X334089D01*
Y592126D01*
X333954Y593154D01*
X333557Y594111D01*
X332926Y594934D01*
X327792Y600068D01*
Y601467D01*
X328297Y601882D01*
X329084Y602841D01*
X329119Y602907D01*
X329907D01*
X329973Y602783D01*
X330760Y601823D01*
X331720Y601036D01*
X332814Y600451D01*
X334001Y600091D01*
X334736Y600019D01*
Y612580D01*
X334001Y612507D01*
X332814Y612147D01*
X331720Y611562D01*
X330760Y610775D01*
X329973Y609816D01*
X329938Y609750D01*
X329151D01*
X329084Y609874D01*
X328297Y610833D01*
X327792Y611247D01*
Y621586D01*
X347926Y641720D01*
X348557Y642542D01*
X348954Y643500D01*
X349089Y644527D01*
Y648400D01*
X349816Y648701D01*
X352513Y646005D01*
Y644488D01*
X352696Y643567D01*
X353218Y642785D01*
X354000Y642263D01*
X354921Y642080D01*
X359781D01*
X360218Y641425D01*
X359784Y640376D01*
X359665Y639476D01*
X365552D01*
Y638476D01*
X359665D01*
D02*
G37*
G36*
X261221Y700394D02*
Y716142D01*
X263976D01*
X278150Y701968D01*
X261221Y700394D01*
D02*
G37*
%LPC*%
G36*
X287098Y787288D02*
Y791626D01*
X282760D01*
X282861Y790857D01*
X283351Y789674D01*
X284131Y788658D01*
X285146Y787879D01*
X286329Y787389D01*
X287098Y787288D01*
D02*
G37*
G36*
Y802248D02*
Y806587D01*
X282760D01*
X282861Y805817D01*
X283351Y804635D01*
X284131Y803619D01*
X285146Y802839D01*
X286329Y802350D01*
X287098Y802248D01*
D02*
G37*
G36*
Y792626D02*
Y796964D01*
X286329Y796863D01*
X285146Y796373D01*
X284131Y795594D01*
X283351Y794578D01*
X282861Y793395D01*
X282760Y792626D01*
X287098D01*
D02*
G37*
G36*
X292437D02*
X292336Y793395D01*
X291845Y794578D01*
X291066Y795594D01*
X290051Y796373D01*
X288868Y796863D01*
X288098Y796964D01*
Y792626D01*
X292437D01*
D02*
G37*
G36*
Y806587D02*
X288098D01*
Y802248D01*
X288868Y802350D01*
X290051Y802839D01*
X291066Y803619D01*
X291845Y804635D01*
X292336Y805817D01*
X292437Y806587D01*
D02*
G37*
G36*
Y807587D02*
X292336Y808356D01*
X291845Y809539D01*
X291066Y810554D01*
X290051Y811334D01*
X288868Y811824D01*
X288098Y811925D01*
Y807587D01*
X292437D01*
D02*
G37*
G36*
X280996Y548228D02*
Y553634D01*
X273622D01*
Y548228D01*
X280996D01*
D02*
G37*
G36*
X277650Y857105D02*
Y862886D01*
X271869D01*
X271941Y862151D01*
X272302Y860964D01*
X272887Y859869D01*
X273674Y858910D01*
X274633Y858123D01*
X275727Y857538D01*
X276915Y857178D01*
X277650Y857105D01*
D02*
G37*
G36*
Y863886D02*
Y869666D01*
X276915Y869594D01*
X275727Y869234D01*
X274633Y868649D01*
X273674Y867862D01*
X272887Y866902D01*
X272302Y865808D01*
X271941Y864621D01*
X271869Y863886D01*
X277650D01*
D02*
G37*
G36*
X287098Y807587D02*
Y811925D01*
X286329Y811824D01*
X285146Y811334D01*
X284131Y810554D01*
X283351Y809539D01*
X282861Y808356D01*
X282760Y807587D01*
X287098D01*
D02*
G37*
G36*
X284430Y862886D02*
X278650D01*
Y857105D01*
X279384Y857178D01*
X280572Y857538D01*
X281666Y858123D01*
X282625Y858910D01*
X283413Y859869D01*
X283998Y860964D01*
X284358Y862151D01*
X284430Y862886D01*
D02*
G37*
G36*
Y863886D02*
X284358Y864621D01*
X283998Y865808D01*
X283413Y866902D01*
X282625Y867862D01*
X281666Y868649D01*
X280572Y869234D01*
X279384Y869594D01*
X278650Y869666D01*
Y863886D01*
X284430D01*
D02*
G37*
G36*
X362508Y499457D02*
Y507224D01*
X354740D01*
Y499457D01*
X362508D01*
D02*
G37*
G36*
X352939Y509146D02*
X346169D01*
Y502376D01*
X347097Y502468D01*
X348470Y502884D01*
X349735Y503560D01*
X350844Y504471D01*
X351755Y505580D01*
X352431Y506845D01*
X352847Y508218D01*
X352939Y509146D01*
D02*
G37*
G36*
X345169Y502376D02*
Y509146D01*
X338400D01*
X338491Y508218D01*
X338908Y506845D01*
X339584Y505580D01*
X340494Y504471D01*
X341603Y503560D01*
X342869Y502884D01*
X344241Y502468D01*
X345169Y502376D01*
D02*
G37*
G36*
X380626Y563673D02*
X376287D01*
Y559335D01*
X377057Y559436D01*
X378239Y559926D01*
X379255Y560706D01*
X380034Y561721D01*
X380524Y562904D01*
X380626Y563673D01*
D02*
G37*
G36*
Y589870D02*
X380524Y590639D01*
X380034Y591822D01*
X379255Y592838D01*
X378239Y593617D01*
X377057Y594107D01*
X376287Y594208D01*
Y589870D01*
X380626D01*
D02*
G37*
G36*
X371276Y499457D02*
Y507224D01*
X363508D01*
Y499457D01*
X371276D01*
D02*
G37*
G36*
X341429Y758571D02*
Y763386D01*
X336417D01*
Y758571D01*
X341429D01*
D02*
G37*
G36*
X324921Y768658D02*
Y774043D01*
X319536D01*
X319601Y773386D01*
X319939Y772272D01*
X320487Y771246D01*
X321225Y770347D01*
X322124Y769609D01*
X323150Y769061D01*
X324264Y768723D01*
X324921Y768658D01*
D02*
G37*
G36*
X321744Y758571D02*
Y763386D01*
X316732D01*
Y758571D01*
X321744D01*
D02*
G37*
G36*
X292437Y791626D02*
X288098D01*
Y787288D01*
X288868Y787389D01*
X290051Y787879D01*
X291066Y788658D01*
X291845Y789674D01*
X292336Y790857D01*
X292437Y791626D01*
D02*
G37*
G36*
X345758Y599961D02*
Y612521D01*
X345023Y612449D01*
X343835Y612089D01*
X342741Y611504D01*
X341782Y610717D01*
X341467Y610333D01*
X340777Y609965D01*
X340377D01*
X339712Y610775D01*
X338753Y611562D01*
X337659Y612147D01*
X336471Y612507D01*
X335736Y612580D01*
Y600019D01*
X336471Y600091D01*
X337659Y600451D01*
X338753Y601036D01*
X339712Y601823D01*
X340499Y602783D01*
X340963D01*
X340995Y602724D01*
X341782Y601765D01*
X342741Y600978D01*
X343835Y600393D01*
X345023Y600033D01*
X345758Y599961D01*
D02*
G37*
G36*
X331306Y774043D02*
X325921D01*
Y768658D01*
X326579Y768723D01*
X327692Y769061D01*
X328718Y769609D01*
X329617Y770347D01*
X330355Y771246D01*
X330904Y772272D01*
X331241Y773386D01*
X331306Y774043D01*
D02*
G37*
G36*
X327756Y758571D02*
Y763386D01*
X322744D01*
Y758571D01*
X327756D01*
D02*
G37*
%LPD*%
G36*
X392717Y498032D02*
Y915354D01*
X530512D01*
Y652124D01*
X529740Y651970D01*
X529448Y652674D01*
X528849Y653455D01*
X523078Y659226D01*
Y702756D01*
X523041Y702940D01*
X523069Y703150D01*
Y797638D01*
X522920Y798768D01*
X522484Y799822D01*
X521790Y800727D01*
X514884Y807632D01*
X513979Y808326D01*
X513671Y808454D01*
X512926Y808763D01*
X511795Y808911D01*
X507045D01*
X506356Y809477D01*
X505330Y810026D01*
X504217Y810363D01*
X503059Y810477D01*
X501901Y810363D01*
X500788Y810026D01*
X499762Y809477D01*
X499761Y809477D01*
X499050Y809813D01*
Y847198D01*
X513583D01*
X514504Y847381D01*
X515286Y847903D01*
X515808Y848685D01*
X515991Y849606D01*
Y875197D01*
X515808Y876118D01*
X515286Y876900D01*
X514504Y877422D01*
X513583Y877605D01*
X493504D01*
X492582Y877422D01*
X491801Y876900D01*
X491279Y876118D01*
X491095Y875197D01*
Y849606D01*
X491108Y849545D01*
Y794165D01*
X485458Y788514D01*
X479749D01*
X479249Y789123D01*
X479377Y789764D01*
Y798819D01*
X479325Y799080D01*
X479587Y799472D01*
X479771Y800394D01*
Y809449D01*
X479587Y810371D01*
X479065Y811152D01*
X478284Y811674D01*
X477362Y811857D01*
X459646D01*
X458724Y811674D01*
X457943Y811152D01*
X457420Y810371D01*
X457237Y809449D01*
Y800394D01*
X457394Y799606D01*
X457237Y798819D01*
Y789764D01*
X457420Y788842D01*
X457943Y788061D01*
X458724Y787539D01*
X459646Y787355D01*
X467080D01*
X467549Y786723D01*
X467239Y785701D01*
X467125Y784543D01*
X467239Y783386D01*
X467577Y782272D01*
X468125Y781247D01*
X468863Y780347D01*
X469363Y779937D01*
Y779150D01*
X468863Y778739D01*
X468125Y777840D01*
X467577Y776814D01*
X467239Y775701D01*
X467174Y775043D01*
X473058D01*
X478944D01*
X478879Y775701D01*
X478541Y776814D01*
X477993Y777840D01*
X477255Y778739D01*
X476755Y779150D01*
Y779937D01*
X477255Y780347D01*
X477440Y780572D01*
X487102D01*
X488130Y780708D01*
X489088Y781104D01*
X489910Y781735D01*
X492132Y783957D01*
X492883Y783858D01*
Y763386D01*
X490067D01*
Y758070D01*
X489568D01*
Y757571D01*
X484055D01*
Y754151D01*
X483927Y754065D01*
X483405Y753284D01*
X483221Y752362D01*
Y736614D01*
X483405Y735693D01*
X483927Y734911D01*
X484708Y734389D01*
X485630Y734206D01*
X485993D01*
Y730221D01*
X485229Y729456D01*
X485086Y729270D01*
X484300Y729219D01*
X482252Y731267D01*
X481511Y731835D01*
X480649Y732192D01*
X479724Y732314D01*
X475299D01*
X474135Y733478D01*
X474436Y734206D01*
X474803D01*
X475725Y734389D01*
X476506Y734911D01*
X477028Y735693D01*
X477212Y736614D01*
Y752362D01*
X477028Y753284D01*
X476506Y754065D01*
X475725Y754587D01*
X475394Y754653D01*
Y757571D01*
X469881D01*
X464370D01*
Y754653D01*
X464039Y754587D01*
X463258Y754065D01*
X462736Y753284D01*
X462552Y752362D01*
Y746877D01*
X461825Y746576D01*
X457446Y750955D01*
X456706Y751523D01*
X455844Y751880D01*
X454919Y752001D01*
X437546D01*
Y752854D01*
X437363Y753776D01*
X436841Y754557D01*
X436060Y755080D01*
X435941Y755331D01*
X436301Y756005D01*
X436662Y757193D01*
X436734Y757928D01*
X430452D01*
Y758928D01*
X436734D01*
X436662Y759662D01*
X436301Y760850D01*
X435716Y761944D01*
X434929Y762903D01*
X434770Y763034D01*
Y763821D01*
X434929Y763952D01*
X435716Y764911D01*
X436301Y766005D01*
X436662Y767193D01*
X436783Y768428D01*
X436662Y769662D01*
X436301Y770850D01*
X435716Y771944D01*
X434929Y772903D01*
X434770Y773034D01*
Y773821D01*
X434929Y773952D01*
X435716Y774911D01*
X436301Y776005D01*
X436662Y777193D01*
X436783Y778428D01*
X436662Y779662D01*
X436301Y780850D01*
X435716Y781944D01*
X434929Y782903D01*
X433970Y783691D01*
X432876Y784275D01*
X431688Y784636D01*
X430453Y784757D01*
X429219Y784636D01*
X428031Y784275D01*
X426937Y783691D01*
X425978Y782903D01*
X425400Y782200D01*
X416813D01*
X415837Y782071D01*
X415837Y782071D01*
X415837Y782071D01*
X414927Y781695D01*
X414146Y781095D01*
X403041Y769990D01*
X402442Y769209D01*
D01*
D01*
X402442D01*
X402442Y769209D01*
D01*
D01*
Y769209D01*
X402442D01*
D01*
Y769209D01*
X402442D01*
X402065Y768299D01*
X401936Y767323D01*
Y696457D01*
X402065Y695480D01*
X402442Y694570D01*
X403041Y693789D01*
X403041Y693789D01*
X403041Y693789D01*
X406191Y690640D01*
X406972Y690040D01*
X407882Y689663D01*
X408858Y689535D01*
X477316D01*
Y688976D01*
X477499Y688055D01*
X477971Y687349D01*
X477646Y686632D01*
X477756Y686647D01*
X478256Y686581D01*
Y671687D01*
X478732Y671750D01*
X479642Y672127D01*
X480256Y672598D01*
X480870Y672127D01*
X481779Y671750D01*
X482756Y671621D01*
X483732Y671750D01*
X483785Y671715D01*
Y647472D01*
X458651Y622338D01*
X458020Y621515D01*
X457623Y620558D01*
X457488Y619530D01*
Y612657D01*
X455430D01*
Y621271D01*
X475564Y641405D01*
X476195Y642227D01*
X476592Y643185D01*
X476727Y644213D01*
Y671160D01*
X477319Y671679D01*
X477256Y671687D01*
Y686581D01*
X476780Y686518D01*
X475870Y686141D01*
X475256Y685670D01*
X474642Y686141D01*
X473732Y686518D01*
X472756Y686647D01*
X471779Y686518D01*
X470870Y686141D01*
X470256Y685670D01*
X469642Y686141D01*
X468732Y686518D01*
X467756Y686647D01*
X466780Y686518D01*
X465870Y686141D01*
X465256Y685670D01*
X464642Y686141D01*
X463732Y686518D01*
X462756Y686647D01*
X461779Y686518D01*
X460870Y686141D01*
X460256Y685670D01*
X459642Y686141D01*
X458732Y686518D01*
X457756Y686647D01*
X456779Y686518D01*
X455870Y686141D01*
X455088Y685541D01*
X454489Y684760D01*
X454112Y683850D01*
X453983Y682874D01*
Y682708D01*
X448622D01*
X447697Y682586D01*
X447192Y682377D01*
X446835Y682229D01*
X446095Y681661D01*
X432590Y668156D01*
X427362D01*
X426440Y667973D01*
X425659Y667451D01*
X425137Y666670D01*
X424954Y665748D01*
Y646850D01*
X425137Y645929D01*
X425659Y645147D01*
X426239Y644760D01*
X425937Y644033D01*
X425394Y644141D01*
X407677D01*
X406755Y643957D01*
X405974Y643435D01*
X405452Y642654D01*
X405269Y641732D01*
Y561024D01*
X405452Y560102D01*
X405974Y559321D01*
X406755Y558799D01*
X407677Y558615D01*
X421260D01*
Y554634D01*
X429135D01*
Y554135D01*
X429634D01*
Y548228D01*
X429678D01*
Y517717D01*
X429861Y516795D01*
X430384Y516013D01*
X431165Y515491D01*
X432087Y515308D01*
X451772D01*
X452693Y515491D01*
X453475Y516013D01*
X453997Y516795D01*
X454180Y517717D01*
Y534993D01*
X468732D01*
X469231Y534384D01*
X469048Y533465D01*
Y517717D01*
X469232Y516795D01*
X469754Y516013D01*
X470535Y515491D01*
X471457Y515308D01*
X487611D01*
X487948Y514596D01*
X487222Y513712D01*
X486546Y512446D01*
X486129Y511073D01*
X486038Y510146D01*
X493306D01*
X500577D01*
X500485Y511073D01*
X500069Y512446D01*
X499392Y513712D01*
X498666Y514596D01*
X499003Y515308D01*
X502378D01*
Y508224D01*
X510645D01*
X518913D01*
Y515350D01*
X519623Y515491D01*
X520404Y516013D01*
X520926Y516795D01*
X521109Y517717D01*
Y533465D01*
X520926Y534386D01*
X520404Y535168D01*
Y535699D01*
X520926Y536480D01*
X521109Y537402D01*
Y548228D01*
X520926Y549150D01*
X520404Y549931D01*
X519623Y550454D01*
X518701Y550637D01*
X496072D01*
X495635Y551292D01*
X495879Y551880D01*
X495980Y552650D01*
X491141D01*
Y553650D01*
X495980D01*
X495879Y554419D01*
X495389Y555602D01*
X494609Y556617D01*
X493594Y557397D01*
X492517Y557843D01*
X492670Y558615D01*
X503346D01*
X518307D01*
X519229Y558799D01*
X520010Y559321D01*
X520532Y560102D01*
X520674Y560155D01*
X520973Y559926D01*
X522156Y559436D01*
X522925Y559335D01*
Y564174D01*
X523424D01*
Y564673D01*
X528264D01*
X528162Y565443D01*
X527672Y566625D01*
X526893Y567641D01*
X526794Y567717D01*
Y568504D01*
X526893Y568579D01*
X527672Y569595D01*
X528162Y570778D01*
X528264Y571547D01*
X523424D01*
Y572547D01*
X528264D01*
X528162Y573316D01*
X527672Y574499D01*
X526893Y575515D01*
X526794Y575591D01*
Y576378D01*
X526893Y576453D01*
X527672Y577469D01*
X528162Y578652D01*
X528264Y579421D01*
X523424D01*
Y580421D01*
X528264D01*
X528162Y581190D01*
X527672Y582373D01*
X526893Y583389D01*
X525877Y584168D01*
X525675Y584252D01*
Y585039D01*
X525877Y585123D01*
X526893Y585902D01*
X527672Y586918D01*
X528162Y588101D01*
X528264Y588870D01*
X523424D01*
Y589369D01*
X522925D01*
Y594208D01*
X522156Y594107D01*
X521370Y593782D01*
X520716Y594219D01*
Y621089D01*
X528849Y629222D01*
X529448Y630003D01*
X529740Y630707D01*
X530512Y630553D01*
Y498032D01*
X392717D01*
D02*
G37*
G36*
X507303Y638476D02*
X507421Y637577D01*
X507962Y636272D01*
X508821Y635152D01*
X509643Y634522D01*
X509439Y633761D01*
X509405Y633757D01*
X508448Y633360D01*
X507625Y632729D01*
X501326Y626430D01*
Y626430D01*
X501326Y626430D01*
Y626430D01*
X501326Y626430D01*
X501326D01*
X501326Y626430D01*
X501326D01*
X500695Y625607D01*
X500579Y625327D01*
X500298Y624650D01*
X500163Y623622D01*
Y611327D01*
X499419Y610717D01*
X499289Y610558D01*
X498502D01*
X498371Y610717D01*
X497412Y611504D01*
X496317Y612089D01*
X495130Y612449D01*
X494395Y612521D01*
Y599961D01*
X495130Y600033D01*
X496317Y600393D01*
X497412Y600978D01*
X498371Y601765D01*
X498502Y601924D01*
X499289D01*
X499419Y601765D01*
X500379Y600978D01*
X501473Y600393D01*
X502660Y600033D01*
X503895Y599911D01*
X505130Y600033D01*
X506318Y600393D01*
X506562Y600524D01*
X507237Y600119D01*
Y597684D01*
X500197D01*
X499275Y597501D01*
X498494Y596979D01*
X497972Y596197D01*
X497788Y595276D01*
Y578581D01*
X485630D01*
Y579528D01*
X469882D01*
X454528D01*
X439173D01*
Y578581D01*
X427802D01*
Y631161D01*
X428231D01*
Y631530D01*
X428906Y631934D01*
X429509Y631612D01*
X430697Y631252D01*
X431431Y631179D01*
Y637461D01*
X432432D01*
Y631179D01*
X433166Y631252D01*
X434354Y631612D01*
X435448Y632197D01*
X435622Y632171D01*
X435895Y631762D01*
X436677Y631239D01*
X437598Y631056D01*
X446260D01*
X446850Y631174D01*
X447441Y631056D01*
X452955D01*
X453256Y630329D01*
X448651Y625724D01*
Y625724D01*
X448651Y625724D01*
Y625724D01*
X448651Y625724D01*
X448651D01*
X448651Y625724D01*
X448651D01*
X448020Y624901D01*
X447904Y624621D01*
X447623Y623944D01*
X447488Y622916D01*
Y612657D01*
X445160D01*
Y600058D01*
X447154D01*
X447455Y599331D01*
X444239Y596115D01*
X443608Y595293D01*
X443212Y594335D01*
X443076Y593307D01*
Y591732D01*
X439173D01*
Y581102D01*
X454528D01*
X469882D01*
X485630D01*
Y591732D01*
X481727D01*
Y592126D01*
X481592Y593154D01*
X481195Y594111D01*
X480564Y594934D01*
X475430Y600068D01*
Y601467D01*
X475935Y601882D01*
X476722Y602841D01*
X476757Y602907D01*
X477545D01*
X477611Y602783D01*
X478398Y601823D01*
X479357Y601036D01*
X480452Y600451D01*
X481639Y600091D01*
X482374Y600019D01*
Y612580D01*
X481639Y612507D01*
X480452Y612147D01*
X479357Y611562D01*
X478398Y610775D01*
X477611Y609816D01*
X477576Y609750D01*
X476788D01*
X476722Y609874D01*
X475935Y610833D01*
X475430Y611247D01*
Y621586D01*
X495564Y641720D01*
X496195Y642542D01*
X496592Y643500D01*
X496727Y644527D01*
Y648400D01*
X497454Y648701D01*
X500151Y646005D01*
Y644488D01*
X500334Y643567D01*
X500856Y642785D01*
X501637Y642263D01*
X502559Y642080D01*
X507418D01*
X507856Y641425D01*
X507421Y640376D01*
X507303Y639476D01*
X513190D01*
Y638476D01*
X507303D01*
D02*
G37*
G36*
X408858Y700394D02*
Y716142D01*
X411614D01*
X425787Y701968D01*
X408858Y700394D01*
D02*
G37*
%LPC*%
G36*
X434736Y787288D02*
Y791626D01*
X430398D01*
X430499Y790857D01*
X430989Y789674D01*
X431769Y788658D01*
X432784Y787879D01*
X433967Y787389D01*
X434736Y787288D01*
D02*
G37*
G36*
Y802248D02*
Y806587D01*
X430398D01*
X430499Y805817D01*
X430989Y804635D01*
X431769Y803619D01*
X432784Y802839D01*
X433967Y802350D01*
X434736Y802248D01*
D02*
G37*
G36*
Y792626D02*
Y796964D01*
X433967Y796863D01*
X432784Y796373D01*
X431769Y795594D01*
X430989Y794578D01*
X430499Y793395D01*
X430398Y792626D01*
X434736D01*
D02*
G37*
G36*
X440074D02*
X439973Y793395D01*
X439483Y794578D01*
X438704Y795594D01*
X437688Y796373D01*
X436506Y796863D01*
X435736Y796964D01*
Y792626D01*
X440074D01*
D02*
G37*
G36*
Y806587D02*
X435736D01*
Y802248D01*
X436506Y802350D01*
X437688Y802839D01*
X438704Y803619D01*
X439483Y804635D01*
X439973Y805817D01*
X440074Y806587D01*
D02*
G37*
G36*
Y807587D02*
X439973Y808356D01*
X439483Y809539D01*
X438704Y810554D01*
X437688Y811334D01*
X436506Y811824D01*
X435736Y811925D01*
Y807587D01*
X440074D01*
D02*
G37*
G36*
X428634Y548228D02*
Y553634D01*
X421260D01*
Y548228D01*
X428634D01*
D02*
G37*
G36*
X425287Y857105D02*
Y862886D01*
X419507D01*
X419579Y862151D01*
X419940Y860964D01*
X420525Y859869D01*
X421312Y858910D01*
X422271Y858123D01*
X423365Y857538D01*
X424552Y857178D01*
X425287Y857105D01*
D02*
G37*
G36*
Y863886D02*
Y869666D01*
X424552Y869594D01*
X423365Y869234D01*
X422271Y868649D01*
X421312Y867862D01*
X420525Y866902D01*
X419940Y865808D01*
X419579Y864621D01*
X419507Y863886D01*
X425287D01*
D02*
G37*
G36*
X434736Y807587D02*
Y811925D01*
X433967Y811824D01*
X432784Y811334D01*
X431769Y810554D01*
X430989Y809539D01*
X430499Y808356D01*
X430398Y807587D01*
X434736D01*
D02*
G37*
G36*
X432068Y862886D02*
X426287D01*
Y857105D01*
X427022Y857178D01*
X428210Y857538D01*
X429304Y858123D01*
X430263Y858910D01*
X431050Y859869D01*
X431635Y860964D01*
X431995Y862151D01*
X432068Y862886D01*
D02*
G37*
G36*
Y863886D02*
X431995Y864621D01*
X431635Y865808D01*
X431050Y866902D01*
X430263Y867862D01*
X429304Y868649D01*
X428210Y869234D01*
X427022Y869594D01*
X426287Y869666D01*
Y863886D01*
X432068D01*
D02*
G37*
G36*
X510146Y499457D02*
Y507224D01*
X502378D01*
Y499457D01*
X510146D01*
D02*
G37*
G36*
X500577Y509146D02*
X493807D01*
Y502376D01*
X494735Y502468D01*
X496108Y502884D01*
X497373Y503560D01*
X498482Y504471D01*
X499392Y505580D01*
X500069Y506845D01*
X500485Y508218D01*
X500577Y509146D01*
D02*
G37*
G36*
X492807Y502376D02*
Y509146D01*
X486038D01*
X486129Y508218D01*
X486546Y506845D01*
X487222Y505580D01*
X488132Y504471D01*
X489241Y503560D01*
X490506Y502884D01*
X491879Y502468D01*
X492807Y502376D01*
D02*
G37*
G36*
X528264Y563673D02*
X523925D01*
Y559335D01*
X524694Y559436D01*
X525877Y559926D01*
X526893Y560706D01*
X527672Y561721D01*
X528162Y562904D01*
X528264Y563673D01*
D02*
G37*
G36*
Y589870D02*
X528162Y590639D01*
X527672Y591822D01*
X526893Y592838D01*
X525877Y593617D01*
X524694Y594107D01*
X523925Y594208D01*
Y589870D01*
X528264D01*
D02*
G37*
G36*
X518913Y499457D02*
Y507224D01*
X511146D01*
Y499457D01*
X518913D01*
D02*
G37*
G36*
X489067Y758571D02*
Y763386D01*
X484055D01*
Y758571D01*
X489067D01*
D02*
G37*
G36*
X472559Y768658D02*
Y774043D01*
X467174D01*
X467239Y773386D01*
X467577Y772272D01*
X468125Y771246D01*
X468863Y770347D01*
X469762Y769609D01*
X470788Y769061D01*
X471901Y768723D01*
X472559Y768658D01*
D02*
G37*
G36*
X469382Y758571D02*
Y763386D01*
X464370D01*
Y758571D01*
X469382D01*
D02*
G37*
G36*
X440074Y791626D02*
X435736D01*
Y787288D01*
X436506Y787389D01*
X437688Y787879D01*
X438704Y788658D01*
X439483Y789674D01*
X439973Y790857D01*
X440074Y791626D01*
D02*
G37*
G36*
X493395Y599961D02*
Y612521D01*
X492660Y612449D01*
X491473Y612089D01*
X490379Y611504D01*
X489420Y610717D01*
X489105Y610333D01*
X488415Y609965D01*
X488015D01*
X487350Y610775D01*
X486391Y611562D01*
X485296Y612147D01*
X484109Y612507D01*
X483374Y612580D01*
Y600019D01*
X484109Y600091D01*
X485296Y600451D01*
X486391Y601036D01*
X487350Y601823D01*
X488137Y602783D01*
X488601D01*
X488632Y602724D01*
X489420Y601765D01*
X490379Y600978D01*
X491473Y600393D01*
X492660Y600033D01*
X493395Y599961D01*
D02*
G37*
G36*
X478944Y774043D02*
X473559D01*
Y768658D01*
X474217Y768723D01*
X475330Y769061D01*
X476356Y769609D01*
X477255Y770347D01*
X477993Y771246D01*
X478541Y772272D01*
X478879Y773386D01*
X478944Y774043D01*
D02*
G37*
G36*
X475394Y758571D02*
Y763386D01*
X470382D01*
Y758571D01*
X475394D01*
D02*
G37*
%LPD*%
G36*
X540354Y498032D02*
Y915354D01*
X678150D01*
Y652124D01*
X677377Y651970D01*
X677086Y652674D01*
X676486Y653455D01*
X670716Y659226D01*
Y702756D01*
X670679Y702940D01*
X670707Y703150D01*
Y797638D01*
X670558Y798768D01*
X670121Y799822D01*
X669427Y800727D01*
X662522Y807632D01*
X661617Y808326D01*
X661308Y808454D01*
X660564Y808763D01*
X659433Y808911D01*
X654683D01*
X653994Y809477D01*
X652968Y810026D01*
X651855Y810363D01*
X650697Y810477D01*
X649539Y810363D01*
X648426Y810026D01*
X647400Y809477D01*
X647399Y809477D01*
X646688Y809813D01*
Y847198D01*
X661221D01*
X662142Y847381D01*
X662923Y847903D01*
X663446Y848685D01*
X663629Y849606D01*
Y875197D01*
X663446Y876118D01*
X662923Y876900D01*
X662142Y877422D01*
X661221Y877605D01*
X641142D01*
X640220Y877422D01*
X639439Y876900D01*
X638917Y876118D01*
X638733Y875197D01*
Y849606D01*
X638746Y849545D01*
Y794165D01*
X633095Y788514D01*
X627387D01*
X626887Y789123D01*
X627015Y789764D01*
Y798819D01*
X626963Y799080D01*
X627225Y799472D01*
X627409Y800394D01*
Y809449D01*
X627225Y810371D01*
X626703Y811152D01*
X625922Y811674D01*
X625000Y811857D01*
X607283D01*
X606362Y811674D01*
X605580Y811152D01*
X605058Y810371D01*
X604875Y809449D01*
Y800394D01*
X605032Y799606D01*
X604875Y798819D01*
Y789764D01*
X605058Y788842D01*
X605580Y788061D01*
X606362Y787539D01*
X607283Y787355D01*
X614718D01*
X615187Y786723D01*
X614877Y785701D01*
X614763Y784543D01*
X614877Y783386D01*
X615214Y782272D01*
X615763Y781247D01*
X616501Y780347D01*
X617001Y779937D01*
Y779150D01*
X616501Y778739D01*
X615763Y777840D01*
X615214Y776814D01*
X614877Y775701D01*
X614812Y775043D01*
X620696D01*
X626582D01*
X626517Y775701D01*
X626179Y776814D01*
X625631Y777840D01*
X624893Y778739D01*
X624393Y779150D01*
Y779937D01*
X624893Y780347D01*
X625077Y780572D01*
X634740D01*
X635768Y780708D01*
X636726Y781104D01*
X637548Y781735D01*
X639770Y783957D01*
X640521Y783858D01*
Y763386D01*
X637705D01*
Y758070D01*
X637206D01*
Y757571D01*
X631693D01*
Y754151D01*
X631565Y754065D01*
X631043Y753284D01*
X630859Y752362D01*
Y736614D01*
X631043Y735693D01*
X631565Y734911D01*
X632346Y734389D01*
X633268Y734206D01*
X633631D01*
Y730221D01*
X632867Y729456D01*
X632724Y729270D01*
X631938Y729219D01*
X629889Y731267D01*
X629149Y731835D01*
X628287Y732192D01*
X627362Y732314D01*
X622937D01*
X621773Y733478D01*
X622074Y734206D01*
X622441D01*
X623363Y734389D01*
X624144Y734911D01*
X624666Y735693D01*
X624849Y736614D01*
Y752362D01*
X624666Y753284D01*
X624144Y754065D01*
X623363Y754587D01*
X623032Y754653D01*
Y757571D01*
X617519D01*
X612008D01*
Y754653D01*
X611677Y754587D01*
X610895Y754065D01*
X610373Y753284D01*
X610190Y752362D01*
Y746877D01*
X609462Y746576D01*
X605084Y750955D01*
X604344Y751523D01*
X603482Y751880D01*
X602557Y752001D01*
X585184D01*
Y752854D01*
X585001Y753776D01*
X584479Y754557D01*
X583697Y755080D01*
X583578Y755331D01*
X583939Y756005D01*
X584299Y757193D01*
X584372Y757928D01*
X578090D01*
Y758928D01*
X584372D01*
X584299Y759662D01*
X583939Y760850D01*
X583354Y761944D01*
X582567Y762903D01*
X582408Y763034D01*
Y763821D01*
X582567Y763952D01*
X583354Y764911D01*
X583939Y766005D01*
X584299Y767193D01*
X584421Y768428D01*
X584299Y769662D01*
X583939Y770850D01*
X583354Y771944D01*
X582567Y772903D01*
X582408Y773034D01*
Y773821D01*
X582567Y773952D01*
X583354Y774911D01*
X583939Y776005D01*
X584299Y777193D01*
X584421Y778428D01*
X584299Y779662D01*
X583939Y780850D01*
X583354Y781944D01*
X582567Y782903D01*
X581608Y783691D01*
X580514Y784275D01*
X579326Y784636D01*
X578091Y784757D01*
X576857Y784636D01*
X575669Y784275D01*
X574575Y783691D01*
X573616Y782903D01*
X573038Y782200D01*
X564451D01*
X563475Y782071D01*
X563475Y782071D01*
X563475Y782071D01*
X562565Y781695D01*
X561784Y781095D01*
X550679Y769990D01*
X550079Y769209D01*
D01*
D01*
X550079D01*
X550079Y769209D01*
D01*
D01*
Y769209D01*
X550079D01*
D01*
Y769209D01*
X550079D01*
X549703Y768299D01*
X549574Y767323D01*
Y696457D01*
X549703Y695480D01*
X550079Y694570D01*
X550679Y693789D01*
X550679Y693789D01*
X550679Y693789D01*
X553828Y690640D01*
X554610Y690040D01*
X555520Y689663D01*
X556496Y689535D01*
X624954D01*
Y688976D01*
X625137Y688055D01*
X625608Y687349D01*
X625284Y686632D01*
X625394Y686647D01*
X625894Y686581D01*
Y671687D01*
X626370Y671750D01*
X627280Y672127D01*
X627894Y672598D01*
X628508Y672127D01*
X629417Y671750D01*
X630394Y671621D01*
X631370Y671750D01*
X631423Y671715D01*
Y647472D01*
X606289Y622338D01*
X605658Y621515D01*
X605261Y620558D01*
X605126Y619530D01*
Y612657D01*
X603068D01*
Y621271D01*
X623202Y641405D01*
X623833Y642227D01*
X624229Y643185D01*
X624365Y644213D01*
Y671160D01*
X624957Y671679D01*
X624894Y671687D01*
Y686581D01*
X624417Y686518D01*
X623507Y686141D01*
X622894Y685670D01*
X622280Y686141D01*
X621370Y686518D01*
X620394Y686647D01*
X619417Y686518D01*
X618507Y686141D01*
X617894Y685670D01*
X617280Y686141D01*
X616370Y686518D01*
X615394Y686647D01*
X614417Y686518D01*
X613508Y686141D01*
X612894Y685670D01*
X612280Y686141D01*
X611370Y686518D01*
X610394Y686647D01*
X609417Y686518D01*
X608507Y686141D01*
X607894Y685670D01*
X607280Y686141D01*
X606370Y686518D01*
X605394Y686647D01*
X604417Y686518D01*
X603508Y686141D01*
X602726Y685541D01*
X602127Y684760D01*
X601750Y683850D01*
X601621Y682874D01*
Y682708D01*
X596260D01*
X595335Y682586D01*
X594830Y682377D01*
X594473Y682229D01*
X593733Y681661D01*
X580228Y668156D01*
X575000D01*
X574078Y667973D01*
X573297Y667451D01*
X572775Y666670D01*
X572591Y665748D01*
Y646850D01*
X572775Y645929D01*
X573297Y645147D01*
X573876Y644760D01*
X573575Y644033D01*
X573032Y644141D01*
X555315D01*
X554393Y643957D01*
X553612Y643435D01*
X553090Y642654D01*
X552907Y641732D01*
Y561024D01*
X553090Y560102D01*
X553612Y559321D01*
X554393Y558799D01*
X555315Y558615D01*
X568898D01*
Y554634D01*
X576773D01*
Y554135D01*
X577272D01*
Y548228D01*
X577316D01*
Y517717D01*
X577499Y516795D01*
X578021Y516013D01*
X578803Y515491D01*
X579724Y515308D01*
X599409D01*
X600331Y515491D01*
X601113Y516013D01*
X601635Y516795D01*
X601818Y517717D01*
Y534993D01*
X616369D01*
X616869Y534384D01*
X616686Y533465D01*
Y517717D01*
X616869Y516795D01*
X617391Y516013D01*
X618173Y515491D01*
X619095Y515308D01*
X635249D01*
X635585Y514596D01*
X634860Y513712D01*
X634183Y512446D01*
X633767Y511073D01*
X633675Y510146D01*
X640944D01*
X648214D01*
X648123Y511073D01*
X647707Y512446D01*
X647030Y513712D01*
X646304Y514596D01*
X646641Y515308D01*
X650016D01*
Y508224D01*
X658283D01*
X666551D01*
Y515350D01*
X667260Y515491D01*
X668042Y516013D01*
X668564Y516795D01*
X668747Y517717D01*
Y533465D01*
X668564Y534386D01*
X668042Y535168D01*
Y535699D01*
X668564Y536480D01*
X668747Y537402D01*
Y548228D01*
X668564Y549150D01*
X668042Y549931D01*
X667260Y550454D01*
X666339Y550637D01*
X643710D01*
X643273Y551292D01*
X643517Y551880D01*
X643618Y552650D01*
X638778D01*
Y553650D01*
X643618D01*
X643517Y554419D01*
X643027Y555602D01*
X642247Y556617D01*
X641232Y557397D01*
X640155Y557843D01*
X640308Y558615D01*
X650984D01*
X665945D01*
X666867Y558799D01*
X667648Y559321D01*
X668170Y560102D01*
X668312Y560155D01*
X668611Y559926D01*
X669794Y559436D01*
X670563Y559335D01*
Y564174D01*
X671062D01*
Y564673D01*
X675901D01*
X675800Y565443D01*
X675310Y566625D01*
X674531Y567641D01*
X674432Y567717D01*
Y568504D01*
X674531Y568579D01*
X675310Y569595D01*
X675800Y570778D01*
X675901Y571547D01*
X671062D01*
Y572547D01*
X675901D01*
X675800Y573316D01*
X675310Y574499D01*
X674531Y575515D01*
X674432Y575591D01*
Y576378D01*
X674531Y576453D01*
X675310Y577469D01*
X675800Y578652D01*
X675901Y579421D01*
X671062D01*
Y580421D01*
X675901D01*
X675800Y581190D01*
X675310Y582373D01*
X674531Y583389D01*
X673515Y584168D01*
X673313Y584252D01*
Y585039D01*
X673515Y585123D01*
X674531Y585902D01*
X675310Y586918D01*
X675800Y588101D01*
X675901Y588870D01*
X671062D01*
Y589369D01*
X670563D01*
Y594208D01*
X669794Y594107D01*
X669008Y593782D01*
X668353Y594219D01*
Y621089D01*
X676486Y629222D01*
X677086Y630003D01*
X677377Y630707D01*
X678150Y630553D01*
Y498032D01*
X540354D01*
D02*
G37*
G36*
X654941Y638476D02*
X655059Y637577D01*
X655600Y636272D01*
X656459Y635152D01*
X657280Y634522D01*
X657077Y633761D01*
X657043Y633757D01*
X656085Y633360D01*
X655263Y632729D01*
X648964Y626430D01*
Y626430D01*
X648964Y626430D01*
Y626430D01*
X648964Y626430D01*
X648964D01*
X648964Y626430D01*
X648964D01*
X648333Y625607D01*
X648216Y625327D01*
X647936Y624650D01*
X647801Y623622D01*
Y611327D01*
X647057Y610717D01*
X646927Y610558D01*
X646139D01*
X646009Y610717D01*
X645050Y611504D01*
X643955Y612089D01*
X642768Y612449D01*
X642033Y612521D01*
Y599961D01*
X642768Y600033D01*
X643955Y600393D01*
X645050Y600978D01*
X646009Y601765D01*
X646139Y601924D01*
X646927D01*
X647057Y601765D01*
X648017Y600978D01*
X649111Y600393D01*
X650298Y600033D01*
X651533Y599911D01*
X652768Y600033D01*
X653955Y600393D01*
X654200Y600524D01*
X654875Y600119D01*
Y597684D01*
X647835D01*
X646913Y597501D01*
X646132Y596979D01*
X645610Y596197D01*
X645426Y595276D01*
Y578581D01*
X633268D01*
Y579528D01*
X617520D01*
X602165D01*
X586811D01*
Y578581D01*
X575440D01*
Y631161D01*
X575869D01*
Y631530D01*
X576544Y631934D01*
X577147Y631612D01*
X578334Y631252D01*
X579069Y631179D01*
Y637461D01*
X580069D01*
Y631179D01*
X580804Y631252D01*
X581992Y631612D01*
X583086Y632197D01*
X583259Y632171D01*
X583533Y631762D01*
X584314Y631239D01*
X585236Y631056D01*
X593898D01*
X594488Y631174D01*
X595079Y631056D01*
X600593D01*
X600894Y630329D01*
X596289Y625724D01*
Y625724D01*
X596289Y625724D01*
Y625724D01*
X596289Y625724D01*
X596289D01*
X596289Y625724D01*
X596289D01*
X595658Y624901D01*
X595542Y624621D01*
X595261Y623944D01*
X595126Y622916D01*
Y612657D01*
X592798D01*
Y600058D01*
X594792D01*
X595093Y599331D01*
X591877Y596115D01*
X591246Y595293D01*
X590849Y594335D01*
X590714Y593307D01*
Y591732D01*
X586811D01*
Y581102D01*
X602165D01*
X617520D01*
X633268D01*
Y591732D01*
X629365D01*
Y592126D01*
X629229Y593154D01*
X628833Y594111D01*
X628202Y594934D01*
X623068Y600068D01*
Y601467D01*
X623573Y601882D01*
X624360Y602841D01*
X624395Y602907D01*
X625182D01*
X625249Y602783D01*
X626036Y601823D01*
X626995Y601036D01*
X628090Y600451D01*
X629277Y600091D01*
X630012Y600019D01*
Y612580D01*
X629277Y612507D01*
X628090Y612147D01*
X626995Y611562D01*
X626036Y610775D01*
X625249Y609816D01*
X625214Y609750D01*
X624426D01*
X624360Y609874D01*
X623573Y610833D01*
X623068Y611247D01*
Y621586D01*
X643202Y641720D01*
X643833Y642542D01*
X644229Y643500D01*
X644365Y644527D01*
Y648400D01*
X645092Y648701D01*
X647788Y646005D01*
Y644488D01*
X647972Y643567D01*
X648494Y642785D01*
X649275Y642263D01*
X650197Y642080D01*
X655056D01*
X655494Y641425D01*
X655059Y640376D01*
X654941Y639476D01*
X660828D01*
Y638476D01*
X654941D01*
D02*
G37*
G36*
X556496Y700394D02*
Y716142D01*
X559252D01*
X573425Y701968D01*
X556496Y700394D01*
D02*
G37*
%LPC*%
G36*
X582374Y787288D02*
Y791626D01*
X578036D01*
X578137Y790857D01*
X578627Y789674D01*
X579406Y788658D01*
X580422Y787879D01*
X581605Y787389D01*
X582374Y787288D01*
D02*
G37*
G36*
Y802248D02*
Y806587D01*
X578036D01*
X578137Y805817D01*
X578627Y804635D01*
X579406Y803619D01*
X580422Y802839D01*
X581605Y802350D01*
X582374Y802248D01*
D02*
G37*
G36*
Y792626D02*
Y796964D01*
X581605Y796863D01*
X580422Y796373D01*
X579406Y795594D01*
X578627Y794578D01*
X578137Y793395D01*
X578036Y792626D01*
X582374D01*
D02*
G37*
G36*
X587712D02*
X587611Y793395D01*
X587121Y794578D01*
X586342Y795594D01*
X585326Y796373D01*
X584143Y796863D01*
X583374Y796964D01*
Y792626D01*
X587712D01*
D02*
G37*
G36*
Y806587D02*
X583374D01*
Y802248D01*
X584143Y802350D01*
X585326Y802839D01*
X586342Y803619D01*
X587121Y804635D01*
X587611Y805817D01*
X587712Y806587D01*
D02*
G37*
G36*
Y807587D02*
X587611Y808356D01*
X587121Y809539D01*
X586342Y810554D01*
X585326Y811334D01*
X584143Y811824D01*
X583374Y811925D01*
Y807587D01*
X587712D01*
D02*
G37*
G36*
X576272Y548228D02*
Y553634D01*
X568898D01*
Y548228D01*
X576272D01*
D02*
G37*
G36*
X572925Y857105D02*
Y862886D01*
X567145D01*
X567217Y862151D01*
X567577Y860964D01*
X568162Y859869D01*
X568949Y858910D01*
X569909Y858123D01*
X571003Y857538D01*
X572190Y857178D01*
X572925Y857105D01*
D02*
G37*
G36*
Y863886D02*
Y869666D01*
X572190Y869594D01*
X571003Y869234D01*
X569909Y868649D01*
X568949Y867862D01*
X568162Y866902D01*
X567577Y865808D01*
X567217Y864621D01*
X567145Y863886D01*
X572925D01*
D02*
G37*
G36*
X582374Y807587D02*
Y811925D01*
X581605Y811824D01*
X580422Y811334D01*
X579406Y810554D01*
X578627Y809539D01*
X578137Y808356D01*
X578036Y807587D01*
X582374D01*
D02*
G37*
G36*
X579706Y862886D02*
X573925D01*
Y857105D01*
X574660Y857178D01*
X575847Y857538D01*
X576942Y858123D01*
X577901Y858910D01*
X578688Y859869D01*
X579273Y860964D01*
X579633Y862151D01*
X579706Y862886D01*
D02*
G37*
G36*
Y863886D02*
X579633Y864621D01*
X579273Y865808D01*
X578688Y866902D01*
X577901Y867862D01*
X576942Y868649D01*
X575847Y869234D01*
X574660Y869594D01*
X573925Y869666D01*
Y863886D01*
X579706D01*
D02*
G37*
G36*
X657784Y499457D02*
Y507224D01*
X650016D01*
Y499457D01*
X657784D01*
D02*
G37*
G36*
X648214Y509146D02*
X641445D01*
Y502376D01*
X642373Y502468D01*
X643746Y502884D01*
X645011Y503560D01*
X646120Y504471D01*
X647030Y505580D01*
X647707Y506845D01*
X648123Y508218D01*
X648214Y509146D01*
D02*
G37*
G36*
X640445Y502376D02*
Y509146D01*
X633675D01*
X633767Y508218D01*
X634183Y506845D01*
X634860Y505580D01*
X635770Y504471D01*
X636879Y503560D01*
X638144Y502884D01*
X639517Y502468D01*
X640445Y502376D01*
D02*
G37*
G36*
X675901Y563673D02*
X671563D01*
Y559335D01*
X672332Y559436D01*
X673515Y559926D01*
X674531Y560706D01*
X675310Y561721D01*
X675800Y562904D01*
X675901Y563673D01*
D02*
G37*
G36*
Y589870D02*
X675800Y590639D01*
X675310Y591822D01*
X674531Y592838D01*
X673515Y593617D01*
X672332Y594107D01*
X671563Y594208D01*
Y589870D01*
X675901D01*
D02*
G37*
G36*
X666551Y499457D02*
Y507224D01*
X658783D01*
Y499457D01*
X666551D01*
D02*
G37*
G36*
X636705Y758571D02*
Y763386D01*
X631693D01*
Y758571D01*
X636705D01*
D02*
G37*
G36*
X620197Y768658D02*
Y774043D01*
X614812D01*
X614877Y773386D01*
X615214Y772272D01*
X615763Y771246D01*
X616501Y770347D01*
X617400Y769609D01*
X618426Y769061D01*
X619539Y768723D01*
X620197Y768658D01*
D02*
G37*
G36*
X617020Y758571D02*
Y763386D01*
X612008D01*
Y758571D01*
X617020D01*
D02*
G37*
G36*
X587712Y791626D02*
X583374D01*
Y787288D01*
X584143Y787389D01*
X585326Y787879D01*
X586342Y788658D01*
X587121Y789674D01*
X587611Y790857D01*
X587712Y791626D01*
D02*
G37*
G36*
X641033Y599961D02*
Y612521D01*
X640298Y612449D01*
X639111Y612089D01*
X638017Y611504D01*
X637057Y610717D01*
X636742Y610333D01*
X636053Y609965D01*
X635653D01*
X634988Y610775D01*
X634028Y611562D01*
X632934Y612147D01*
X631747Y612507D01*
X631012Y612580D01*
Y600019D01*
X631747Y600091D01*
X632934Y600451D01*
X634028Y601036D01*
X634988Y601823D01*
X635775Y602783D01*
X636239D01*
X636270Y602724D01*
X637057Y601765D01*
X638017Y600978D01*
X639111Y600393D01*
X640298Y600033D01*
X641033Y599961D01*
D02*
G37*
G36*
X626582Y774043D02*
X621197D01*
Y768658D01*
X621854Y768723D01*
X622968Y769061D01*
X623994Y769609D01*
X624893Y770347D01*
X625631Y771246D01*
X626179Y772272D01*
X626517Y773386D01*
X626582Y774043D01*
D02*
G37*
G36*
X623032Y758571D02*
Y763386D01*
X618020D01*
Y758571D01*
X623032D01*
D02*
G37*
%LPD*%
D10*
X146654Y556299D02*
D03*
Y563779D02*
D03*
X153543Y545472D02*
D03*
Y552953D02*
D03*
X174606Y750591D02*
D03*
Y758071D02*
D03*
X194291Y750591D02*
D03*
Y758071D02*
D03*
X294291Y556299D02*
D03*
Y563779D02*
D03*
X301181Y545472D02*
D03*
Y552953D02*
D03*
X322244Y750591D02*
D03*
Y758071D02*
D03*
X341929Y750591D02*
D03*
Y758071D02*
D03*
X441929Y556299D02*
D03*
Y563779D02*
D03*
X448819Y545472D02*
D03*
Y552953D02*
D03*
X469882Y750591D02*
D03*
Y758071D02*
D03*
X489567Y750591D02*
D03*
Y758071D02*
D03*
X589567Y556299D02*
D03*
Y563779D02*
D03*
X596457Y545472D02*
D03*
Y552953D02*
D03*
X617520Y750591D02*
D03*
Y758071D02*
D03*
X637205Y750591D02*
D03*
Y758071D02*
D03*
D11*
X133858Y567913D02*
D03*
Y554134D02*
D03*
X281496Y567913D02*
D03*
Y554134D02*
D03*
X429134Y567913D02*
D03*
Y554134D02*
D03*
X576772Y567913D02*
D03*
Y554134D02*
D03*
D12*
X151772Y586417D02*
D03*
Y574213D02*
D03*
X167126Y586417D02*
D03*
Y574213D02*
D03*
X182480Y586417D02*
D03*
Y574213D02*
D03*
X299410Y586417D02*
D03*
Y574213D02*
D03*
X314764Y586417D02*
D03*
Y574213D02*
D03*
X330118Y586417D02*
D03*
Y574213D02*
D03*
X447047Y586417D02*
D03*
Y574213D02*
D03*
X462402Y586417D02*
D03*
Y574213D02*
D03*
X477756Y586417D02*
D03*
Y574213D02*
D03*
X594685Y586417D02*
D03*
Y574213D02*
D03*
X610039Y586417D02*
D03*
Y574213D02*
D03*
X625394Y586417D02*
D03*
Y574213D02*
D03*
D13*
X209449Y690945D02*
D03*
X221654D02*
D03*
X209449Y675984D02*
D03*
X221654D02*
D03*
X357087Y690945D02*
D03*
X369291D02*
D03*
X357087Y675984D02*
D03*
X369291D02*
D03*
X504724Y690945D02*
D03*
X516929D02*
D03*
X504724Y675984D02*
D03*
X516929D02*
D03*
X652362Y690945D02*
D03*
X664567D02*
D03*
X652362Y675984D02*
D03*
X664567D02*
D03*
D14*
X162480Y715354D02*
D03*
X167480D02*
D03*
X172480D02*
D03*
X177480D02*
D03*
X182480D02*
D03*
X187480D02*
D03*
X192480D02*
D03*
X197480D02*
D03*
X202480D02*
D03*
X162480Y679134D02*
D03*
X167480D02*
D03*
X172480D02*
D03*
X177480D02*
D03*
X182480D02*
D03*
X187480D02*
D03*
X192480D02*
D03*
X197480D02*
D03*
X202480D02*
D03*
X310118Y715354D02*
D03*
X315118D02*
D03*
X320118D02*
D03*
X325118D02*
D03*
X330118D02*
D03*
X335118D02*
D03*
X340118D02*
D03*
X345118D02*
D03*
X350118D02*
D03*
X310118Y679134D02*
D03*
X315118D02*
D03*
X320118D02*
D03*
X325118D02*
D03*
X330118D02*
D03*
X335118D02*
D03*
X340118D02*
D03*
X345118D02*
D03*
X350118D02*
D03*
X457756Y715354D02*
D03*
X462756D02*
D03*
X467756D02*
D03*
X472756D02*
D03*
X477756D02*
D03*
X482756D02*
D03*
X487756D02*
D03*
X492756D02*
D03*
X497756D02*
D03*
X457756Y679134D02*
D03*
X462756D02*
D03*
X467756D02*
D03*
X472756D02*
D03*
X477756D02*
D03*
X482756D02*
D03*
X487756D02*
D03*
X492756D02*
D03*
X497756D02*
D03*
X605394Y715354D02*
D03*
X610394D02*
D03*
X615394D02*
D03*
X620394D02*
D03*
X625394D02*
D03*
X630394D02*
D03*
X635394D02*
D03*
X640394D02*
D03*
X645394D02*
D03*
X605394Y679134D02*
D03*
X610394D02*
D03*
X615394D02*
D03*
X620394D02*
D03*
X625394D02*
D03*
X630394D02*
D03*
X635394D02*
D03*
X640394D02*
D03*
X645394D02*
D03*
D15*
X126656Y574213D02*
X151772D01*
X126656Y637460D02*
Y574213D01*
X220866Y675984D02*
Y661614D01*
X115704Y715202D02*
X130512Y700394D01*
X167126Y574213D02*
X182480D01*
X151772D02*
X167126D01*
X218620Y582990D02*
X209842Y574213D01*
X182480D02*
X209842D01*
X218620Y606241D02*
Y582990D01*
X220866Y661614D02*
X217913Y658661D01*
X223425Y703150D02*
X220669Y700394D01*
X182480D02*
X220669D01*
X130512D02*
X182480D01*
X223425Y797638D02*
Y703150D01*
X216520Y804543D02*
X223425Y797638D01*
X207783Y804543D02*
X216520D01*
X115704Y763145D02*
Y715202D01*
X120987Y768428D02*
X115704Y763145D01*
X120987Y768428D02*
X135178D01*
X274294Y574213D02*
X299410D01*
X274294Y637460D02*
Y574213D01*
X368504Y675984D02*
Y661614D01*
X263342Y715202D02*
X278150Y700394D01*
X314764Y574213D02*
X330118D01*
X299410D02*
X314764D01*
X366258Y582990D02*
X357480Y574213D01*
X330118D02*
X357480D01*
X366258Y606241D02*
Y582990D01*
X368504Y661614D02*
X365551Y658661D01*
X371063Y703150D02*
X368307Y700394D01*
X330118D02*
X368307D01*
X278150D02*
X330118D01*
X371063Y797638D02*
Y703150D01*
X364158Y804543D02*
X371063Y797638D01*
X355421Y804543D02*
X364158D01*
X263342Y763145D02*
Y715202D01*
X268624Y768428D02*
X263342Y763145D01*
X268624Y768428D02*
X282816D01*
X421932Y574213D02*
X447047D01*
X421932Y637460D02*
Y574213D01*
X516142Y675984D02*
Y661614D01*
X410980Y715202D02*
X425787Y700394D01*
X462402Y574213D02*
X477756D01*
X447047D02*
X462402D01*
X513895Y582990D02*
X505118Y574213D01*
X477756D02*
X505118D01*
X513895Y606241D02*
Y582990D01*
X516142Y661614D02*
X513189Y658661D01*
X518701Y703150D02*
X515945Y700394D01*
X477756D02*
X515945D01*
X425787D02*
X477756D01*
X518701Y797638D02*
Y703150D01*
X511795Y804543D02*
X518701Y797638D01*
X503059Y804543D02*
X511795D01*
X410980Y763145D02*
Y715202D01*
X416262Y768428D02*
X410980Y763145D01*
X416262Y768428D02*
X430453D01*
X569569Y574213D02*
X594685D01*
X569569Y637460D02*
Y574213D01*
X663779Y675984D02*
Y661614D01*
X558617Y715202D02*
X573425Y700394D01*
X610039Y574213D02*
X625394D01*
X594685D02*
X610039D01*
X661533Y582990D02*
X652756Y574213D01*
X625394D02*
X652756D01*
X661533Y606241D02*
Y582990D01*
X663779Y661614D02*
X660827Y658661D01*
X666339Y703150D02*
X663583Y700394D01*
X625394D02*
X663583D01*
X573425D02*
X625394D01*
X666339Y797638D02*
Y703150D01*
X659433Y804543D02*
X666339Y797638D01*
X650697Y804543D02*
X659433D01*
X558617Y763145D02*
Y715202D01*
X563900Y768428D02*
X558617Y763145D01*
X563900Y768428D02*
X578091D01*
D16*
X175591Y762205D02*
X171653Y758268D01*
X136162D02*
X171653D01*
X175591Y765158D02*
Y762205D01*
X323228D02*
X319291Y758268D01*
X283800D02*
X319291D01*
X323228Y765158D02*
Y762205D01*
X470866D02*
X466929Y758268D01*
X431438D02*
X466929D01*
X470866Y765158D02*
Y762205D01*
X618504D02*
X614567Y758268D01*
X579076D02*
X614567D01*
X618504Y765158D02*
Y762205D01*
D17*
X161614Y622047D02*
Y616142D01*
X182480Y642913D02*
X161614Y622047D01*
X182480Y679134D02*
Y642913D01*
X198620Y621257D02*
Y606241D01*
X216339Y638976D02*
X198620Y621257D01*
X216339Y638976D02*
X217913D01*
X128937Y689370D02*
X180512D01*
X110039D02*
X128937D01*
Y645837D01*
X136656Y638118D01*
Y637460D01*
X198620Y585824D02*
X193110Y580315D01*
X141142D02*
X193110D01*
X136656Y584801D02*
X141142Y580315D01*
X136656Y637460D02*
Y584801D01*
X153347Y679134D02*
X162480D01*
X153347D02*
X136415Y662202D01*
Y651123D01*
X150591Y662992D02*
X146415Y658816D01*
X150591Y662992D02*
X159646D01*
X167480Y670827D02*
X159646Y662992D01*
X167480Y679134D02*
Y670827D01*
X146415Y658816D02*
Y651123D01*
X172480Y679134D02*
Y667188D01*
X156415Y651123D01*
X198620Y606241D02*
Y585824D01*
X207977Y648519D02*
X208620Y647876D01*
X105709Y791732D02*
X105315Y791339D01*
Y694095D01*
X110039Y689370D01*
X180512D02*
X182480Y687402D01*
Y679134D01*
X198622Y706693D02*
X208858D01*
X197480Y707835D02*
X198622Y706693D01*
X182480Y715354D02*
Y700394D01*
X202480Y727087D02*
Y715354D01*
X207323Y731929D02*
X202480Y727087D01*
X207323Y774764D02*
Y731929D01*
X197480Y715354D02*
Y707835D01*
X167480Y706653D02*
X165945Y705118D01*
X158465D02*
X165945D01*
X147047Y716536D02*
X158465Y705118D01*
X130905Y716536D02*
X147047D01*
X167480Y715354D02*
Y706653D01*
X162480Y723937D02*
Y715354D01*
X157990Y728428D02*
X162480Y723937D01*
X135178Y728428D02*
X157990D01*
X172480Y722598D02*
Y715354D01*
X156651Y738428D02*
X172480Y722598D01*
X135178Y738428D02*
X156651D01*
X177480Y723110D02*
Y715354D01*
X166732Y733858D02*
X177480Y723110D01*
X166732Y741339D02*
Y733858D01*
X159643Y748428D02*
X166732Y741339D01*
X135178Y748428D02*
X159643D01*
X201181Y736614D02*
X197480Y732913D01*
X201181Y783858D02*
Y736614D01*
X202087Y784764D02*
X201181Y783858D01*
X202087Y784764D02*
X207323D01*
X197480Y732913D02*
Y715354D01*
X187480Y725709D02*
Y715354D01*
X184449Y728740D02*
X187480Y725709D01*
X178543Y728740D02*
X184449D01*
X174606Y732677D02*
X178543Y728740D01*
X174606Y740551D02*
Y732677D01*
X194291Y740551D02*
Y728740D01*
X192480Y726929D01*
Y715354D01*
X309252Y622047D02*
Y616142D01*
X330118Y642913D02*
X309252Y622047D01*
X330118Y679134D02*
Y642913D01*
X346257Y621257D02*
Y606241D01*
X363976Y638976D02*
X346257Y621257D01*
X363976Y638976D02*
X365551D01*
X276575Y689370D02*
X328150D01*
X257677D02*
X276575D01*
Y645837D01*
X284294Y638118D01*
Y637460D01*
X346257Y585824D02*
X340748Y580315D01*
X288779D02*
X340748D01*
X284294Y584801D02*
X288779Y580315D01*
X284294Y637460D02*
Y584801D01*
X300984Y679134D02*
X310118D01*
X300984D02*
X284053Y662202D01*
Y651123D01*
X298228Y662992D02*
X294053Y658816D01*
X298228Y662992D02*
X307283D01*
X315118Y670827D02*
X307283Y662992D01*
X315118Y679134D02*
Y670827D01*
X294053Y658816D02*
Y651123D01*
X320118Y679134D02*
Y667188D01*
X304053Y651123D01*
X346257Y606241D02*
Y585824D01*
X355615Y648519D02*
X356258Y647876D01*
X253346Y791732D02*
X252953Y791339D01*
Y694095D01*
X257677Y689370D01*
X328150D02*
X330118Y687402D01*
Y679134D01*
X346260Y706693D02*
X356496D01*
X345118Y707835D02*
X346260Y706693D01*
X330118Y715354D02*
Y700394D01*
X350118Y727087D02*
Y715354D01*
X354961Y731929D02*
X350118Y727087D01*
X354961Y774764D02*
Y731929D01*
X345118Y715354D02*
Y707835D01*
X315118Y706653D02*
X313583Y705118D01*
X306102D02*
X313583D01*
X294685Y716536D02*
X306102Y705118D01*
X278543Y716536D02*
X294685D01*
X315118Y715354D02*
Y706653D01*
X310118Y723937D02*
Y715354D01*
X305627Y728428D02*
X310118Y723937D01*
X282816Y728428D02*
X305627D01*
X320118Y722598D02*
Y715354D01*
X304289Y738428D02*
X320118Y722598D01*
X282816Y738428D02*
X304289D01*
X325118Y723110D02*
Y715354D01*
X314370Y733858D02*
X325118Y723110D01*
X314370Y741339D02*
Y733858D01*
X307281Y748428D02*
X314370Y741339D01*
X282816Y748428D02*
X307281D01*
X348819Y736614D02*
X345118Y732913D01*
X348819Y783858D02*
Y736614D01*
X349724Y784764D02*
X348819Y783858D01*
X349724Y784764D02*
X354961D01*
X345118Y732913D02*
Y715354D01*
X335118Y725709D02*
Y715354D01*
X332087Y728740D02*
X335118Y725709D01*
X326181Y728740D02*
X332087D01*
X322244Y732677D02*
X326181Y728740D01*
X322244Y740551D02*
Y732677D01*
X341929Y740551D02*
Y728740D01*
X340118Y726929D01*
Y715354D01*
X456890Y622047D02*
Y616142D01*
X477756Y642913D02*
X456890Y622047D01*
X477756Y679134D02*
Y642913D01*
X493895Y621257D02*
Y606241D01*
X511614Y638976D02*
X493895Y621257D01*
X511614Y638976D02*
X513189D01*
X424213Y689370D02*
X475787D01*
X405315D02*
X424213D01*
Y645837D01*
X431931Y638118D01*
Y637460D01*
X493895Y585824D02*
X488386Y580315D01*
X436417D02*
X488386D01*
X431931Y584801D02*
X436417Y580315D01*
X431931Y637460D02*
Y584801D01*
X448622Y679134D02*
X457756D01*
X448622D02*
X431691Y662202D01*
Y651123D01*
X445866Y662992D02*
X441690Y658816D01*
X445866Y662992D02*
X454921D01*
X462756Y670827D02*
X454921Y662992D01*
X462756Y679134D02*
Y670827D01*
X441690Y658816D02*
Y651123D01*
X467756Y679134D02*
Y667188D01*
X451690Y651123D01*
X493895Y606241D02*
Y585824D01*
X503253Y648519D02*
X503895Y647876D01*
X400984Y791732D02*
X400591Y791339D01*
Y694095D01*
X405315Y689370D01*
X475787D02*
X477756Y687402D01*
Y679134D01*
X493898Y706693D02*
X504134D01*
X492756Y707835D02*
X493898Y706693D01*
X477756Y715354D02*
Y700394D01*
X497756Y727087D02*
Y715354D01*
X502598Y731929D02*
X497756Y727087D01*
X502598Y774764D02*
Y731929D01*
X492756Y715354D02*
Y707835D01*
X462756Y706653D02*
X461221Y705118D01*
X453740D02*
X461221D01*
X442323Y716536D02*
X453740Y705118D01*
X426181Y716536D02*
X442323D01*
X462756Y715354D02*
Y706653D01*
X457756Y723937D02*
Y715354D01*
X453265Y728428D02*
X457756Y723937D01*
X430453Y728428D02*
X453265D01*
X467756Y722598D02*
Y715354D01*
X451927Y738428D02*
X467756Y722598D01*
X430453Y738428D02*
X451927D01*
X472756Y723110D02*
Y715354D01*
X462008Y733858D02*
X472756Y723110D01*
X462008Y741339D02*
Y733858D01*
X454919Y748428D02*
X462008Y741339D01*
X430453Y748428D02*
X454919D01*
X496457Y736614D02*
X492756Y732913D01*
X496457Y783858D02*
Y736614D01*
X497362Y784764D02*
X496457Y783858D01*
X497362Y784764D02*
X502598D01*
X492756Y732913D02*
Y715354D01*
X482756Y725709D02*
Y715354D01*
X479724Y728740D02*
X482756Y725709D01*
X473819Y728740D02*
X479724D01*
X469882Y732677D02*
X473819Y728740D01*
X469882Y740551D02*
Y732677D01*
X489567Y740551D02*
Y728740D01*
X487756Y726929D01*
Y715354D01*
X604528Y622047D02*
Y616142D01*
X625394Y642913D02*
X604528Y622047D01*
X625394Y679134D02*
Y642913D01*
X641533Y621257D02*
Y606241D01*
X659252Y638976D02*
X641533Y621257D01*
X659252Y638976D02*
X660827D01*
X571850Y689370D02*
X623425D01*
X552953D02*
X571850D01*
Y645837D01*
X579569Y638118D01*
Y637460D01*
X641533Y585824D02*
X636024Y580315D01*
X584055D02*
X636024D01*
X579569Y584801D02*
X584055Y580315D01*
X579569Y637460D02*
Y584801D01*
X596260Y679134D02*
X605394D01*
X596260D02*
X579328Y662202D01*
Y651123D01*
X593504Y662992D02*
X589328Y658816D01*
X593504Y662992D02*
X602559D01*
X610394Y670827D02*
X602559Y662992D01*
X610394Y679134D02*
Y670827D01*
X589328Y658816D02*
Y651123D01*
X615394Y679134D02*
Y667188D01*
X599328Y651123D01*
X641533Y606241D02*
Y585824D01*
X650890Y648519D02*
X651533Y647876D01*
X548622Y791732D02*
X548228Y791339D01*
Y694095D01*
X552953Y689370D01*
X623425D02*
X625394Y687402D01*
Y679134D01*
X641535Y706693D02*
X651772D01*
X640394Y707835D02*
X641535Y706693D01*
X625394Y715354D02*
Y700394D01*
X645394Y727087D02*
Y715354D01*
X650236Y731929D02*
X645394Y727087D01*
X650236Y774764D02*
Y731929D01*
X640394Y715354D02*
Y707835D01*
X610394Y706653D02*
X608858Y705118D01*
X601378D02*
X608858D01*
X589961Y716536D02*
X601378Y705118D01*
X573819Y716536D02*
X589961D01*
X610394Y715354D02*
Y706653D01*
X605394Y723937D02*
Y715354D01*
X600903Y728428D02*
X605394Y723937D01*
X578091Y728428D02*
X600903D01*
X615394Y722598D02*
Y715354D01*
X599565Y738428D02*
X615394Y722598D01*
X578091Y738428D02*
X599565D01*
X620394Y723110D02*
Y715354D01*
X609646Y733858D02*
X620394Y723110D01*
X609646Y741339D02*
Y733858D01*
X602557Y748428D02*
X609646Y741339D01*
X578091Y748428D02*
X602557D01*
X644095Y736614D02*
X640394Y732913D01*
X644095Y783858D02*
Y736614D01*
X645000Y784764D02*
X644095Y783858D01*
X645000Y784764D02*
X650236D01*
X640394Y732913D02*
Y715354D01*
X630394Y725709D02*
Y715354D01*
X627362Y728740D02*
X630394Y725709D01*
X621457Y728740D02*
X627362D01*
X617520Y732677D02*
X621457Y728740D01*
X617520Y740551D02*
Y732677D01*
X637205Y740551D02*
Y728740D01*
X635394Y726929D01*
Y715354D01*
D18*
X166183Y619530D02*
Y606357D01*
X192480Y645827D02*
X166183Y619530D01*
X192480Y679134D02*
Y645827D01*
X176183Y623231D02*
Y606357D01*
X197480Y644527D02*
X176183Y623231D01*
X197480Y679134D02*
Y644527D01*
X156184Y622916D02*
Y606357D01*
X177480Y644213D02*
X156184Y622916D01*
X177480Y679134D02*
Y644213D01*
X156184Y606357D02*
Y597719D01*
X151772Y593307D01*
Y586417D01*
X166183Y587360D02*
X167126Y586417D01*
X166183Y606357D02*
Y587360D01*
X182480Y592126D02*
Y586417D01*
X176183Y598423D02*
X182480Y592126D01*
X176183Y606357D02*
Y598423D01*
X208858Y606480D02*
X208620Y606241D01*
X208858Y623622D02*
Y606480D01*
X215158Y629921D02*
X208858Y623622D01*
X215158Y629921D02*
X221850D01*
X226575Y634646D02*
X221850Y629921D01*
X226575Y644882D02*
Y634646D01*
X222938Y648519D02*
X226575Y644882D01*
X217913Y648519D02*
X222938D01*
X207977D02*
X217913D01*
X202953Y653543D02*
X207977Y648519D01*
X202953Y673228D02*
Y653543D01*
X203821Y863467D02*
X210769D01*
X203821D02*
X199803Y859449D01*
Y792520D01*
X191827Y784543D01*
X177783D02*
X191827D01*
X313821Y619530D02*
Y606357D01*
X340118Y645827D02*
X313821Y619530D01*
X340118Y679134D02*
Y645827D01*
X323821Y623231D02*
Y606357D01*
X345118Y644527D02*
X323821Y623231D01*
X345118Y679134D02*
Y644527D01*
X303821Y622916D02*
Y606357D01*
X325118Y644213D02*
X303821Y622916D01*
X325118Y679134D02*
Y644213D01*
X303821Y606357D02*
Y597719D01*
X299410Y593307D01*
Y586417D01*
X313821Y587360D02*
X314764Y586417D01*
X313821Y606357D02*
Y587360D01*
X330118Y592126D02*
Y586417D01*
X323821Y598423D02*
X330118Y592126D01*
X323821Y606357D02*
Y598423D01*
X356496Y606480D02*
X356258Y606241D01*
X356496Y623622D02*
Y606480D01*
X362795Y629921D02*
X356496Y623622D01*
X362795Y629921D02*
X369488D01*
X374213Y634646D02*
X369488Y629921D01*
X374213Y644882D02*
Y634646D01*
X370576Y648519D02*
X374213Y644882D01*
X365551Y648519D02*
X370576D01*
X355615D02*
X365551D01*
X350590Y653543D02*
X355615Y648519D01*
X350590Y673228D02*
Y653543D01*
X351459Y863467D02*
X358406D01*
X351459D02*
X347441Y859449D01*
Y792520D01*
X339465Y784543D01*
X325421D02*
X339465D01*
X461459Y619530D02*
Y606357D01*
X487756Y645827D02*
X461459Y619530D01*
X487756Y679134D02*
Y645827D01*
X471459Y623231D02*
Y606357D01*
X492756Y644527D02*
X471459Y623231D01*
X492756Y679134D02*
Y644527D01*
X451459Y622916D02*
Y606357D01*
X472756Y644213D02*
X451459Y622916D01*
X472756Y679134D02*
Y644213D01*
X451459Y606357D02*
Y597719D01*
X447047Y593307D01*
Y586417D01*
X461459Y587360D02*
X462402Y586417D01*
X461459Y606357D02*
Y587360D01*
X477756Y592126D02*
Y586417D01*
X471459Y598423D02*
X477756Y592126D01*
X471459Y606357D02*
Y598423D01*
X504134Y606480D02*
X503895Y606241D01*
X504134Y623622D02*
Y606480D01*
X510433Y629921D02*
X504134Y623622D01*
X510433Y629921D02*
X517126D01*
X521850Y634646D02*
X517126Y629921D01*
X521850Y644882D02*
Y634646D01*
X518213Y648519D02*
X521850Y644882D01*
X513189Y648519D02*
X518213D01*
X503253D02*
X513189D01*
X498228Y653543D02*
X503253Y648519D01*
X498228Y673228D02*
Y653543D01*
X499097Y863467D02*
X506044D01*
X499097D02*
X495079Y859449D01*
Y792520D01*
X487102Y784543D01*
X473059D02*
X487102D01*
X609097Y619530D02*
Y606357D01*
X635394Y645827D02*
X609097Y619530D01*
X635394Y679134D02*
Y645827D01*
X619097Y623231D02*
Y606357D01*
X640394Y644527D02*
X619097Y623231D01*
X640394Y679134D02*
Y644527D01*
X599097Y622916D02*
Y606357D01*
X620394Y644213D02*
X599097Y622916D01*
X620394Y679134D02*
Y644213D01*
X599097Y606357D02*
Y597719D01*
X594685Y593307D01*
Y586417D01*
X609097Y587360D02*
X610039Y586417D01*
X609097Y606357D02*
Y587360D01*
X625394Y592126D02*
Y586417D01*
X619097Y598423D02*
X625394Y592126D01*
X619097Y606357D02*
Y598423D01*
X651772Y606480D02*
X651533Y606241D01*
X651772Y623622D02*
Y606480D01*
X658071Y629921D02*
X651772Y623622D01*
X658071Y629921D02*
X664764D01*
X669488Y634646D02*
X664764Y629921D01*
X669488Y644882D02*
Y634646D01*
X665851Y648519D02*
X669488Y644882D01*
X660827Y648519D02*
X665851D01*
X650890D02*
X660827D01*
X645866Y653543D02*
X650890Y648519D01*
X645866Y673228D02*
Y653543D01*
X646735Y863467D02*
X653682D01*
X646735D02*
X642717Y859449D01*
Y792520D01*
X634740Y784543D01*
X620697D02*
X634740D01*
D19*
X225000Y656693D02*
X230906Y650787D01*
Y631890D01*
X218620Y619604D01*
Y606241D01*
X187362Y693307D02*
X189724Y690945D01*
X113583Y693307D02*
X187362D01*
X189724Y690945D02*
X209449D01*
X187480Y688701D02*
Y679134D01*
X110433Y696457D02*
X113583Y693307D01*
X110433Y767323D02*
Y696457D01*
X121538Y778428D02*
X110433Y767323D01*
X121538Y778428D02*
X135178D01*
X372638Y656693D02*
X378543Y650787D01*
Y631890D01*
X366258Y619604D01*
Y606241D01*
X335000Y693307D02*
X337362Y690945D01*
X261221Y693307D02*
X335000D01*
X337362Y690945D02*
X357087D01*
X335118Y688701D02*
Y679134D01*
X258071Y696457D02*
X261221Y693307D01*
X258071Y767323D02*
Y696457D01*
X269176Y778428D02*
X258071Y767323D01*
X269176Y778428D02*
X282816D01*
X520276Y656693D02*
X526181Y650787D01*
Y631890D01*
X513895Y619604D01*
Y606241D01*
X482638Y693307D02*
X485000Y690945D01*
X408858Y693307D02*
X482638D01*
X485000Y690945D02*
X504724D01*
X482756Y688701D02*
Y679134D01*
X405709Y696457D02*
X408858Y693307D01*
X405709Y767323D02*
Y696457D01*
X416813Y778428D02*
X405709Y767323D01*
X416813Y778428D02*
X430453D01*
X667913Y656693D02*
X673819Y650787D01*
Y631890D01*
X661533Y619604D01*
Y606241D01*
X630276Y693307D02*
X632638Y690945D01*
X556496Y693307D02*
X630276D01*
X632638Y690945D02*
X652362D01*
X630394Y688701D02*
Y679134D01*
X553346Y696457D02*
X556496Y693307D01*
X553346Y767323D02*
Y696457D01*
X564451Y778428D02*
X553346Y767323D01*
X564451Y778428D02*
X578091D01*
D20*
X129671Y553422D02*
D03*
X277309D02*
D03*
X424947D02*
D03*
X572585D02*
D03*
D21*
X196601Y509474D02*
D03*
X344239D02*
D03*
X491876D02*
D03*
X639514D02*
D03*
D22*
X197835Y504921D02*
D03*
X345472D02*
D03*
X493110D02*
D03*
X640748D02*
D03*
D23*
X215059Y500984D02*
D03*
X362697D02*
D03*
X510335D02*
D03*
X657972D02*
D03*
D24*
X216043Y507382D02*
D03*
X363681D02*
D03*
X511319D02*
D03*
X658957D02*
D03*
D25*
X169291Y761614D02*
D03*
X316929D02*
D03*
X464567D02*
D03*
X612205D02*
D03*
D26*
X136614Y610156D02*
D03*
X284252D02*
D03*
X431890D02*
D03*
X579528D02*
D03*
D27*
X130413Y863189D02*
D03*
X278051D02*
D03*
X425689D02*
D03*
X573327D02*
D03*
D28*
X129921Y863189D02*
D03*
X277559D02*
D03*
X425197D02*
D03*
D29*
X166339Y492126D02*
D03*
X313976D02*
D03*
X461614D02*
D03*
X609252D02*
D03*
D30*
X234252Y639567D02*
D03*
X381890D02*
D03*
X529528D02*
D03*
X677165D02*
D03*
D31*
X146653Y531496D02*
D03*
X294291D02*
D03*
X441929D02*
D03*
X589567D02*
D03*
D32*
X180118Y542815D02*
D03*
X327756D02*
D03*
X475394D02*
D03*
X623032D02*
D03*
D33*
X199803Y525591D02*
D03*
X347441D02*
D03*
X495079D02*
D03*
X642717D02*
D03*
D34*
X166339Y568110D02*
D03*
X313976D02*
D03*
X461614D02*
D03*
X609252D02*
D03*
D35*
X121260Y601378D02*
D03*
X268898D02*
D03*
X416535D02*
D03*
X564173D02*
D03*
D36*
X218701Y605709D02*
D03*
X366339D02*
D03*
X513976D02*
D03*
X661614D02*
D03*
D37*
X229921Y582677D02*
D03*
X377559D02*
D03*
X525197D02*
D03*
X672835D02*
D03*
D38*
X213976Y578150D02*
D03*
X361614D02*
D03*
X509252D02*
D03*
X656890D02*
D03*
D39*
X181595Y554626D02*
D03*
X329232D02*
D03*
X476870D02*
D03*
X624508D02*
D03*
D40*
X136614Y637795D02*
D03*
X284252D02*
D03*
X431890D02*
D03*
X579528D02*
D03*
D41*
X157283Y645866D02*
D03*
X304921D02*
D03*
X452559D02*
D03*
X600197D02*
D03*
D42*
X146653Y648819D02*
D03*
X294291D02*
D03*
X441929D02*
D03*
X589567D02*
D03*
D43*
X136614Y656299D02*
D03*
X284252D02*
D03*
X431890D02*
D03*
X579528D02*
D03*
D44*
X192520Y612992D02*
D03*
X340158D02*
D03*
X487795D02*
D03*
X635433D02*
D03*
D45*
X216142Y648622D02*
D03*
X363779D02*
D03*
X511417D02*
D03*
X659055D02*
D03*
D46*
X217717Y639173D02*
D03*
X365354D02*
D03*
X512992D02*
D03*
X660630D02*
D03*
D47*
X196457Y691929D02*
D03*
X344094D02*
D03*
X491732D02*
D03*
X639370D02*
D03*
D48*
X214370Y659646D02*
D03*
X362008D02*
D03*
X509646D02*
D03*
X657283D02*
D03*
D49*
X221654Y678937D02*
D03*
X369291D02*
D03*
X516929D02*
D03*
X664567D02*
D03*
D50*
X206693Y676378D02*
D03*
X354331D02*
D03*
X501968D02*
D03*
X649606D02*
D03*
D51*
X129921Y728346D02*
D03*
X277559D02*
D03*
X425197D02*
D03*
X572835D02*
D03*
D52*
X208268Y862402D02*
D03*
X355906D02*
D03*
X503543D02*
D03*
X651181D02*
D03*
D53*
X216732Y709252D02*
D03*
X364370D02*
D03*
X512008D02*
D03*
X659646D02*
D03*
D54*
X218307Y718701D02*
D03*
X365945D02*
D03*
X513583D02*
D03*
X661221D02*
D03*
D55*
X216535Y756496D02*
D03*
X364173D02*
D03*
X511811D02*
D03*
X659449D02*
D03*
D56*
X208071Y748622D02*
D03*
X355709D02*
D03*
X503346D02*
D03*
X650984D02*
D03*
D57*
X209449Y721850D02*
D03*
X357087D02*
D03*
X504724D02*
D03*
X652362D02*
D03*
D58*
X212795Y709252D02*
D03*
X360433D02*
D03*
X508071D02*
D03*
X655709D02*
D03*
D59*
X153347Y775394D02*
D03*
X300984D02*
D03*
X448622D02*
D03*
X596260D02*
D03*
D60*
X122047Y700197D02*
D03*
X269685D02*
D03*
X417323D02*
D03*
X564961D02*
D03*
D61*
X134252Y717717D02*
D03*
X281890D02*
D03*
X429528D02*
D03*
X577165D02*
D03*
D62*
X125394Y718110D02*
D03*
X273031D02*
D03*
X420669D02*
D03*
X568307D02*
D03*
D63*
X130364Y738337D02*
D03*
X278002D02*
D03*
X425640D02*
D03*
X573278D02*
D03*
D64*
X130364Y748425D02*
D03*
X278002D02*
D03*
X425640D02*
D03*
X573278D02*
D03*
D65*
X138927Y758612D02*
D03*
X286565D02*
D03*
X434203D02*
D03*
X581841D02*
D03*
D66*
X173031Y794291D02*
D03*
X320669D02*
D03*
X468307D02*
D03*
X615945D02*
D03*
D67*
X173228Y804921D02*
D03*
X320866D02*
D03*
X468504D02*
D03*
X616142D02*
D03*
D68*
X131299Y799508D02*
D03*
X278937D02*
D03*
X426575D02*
D03*
X574213D02*
D03*
D69*
X183957Y770571D02*
D03*
X331594D02*
D03*
X479232D02*
D03*
X626870D02*
D03*
D70*
X208071Y774508D02*
D03*
X355709D02*
D03*
X503346D02*
D03*
X650984D02*
D03*
D71*
X210827Y784449D02*
D03*
X358465D02*
D03*
X506102D02*
D03*
X653740D02*
D03*
D72*
X183957Y759252D02*
D03*
X331594D02*
D03*
X479232D02*
D03*
X626870D02*
D03*
D73*
X174606Y744488D02*
D03*
X322244D02*
D03*
X469882D02*
D03*
X617520D02*
D03*
D74*
X194291D02*
D03*
X341929D02*
D03*
X489567D02*
D03*
X637205D02*
D03*
D75*
X572835Y863189D02*
D03*
D76*
X177783Y804543D02*
D03*
X325421D02*
D03*
X473059D02*
D03*
X620697D02*
D03*
D77*
X177783Y794543D02*
D03*
Y784543D02*
D03*
Y774543D02*
D03*
X207783Y804543D02*
D03*
Y794543D02*
D03*
Y784543D02*
D03*
Y774543D02*
D03*
X325421Y794543D02*
D03*
Y784543D02*
D03*
Y774543D02*
D03*
X355421Y804543D02*
D03*
Y794543D02*
D03*
Y784543D02*
D03*
Y774543D02*
D03*
X473059Y794543D02*
D03*
Y784543D02*
D03*
Y774543D02*
D03*
X503059Y804543D02*
D03*
Y794543D02*
D03*
Y784543D02*
D03*
Y774543D02*
D03*
X620697Y794543D02*
D03*
Y784543D02*
D03*
Y774543D02*
D03*
X650697Y804543D02*
D03*
Y794543D02*
D03*
Y784543D02*
D03*
Y774543D02*
D03*
D78*
X183961Y525591D02*
D03*
X136415Y651123D02*
D03*
X146415D02*
D03*
X198620Y606241D02*
D03*
X208620D02*
D03*
X176183Y606357D02*
D03*
X166183D02*
D03*
X135178Y778428D02*
D03*
Y768428D02*
D03*
Y758428D02*
D03*
Y748428D02*
D03*
Y738428D02*
D03*
X156656Y637460D02*
D03*
X146656D02*
D03*
X136656D02*
D03*
X130512Y863386D02*
D03*
X187598Y606299D02*
D03*
X125394Y728346D02*
D03*
Y718110D02*
D03*
X125394Y738484D02*
D03*
Y748524D02*
D03*
X125689Y758563D02*
D03*
X331598Y525591D02*
D03*
X284053Y651123D02*
D03*
X294053D02*
D03*
X346257Y606241D02*
D03*
X356258D02*
D03*
X323821Y606357D02*
D03*
X313821D02*
D03*
X282816Y778428D02*
D03*
Y768428D02*
D03*
Y758428D02*
D03*
Y748428D02*
D03*
Y738428D02*
D03*
X304294Y637460D02*
D03*
X294294D02*
D03*
X284294D02*
D03*
X278150Y863386D02*
D03*
X335236Y606299D02*
D03*
X273031Y728346D02*
D03*
Y718110D02*
D03*
X273031Y738484D02*
D03*
Y748524D02*
D03*
X273327Y758563D02*
D03*
X479236Y525591D02*
D03*
X431691Y651123D02*
D03*
X441690D02*
D03*
X493895Y606241D02*
D03*
X503895D02*
D03*
X471459Y606357D02*
D03*
X461459D02*
D03*
X430453Y778428D02*
D03*
Y768428D02*
D03*
Y758428D02*
D03*
Y748428D02*
D03*
Y738428D02*
D03*
X451931Y637460D02*
D03*
X441931D02*
D03*
X431931D02*
D03*
X425787Y863386D02*
D03*
X482874Y606299D02*
D03*
X420669Y728346D02*
D03*
Y718110D02*
D03*
X420669Y738484D02*
D03*
Y748524D02*
D03*
X420965Y758563D02*
D03*
X626874Y525591D02*
D03*
X579328Y651123D02*
D03*
X589328D02*
D03*
X641533Y606241D02*
D03*
X651533D02*
D03*
X619097Y606357D02*
D03*
X609097D02*
D03*
X578091Y778428D02*
D03*
Y768428D02*
D03*
Y758428D02*
D03*
Y748428D02*
D03*
Y738428D02*
D03*
X599569Y637460D02*
D03*
X589569D02*
D03*
X579569D02*
D03*
X573425Y863386D02*
D03*
X630512Y606299D02*
D03*
X568307Y728346D02*
D03*
Y718110D02*
D03*
X568307Y738484D02*
D03*
Y748524D02*
D03*
X568602Y758563D02*
D03*
D79*
X142780Y525591D02*
D03*
X156415Y651123D02*
D03*
X218620Y606241D02*
D03*
X156184Y606357D02*
D03*
X126656Y637460D02*
D03*
X290417Y525591D02*
D03*
X304053Y651123D02*
D03*
X366258Y606241D02*
D03*
X303821Y606357D02*
D03*
X274294Y637460D02*
D03*
X438055Y525591D02*
D03*
X451690Y651123D02*
D03*
X513895Y606241D02*
D03*
X451459Y606357D02*
D03*
X421932Y637460D02*
D03*
X585693Y525591D02*
D03*
X599328Y651123D02*
D03*
X661533Y606241D02*
D03*
X599097Y606357D02*
D03*
X569569Y637460D02*
D03*
D80*
X215370Y507724D02*
D03*
X363008D02*
D03*
X510646D02*
D03*
X658284D02*
D03*
D81*
X215370Y527409D02*
D03*
X363008D02*
D03*
X510646D02*
D03*
X658284D02*
D03*
D82*
X217913Y658661D02*
D03*
Y648519D02*
D03*
Y638976D02*
D03*
X365551Y658661D02*
D03*
Y648519D02*
D03*
Y638976D02*
D03*
X513189Y658661D02*
D03*
Y648519D02*
D03*
Y638976D02*
D03*
X660827Y658661D02*
D03*
Y648519D02*
D03*
Y638976D02*
D03*
D83*
X135178Y728428D02*
D03*
X210769Y863467D02*
D03*
X282816Y728428D02*
D03*
X358406Y863467D02*
D03*
X430453Y728428D02*
D03*
X506044Y863467D02*
D03*
X578091Y728428D02*
D03*
X653682Y863467D02*
D03*
D84*
X194291Y740551D02*
D03*
X174606D02*
D03*
X341929D02*
D03*
X322244D02*
D03*
X489567D02*
D03*
X469882D02*
D03*
X637205D02*
D03*
X617520D02*
D03*
D85*
X197835Y523622D02*
D03*
X198031Y509646D02*
D03*
X345472Y523622D02*
D03*
X345669Y509646D02*
D03*
X493110Y523622D02*
D03*
X493307Y509646D02*
D03*
X640748Y523622D02*
D03*
X640945Y509646D02*
D03*
D86*
X180118Y545276D02*
D03*
X164370D02*
D03*
X173228D02*
D03*
X180118Y555118D02*
D03*
X173228D02*
D03*
X164370D02*
D03*
Y563976D02*
D03*
X180118D02*
D03*
X173228D02*
D03*
X187992Y541339D02*
D03*
Y553150D02*
D03*
Y564961D02*
D03*
X195866Y541339D02*
D03*
Y553150D02*
D03*
Y564961D02*
D03*
X117126Y631890D02*
D03*
Y624016D02*
D03*
X125000Y616142D02*
D03*
Y608268D02*
D03*
Y600394D02*
D03*
Y592520D02*
D03*
Y584646D02*
D03*
Y576772D02*
D03*
Y568898D02*
D03*
X117126D02*
D03*
Y576772D02*
D03*
Y584646D02*
D03*
Y592520D02*
D03*
Y600394D02*
D03*
Y608268D02*
D03*
Y616142D02*
D03*
X228150Y589370D02*
D03*
Y579921D02*
D03*
Y564173D02*
D03*
Y572047D02*
D03*
X210433Y563779D02*
D03*
Y572047D02*
D03*
Y579921D02*
D03*
X210039Y589370D02*
D03*
X218701D02*
D03*
Y579921D02*
D03*
Y572047D02*
D03*
Y563779D02*
D03*
X216339Y766929D02*
D03*
X208858Y766929D02*
D03*
Y759449D02*
D03*
X216339Y759449D02*
D03*
Y737008D02*
D03*
Y744488D02*
D03*
Y751575D02*
D03*
X208858Y751575D02*
D03*
Y744488D02*
D03*
Y737008D02*
D03*
X213189Y717717D02*
D03*
Y709449D02*
D03*
X123425Y704724D02*
D03*
X117913Y701181D02*
D03*
Y707874D02*
D03*
X139961Y792126D02*
D03*
Y807087D02*
D03*
X169488Y794488D02*
D03*
Y804724D02*
D03*
X327756Y545276D02*
D03*
X312008D02*
D03*
X320866D02*
D03*
X327756Y555118D02*
D03*
X320866D02*
D03*
X312008D02*
D03*
Y563976D02*
D03*
X327756D02*
D03*
X320866D02*
D03*
X335630Y541339D02*
D03*
Y553150D02*
D03*
Y564961D02*
D03*
X343504Y541339D02*
D03*
Y553150D02*
D03*
Y564961D02*
D03*
X264764Y631890D02*
D03*
Y624016D02*
D03*
X272638Y616142D02*
D03*
Y608268D02*
D03*
Y600394D02*
D03*
Y592520D02*
D03*
Y584646D02*
D03*
Y576772D02*
D03*
Y568898D02*
D03*
X264764D02*
D03*
Y576772D02*
D03*
Y584646D02*
D03*
Y592520D02*
D03*
Y600394D02*
D03*
Y608268D02*
D03*
Y616142D02*
D03*
X375787Y589370D02*
D03*
Y579921D02*
D03*
Y564173D02*
D03*
Y572047D02*
D03*
X358071Y563779D02*
D03*
Y572047D02*
D03*
Y579921D02*
D03*
X357677Y589370D02*
D03*
X366339D02*
D03*
Y579921D02*
D03*
Y572047D02*
D03*
Y563779D02*
D03*
X363976Y766929D02*
D03*
X356496Y766929D02*
D03*
Y759449D02*
D03*
X363976Y759449D02*
D03*
Y737008D02*
D03*
Y744488D02*
D03*
Y751575D02*
D03*
X356496Y751575D02*
D03*
Y744488D02*
D03*
Y737008D02*
D03*
X360827Y717717D02*
D03*
Y709449D02*
D03*
X271063Y704724D02*
D03*
X265551Y701181D02*
D03*
Y707874D02*
D03*
X287598Y792126D02*
D03*
Y807087D02*
D03*
X317126Y794488D02*
D03*
Y804724D02*
D03*
X475394Y545276D02*
D03*
X459646D02*
D03*
X468504D02*
D03*
X475394Y555118D02*
D03*
X468504D02*
D03*
X459646D02*
D03*
Y563976D02*
D03*
X475394D02*
D03*
X468504D02*
D03*
X483268Y541339D02*
D03*
Y553150D02*
D03*
Y564961D02*
D03*
X491142Y541339D02*
D03*
Y553150D02*
D03*
Y564961D02*
D03*
X412402Y631890D02*
D03*
Y624016D02*
D03*
X420276Y616142D02*
D03*
Y608268D02*
D03*
Y600394D02*
D03*
Y592520D02*
D03*
Y584646D02*
D03*
Y576772D02*
D03*
Y568898D02*
D03*
X412402D02*
D03*
Y576772D02*
D03*
Y584646D02*
D03*
Y592520D02*
D03*
Y600394D02*
D03*
Y608268D02*
D03*
Y616142D02*
D03*
X523425Y589370D02*
D03*
Y579921D02*
D03*
Y564173D02*
D03*
Y572047D02*
D03*
X505709Y563779D02*
D03*
Y572047D02*
D03*
Y579921D02*
D03*
X505315Y589370D02*
D03*
X513976D02*
D03*
Y579921D02*
D03*
Y572047D02*
D03*
Y563779D02*
D03*
X511614Y766929D02*
D03*
X504134Y766929D02*
D03*
Y759449D02*
D03*
X511614Y759449D02*
D03*
Y737008D02*
D03*
Y744488D02*
D03*
Y751575D02*
D03*
X504134Y751575D02*
D03*
Y744488D02*
D03*
Y737008D02*
D03*
X508465Y717717D02*
D03*
Y709449D02*
D03*
X418701Y704724D02*
D03*
X413189Y701181D02*
D03*
Y707874D02*
D03*
X435236Y792126D02*
D03*
Y807087D02*
D03*
X464764Y794488D02*
D03*
Y804724D02*
D03*
X623032Y545276D02*
D03*
X607283D02*
D03*
X616142D02*
D03*
X623032Y555118D02*
D03*
X616142D02*
D03*
X607283D02*
D03*
Y563976D02*
D03*
X623032D02*
D03*
X616142D02*
D03*
X630905Y541339D02*
D03*
Y553150D02*
D03*
Y564961D02*
D03*
X638779Y541339D02*
D03*
Y553150D02*
D03*
Y564961D02*
D03*
X560039Y631890D02*
D03*
Y624016D02*
D03*
X567913Y616142D02*
D03*
Y608268D02*
D03*
Y600394D02*
D03*
Y592520D02*
D03*
Y584646D02*
D03*
Y576772D02*
D03*
Y568898D02*
D03*
X560039D02*
D03*
Y576772D02*
D03*
Y584646D02*
D03*
Y592520D02*
D03*
Y600394D02*
D03*
Y608268D02*
D03*
Y616142D02*
D03*
X671063Y589370D02*
D03*
Y579921D02*
D03*
Y564173D02*
D03*
Y572047D02*
D03*
X653346Y563779D02*
D03*
Y572047D02*
D03*
Y579921D02*
D03*
X652953Y589370D02*
D03*
X661614D02*
D03*
Y579921D02*
D03*
Y572047D02*
D03*
Y563779D02*
D03*
X659252Y766929D02*
D03*
X651772Y766929D02*
D03*
Y759449D02*
D03*
X659252Y759449D02*
D03*
Y737008D02*
D03*
Y744488D02*
D03*
Y751575D02*
D03*
X651772Y751575D02*
D03*
Y744488D02*
D03*
Y737008D02*
D03*
X656102Y717717D02*
D03*
Y709449D02*
D03*
X566339Y704724D02*
D03*
X560827Y701181D02*
D03*
Y707874D02*
D03*
X582874Y792126D02*
D03*
Y807087D02*
D03*
X612402Y794488D02*
D03*
Y804724D02*
D03*
M02*
