_DC 19 0 ABS
_PD 1B 0 ABS
_RD 4E0 0 ABS
_TO 1C 0 ABS
_WR 4E1 0 ABS
_RA0 28 0 ABS
_RB0 30 0 ABS
_RA1 29 0 ABS
_RB1 31 0 ABS
_RA2 2A 0 ABS
_CM0 F8 0 ABS
_RB2 32 0 ABS
_RA3 2B 0 ABS
_CM1 F9 0 ABS
_RB3 33 0 ABS
_RA4 2C 0 ABS
_CM2 FA 0 ABS
_RB4 34 0 ABS
_RA5 2D 0 ABS
_RB5 35 0 ABS
_RA6 2E 0 ABS
_RB6 36 0 ABS
_RA7 2F 0 ABS
_RB7 37 0 ABS
_RP0 1D 0 ABS
_PS0 408 0 ABS
_RP1 1E 0 ABS
_PS1 409 0 ABS
_VR0 4F8 0 ABS
_PR2 92 0 ABS
_PS2 40A 0 ABS
_VR1 4F9 0 ABS
_VR2 4FA 0 ABS
__S0 2008 0 ABS
_VR3 4FB 0 ABS
__S1 180 0 ABS
__S2 2100 0 ABS
_RX9 C6 0 ABS
_TX9 4C6 0 ABS
_GIE 5F 0 ABS
_PSA 40B 0 ABS
_PCL 2 0 ABS
_CIS FB 0 ABS
_BOR 470 0 ABS
_IRP 1F 0 ABS
_FSR 4 0 ABS
_POR 471 0 ABS
_VRR 4FD 0 ABS
__Hintentry 0 0 CODE
__Lintentry 0 0 CODE
__end_of_tick 685 0 CODE
_one 62F 0 CODE
_two 64F 0 CODE
_six 63F 0 CODE
_PIE1 8C 0 ABS
_PIR1 C 0 ABS
_TMR0 1 0 ABS
_TMR2 11 0 ABS
_T0IE 5D 0 ABS
_RX9D C0 0 ABS
_T0IF 5A 0 ABS
_TX9D 4C0 0 ABS
_EEIE 467 0 ABS
_RBIE 5B 0 ABS
_EEIF 67 0 ABS
_RCIE 465 0 ABS
_INDF 0 0 ABS
_PEIE 5E 0 ABS
_T0SE 40C 0 ABS
_CMIE 466 0 ABS
_RBIF 58 0 ABS
_RCIF 65 0 ABS
_CMIF 66 0 ABS
_OSCF 473 0 ABS
_BRGH 4C2 0 ABS
_CSRC 4C7 0 ABS
_ADEN C3 0 ABS
_TXIE 464 0 ABS
_SYNC 4C4 0 ABS
_T0CS 40D 0 ABS
_TXIF 64 0 ABS
_INTE 5C 0 ABS
_VROE 4FE 0 ABS
_INTF 59 0 ABS
_CREN C4 0 ABS
_SPEN C7 0 ABS
_SREN C5 0 ABS
_VREN 4FF 0 ABS
_WREN 4E2 0 ABS
_PCON 8E 0 ABS
_TXEN 4C5 0 ABS
_ZERO 1A 0 ABS
_FERR C2 0 ABS
_OERR C1 0 ABS
_RBPU 40F 0 ABS
_TRMT 4C1 0 ABS
__size_of_tick 0 0 ABS
_nine 627 0 CODE
_tick 678 0 CODE
_five 617 0 CODE
_vpih 65F 0 CODE
_main 729 0 CODE
btemp 7E 0 ABS
_zero 657 0 CODE
_exit 0 0 CODE
start 0 0 CODE
_four 61F 0 CODE
stringtab 600 0 CODE
_TMR1H F 0 ABS
_TMR1L E 0 ABS
_RCREG 1A 0 ABS
_TRISA 85 0 ABS
_RCSTA 18 0 ABS
_TRISB 86 0 ABS
_TXREG 19 0 ABS
_PORTA 5 0 ABS
reset_vec 0 0 CODE
_PORTB 6 0 ABS
_SPBRG 99 0 ABS
_TXSTA 98 0 ABS
_CCP1X BD 0 ABS
_EEADR 9B 0 ABS
_T1CON 10 0 ABS
_T2CON 12 0 ABS
_CCP1Y BC 0 ABS
_CMCON 1F 0 ABS
_VRCON 9F 0 ABS
_C1INV FC 0 ABS
_C2INV FD 0 ABS
_WRERR 4E3 0 ABS
_C1OUT FE 0 ABS
_C2OUT FF 0 ABS
_CARRY 18 0 ABS
__Hconfig 2008 0 CONFIG
__Lconfig 2007 0 CONFIG
vpih@i 77 0 COMMON
main@i 20 0 BANK0
__Bram 4200 4200 ABS
_three 647 0 CODE
__Hram 0 4200 ABS
__Lram 0 4200 ABS
?_tick 75 0 COMMON
?_vpih 78 0 COMMON
?_main 7A 0 COMMON
_seven 637 0 CODE
_eight 60F 0 CODE
_CCP1M0 B8 0 ABS
_CCP1M1 B9 0 ABS
_CCP1M2 BA 0 ABS
_CCP1M3 BB 0 ABS
_TRISA0 428 0 ABS
_TRISB0 430 0 ABS
_TRISA1 429 0 ABS
_TRISB1 431 0 ABS
_TRISA2 42A 0 ABS
_TRISB2 432 0 ABS
_TRISA3 42B 0 ABS
_TRISB3 433 0 ABS
_TRISA4 42C 0 ABS
_EECON1 9C 0 ABS
_TRISB4 434 0 ABS
_TRISA5 42D 0 ABS
_EECON2 9D 0 ABS
_TRISB5 435 0 ABS
_TRISA6 42E 0 ABS
_TRISB6 436 0 ABS
stringdir 609 0 CODE
_TRISA7 42F 0 ABS
_TRISB7 437 0 ABS
__Bcommon 4200 4200 ABS
__Hcommon 0 4200 ABS
__Lcommon 0 4200 ABS
__Beeprom_data 2100 4200 EEDATA
__Heeprom_data 0 4200 EEDATA
__Leeprom_data 0 4200 EEDATA
stringjmp 60D 0 CODE
_CCPR1H 16 0 ABS
_CCP1IE 462 0 ABS
_CCP1IF 62 0 ABS
_TMR1IE 460 0 ABS
_TMR2IE 461 0 ABS
_TMR1IF 60 0 ABS
??__delay 70 0 COMMON
_TMR2IF 61 0 ABS
_CCPR1L 15 0 ABS
_EEDATA 9A 0 ABS
_INTEDG 40E 0 ABS
__Hstruct 21 0 BANK0
__Lstruct 21 0 BANK0
_T1SYNC 82 0 ABS
_PCLATH A 0 ABS
_TMR1CS 81 0 ABS
__end_of_vpih 678 0 CODE
_TMR1ON 80 0 ABS
_TMR2ON 92 0 ABS
__Babs1 4200 4200 ABS
__Habs1 0 4200 ABS
__Labs1 0 4200 ABS
_INTCON B 0 ABS
__Bsfr0 4200 4200 ABS
__Hsfr0 0 4200 ABS
__Lsfr0 0 4200 ABS
__Bsfr1 4200 4200 ABS
__Hsfr1 0 4200 ABS
__Lsfr1 0 4200 ABS
_OPTION 81 0 ABS
__Bsfr2 4200 4200 ABS
__Hsfr2 0 4200 ABS
__Lsfr2 0 4200 ABS
__Bsfr3 4200 4200 ABS
__Hsfr3 0 4200 ABS
__Lsfr3 0 4200 ABS
_STATUS 3 0 ABS
__Bcode 4200 4200 ABS
__Hcode 0 4200 ABS
__Lcode 0 4200 ABS
??_tick 74 0 COMMON
??_vpih 75 0 COMMON
__Hintsave 4200 0 ABS
__Lintsave 4200 0 ABS
??_main 78 0 COMMON
__HcstackBANK0 4200 0 ABS
__LcstackBANK0 4200 0 ABS
__pcstackBANK0 20 0 BANK0
__Htemp 21 0 BANK0
__Ltemp 21 0 BANK0
__Hinit 0 0 CODE
__Linit 0 0 CODE
__end_of_main 800 0 CODE
__Btext 4200 4200 ABS
__Htext 0 4200 ABS
__Ltext 0 4200 ABS
end_of_initialization 685 0 CODE
_T1CKPS0 84 0 ABS
_T2CKPS0 90 0 ABS
_T1CKPS1 85 0 ABS
_T2CKPS1 91 0 ABS
_TOUTPS0 93 0 ABS
vpih@digit 76 0 COMMON
_TOUTPS1 94 0 ABS
_TOUTPS2 95 0 ABS
_TOUTPS3 96 0 ABS
__Bstrings 4200 4200 ABS
__Hstrings 0 4200 ABS
__Lstrings 0 4200 ABS
__pstrings 600 0 CODE
_T1OSCEN 83 0 ABS
_CCP1CON 17 0 ABS
__Bbank0 4200 4200 ABS
__size_of_vpih 0 0 ABS
__Hbank0 0 4200 ABS
__Lbank0 0 4200 ABS
__Bbank1 4200 4200 ABS
__Hbank1 0 4200 ABS
__Lbank1 0 4200 ABS
__Bbank2 4200 4200 ABS
__Hbank2 0 4200 ABS
__Lbank2 0 4200 ABS
__Bbank3 4200 4200 BANK3
__Hbank3 0 4200 BANK3
__Lbank3 0 4200 BANK3
__Hpowerup 1 0 CODE
__Lpowerup 1 0 CODE
__Bclrtext 4200 4200 ABS
__Hclrtext 0 4200 ABS
__Lclrtext 0 4200 ABS
__Hidloc 2000 0 IDLOC
__Lidloc 2000 0 IDLOC
__Hcinit 4200 0 ABS
__Lcinit 4200 0 ABS
?__delay 70 0 COMMON
__size_of_main 0 0 ABS
__Bptbit_0 4200 -1CE00 ABS
__Hptbit_0 21000 -1CE00 ABS
__Lptbit_0 21000 -1CE00 ABS
__delay$0 70 0 COMMON
__Hpa_nodes 4200 0 ABS
__Lpa_nodes 4200 0 ABS
__ptext22 65F 0 CODE
__ptext23 678 0 CODE
__ptext24 687 0 CODE
__Hend_init 1 0 CODE
__Lend_init 0 0 CODE
__Hreset_vec 0 0 CODE
__Lreset_vec 0 0 CODE
intlevel0 0 0 CODE
intlevel1 0 0 CODE
intlevel2 0 0 CODE
intlevel3 0 0 CODE
intlevel4 0 0 CODE
intlevel5 0 0 CODE
__HcstackCOMMON 4200 0 ABS
__LcstackCOMMON 4200 0 ABS
__pcstackCOMMON 70 0 COMMON
start_initialization 685 0 CODE
__Hmaintext 4200 0 ABS
__Lmaintext 4200 0 ABS
__pmaintext 729 0 CODE
__stringbase 60E 0 CODE
%segments
reset_vec 0 1 CODE 0
config 400E 400F CONFIG 400E
cstackCOMMON 70 79 COMMON 70
cstackBANK0 20 20 BANK0 20
maintext E52 FFF CODE E52
strings C00 D0D CODE C00
%locals
startup.obj
startup.as
69 0 0 CODE
display7seg.obj
display7seg.as
2 2007 0 CONFIG
X:\Hi-tech\7segment_display\digit.c
38 60F 0 CODE
X:\Hi-tech\7segment_display\digit.c
35 617 0 CODE
X:\Hi-tech\7segment_display\digit.c
34 61F 0 CODE
X:\Hi-tech\7segment_display\digit.c
39 627 0 CODE
X:\Hi-tech\7segment_display\digit.c
31 62F 0 CODE
X:\Hi-tech\7segment_display\digit.c
37 637 0 CODE
X:\Hi-tech\7segment_display\digit.c
36 63F 0 CODE
X:\Hi-tech\7segment_display\digit.c
33 647 0 CODE
X:\Hi-tech\7segment_display\digit.c
32 64F 0 CODE
X:\Hi-tech\7segment_display\digit.c
40 657 0 CODE
display7seg.as
552 685 0 CODE
553 686 0 CODE
X:\Hi-tech\7segment_display\digit.c
45 729 0 CODE
46 72C 0 CODE
47 72E 0 CODE
48 72F 0 CODE
49 730 0 CODE
51 733 0 CODE
52 735 0 CODE
53 741 0 CODE
54 743 0 CODE
55 754 0 CODE
56 756 0 CODE
57 767 0 CODE
58 769 0 CODE
59 77A 0 CODE
60 77C 0 CODE
61 78D 0 CODE
62 78F 0 CODE
63 7A0 0 CODE
64 7A2 0 CODE
65 7B3 0 CODE
66 7B5 0 CODE
67 7C6 0 CODE
68 7C8 0 CODE
69 7D9 0 CODE
70 7DB 0 CODE
71 7EC 0 CODE
72 7EE 0 CODE
X:\Hi-tech\7segment_display\digit.c
22 660 0 CODE
23 661 0 CODE
24 662 0 CODE
25 66E 0 CODE
23 66F 0 CODE
27 674 0 CODE
X:\Hi-tech\7segment_display\digit.c
13 678 0 CODE
14 679 0 CODE
15 67D 0 CODE
16 680 0 CODE
