%!PS-Adobe-3.0 EPSF-3.0
%%Title: EAGLE Drawing D:/Diymicro.ru/Projects/Busyboard/Steering_wheel/PCB/Steering_wheel/ShiftBoard.brd
%%Creator: EAGLE
%%Pages: 1
%%BoundingBox: 0 0 288 228
%%EndComments

% Coordinate transfer:

/EU { 254 div 0.072 mul } def
/inch { 72 mul } def

% Linestyle:

1 setlinecap
1 setlinejoin

% Drawing functions:

/l {  % draw a line
   /lw exch def
   /y2 exch def
   /x2 exch def
   /y1 exch def
   /x1 exch def
   newpath
   x1 EU y1 EU moveto
   x2 EU y2 EU lineto
   lw EU setlinewidth
   stroke
   } def

/h {  % draw a hole
   /d  exch def
   /y  exch def
   /x  exch def
   d 0 gt {
     newpath
     x EU y EU d 2 div EU 0 360 arc
     currentgray dup
     1 exch sub setgray
     fill
     setgray
     } if
   } def

/b {  % draw a bar
   /an exch def
   /y2 exch def
   /x2 exch def
   /y1 exch def
   /x1 exch def
   /w2 x2 x1 sub 2 div EU def
   /h2 y2 y1 sub 2 div EU def
   gsave
   x1 x2 add 2 div EU y1 y2 add 2 div EU translate
   an rotate
   newpath
   w2     h2     moveto
   w2 neg h2     lineto
   w2 neg h2 neg lineto
   w2     h2 neg lineto
   closepath
   fill
   grestore
   } def

/c {  % draw a circle
   /lw exch def
   /rd exch def
   /y  exch def
   /x  exch def
   newpath
   lw EU setlinewidth
   x EU y EU rd EU 0 360 arc
   stroke
   } def

/a {  % draw an arc
   /lc exch def
   /ae exch def
   /as exch def
   /lw exch def
   /rd exch def
   /y  exch def
   /x  exch def
   lw rd 2 mul gt {
     /rd rd lw 2 div add 2 div def
     /lw rd 2 mul def
     } if
   currentlinecap currentlinejoin
   lc setlinecap 0 setlinejoin
   newpath
   lw EU setlinewidth
   x EU y EU rd EU as ae arc
   stroke
   setlinejoin setlinecap
   } def

/p {  % draw a pie
   /d exch def
   /y exch def
   /x exch def
   newpath
   x EU y EU d 2 div EU 0 360 arc
   fill
   } def

/edge { 0.20710678119 mul } def

/o {  % draw an octagon
   /an exch def
   /dy exch def
   /dx exch def
   /y  exch def
   /x  exch def
   gsave
   x EU y EU translate
   an dx dy lt { 90 add /dx dy /dy dx def def } if rotate
   newpath
      0 dx 2 div sub EU                    0 dy edge  add EU moveto
      0 dx dy sub 2 div sub dy edge sub EU 0 dy 2 div add EU lineto
      0 dx dy sub 2 div add dy edge add EU 0 dy 2 div add EU lineto
      0 dx 2 div add EU                    0 dy edge  add EU lineto
      0 dx 2 div add EU                    0 dy edge  sub EU lineto
      0 dx dy sub 2 div add dy edge add EU 0 dy 2 div sub EU lineto
      0 dx dy sub 2 div sub dy edge sub EU 0 dy 2 div sub EU lineto
      0 dx 2 div sub EU                    0 dy edge  sub EU lineto
   closepath
   fill
   grestore
   } def

452120 403524 477520 428924 0.0 b
102870 536874 128270 574974 0.0 b
102870 574974 128270 587674 0.0 b
26670 371774 39370 397174 0.0 b
153670 346374 179070 435274 0.0 b
191770 346374 217170 435274 0.0 b
191770 435274 217170 447974 0.0 b
153670 435274 179070 447974 0.0 b
191770 498774 255270 511474 0.0 b
191770 486074 217170 498774 0.0 b
191770 511474 204470 524174 0.0 b
64770 384474 90170 511474 0.0 b
58420 384474 64770 511474 0.0 b
58420 359074 96520 384474 0.0 b
77470 359074 96520 416224 0.0 b
179070 549574 210820 574974 0.0 b
344170 663874 382270 682924 0.0 b
864870 505124 896620 530524 0.0 b
814070 619424 845820 651174 0.0 b
814070 644824 845820 657524 0.0 b
185420 663874 229870 682924 0.0 b
306070 759124 337820 771824 0.0 b
274320 162224 287020 174924 0.0 b
261620 54274 274320 98724 0.0 b
547370 28874 566420 41574 0.0 b
566420 28874 572770 41574 0.0 b
744220 16174 756920 41574 0.0 b
230961 274506 230961 258236 1524 l
230961 258236 239096 258236 1524 l
239096 258236 241808 260948 1524 l
241808 260948 241808 266371 1524 l
241808 266371 239096 269083 1524 l
239096 269083 230961 269083 1524 l
225436 269083 222725 269083 1524 l
222725 269083 222725 258236 1524 l
225436 258236 220013 258236 1524 l
222725 277218 222725 274506 1524 l
214522 269083 214522 260948 1524 l
214522 260948 211810 258236 1524 l
211810 258236 203675 258236 1524 l
203675 269083 203675 255524 1524 l
203675 255524 206387 252813 1524 l
206387 252813 209099 252813 1524 l
198151 258236 198151 269083 1524 l
198151 269083 195439 269083 1524 l
195439 269083 192727 266371 1524 l
192727 266371 192727 258236 1524 l
192727 266371 190016 269083 1524 l
190016 269083 187304 266371 1524 l
187304 266371 187304 258236 1524 l
181779 269083 179067 269083 1524 l
179067 269083 179067 258236 1524 l
181779 258236 176356 258236 1524 l
179067 277218 179067 274506 1524 l
160018 269083 168153 269083 1524 l
168153 269083 170865 266371 1524 l
170865 266371 170865 260948 1524 l
170865 260948 168153 258236 1524 l
168153 258236 160018 258236 1524 l
154493 258236 154493 269083 1524 l
154493 263659 149070 269083 1524 l
149070 269083 146358 269083 1524 l
138138 258236 132715 258236 1524 l
132715 258236 130003 260948 1524 l
130003 260948 130003 266371 1524 l
130003 266371 132715 269083 1524 l
132715 269083 138138 269083 1524 l
138138 269083 140850 266371 1524 l
140850 266371 140850 260948 1524 l
140850 260948 138138 258236 1524 l
124478 258236 124478 260948 1524 l
124478 260948 121767 260948 1524 l
121767 260948 121767 258236 1524 l
121767 258236 124478 258236 1524 l
116293 258236 116293 269083 1524 l
116293 263659 110869 269083 1524 l
110869 269083 108158 269083 1524 l
102650 269083 102650 260948 1524 l
102650 260948 99938 258236 1524 l
99938 258236 91803 258236 1524 l
91803 258236 91803 269083 1524 l
67310 750234 87630 729914 254 l
67310 729914 87630 750234 254 l
67310 77134 87630 56814 254 l
67310 56814 87630 77134 254 l
943610 77134 963930 56814 254 l
943610 56814 963930 77134 254 l
943610 750234 963930 729914 254 l
943610 729914 963930 750234 254 l
428752 177464 435356 197784 270.0 b
367284 177464 373888 197784 270.0 b
428752 164764 435356 185084 270.0 b
428752 152064 435356 172384 270.0 b
367284 164764 373888 185084 270.0 b
367284 152064 373888 172384 270.0 b
428752 139364 435356 159684 270.0 b
367284 139364 373888 159684 270.0 b
428752 126664 435356 146984 270.0 b
367284 126664 373888 146984 270.0 b
428752 113964 435356 134284 270.0 b
428752 101264 435356 121584 270.0 b
367284 113964 373888 134284 270.0 b
367284 101264 373888 121584 270.0 b
428752 88564 435356 108884 270.0 b
367284 88564 373888 108884 270.0 b
477370 100224 490370 116224 270.0 b
477370 81224 490370 97224 270.0 b
607568 138348 614172 158668 0.0 b
607568 76880 614172 97200 0.0 b
620268 138348 626872 158668 0.0 b
632968 138348 639572 158668 0.0 b
620268 76880 626872 97200 0.0 b
632968 76880 639572 97200 0.0 b
645668 138348 652272 158668 0.0 b
645668 76880 652272 97200 0.0 b
658368 138348 664972 158668 0.0 b
658368 76880 664972 97200 0.0 b
671068 138348 677672 158668 0.0 b
683768 138348 690372 158668 0.0 b
671068 76880 677672 97200 0.0 b
683768 76880 690372 97200 0.0 b
696468 138348 703072 158668 0.0 b
696468 76880 703072 97200 0.0 b
559920 5024 572920 21024 90.0 b
559920 24024 572920 40024 90.0 b
250952 653714 257556 674034 270.0 b
189484 653714 196088 674034 270.0 b
250952 641014 257556 661334 270.0 b
250952 628314 257556 648634 270.0 b
189484 641014 196088 661334 270.0 b
189484 628314 196088 648634 270.0 b
250952 615614 257556 635934 270.0 b
189484 615614 196088 635934 270.0 b
250952 602914 257556 623234 270.0 b
189484 602914 196088 623234 270.0 b
250952 590214 257556 610534 270.0 b
250952 577514 257556 597834 270.0 b
189484 590214 196088 610534 270.0 b
189484 577514 196088 597834 270.0 b
250952 564814 257556 585134 270.0 b
189484 564814 196088 585134 270.0 b
153520 728874 166520 744874 270.0 b
153520 709874 166520 725874 270.0 b
824484 520364 831088 540684 90.0 b
885952 520364 892556 540684 90.0 b
824484 533064 831088 553384 90.0 b
824484 545764 831088 566084 90.0 b
885952 533064 892556 553384 90.0 b
885952 545764 892556 566084 90.0 b
824484 558464 831088 578784 90.0 b
885952 558464 892556 578784 90.0 b
824484 571164 831088 591484 90.0 b
885952 571164 892556 591484 90.0 b
824484 583864 831088 604184 90.0 b
824484 596564 831088 616884 90.0 b
885952 583864 892556 604184 90.0 b
885952 596564 892556 616884 90.0 b
824484 609264 831088 629584 90.0 b
885952 609264 892556 629584 90.0 b
842520 636824 855520 652824 0.0 b
861520 636824 874520 652824 0.0 b
477370 201874 490370 217874 90.0 b
477370 220874 490370 236874 90.0 b
477370 322474 490370 338474 270.0 b
477370 303474 490370 319474 270.0 b
502770 201874 515770 217874 90.0 b
502770 220874 515770 236874 90.0 b
502770 322474 515770 338474 270.0 b
502770 303474 515770 319474 270.0 b
528170 201874 541170 217874 90.0 b
528170 220874 541170 236874 90.0 b
528170 322474 541170 338474 270.0 b
528170 303474 541170 319474 270.0 b
553570 201874 566570 217874 90.0 b
553570 220874 566570 236874 90.0 b
553570 322474 566570 338474 270.0 b
553570 303474 566570 319474 270.0 b
578970 201874 591970 217874 90.0 b
578970 220874 591970 236874 90.0 b
578970 322474 591970 338474 270.0 b
578970 303474 591970 319474 270.0 b
604370 201874 617370 217874 90.0 b
604370 220874 617370 236874 90.0 b
604370 322474 617370 338474 270.0 b
604370 303474 617370 319474 270.0 b
629770 201874 642770 217874 90.0 b
629770 220874 642770 236874 90.0 b
629770 322474 642770 338474 270.0 b
629770 303474 642770 319474 270.0 b
655170 201874 668170 217874 90.0 b
655170 220874 668170 236874 90.0 b
655170 322474 668170 338474 270.0 b
655170 303474 668170 319474 270.0 b
458470 257474 15240 15240 0.0 o
483870 257474 15240 15240 0.0 o
509270 257474 15240 15240 0.0 o
534670 257474 15240 15240 0.0 o
560070 257474 15240 15240 0.0 o
585470 257474 15240 15240 0.0 o
458470 282874 15240 15240 0.0 o
483870 282874 15240 15240 0.0 o
509270 282874 15240 15240 0.0 o
534670 282874 15240 15240 0.0 o
560070 282874 15240 15240 0.0 o
585470 282874 15240 15240 0.0 o
610870 257474 15240 15240 0.0 o
610870 282874 15240 15240 0.0 o
636270 257474 15240 15240 0.0 o
661670 257474 15240 15240 0.0 o
687070 257474 15240 15240 0.0 o
712470 257474 15240 15240 0.0 o
737870 257474 15240 15240 0.0 o
763270 257474 15240 15240 0.0 o
636270 282874 15240 15240 0.0 o
661670 282874 15240 15240 0.0 o
687070 282874 15240 15240 0.0 o
712470 282874 15240 15240 0.0 o
737870 282874 15240 15240 0.0 o
763270 282874 15240 15240 0.0 o
680570 201874 693570 217874 90.0 b
680570 220874 693570 236874 90.0 b
680570 322474 693570 338474 270.0 b
680570 303474 693570 319474 270.0 b
705970 201874 718970 217874 90.0 b
705970 220874 718970 236874 90.0 b
705970 322474 718970 338474 270.0 b
705970 303474 718970 319474 270.0 b
705970 493974 718970 509974 90.0 b
705970 512974 718970 528974 90.0 b
705970 614574 718970 630574 270.0 b
705970 595574 718970 611574 270.0 b
680570 493974 693570 509974 90.0 b
680570 512974 693570 528974 90.0 b
680570 614574 693570 630574 270.0 b
680570 595574 693570 611574 270.0 b
416052 653714 422656 674034 270.0 b
354584 653714 361188 674034 270.0 b
416052 641014 422656 661334 270.0 b
416052 628314 422656 648634 270.0 b
354584 641014 361188 661334 270.0 b
354584 628314 361188 648634 270.0 b
416052 615614 422656 635934 270.0 b
354584 615614 361188 635934 270.0 b
416052 602914 422656 623234 270.0 b
354584 602914 361188 623234 270.0 b
416052 590214 422656 610534 270.0 b
416052 577514 422656 597834 270.0 b
354584 590214 361188 610534 270.0 b
354584 577514 361188 597834 270.0 b
416052 564814 422656 585134 270.0 b
354584 564814 361188 585134 270.0 b
305920 779674 318920 795674 270.0 b
305920 760674 318920 776674 270.0 b
655170 493974 668170 509974 90.0 b
655170 512974 668170 528974 90.0 b
655170 614574 668170 630574 270.0 b
655170 595574 668170 611574 270.0 b
629770 493974 642770 509974 90.0 b
629770 512974 642770 528974 90.0 b
629770 614574 642770 630574 270.0 b
629770 595574 642770 611574 270.0 b
604370 493974 617370 509974 90.0 b
604370 512974 617370 528974 90.0 b
604370 614574 617370 630574 270.0 b
604370 595574 617370 611574 270.0 b
578970 493974 591970 509974 90.0 b
578970 512974 591970 528974 90.0 b
578970 614574 591970 630574 270.0 b
578970 595574 591970 611574 270.0 b
553570 493974 566570 509974 90.0 b
553570 512974 566570 528974 90.0 b
553570 614574 566570 630574 270.0 b
553570 595574 566570 611574 270.0 b
528170 493974 541170 509974 90.0 b
528170 512974 541170 528974 90.0 b
528170 614574 541170 630574 270.0 b
528170 595574 541170 611574 270.0 b
502770 493974 515770 509974 90.0 b
502770 512974 515770 528974 90.0 b
502770 614574 515770 630574 270.0 b
502770 595574 515770 611574 270.0 b
477370 493974 490370 509974 90.0 b
477370 512974 490370 528974 90.0 b
477370 614574 490370 630574 270.0 b
477370 595574 490370 611574 270.0 b
458470 549574 15240 15240 0.0 o
483870 549574 15240 15240 0.0 o
509270 549574 15240 15240 0.0 o
534670 549574 15240 15240 0.0 o
560070 549574 15240 15240 0.0 o
585470 549574 15240 15240 0.0 o
458470 574974 15240 15240 0.0 o
483870 574974 15240 15240 0.0 o
509270 574974 15240 15240 0.0 o
534670 574974 15240 15240 0.0 o
560070 574974 15240 15240 0.0 o
585470 574974 15240 15240 0.0 o
610870 549574 15240 15240 0.0 o
610870 574974 15240 15240 0.0 o
636270 549574 15240 15240 0.0 o
661670 549574 15240 15240 0.0 o
687070 549574 15240 15240 0.0 o
712470 549574 15240 15240 0.0 o
737870 549574 15240 15240 0.0 o
763270 549574 15240 15240 0.0 o
636270 574974 15240 15240 0.0 o
661670 574974 15240 15240 0.0 o
687070 574974 15240 15240 0.0 o
712470 574974 15240 15240 0.0 o
737870 574974 15240 15240 0.0 o
763270 574974 15240 15240 0.0 o
293370 74594 293370 59354 15240 l
267970 74594 267970 59354 15240 l
242570 74594 242570 59354 15240 l
50880 562274 65960 562274 15080 l
50880 536874 65960 536874 15080 l
961310 155874 946230 155874 15080 l
961310 181274 946230 181274 15080 l
961310 625774 946230 625774 15080 l
961310 651174 946230 651174 15080 l
85010 155874 69930 155874 15080 l
85010 181274 69930 181274 15080 l
242420 487574 255420 503574 270.0 b
242420 468574 255420 484574 270.0 b
172720 376934 172720 392014 15080 l
198120 376934 198120 392014 15080 l
36070 376474 49070 392474 0.0 b
55070 376474 68070 392474 0.0 b
83820 428924 17780 p
123920 428924 17780 p
83420 498824 17780 p
123520 498824 17780 p
90170 376934 90170 392014 15080 l
115570 376934 115570 392014 15080 l
166370 428924 17780 p
206470 428924 17780 p
165970 498824 17780 p
206070 498824 17780 p
169370 27224 182370 43224 180.0 b
150370 27224 163370 43224 180.0 b
179070 59434 179070 74514 15080 l
204470 59434 204470 74514 15080 l
153670 74514 153670 59434 15080 l
128270 74514 128270 59434 15080 l
67374 607124 49467 607124 17907 l
67374 657124 49467 657124 17907 l
357886 663874 356870 663874 4064 l
356870 740074 12700 12700 0.0 o
192786 663874 217170 663874 4064 l
217170 663874 229870 676574 4064 l
325120 740074 356870 740074 4064 l
356870 740074 598170 740074 4064 l
192786 663874 192786 675558 4064 l
192786 675558 191770 676574 4064 l
134620 676574 12700 12700 0.0 o
191770 676574 12700 12700 0.0 o
889254 530524 890270 530524 4064 l
782320 625774 12700 12700 0.0 o
871220 517824 12700 12700 0.0 o
610870 87040 565404 87040 6096 l
565404 87040 560070 92374 6096 l
115570 657524 115570 651174 6096 l
369570 225724 369570 219374 6096 l
369570 219374 369570 188640 6096 l
369570 188640 370586 187624 6096 l
560070 92374 560070 149524 6096 l
370586 187624 370586 231058 6096 l
370586 231058 369570 219374 6096 l
369570 219374 325120 219374 6096 l
325120 219374 325120 155874 6096 l
325120 155874 337820 149524 6096 l
337820 149524 12700 12700 0.0 o
560070 149524 12700 12700 0.0 o
58420 657124 58420 670224 12700 l
58420 670224 64770 676574 12700 l
64770 676574 115570 676574 12700 l
115570 676574 134620 676574 12700 l
58420 562274 102870 562274 12700 l
102870 562274 115570 574974 12700 l
871220 517824 883920 517824 4064 l
883920 517824 883920 530524 4064 l
883920 530524 889254 530524 4064 l
890270 530524 890270 517824 4064 l
890270 517824 12700 12700 0.0 o
890270 517824 12700 12700 0.0 o
960120 517824 12700 12700 0.0 o
960120 517824 960120 625774 10160 l
960120 625774 953770 625774 10160 l
960120 517824 960120 473374 10160 l
960120 473374 941070 454324 10160 l
941070 454324 922020 454324 10160 l
922020 454324 902970 435274 10160 l
902970 435274 902970 187624 10160 l
902970 187624 874395 159049 10160 l
874395 159049 769620 54274 10160 l
953770 155874 874395 155874 10160 l
874395 155874 874395 159049 10160 l
325120 219374 325120 221374 6096 l
128270 66974 128270 105074 10160 l
128270 105074 128270 155874 10160 l
128270 155874 77470 155874 10160 l
337820 149524 325120 149524 10160 l
325120 149524 274320 149524 10160 l
274320 149524 229870 105074 10160 l
229870 105074 128270 105074 10160 l
306070 473374 242570 473374 6096 l
248920 476574 245770 476574 4064 l
245770 476574 242570 473374 4064 l
115570 657524 115570 676574 4064 l
115570 574974 115570 651174 10160 l
115570 676574 115570 651174 10160 l
242570 473374 166370 473374 6096 l
160020 467024 140970 447974 6096 l
140970 447974 140970 445974 6096 l
140970 445974 123920 428924 6096 l
123520 498824 123520 541624 6096 l
123520 541624 115570 549574 6096 l
115570 549574 115570 562274 6096 l
115570 562274 115570 574974 6096 l
357886 663874 357886 675558 4064 l
357886 675558 356870 676574 4064 l
356870 676574 12700 12700 0.0 o
356870 676574 12700 12700 0.0 o
325120 149524 325120 219374 10160 l
325120 219374 331470 225724 10160 l
331470 225724 369570 225724 10160 l
369570 225724 369570 409874 10160 l
369570 409874 306070 473374 10160 l
306070 473374 166370 473374 10160 l
166370 473374 160020 467024 10160 l
160020 467024 121920 428924 10160 l
121920 498774 121920 555924 10160 l
121920 555924 115570 562274 10160 l
229870 676574 261620 676574 8128 l
261620 676574 325120 740074 8128 l
325120 740074 598170 740074 8128 l
598170 740074 687070 651174 8128 l
687070 651174 756920 651174 8128 l
756920 651174 782320 625774 8128 l
458470 574974 458470 549574 4064 l
419354 574974 458470 574974 4064 l
763270 257474 763270 282874 4064 l
763270 282874 763270 295574 4064 l
763270 295574 750570 320974 4064 l
750570 320974 10160 10160 0.0 o
763270 574974 763270 549574 4064 l
763270 549574 763270 536874 4064 l
763270 536874 763270 524174 4064 l
763270 524174 737870 524174 4064 l
737870 473374 10160 10160 0.0 o
458470 511474 10160 10160 0.0 o
458470 422574 10160 10160 0.0 o
458470 549574 458470 511474 4064 l
458470 257474 458470 282874 4064 l
458470 282874 458470 320974 4064 l
458470 320974 10160 10160 0.0 o
458470 422574 471170 409874 4064 l
471170 409874 10160 10160 0.0 o
471170 409874 458470 409874 4064 l
458470 409874 10160 10160 0.0 o
26670 790874 166370 790874 8128 l
166370 790874 826770 790874 8128 l
826770 790874 1004570 790874 8128 l
1004570 790874 1004570 651174 8128 l
1004570 651174 1004570 422574 8128 l
1004570 422574 1004570 320974 8128 l
1004570 320974 1004570 181274 8128 l
1004570 181274 1004570 16174 8128 l
1004570 16174 750570 16174 8128 l
750570 16174 179070 16174 8128 l
179070 16174 26670 16174 8128 l
26670 16174 26670 181274 8128 l
280670 498774 12700 12700 0.0 o
26670 181274 26670 346374 8128 l
26670 346374 26670 384474 8128 l
26670 384474 26670 536874 8128 l
26670 536874 26670 600374 8128 l
26670 600374 26670 790874 8128 l
293370 498774 280670 498774 4064 l
254254 574974 267970 574974 4064 l
267970 574974 280670 562274 4064 l
827786 619424 827786 626790 4064 l
827786 626790 839470 638474 4064 l
839470 638474 842670 638474 4064 l
842670 638474 849020 644824 4064 l
160020 736874 160020 784524 4064 l
160020 784524 166370 790874 4064 l
407670 422574 458470 422574 4064 l
458470 105074 480720 105074 4064 l
480720 105074 483870 108224 4064 l
458470 257474 458470 225724 4064 l
458470 225724 458470 219374 4064 l
458470 225724 12700 12700 0.0 o
483870 108224 461620 108224 4064 l
461620 108224 458470 105074 4064 l
521970 162224 12700 12700 0.0 o
432054 98724 452120 98724 4064 l
452120 98724 458470 105074 4064 l
458470 225724 12700 12700 0.0 o
480720 105074 480720 120974 4064 l
480720 120974 521970 162224 4064 l
58420 607124 33420 607124 12700 l
33420 607124 26670 600374 12700 l
58420 536874 26670 536874 12700 l
953770 651174 1004570 651174 12700 l
849020 644824 826770 644824 12700 l
826770 644824 12700 12700 0.0 o
826770 689274 12700 12700 0.0 o
826770 689274 826770 790874 4064 l
458470 422574 623570 422574 4064 l
820420 422574 12700 12700 0.0 o
922020 422574 12700 12700 0.0 o
750570 320974 12700 12700 0.0 o
922020 320974 12700 12700 0.0 o
922020 422574 928370 422574 4064 l
922020 320974 928370 320974 4064 l
953770 181274 1004570 181274 10160 l
458470 320974 12700 12700 0.0 o
750570 320974 12700 12700 0.0 o
737870 473374 12700 12700 0.0 o
77470 181274 26670 181274 6096 l
172720 384474 172720 409874 6096 l
172720 409874 166370 416224 6096 l
166370 416224 166370 428924 6096 l
175870 35224 179070 28874 6096 l
179070 28874 179070 16174 6096 l
42570 384474 26670 384474 6096 l
166370 428924 166370 359074 6096 l
166370 359074 153670 346374 6096 l
153670 346374 26670 346374 6096 l
166370 790874 309220 790874 4064 l
309220 790874 312420 787674 4064 l
280670 562274 280670 549574 4064 l
280670 549574 12700 12700 0.0 o
699770 148508 749554 148508 4064 l
749554 148508 750570 149524 4064 l
750570 149524 12700 12700 0.0 o
750570 149524 12700 12700 0.0 o
750570 35224 12700 12700 0.0 o
750570 16174 750570 35224 4064 l
293370 498774 12700 12700 0.0 o
293370 454324 12700 12700 0.0 o
236220 454324 179070 454324 4064 l
179070 454324 179070 441624 4064 l
922020 422574 915670 422574 4064 l
236220 454324 293370 454324 8128 l
293370 498774 331470 498774 8128 l
331470 498774 407670 422574 8128 l
407670 422574 623570 422574 8128 l
623570 422574 737870 422574 8128 l
820420 422574 737870 422574 8128 l
737870 422574 737870 473374 8128 l
928370 422574 1004570 422574 8128 l
928370 320974 1004570 320974 8128 l
763270 257474 763270 295574 8128 l
763270 295574 763270 301924 8128 l
763270 301924 750570 314624 8128 l
750570 314624 750570 320974 8128 l
458470 219374 458470 320974 8128 l
458470 511474 458470 574974 8128 l
737870 524174 750570 524174 8128 l
750570 524174 763270 536874 8128 l
763270 536874 763270 574974 8128 l
737870 524174 12700 12700 0.0 o
77470 740074 64516 p
953770 740074 64516 p
953770 66974 64516 p
77470 66974 64516 p
763270 268650 763270 257474 8128 l
763270 257474 763270 257474 8128 l
763270 257474 763270 282874 8128 l
763270 282874 763270 282874 8128 l
763270 282874 763270 268650 8128 l
458470 271698 458470 257474 8128 l
458470 257474 458470 257474 8128 l
458470 257474 458470 282874 8128 l
458470 282874 458470 282874 8128 l
458470 282874 458470 271698 8128 l
510570 48432 521414 37588 8128 l
521414 37588 525895 35732 8128 l
525895 35732 537210 35732 8128 l
537210 35732 537210 26853 8128 l
537210 26853 538757 23119 8128 l
538757 23119 541615 20261 8128 l
541615 20261 545349 18714 8128 l
545349 18714 550862 18714 8128 l
550862 18714 551816 17760 8128 l
551816 17760 551816 17698 8128 l
551816 17698 166921 17698 8128 l
166921 17698 169125 18611 8128 l
169125 18611 171134 20620 8128 l
171134 20620 175870 20620 8128 l
175870 20620 175870 35224 8128 l
175870 35224 175870 35224 8128 l
175870 35224 175870 20620 8128 l
175870 20620 183020 20620 8128 l
183020 20620 184296 20874 8128 l
184296 20874 185498 21372 8128 l
185498 21372 186580 22094 8128 l
186580 22094 187500 23014 8128 l
187500 23014 188222 24096 8128 l
188222 24096 188720 25298 8128 l
188720 25298 188974 26574 8128 l
188974 26574 188974 35224 8128 l
188974 35224 175870 35224 8128 l
175870 35224 175870 35224 8128 l
175870 35224 188974 35224 8128 l
188974 35224 188974 43874 8128 l
188974 43874 188881 44340 8128 l
188881 44340 189096 44429 8128 l
189096 44429 191770 47102 8128 l
191770 47102 194444 44429 8128 l
194444 44429 200949 41734 8128 l
200949 41734 207991 41734 8128 l
207991 41734 214496 44429 8128 l
214496 44429 219475 49408 8128 l
219475 49408 221281 53766 8128 l
221281 53766 225640 53766 8128 l
225640 53766 227497 49282 8128 l
227497 49282 232498 44281 8128 l
232498 44281 239033 41574 8128 l
239033 41574 246107 41574 8128 l
246107 41574 252642 44281 8128 l
252642 44281 254943 46582 8128 l
254943 46582 255865 45661 8128 l
255865 45661 256981 45199 8128 l
256981 45199 257898 44281 8128 l
257898 44281 264433 41574 8128 l
264433 41574 271507 41574 8128 l
271507 41574 278042 44281 8128 l
278042 44281 278959 45199 8128 l
278959 45199 280075 45661 8128 l
280075 45661 280997 46582 8128 l
280997 46582 283298 44281 8128 l
283298 44281 289833 41574 8128 l
289833 41574 296907 41574 8128 l
296907 41574 303442 44281 8128 l
303442 44281 308443 49282 8128 l
308443 49282 310721 54782 8128 l
310721 54782 313720 54782 8128 l
313720 54782 318214 50288 8128 l
318214 50288 322695 48432 8128 l
322695 48432 327545 48432 8128 l
327545 48432 510570 48432 8128 l
134711 412774 140070 418133 8128 l
140070 418133 142970 425135 8128 l
142970 425135 142970 428421 8128 l
142970 428421 143510 428961 8128 l
143510 428961 143510 344353 8128 l
143510 344353 145057 340619 8128 l
145057 340619 147915 337761 8128 l
147915 337761 151649 336214 8128 l
151649 336214 181091 336214 8128 l
181091 336214 184825 337761 8128 l
184825 337761 185420 338356 8128 l
185420 338356 186015 337761 8128 l
186015 337761 189749 336214 8128 l
189749 336214 219191 336214 8128 l
219191 336214 222925 337761 8128 l
222925 337761 225783 340619 8128 l
225783 340619 227330 344353 8128 l
227330 344353 227330 416732 8128 l
227330 416732 256570 416732 8128 l
256570 416732 268478 404824 8128 l
268478 404824 268478 183450 8128 l
268478 183450 265707 180679 8128 l
265707 180679 264160 176945 8128 l
264160 176945 264160 160917 8128 l
264160 160917 223557 120314 8128 l
223557 120314 143510 120314 8128 l
143510 120314 143510 158905 8128 l
143510 158905 141190 164507 8128 l
141190 164507 136903 168794 8128 l
136903 168794 131301 171114 8128 l
131301 171114 94853 171114 8128 l
94853 171114 95798 172060 8128 l
95798 172060 97107 173861 8128 l
97107 173861 98118 175845 8128 l
98118 175845 98806 177962 8128 l
98806 177962 99154 180161 8128 l
99154 180161 99154 181274 8128 l
99154 181274 77470 181274 8128 l
77470 181274 77470 181274 8128 l
77470 181274 99154 181274 8128 l
99154 181274 99154 182387 8128 l
99154 182387 98806 184586 8128 l
98806 184586 98118 186703 8128 l
98118 186703 97107 188687 8128 l
97107 188687 95798 190488 8128 l
95798 190488 94224 192062 8128 l
94224 192062 92423 193371 8128 l
92423 193371 90439 194382 8128 l
90439 194382 88322 195070 8128 l
88322 195070 86123 195418 8128 l
86123 195418 77470 195418 8128 l
77470 195418 77470 181274 8128 l
77470 181274 77470 181274 8128 l
77470 181274 77470 195418 8128 l
77470 195418 68817 195418 8128 l
68817 195418 66618 195070 8128 l
66618 195070 64501 194382 8128 l
64501 194382 62517 193371 8128 l
62517 193371 60716 192062 8128 l
60716 192062 59142 190488 8128 l
59142 190488 57833 188687 8128 l
57833 188687 56822 186703 8128 l
56822 186703 56134 184586 8128 l
56134 184586 55786 182387 8128 l
55786 182387 55786 181274 8128 l
55786 181274 77470 181274 8128 l
77470 181274 77470 181274 8128 l
77470 181274 55786 181274 8128 l
55786 181274 55786 180161 8128 l
55786 180161 56134 177962 8128 l
56134 177962 56822 175845 8128 l
56822 175845 57833 173861 8128 l
57833 173861 59142 172060 8128 l
59142 172060 60200 171002 8128 l
60200 171002 59904 170879 8128 l
59904 170879 54925 165900 8128 l
54925 165900 52230 159395 8128 l
52230 159395 52230 152353 8128 l
52230 152353 54925 145848 8128 l
54925 145848 59904 140869 8128 l
59904 140869 66409 138174 8128 l
66409 138174 88531 138174 8128 l
88531 138174 94470 140634 8128 l
94470 140634 113030 140634 8128 l
113030 140634 113030 83974 8128 l
113030 83974 110570 78035 8128 l
110570 78035 110570 55913 8128 l
110570 55913 113265 49408 8128 l
113265 49408 118244 44429 8128 l
118244 44429 124749 41734 8128 l
124749 41734 131791 41734 8128 l
131791 41734 138296 44429 8128 l
138296 44429 140462 46594 8128 l
140462 46594 140462 45853 8128 l
140462 45853 140210 45245 8128 l
140210 45245 140210 25203 8128 l
140210 25203 141757 21469 8128 l
141757 21469 144615 18611 8128 l
144615 18611 146819 17698 8128 l
146819 17698 28194 17698 8128 l
28194 17698 28194 361614 8128 l
28194 361614 41391 361614 8128 l
41391 361614 45125 363161 8128 l
45125 363161 47983 366019 8128 l
47983 366019 48260 366687 8128 l
48260 366687 48260 357053 8128 l
48260 357053 49807 353319 8128 l
49807 353319 52665 350461 8128 l
52665 350461 56399 348914 8128 l
56399 348914 98541 348914 8128 l
98541 348914 102275 350461 8128 l
102275 350461 105133 353319 8128 l
105133 353319 106680 357053 8128 l
106680 357053 106680 361458 8128 l
106680 361458 112049 359234 8128 l
112049 359234 119091 359234 8128 l
119091 359234 125596 361929 8128 l
125596 361929 130575 366908 8128 l
130575 366908 133270 373413 8128 l
133270 373413 133270 395535 8128 l
133270 395535 130575 402040 8128 l
130575 402040 128778 403838 8128 l
128778 403838 128778 410317 8128 l
128778 410317 134711 412774 8128 l
94694 63548 94694 70400 8128 l
94694 70400 92072 76731 8128 l
92072 76731 87227 81576 8128 l
87227 81576 80896 84198 8128 l
80896 84198 74044 84198 8128 l
74044 84198 67713 81576 8128 l
67713 81576 62868 76731 8128 l
62868 76731 60246 70400 8128 l
60246 70400 60246 63548 8128 l
60246 63548 62868 57217 8128 l
62868 57217 67713 52372 8128 l
67713 52372 74044 49750 8128 l
74044 49750 80896 49750 8128 l
80896 49750 87227 52372 8128 l
87227 52372 92072 57217 8128 l
92072 57217 94694 63548 8128 l
58588 281624 58588 251104 8128 l
58588 251104 58665 250220 8128 l
58665 250220 58819 249346 8128 l
58819 249346 59049 248489 8128 l
59049 248489 59352 247656 8128 l
59352 247656 59727 246852 8128 l
59727 246852 60171 246083 8128 l
60171 246083 60680 245356 8128 l
60680 245356 61250 244677 8128 l
61250 244677 61877 244049 8128 l
61877 244049 62557 243479 8128 l
62557 243479 63283 242970 8128 l
63283 242970 64052 242527 8128 l
64052 242527 64856 242152 8128 l
64856 242152 65690 241848 8128 l
65690 241848 66547 241619 8128 l
66547 241619 67420 241465 8128 l
67420 241465 68304 241387 8128 l
68304 241387 248940 241387 8128 l
248940 241387 249824 241465 8128 l
249824 241465 250698 241619 8128 l
250698 241619 251555 241848 8128 l
251555 241848 252388 242152 8128 l
252388 242152 253192 242527 8128 l
253192 242527 253961 242970 8128 l
253961 242970 254688 243479 8128 l
254688 243479 255367 244049 8128 l
255367 244049 255995 244677 8128 l
255995 244677 256565 245356 8128 l
256565 245356 257074 246083 8128 l
257074 246083 257517 246852 8128 l
257517 246852 257892 247656 8128 l
257892 247656 258196 248489 8128 l
258196 248489 258425 249346 8128 l
258425 249346 258579 250220 8128 l
258579 250220 258657 251104 8128 l
258657 251104 258657 281624 8128 l
258657 281624 258579 282508 8128 l
258579 282508 258425 283382 8128 l
258425 283382 258196 284239 8128 l
258196 284239 257892 285072 8128 l
257892 285072 257517 285876 8128 l
257517 285876 257074 286645 8128 l
257074 286645 256565 287372 8128 l
256565 287372 255995 288051 8128 l
255995 288051 255367 288679 8128 l
255367 288679 254688 289249 8128 l
254688 289249 253961 289758 8128 l
253961 289758 253192 290201 8128 l
253192 290201 252388 290576 8128 l
252388 290576 251555 290880 8128 l
251555 290880 250698 291109 8128 l
250698 291109 249824 291263 8128 l
249824 291263 248940 291341 8128 l
248940 291341 68304 291341 8128 l
68304 291341 67420 291263 8128 l
67420 291263 66547 291109 8128 l
66547 291109 65690 290880 8128 l
65690 290880 64856 290576 8128 l
64856 290576 64052 290201 8128 l
64052 290201 63283 289758 8128 l
63283 289758 62557 289249 8128 l
62557 289249 61877 288679 8128 l
61877 288679 61250 288051 8128 l
61250 288051 60680 287372 8128 l
60680 287372 60171 286645 8128 l
60171 286645 59727 285876 8128 l
59727 285876 59352 285072 8128 l
59352 285072 59049 284239 8128 l
59049 284239 58819 283382 8128 l
58819 283382 58665 282508 8128 l
58665 282508 58588 281624 8128 l
268526 439260 264045 441116 8128 l
264045 441116 227330 441116 8128 l
227330 441116 227330 449995 8128 l
227330 449995 225783 453729 8128 l
225783 453729 222925 456587 8128 l
222925 456587 219191 458134 8128 l
219191 458134 189749 458134 8128 l
189749 458134 186015 456587 8128 l
186015 456587 185420 455992 8128 l
185420 455992 184825 456587 8128 l
184825 456587 181091 458134 8128 l
181091 458134 172683 458134 8128 l
172683 458134 172683 458134 8128 l
172683 458134 299757 458134 8128 l
299757 458134 354330 403561 8128 l
354330 403561 354330 240964 8128 l
354330 240964 328439 240964 8128 l
328439 240964 322837 238644 8128 l
322837 238644 318550 234357 8128 l
318550 234357 312200 228007 8128 l
312200 228007 309880 222405 8128 l
309880 222405 309880 164764 8128 l
309880 164764 297180 164764 8128 l
297180 164764 297180 176945 8128 l
297180 176945 295633 180679 8128 l
295633 180679 292862 183450 8128 l
292862 183450 292862 412299 8128 l
292862 412299 291006 416780 8128 l
291006 416780 287576 420210 8128 l
287576 420210 268526 439260 8128 l
758220 142666 709676 142666 8128 l
709676 142666 709676 148508 8128 l
709676 148508 700532 148508 8128 l
700532 148508 700532 148508 8128 l
700532 148508 709676 148508 8128 l
709676 148508 709676 156382 8128 l
709676 156382 771936 156382 8128 l
771936 156382 758220 142666 8128 l
769162 297098 763270 297098 8128 l
763270 297098 763270 282874 8128 l
763270 282874 763270 282874 8128 l
763270 282874 763270 297098 8128 l
763270 297098 757378 297098 8128 l
757378 297098 753084 292804 8128 l
753084 292804 745235 300654 8128 l
745235 300654 730505 300654 8128 l
730505 300654 729092 299241 8128 l
729092 299241 730630 302953 8128 l
730630 302953 730630 318282 8128 l
730630 318282 737095 318282 8128 l
737095 318282 741576 320138 8128 l
741576 320138 744776 323338 8128 l
744776 323338 748206 326768 8128 l
748206 326768 750062 331249 8128 l
750062 331249 750062 335217 8128 l
750062 335217 750570 335725 8128 l
750570 335725 751078 335217 8128 l
751078 335217 751078 318549 8128 l
751078 318549 752934 314068 8128 l
752934 314068 756364 310638 8128 l
756364 310638 776478 290524 8128 l
776478 290524 776478 289782 8128 l
776478 289782 769162 297098 8128 l
730630 237395 729092 241107 8128 l
729092 241107 730505 239694 8128 l
730505 239694 745235 239694 8128 l
745235 239694 753084 247544 8128 l
753084 247544 757378 243250 8128 l
757378 243250 763270 243250 8128 l
763270 243250 763270 257474 8128 l
763270 257474 763270 257474 8128 l
763270 257474 763270 243250 8128 l
763270 243250 769162 243250 8128 l
769162 243250 776478 250566 8128 l
776478 250566 776478 249824 8128 l
776478 249824 748720 222066 8128 l
748720 222066 730630 222066 8128 l
730630 222066 730630 237395 8128 l
730224 511474 730630 512453 8128 l
730630 512453 730630 529495 8128 l
730630 529495 729092 533207 8128 l
729092 533207 730505 531794 8128 l
730505 531794 745235 531794 8128 l
745235 531794 753084 539644 8128 l
753084 539644 757378 535350 8128 l
757378 535350 763270 535350 8128 l
763270 535350 763270 549574 8128 l
763270 549574 763270 549574 8128 l
763270 549574 763270 535350 8128 l
763270 535350 769162 535350 8128 l
769162 535350 770128 536316 8128 l
770128 536316 770128 535574 8128 l
770128 535574 745520 510966 8128 l
745520 510966 730435 510966 8128 l
730435 510966 730224 511474 8128 l
254254 565068 254254 574212 8128 l
254254 574212 254254 574212 8128 l
254254 574212 254254 565068 8128 l
254254 565068 265064 565068 8128 l
265064 565068 266340 565322 8128 l
266340 565322 267542 565820 8128 l
267542 565820 268624 566542 8128 l
268624 566542 269544 567462 8128 l
269544 567462 270266 568544 8128 l
270266 568544 270764 569746 8128 l
270764 569746 271018 571022 8128 l
271018 571022 271018 574974 8128 l
271018 574974 268274 574974 8128 l
268274 574974 268275 574974 8128 l
268275 574974 271018 574974 8128 l
271018 574974 271018 575740 8128 l
271018 575740 274876 577338 8128 l
274876 577338 281178 583640 8128 l
281178 583640 281178 573431 8128 l
281178 573431 276860 569113 8128 l
276860 569113 276860 555435 8128 l
276860 555435 283229 549066 8128 l
283229 549066 248412 549066 8128 l
248412 549066 248412 565068 8128 l
248412 565068 254254 565068 8128 l
572770 346024 572262 346235 8128 l
572262 346235 572262 374199 8128 l
572262 374199 570406 378680 8128 l
570406 378680 566976 382110 8128 l
566976 382110 562495 383966 8128 l
562495 383966 405245 383966 8128 l
405245 383966 400764 382110 8128 l
400764 382110 397334 378680 8128 l
397334 378680 384810 366156 8128 l
384810 366156 384810 412905 8128 l
384810 412905 382490 418507 8128 l
382490 418507 318990 482007 8128 l
318990 482007 314703 486294 8128 l
314703 486294 309101 488614 8128 l
309101 488614 267080 488614 8128 l
267080 488614 267080 495427 8128 l
267080 495427 267462 496349 8128 l
267462 496349 267462 501199 8128 l
267462 501199 267080 502121 8128 l
267080 502121 267080 504095 8128 l
267080 504095 266443 505632 8128 l
266443 505632 332770 505632 8128 l
332770 505632 403684 434718 8128 l
403684 434718 403684 434718 8128 l
403684 434718 407114 431288 8128 l
407114 431288 411595 429432 8128 l
411595 429432 441960 429432 8128 l
441960 429432 441960 401503 8128 l
441960 401503 443507 397769 8128 l
443507 397769 446365 394911 8128 l
446365 394911 450099 393364 8128 l
450099 393364 479541 393364 8128 l
479541 393364 483275 394911 8128 l
483275 394911 486133 397769 8128 l
486133 397769 487680 401503 8128 l
487680 401503 487680 429432 8128 l
487680 429432 609482 429432 8128 l
609482 429432 610492 429199 8128 l
610492 429199 611884 429432 8128 l
611884 429432 613295 429432 8128 l
613295 429432 614253 429829 8128 l
614253 429829 615275 430000 8128 l
615275 430000 616472 430748 8128 l
616472 430748 617776 431288 8128 l
617776 431288 618509 432021 8128 l
618509 432021 667272 462498 8128 l
667272 462498 668576 463038 8128 l
668576 463038 669309 463771 8128 l
669309 463771 670188 464321 8128 l
670188 464321 671008 465470 8128 l
671008 465470 672006 466468 8128 l
672006 466468 672403 467426 8128 l
672403 467426 673004 468269 8128 l
673004 468269 673322 469645 8128 l
673322 469645 673862 470949 8128 l
673862 470949 673862 471986 8128 l
673862 471986 674095 472996 8128 l
674095 472996 673862 474388 8128 l
673862 474388 673862 486213 8128 l
673862 486213 674370 486424 8128 l
674370 486424 674878 486213 8128 l
674878 486213 674878 483649 8128 l
674878 483649 676734 479168 8128 l
676734 479168 680164 475738 8128 l
680164 475738 684645 473882 8128 l
684645 473882 820928 473882 8128 l
820928 473882 820928 401981 8128 l
820928 401981 817367 398419 8128 l
817367 398419 799006 416780 8128 l
799006 416780 795576 420210 8128 l
795576 420210 791095 422066 8128 l
791095 422066 633845 422066 8128 l
633845 422066 629364 420210 8128 l
629364 420210 578564 369410 8128 l
578564 369410 575134 365980 8128 l
575134 365980 573278 361499 8128 l
573278 361499 573278 346235 8128 l
573278 346235 572770 346024 8128 l
347980 773845 346433 777579 8128 l
346433 777579 343575 780437 8128 l
343575 780437 339841 781984 8128 l
339841 781984 327978 781984 8128 l
327978 781984 327024 782938 8128 l
327024 782938 327024 787674 8128 l
327024 787674 312420 787674 8128 l
312420 787674 312420 787674 8128 l
312420 787674 327024 787674 8128 l
327024 787674 327024 789250 8128 l
327024 789250 999746 789250 8128 l
999746 789250 999746 17698 8128 l
999746 17698 767080 17698 8128 l
767080 17698 767080 39034 8128 l
767080 39034 772651 39034 8128 l
772651 39034 778253 41354 8128 l
778253 41354 877533 140634 8128 l
877533 140634 936770 140634 8128 l
936770 140634 942709 138174 8128 l
942709 138174 964831 138174 8128 l
964831 138174 971336 140869 8128 l
971336 140869 976315 145848 8128 l
976315 145848 979010 152353 8128 l
979010 152353 979010 159395 8128 l
979010 159395 976315 165900 8128 l
976315 165900 971336 170879 8128 l
971336 170879 971040 171002 8128 l
971040 171002 972098 172060 8128 l
972098 172060 973407 173861 8128 l
973407 173861 974418 175845 8128 l
974418 175845 975106 177962 8128 l
975106 177962 975454 180161 8128 l
975454 180161 975454 181274 8128 l
975454 181274 953770 181274 8128 l
953770 181274 953770 181274 8128 l
953770 181274 975454 181274 8128 l
975454 181274 975454 182387 8128 l
975454 182387 975106 184586 8128 l
975106 184586 974418 186703 8128 l
974418 186703 973407 188687 8128 l
973407 188687 972098 190488 8128 l
972098 190488 970524 192062 8128 l
970524 192062 968723 193371 8128 l
968723 193371 966739 194382 8128 l
966739 194382 964622 195070 8128 l
964622 195070 962423 195418 8128 l
962423 195418 953770 195418 8128 l
953770 195418 953770 181274 8128 l
953770 181274 953770 181274 8128 l
953770 181274 953770 195418 8128 l
953770 195418 945117 195418 8128 l
945117 195418 942918 195070 8128 l
942918 195070 940801 194382 8128 l
940801 194382 938817 193371 8128 l
938817 193371 937016 192062 8128 l
937016 192062 935442 190488 8128 l
935442 190488 934133 188687 8128 l
934133 188687 933122 186703 8128 l
933122 186703 932434 184586 8128 l
932434 184586 932086 182387 8128 l
932086 182387 932086 181274 8128 l
932086 181274 953770 181274 8128 l
953770 181274 953770 181274 8128 l
953770 181274 932086 181274 8128 l
932086 181274 932086 180161 8128 l
932086 180161 932434 177962 8128 l
932434 177962 933122 175845 8128 l
933122 175845 934133 173861 8128 l
934133 173861 935442 172060 8128 l
935442 172060 936387 171114 8128 l
936387 171114 908013 171114 8128 l
908013 171114 915890 178991 8128 l
915890 178991 918210 184593 8128 l
918210 184593 918210 428961 8128 l
918210 428961 928333 439084 8128 l
928333 439084 944101 439084 8128 l
944101 439084 949703 441404 8128 l
949703 441404 953990 445691 8128 l
953990 445691 973040 464741 8128 l
973040 464741 975360 470343 8128 l
975360 470343 975360 509715 8128 l
975360 509715 976630 510985 8128 l
976630 510985 976630 524663 8128 l
976630 524663 975360 525933 8128 l
975360 525933 975360 614792 8128 l
975360 614792 976315 615748 8128 l
976315 615748 979010 622253 8128 l
979010 622253 979010 629295 8128 l
979010 629295 976315 635800 8128 l
976315 635800 971336 640779 8128 l
971336 640779 971040 640902 8128 l
971040 640902 972098 641960 8128 l
972098 641960 973407 643761 8128 l
973407 643761 974418 645745 8128 l
974418 645745 975106 647862 8128 l
975106 647862 975454 650061 8128 l
975454 650061 975454 651174 8128 l
975454 651174 953770 651174 8128 l
953770 651174 953770 651174 8128 l
953770 651174 975454 651174 8128 l
975454 651174 975454 652287 8128 l
975454 652287 975106 654486 8128 l
975106 654486 974418 656603 8128 l
974418 656603 973407 658587 8128 l
973407 658587 972098 660388 8128 l
972098 660388 970524 661962 8128 l
970524 661962 968723 663271 8128 l
968723 663271 966739 664282 8128 l
966739 664282 964622 664970 8128 l
964622 664970 962423 665318 8128 l
962423 665318 953770 665318 8128 l
953770 665318 953770 651174 8128 l
953770 651174 953770 651174 8128 l
953770 651174 953770 665318 8128 l
953770 665318 945117 665318 8128 l
945117 665318 942918 664970 8128 l
942918 664970 940801 664282 8128 l
940801 664282 938817 663271 8128 l
938817 663271 937016 661962 8128 l
937016 661962 935442 660388 8128 l
935442 660388 934133 658587 8128 l
934133 658587 933122 656603 8128 l
933122 656603 932434 654486 8128 l
932434 654486 932086 652287 8128 l
932086 652287 932086 651174 8128 l
932086 651174 953770 651174 8128 l
953770 651174 953770 651174 8128 l
953770 651174 932086 651174 8128 l
932086 651174 932086 650061 8128 l
932086 650061 932434 647862 8128 l
932434 647862 933122 645745 8128 l
933122 645745 934133 643761 8128 l
934133 643761 935442 641960 8128 l
935442 641960 936500 640902 8128 l
936500 640902 936204 640779 8128 l
936204 640779 931225 635800 8128 l
931225 635800 928530 629295 8128 l
928530 629295 928530 622253 8128 l
928530 622253 931225 615748 8128 l
931225 615748 936204 610769 8128 l
936204 610769 942709 608074 8128 l
942709 608074 944880 608074 8128 l
944880 608074 944880 588406 8128 l
944880 588406 916226 617060 8128 l
916226 617060 911745 618916 8128 l
911745 618916 909574 618916 8128 l
909574 618916 909574 624747 8128 l
909574 624747 908027 628481 8128 l
908027 628481 905169 631339 8128 l
905169 631339 902462 632461 8128 l
902462 632461 902462 666299 8128 l
902462 666299 900606 670780 8128 l
900606 670780 897176 674210 8128 l
897176 674210 892695 676066 8128 l
892695 676066 704820 676066 8128 l
704820 676066 621206 759680 8128 l
621206 759680 621206 759680 8128 l
621206 759680 617776 763110 8128 l
617776 763110 613295 764966 8128 l
613295 764966 347980 764966 8128 l
347980 764966 347980 773845 8128 l
970994 736648 970994 743500 8128 l
970994 743500 968372 749831 8128 l
968372 749831 963527 754676 8128 l
963527 754676 957196 757298 8128 l
957196 757298 950344 757298 8128 l
950344 757298 944013 754676 8128 l
944013 754676 939168 749831 8128 l
939168 749831 936546 743500 8128 l
936546 743500 936546 736648 8128 l
936546 736648 939168 730317 8128 l
939168 730317 944013 725472 8128 l
944013 725472 950344 722850 8128 l
950344 722850 957196 722850 8128 l
957196 722850 963527 725472 8128 l
963527 725472 968372 730317 8128 l
968372 730317 970994 736648 8128 l
970994 63548 970994 70400 8128 l
970994 70400 968372 76731 8128 l
968372 76731 963527 81576 8128 l
963527 81576 957196 84198 8128 l
957196 84198 950344 84198 8128 l
950344 84198 944013 81576 8128 l
944013 81576 939168 76731 8128 l
939168 76731 936546 70400 8128 l
936546 70400 936546 63548 8128 l
936546 63548 939168 57217 8128 l
939168 57217 944013 52372 8128 l
944013 52372 950344 49750 8128 l
950344 49750 957196 49750 8128 l
957196 49750 963527 52372 8128 l
963527 52372 968372 57217 8128 l
968372 57217 970994 63548 8128 l
777494 580866 769162 589198 8128 l
769162 589198 763270 589198 8128 l
763270 589198 763270 574974 8128 l
763270 574974 763270 574974 8128 l
763270 574974 763270 589198 8128 l
763270 589198 757378 589198 8128 l
757378 589198 753084 584904 8128 l
753084 584904 745235 592754 8128 l
745235 592754 730505 592754 8128 l
730505 592754 729092 591341 8128 l
729092 591341 730630 595053 8128 l
730630 595053 730630 612095 8128 l
730630 612095 730224 613074 8128 l
730224 613074 730435 613582 8128 l
730435 613582 745520 613582 8128 l
745520 613582 778757 580345 8128 l
778757 580345 777494 579821 8128 l
777494 579821 777494 580866 8128 l
566909 166034 553231 166034 8128 l
553231 166034 543560 156363 8128 l
543560 156363 543560 142685 8128 l
543560 142685 546862 139383 8128 l
546862 139383 546862 89747 8128 l
546862 89747 548614 85516 8128 l
548614 85516 502030 85516 8128 l
502030 85516 502030 97745 8128 l
502030 97745 500483 101479 8128 l
500483 101479 498474 103488 8128 l
498474 103488 498474 108224 8128 l
498474 108224 483870 108224 8128 l
483870 108224 483870 108224 8128 l
483870 108224 498474 108224 8128 l
498474 108224 498474 115374 8128 l
498474 115374 498220 116650 8128 l
498220 116650 497722 117852 8128 l
497722 117852 497000 118934 8128 l
497000 118934 496080 119854 8128 l
496080 119854 494998 120576 8128 l
494998 120576 493796 121074 8128 l
493796 121074 492520 121328 8128 l
492520 121328 483870 121328 8128 l
483870 121328 483870 108224 8128 l
483870 108224 483870 108224 8128 l
483870 108224 483870 121328 8128 l
483870 121328 479266 121328 8128 l
479266 121328 533370 175432 8128 l
533370 175432 562495 175432 8128 l
562495 175432 566976 177288 8128 l
566976 177288 570406 180718 8128 l
570406 180718 572262 185199 8128 l
572262 185199 572262 194113 8128 l
572262 194113 572770 194324 8128 l
572770 194324 573278 194113 8128 l
573278 194113 573278 159665 8128 l
573278 159665 566909 166034 8128 l
181610 509453 181610 488614 8128 l
181610 488614 177672 488614 8128 l
177672 488614 177788 488730 8128 l
177788 488730 179222 490703 8128 l
179222 490703 180329 492876 8128 l
180329 492876 181082 495196 8128 l
181082 495196 181464 497605 8128 l
181464 497605 181464 498824 8128 l
181464 498824 165970 498824 8128 l
165970 498824 165970 498824 8128 l
165970 498824 181464 498824 8128 l
181464 498824 181464 500043 8128 l
181464 500043 181082 502452 8128 l
181082 502452 180329 504772 8128 l
180329 504772 179222 506945 8128 l
179222 506945 177788 508918 8128 l
177788 508918 176064 510642 8128 l
176064 510642 174091 512076 8128 l
174091 512076 171918 513183 8128 l
171918 513183 169598 513936 8128 l
169598 513936 167189 514318 8128 l
167189 514318 165970 514318 8128 l
165970 514318 165970 498824 8128 l
165970 498824 165970 498824 8128 l
165970 498824 165970 514318 8128 l
165970 514318 164751 514318 8128 l
164751 514318 162342 513936 8128 l
162342 513936 160528 513347 8128 l
160528 513347 160528 538174 8128 l
160528 538174 181610 517092 8128 l
181610 517092 181610 509453 8128 l
466116 320974 465710 319995 8128 l
465710 319995 465710 302953 8128 l
465710 302953 467257 299219 8128 l
467257 299219 470115 296361 8128 l
470115 296361 470662 296134 8128 l
470662 296134 470662 294811 8128 l
470662 294811 468656 292804 8128 l
468656 292804 464362 297098 8128 l
464362 297098 458470 297098 8128 l
458470 297098 458470 282874 8128 l
458470 282874 458470 282874 8128 l
458470 282874 458470 297098 8128 l
458470 297098 452578 297098 8128 l
452578 297098 444246 288766 8128 l
444246 288766 444246 282874 8128 l
444246 282874 458470 282874 8128 l
458470 282874 458470 282874 8128 l
458470 282874 444246 282874 8128 l
444246 282874 444246 276982 8128 l
444246 276982 451054 270174 8128 l
451054 270174 444246 263366 8128 l
444246 263366 444246 257474 8128 l
444246 257474 458470 257474 8128 l
458470 257474 458470 257474 8128 l
458470 257474 444246 257474 8128 l
444246 257474 444246 251582 8128 l
444246 251582 452578 243250 8128 l
452578 243250 458470 243250 8128 l
458470 243250 458470 257474 8128 l
458470 257474 458470 257474 8128 l
458470 257474 458470 243250 8128 l
458470 243250 464362 243250 8128 l
464362 243250 468656 247544 8128 l
468656 247544 470662 245537 8128 l
470662 245537 470662 244214 8128 l
470662 244214 470115 243987 8128 l
470115 243987 467257 241129 8128 l
467257 241129 465710 237395 8128 l
465710 237395 465710 220353 8128 l
465710 220353 466116 219374 8128 l
466116 219374 465905 218866 8128 l
465905 218866 456927 218866 8128 l
456927 218866 452609 223184 8128 l
452609 223184 444246 223184 8128 l
444246 223184 444246 314908 8128 l
444246 314908 450820 321482 8128 l
450820 321482 465905 321482 8128 l
465905 321482 466116 320974 8128 l
469266 108224 483870 108224 8128 l
483870 108224 483870 108224 8128 l
483870 108224 469266 108224 8128 l
469266 108224 469266 103488 8128 l
469266 103488 467257 101479 8128 l
467257 101479 465905 98216 8128 l
465905 98216 448818 98216 8128 l
448818 98216 448818 98724 8128 l
448818 98724 446074 98724 8128 l
446074 98724 446075 98724 8128 l
446075 98724 448818 98724 8128 l
448818 98724 448818 100358 8128 l
448818 100358 450827 102367 8128 l
450827 102367 452374 106101 8128 l
452374 106101 452374 111932 8128 l
452374 111932 467245 111932 8128 l
467245 111932 469266 112769 8128 l
469266 112769 469266 108224 8128 l
174624 736874 160020 736874 8128 l
160020 736874 160020 736874 8128 l
160020 736874 174624 736874 8128 l
174624 736874 174624 744024 8128 l
174624 744024 174370 745300 8128 l
174370 745300 173872 746502 8128 l
173872 746502 173150 747584 8128 l
173150 747584 172230 748504 8128 l
172230 748504 171148 749226 8128 l
171148 749226 169946 749724 8128 l
169946 749724 168670 749978 8128 l
168670 749978 160020 749978 8128 l
160020 749978 160020 736874 8128 l
160020 736874 160020 736874 8128 l
160020 736874 160020 749978 8128 l
160020 749978 151370 749978 8128 l
151370 749978 150094 749724 8128 l
150094 749724 148892 749226 8128 l
148892 749226 147810 748504 8128 l
147810 748504 146890 747584 8128 l
146890 747584 146168 746502 8128 l
146168 746502 145670 745300 8128 l
145670 745300 145416 744024 8128 l
145416 744024 145416 736874 8128 l
145416 736874 160020 736874 8128 l
160020 736874 160020 736874 8128 l
160020 736874 145416 736874 8128 l
145416 736874 145416 732138 8128 l
145416 732138 143407 730129 8128 l
143407 730129 141860 726395 8128 l
141860 726395 141860 714871 8128 l
141860 714871 141478 713949 8128 l
141478 713949 141478 693065 8128 l
141478 693065 141459 693084 8128 l
141459 693084 61486 693084 8128 l
61486 693084 55418 690570 8128 l
55418 690570 50774 685926 8128 l
50774 685926 50774 685926 8128 l
50774 685926 49068 684220 8128 l
49068 684220 49068 684220 8128 l
49068 684220 44424 679576 8128 l
44424 679576 42497 674925 8128 l
42497 674925 38640 673328 8128 l
38640 673328 33263 667951 8128 l
33263 667951 30353 660926 8128 l
30353 660926 30353 653322 8128 l
30353 653322 33263 646297 8128 l
33263 646297 38640 640920 8128 l
38640 640920 45665 638011 8128 l
45665 638011 71175 638011 8128 l
71175 638011 78200 640920 8128 l
78200 640920 83577 646297 8128 l
83577 646297 86487 653322 8128 l
86487 653322 86487 660064 8128 l
86487 660064 100330 660064 8128 l
100330 660064 100330 597619 8128 l
100330 597619 97115 596287 8128 l
97115 596287 94257 593429 8128 l
94257 593429 92710 589695 8128 l
92710 589695 92710 578784 8128 l
92710 578784 72354 578784 8128 l
72354 578784 69481 579974 8128 l
69481 579974 47359 579974 8128 l
47359 579974 40854 577279 8128 l
40854 577279 35875 572300 8128 l
35875 572300 33180 565795 8128 l
33180 565795 33180 558753 8128 l
33180 558753 35875 552248 8128 l
35875 552248 40854 547269 8128 l
40854 547269 41150 547146 8128 l
41150 547146 40092 546088 8128 l
40092 546088 38783 544287 8128 l
38783 544287 37772 542303 8128 l
37772 542303 37084 540186 8128 l
37084 540186 36736 537987 8128 l
36736 537987 36736 536874 8128 l
36736 536874 58420 536874 8128 l
58420 536874 58420 536874 8128 l
58420 536874 36736 536874 8128 l
36736 536874 36736 535761 8128 l
36736 535761 37084 533562 8128 l
37084 533562 37772 531445 8128 l
37772 531445 38783 529461 8128 l
38783 529461 40092 527660 8128 l
40092 527660 41666 526086 8128 l
41666 526086 43467 524777 8128 l
43467 524777 45451 523766 8128 l
45451 523766 47568 523078 8128 l
47568 523078 49767 522730 8128 l
49767 522730 58420 522730 8128 l
58420 522730 58420 536874 8128 l
58420 536874 58420 536874 8128 l
58420 536874 58420 522730 8128 l
58420 522730 67073 522730 8128 l
67073 522730 69272 523078 8128 l
69272 523078 71389 523766 8128 l
71389 523766 73373 524777 8128 l
73373 524777 75174 526086 8128 l
75174 526086 76748 527660 8128 l
76748 527660 78057 529461 8128 l
78057 529461 79068 531445 8128 l
79068 531445 79756 533562 8128 l
79756 533562 80104 535761 8128 l
80104 535761 80104 536874 8128 l
80104 536874 58420 536874 8128 l
58420 536874 58420 536874 8128 l
58420 536874 80104 536874 8128 l
80104 536874 80104 537987 8128 l
80104 537987 79756 540186 8128 l
79756 540186 79068 542303 8128 l
79068 542303 78057 544287 8128 l
78057 544287 76984 545764 8128 l
76984 545764 92710 545764 8128 l
92710 545764 92710 534853 8128 l
92710 534853 94257 531119 8128 l
94257 531119 97115 528261 8128 l
97115 528261 100849 526714 8128 l
100849 526714 106680 526714 8128 l
106680 526714 106680 507949 8128 l
106680 507949 104470 502613 8128 l
104470 502613 104470 495035 8128 l
104470 495035 107370 488033 8128 l
107370 488033 112729 482674 8128 l
112729 482674 119731 479774 8128 l
119731 479774 122341 479774 8128 l
122341 479774 100330 457763 8128 l
100330 457763 100330 489868 8128 l
100330 489868 102470 495035 8128 l
102470 495035 102470 502613 8128 l
102470 502613 100330 507780 8128 l
100330 507780 100330 513495 8128 l
100330 513495 98783 517229 8128 l
98783 517229 95925 520087 8128 l
95925 520087 92191 521634 8128 l
92191 521634 56399 521634 8128 l
56399 521634 52665 520087 8128 l
52665 520087 49807 517229 8128 l
49807 517229 48260 513495 8128 l
48260 513495 48260 402261 8128 l
48260 402261 47983 402929 8128 l
47983 402929 45125 405787 8128 l
45125 405787 41391 407334 8128 l
41391 407334 28194 407334 8128 l
28194 407334 28194 789250 8128 l
28194 789250 297816 789250 8128 l
297816 789250 297816 787674 8128 l
297816 787674 312420 787674 8128 l
312420 787674 312420 787674 8128 l
312420 787674 297816 787674 8128 l
297816 787674 297816 782938 8128 l
297816 782938 295807 780929 8128 l
295807 780929 294260 777195 8128 l
294260 777195 294260 760153 8128 l
294260 760153 295807 756419 8128 l
295807 756419 296467 755759 8128 l
296467 755759 297457 753369 8128 l
297457 753369 299790 751036 8128 l
299790 751036 250220 701466 8128 l
250220 701466 176645 701466 8128 l
176645 701466 172164 699610 8128 l
172164 699610 168734 696180 8128 l
168734 696180 165862 693308 8128 l
165862 693308 165862 701214 8128 l
165862 701214 170041 701214 8128 l
170041 701214 173775 702761 8128 l
173775 702761 176633 705619 8128 l
176633 705619 178180 709353 8128 l
178180 709353 178180 726395 8128 l
178180 726395 176633 730129 8128 l
176633 730129 174624 732138 8128 l
174624 732138 174624 736874 8128 l
33909 608348 33909 607124 8128 l
33909 607124 58420 607124 8128 l
58420 607124 58420 607124 8128 l
58420 607124 33909 607124 8128 l
33909 607124 33909 605900 8128 l
33909 605900 34292 603481 8128 l
34292 603481 35049 601152 8128 l
35049 601152 36161 598970 8128 l
36161 598970 37600 596989 8128 l
37600 596989 39331 595257 8128 l
39331 595257 41313 593818 8128 l
41313 593818 43494 592706 8128 l
43494 592706 45823 591950 8128 l
45823 591950 48242 591567 8128 l
48242 591567 58420 591566 8128 l
58420 591566 58420 607124 8128 l
58420 607124 58420 607124 8128 l
58420 607124 58420 591567 8128 l
58420 591567 68598 591567 8128 l
68598 591567 71017 591950 8128 l
71017 591950 73346 592706 8128 l
73346 592706 75527 593818 8128 l
75527 593818 77509 595257 8128 l
77509 595257 79240 596989 8128 l
79240 596989 80679 598970 8128 l
80679 598970 81791 601152 8128 l
81791 601152 82548 603481 8128 l
82548 603481 82931 605900 8128 l
82931 605900 82931 607124 8128 l
82931 607124 58420 607124 8128 l
58420 607124 58420 607124 8128 l
58420 607124 82931 607124 8128 l
82931 607124 82931 608348 8128 l
82931 608348 82548 610767 8128 l
82548 610767 81791 613096 8128 l
81791 613096 80679 615278 8128 l
80679 615278 79240 617259 8128 l
79240 617259 77509 618991 8128 l
77509 618991 75527 620430 8128 l
75527 620430 73346 621542 8128 l
73346 621542 71017 622298 8128 l
71017 622298 68598 622681 8128 l
68598 622681 58420 622681 8128 l
58420 622681 58420 607124 8128 l
58420 607124 58420 607124 8128 l
58420 607124 58420 622681 8128 l
58420 622681 48242 622681 8128 l
48242 622681 45823 622298 8128 l
45823 622298 43494 621542 8128 l
43494 621542 41313 620430 8128 l
41313 620430 39331 618991 8128 l
39331 618991 37600 617259 8128 l
37600 617259 36161 615278 8128 l
36161 615278 35049 613096 8128 l
35049 613096 34292 610767 8128 l
34292 610767 33909 608348 8128 l
94694 736648 94694 743500 8128 l
94694 743500 92072 749831 8128 l
92072 749831 87227 754676 8128 l
87227 754676 80896 757298 8128 l
80896 757298 74044 757298 8128 l
74044 757298 67713 754676 8128 l
67713 754676 62868 749831 8128 l
62868 749831 60246 743500 8128 l
60246 743500 60246 736648 8128 l
60246 736648 62868 730317 8128 l
62868 730317 67713 725472 8128 l
67713 725472 74044 722850 8128 l
74044 722850 80896 722850 8128 l
80896 722850 87227 725472 8128 l
87227 725472 92072 730317 8128 l
92072 730317 94694 736648 8128 l
444246 574974 458470 574974 8128 l
458470 574974 458470 574974 8128 l
458470 574974 444246 574974 8128 l
444246 574974 444246 569082 8128 l
444246 569082 451054 562274 8128 l
451054 562274 444246 555466 8128 l
444246 555466 444246 549574 8128 l
444246 549574 458470 549574 8128 l
458470 549574 458470 549574 8128 l
458470 549574 444246 549574 8128 l
444246 549574 444246 543682 8128 l
444246 543682 452578 535350 8128 l
452578 535350 458470 535350 8128 l
458470 535350 458470 549574 8128 l
458470 549574 458470 549574 8128 l
458470 549574 458470 535350 8128 l
458470 535350 464362 535350 8128 l
464362 535350 468656 539644 8128 l
468656 539644 470662 537637 8128 l
470662 537637 470662 536314 8128 l
470662 536314 470115 536087 8128 l
470115 536087 467257 533229 8128 l
467257 533229 465710 529495 8128 l
465710 529495 465710 512453 8128 l
465710 512453 466116 511474 8128 l
466116 511474 465905 510966 8128 l
465905 510966 450820 510966 8128 l
450820 510966 413512 548274 8128 l
413512 548274 413512 565068 8128 l
413512 565068 419354 565068 8128 l
419354 565068 419354 574212 8128 l
419354 574212 419354 574212 8128 l
419354 574212 419354 565068 8128 l
419354 565068 430164 565068 8128 l
430164 565068 431440 565322 8128 l
431440 565322 432642 565820 8128 l
432642 565820 433724 566542 8128 l
433724 566542 434644 567462 8128 l
434644 567462 435366 568544 8128 l
435366 568544 435864 569746 8128 l
435864 569746 436118 571022 8128 l
436118 571022 436118 574974 8128 l
436118 574974 433374 574974 8128 l
433374 574974 433375 574974 8128 l
433375 574974 436118 574974 8128 l
436118 574974 436118 575482 8128 l
436118 575482 444246 575482 8128 l
444246 575482 444246 574974 8128 l
458470 560750 458470 549574 8128 l
458470 549574 458470 549574 8128 l
458470 549574 458470 574974 8128 l
458470 574974 458470 574974 8128 l
458470 574974 458470 560750 8128 l
763270 563798 763270 549574 8128 l
763270 549574 763270 549574 8128 l
763270 549574 763270 574974 8128 l
763270 574974 763270 574974 8128 l
763270 574974 763270 563798 8128 l
28194 18968 144258 18968 8128 l
169482 18968 544736 18968 8128 l
767080 18968 999746 18968 8128 l
28194 26715 140210 26715 8128 l
175870 26715 175870 26715 8128 l
188974 26715 537267 26715 8128 l
767080 26715 999746 26715 8128 l
28194 34462 140210 34462 8128 l
175870 34462 175870 34462 8128 l
188974 34462 537210 34462 8128 l
767080 34462 999746 34462 8128 l
28194 42209 123602 42209 8128 l
132938 42209 140210 42209 8128 l
188974 42209 199802 42209 8128 l
209138 42209 237500 42209 8128 l
247640 42209 262900 42209 8128 l
273040 42209 288300 42209 8128 l
298440 42209 516793 42209 8128 l
779108 42209 999746 42209 8128 l
28194 49956 73547 49956 8128 l
81393 49956 113038 49956 8128 l
219702 49956 227218 49956 8128 l
308722 49956 319016 49956 8128 l
786855 49956 949847 49956 8128 l
957693 49956 999746 49956 8128 l
28194 57703 62667 57703 8128 l
92273 57703 110570 57703 8128 l
794602 57703 938967 57703 8128 l
968573 57703 999746 57703 8128 l
28194 65450 60246 65450 8128 l
94694 65450 110570 65450 8128 l
802349 65450 936546 65450 8128 l
970994 65450 999746 65450 8128 l
28194 73197 61405 73197 8128 l
93535 73197 110570 73197 8128 l
810096 73197 937705 73197 8128 l
969835 73197 999746 73197 8128 l
28194 80944 67082 80944 8128 l
87858 80944 111775 80944 8128 l
817843 80944 943382 80944 8128 l
964158 80944 999746 80944 8128 l
28194 88691 113030 88691 8128 l
502030 88691 547299 88691 8128 l
825590 88691 999746 88691 8128 l
28194 96438 113030 96438 8128 l
502030 96438 546862 96438 8128 l
833337 96438 999746 96438 8128 l
28194 104185 113030 104185 8128 l
451580 104185 469266 104185 8128 l
498474 104185 546862 104185 8128 l
841084 104185 999746 104185 8128 l
28194 111932 113030 111932 8128 l
467245 111932 469266 111932 8128 l
483870 111932 483870 111932 8128 l
498474 111932 546862 111932 8128 l
848831 111932 999746 111932 8128 l
28194 119679 113030 119679 8128 l
483870 119679 483870 119679 8128 l
496254 119679 546862 119679 8128 l
856578 119679 999746 119679 8128 l
28194 127426 113030 127426 8128 l
143510 127426 230669 127426 8128 l
485364 127426 546862 127426 8128 l
864325 127426 999746 127426 8128 l
28194 135173 113030 135173 8128 l
143510 135173 238416 135173 8128 l
493111 135173 546862 135173 8128 l
872072 135173 999746 135173 8128 l
28194 142920 57852 142920 8128 l
143510 142920 246163 142920 8128 l
500858 142920 543560 142920 8128 l
709676 142920 758474 142920 8128 l
973388 142920 999746 142920 8128 l
28194 150667 52928 150667 8128 l
143510 150667 253910 150667 8128 l
508605 150667 543560 150667 8128 l
709676 150667 766221 150667 8128 l
978312 150667 999746 150667 8128 l
28194 158414 52230 158414 8128 l
143510 158414 261657 158414 8128 l
516352 158414 545611 158414 8128 l
979010 158414 999746 158414 8128 l
28194 166161 55185 166161 8128 l
139536 166161 264160 166161 8128 l
297180 166161 309880 166161 8128 l
524099 166161 573278 166161 8128 l
976055 166161 999746 166161 8128 l
28194 173908 57809 173908 8128 l
97131 173908 264160 173908 8128 l
297180 173908 309880 173908 8128 l
531846 173908 573278 173908 8128 l
910807 173908 934109 173908 8128 l
973431 173908 999746 173908 8128 l
28194 181655 55786 181655 8128 l
77470 181655 77470 181655 8128 l
99154 181655 266683 181655 8128 l
294657 181655 309880 181655 8128 l
570794 181655 573278 181655 8128 l
916993 181655 932086 181655 8128 l
953770 181655 953770 181655 8128 l
975454 181655 999746 181655 8128 l
28194 189402 58352 189402 8128 l
77470 189402 77470 189402 8128 l
96588 189402 268478 189402 8128 l
292862 189402 309880 189402 8128 l
572262 189402 573278 189402 8128 l
918210 189402 934652 189402 8128 l
953770 189402 953770 189402 8128 l
972888 189402 999746 189402 8128 l
28194 197149 268478 197149 8128 l
292862 197149 309880 197149 8128 l
918210 197149 999746 197149 8128 l
28194 204896 268478 204896 8128 l
292862 204896 309880 204896 8128 l
918210 204896 999746 204896 8128 l
28194 212643 268478 212643 8128 l
292862 212643 309880 212643 8128 l
918210 212643 999746 212643 8128 l
28194 220390 268478 220390 8128 l
292862 220390 309880 220390 8128 l
455403 220390 465710 220390 8128 l
918210 220390 999746 220390 8128 l
28194 228137 268478 228137 8128 l
292862 228137 312330 228137 8128 l
444246 228137 465710 228137 8128 l
730630 228137 754791 228137 8128 l
918210 228137 999746 228137 8128 l
28194 235884 268478 235884 8128 l
292862 235884 320077 235884 8128 l
444246 235884 465710 235884 8128 l
730630 235884 762538 235884 8128 l
918210 235884 999746 235884 8128 l
28194 243631 62376 243631 8128 l
254868 243631 268478 243631 8128 l
292862 243631 354330 243631 8128 l
444246 243631 452197 243631 8128 l
458470 243631 458470 243631 8128 l
464743 243631 469759 243631 8128 l
749172 243631 756997 243631 8128 l
763270 243631 763270 243631 8128 l
769543 243631 770285 243631 8128 l
918210 243631 999746 243631 8128 l
28194 251378 58588 251378 8128 l
258657 251378 268478 251378 8128 l
292862 251378 354330 251378 8128 l
444246 251378 444450 251378 8128 l
458470 251378 458470 251378 8128 l
763270 251378 763270 251378 8128 l
918210 251378 999746 251378 8128 l
28194 259125 58588 259125 8128 l
258657 259125 268478 259125 8128 l
292862 259125 354330 259125 8128 l
444246 259125 444246 259125 8128 l
458470 259125 458470 259125 8128 l
763270 259125 763270 259125 8128 l
918210 259125 999746 259125 8128 l
28194 266872 58588 266872 8128 l
258657 266872 268478 266872 8128 l
292862 266872 354330 266872 8128 l
444246 266872 447752 266872 8128 l
458470 266872 458470 266872 8128 l
763270 266872 763270 266872 8128 l
918210 266872 999746 266872 8128 l
28194 274619 58588 274619 8128 l
258657 274619 268478 274619 8128 l
292862 274619 354330 274619 8128 l
444246 274619 446609 274619 8128 l
458470 274619 458470 274619 8128 l
763270 274619 763270 274619 8128 l
918210 274619 999746 274619 8128 l
28194 282366 58653 282366 8128 l
258592 282366 268478 282366 8128 l
292862 282366 354330 282366 8128 l
444246 282366 444246 282366 8128 l
458470 282366 458470 282366 8128 l
763270 282366 763270 282366 8128 l
918210 282366 999746 282366 8128 l
28194 290113 63899 290113 8128 l
253345 290113 268478 290113 8128 l
292862 290113 354330 290113 8128 l
444246 290113 445593 290113 8128 l
458470 290113 458470 290113 8128 l
763270 290113 763270 290113 8128 l
776147 290113 776478 290113 8128 l
918210 290113 999746 290113 8128 l
28194 297860 268478 297860 8128 l
292862 297860 354330 297860 8128 l
444246 297860 468616 297860 8128 l
748029 297860 769142 297860 8128 l
918210 297860 999746 297860 8128 l
28194 305607 268478 305607 8128 l
292862 305607 354330 305607 8128 l
444246 305607 465710 305607 8128 l
730630 305607 761395 305607 8128 l
918210 305607 999746 305607 8128 l
28194 313354 268478 313354 8128 l
292862 313354 354330 313354 8128 l
444246 313354 465710 313354 8128 l
730630 313354 753648 313354 8128 l
918210 313354 999746 313354 8128 l
28194 321101 268478 321101 8128 l
292862 321101 354330 321101 8128 l
450439 321101 466063 321101 8128 l
742539 321101 751078 321101 8128 l
918210 321101 999746 321101 8128 l
28194 328848 268478 328848 8128 l
292862 328848 354330 328848 8128 l
749068 328848 751078 328848 8128 l
918210 328848 999746 328848 8128 l
28194 336595 150729 336595 8128 l
182011 336595 188829 336595 8128 l
220111 336595 268478 336595 8128 l
292862 336595 354330 336595 8128 l
918210 336595 999746 336595 8128 l
28194 344342 143515 344342 8128 l
227325 344342 268478 344342 8128 l
292862 344342 354330 344342 8128 l
918210 344342 999746 344342 8128 l
28194 352089 51037 352089 8128 l
103903 352089 143510 352089 8128 l
227330 352089 268478 352089 8128 l
292862 352089 354330 352089 8128 l
572262 352089 573278 352089 8128 l
918210 352089 999746 352089 8128 l
28194 359836 48260 359836 8128 l
106680 359836 110596 359836 8128 l
120544 359836 143510 359836 8128 l
227330 359836 268478 359836 8128 l
292862 359836 354330 359836 8128 l
572262 359836 573278 359836 8128 l
918210 359836 999746 359836 8128 l
130855 367583 143510 367583 8128 l
227330 367583 268478 367583 8128 l
292862 367583 354330 367583 8128 l
384810 367583 386237 367583 8128 l
572262 367583 576737 367583 8128 l
918210 367583 999746 367583 8128 l
133270 375330 143510 375330 8128 l
227330 375330 268478 375330 8128 l
292862 375330 354330 375330 8128 l
384810 375330 393984 375330 8128 l
571794 375330 584484 375330 8128 l
918210 375330 999746 375330 8128 l
133270 383077 143510 383077 8128 l
227330 383077 268478 383077 8128 l
292862 383077 354330 383077 8128 l
384810 383077 403099 383077 8128 l
564641 383077 592231 383077 8128 l
918210 383077 999746 383077 8128 l
133270 390824 143510 390824 8128 l
227330 390824 268478 390824 8128 l
292862 390824 354330 390824 8128 l
384810 390824 599978 390824 8128 l
918210 390824 999746 390824 8128 l
132012 398571 143510 398571 8128 l
227330 398571 268478 398571 8128 l
292862 398571 354330 398571 8128 l
384810 398571 443174 398571 8128 l
486465 398571 607725 398571 8128 l
817215 398571 817518 398571 8128 l
918210 398571 999746 398571 8128 l
43844 406318 48260 406318 8128 l
128778 406318 143510 406318 8128 l
227330 406318 266984 406318 8128 l
292862 406318 351573 406318 8128 l
384810 406318 441960 406318 8128 l
487680 406318 615472 406318 8128 l
809468 406318 820928 406318 8128 l
918210 406318 999746 406318 8128 l
28194 414065 48260 414065 8128 l
136002 414065 143510 414065 8128 l
227330 414065 259237 414065 8128 l
292131 414065 343826 414065 8128 l
384330 414065 441960 414065 8128 l
487680 414065 623219 414065 8128 l
801721 414065 820928 414065 8128 l
918210 414065 999746 414065 8128 l
28194 421812 48260 421812 8128 l
141594 421812 143510 421812 8128 l
285974 421812 336079 421812 8128 l
379185 421812 441960 421812 8128 l
487680 421812 633232 421812 8128 l
791708 421812 820928 421812 8128 l
918210 421812 999746 421812 8128 l
28194 429559 48260 429559 8128 l
278227 429559 328332 429559 8128 l
371438 429559 411288 429559 8128 l
613602 429559 820928 429559 8128 l
918808 429559 999746 429559 8128 l
28194 437306 48260 437306 8128 l
270480 437306 320585 437306 8128 l
363691 437306 401096 437306 8128 l
626965 437306 820928 437306 8128 l
926555 437306 999746 437306 8128 l
28194 445053 48260 445053 8128 l
227330 445053 312838 445053 8128 l
355944 445053 393349 445053 8128 l
639360 445053 820928 445053 8128 l
953352 445053 999746 445053 8128 l
28194 452800 48260 452800 8128 l
226168 452800 305091 452800 8128 l
348197 452800 385602 452800 8128 l
651755 452800 820928 452800 8128 l
961099 452800 999746 452800 8128 l
28194 460547 48260 460547 8128 l
100330 460547 103114 460547 8128 l
340450 460547 377855 460547 8128 l
664151 460547 820928 460547 8128 l
968846 460547 999746 460547 8128 l
28194 468294 48260 468294 8128 l
100330 468294 110861 468294 8128 l
332703 468294 370108 468294 8128 l
673010 468294 820928 468294 8128 l
974511 468294 999746 468294 8128 l
28194 476041 48260 476041 8128 l
100330 476041 118608 476041 8128 l
324956 476041 362361 476041 8128 l
673862 476041 679861 476041 8128 l
975360 476041 999746 476041 8128 l
28194 483788 48260 483788 8128 l
100330 483788 111615 483788 8128 l
317209 483788 354614 483788 8128 l
673862 483788 674878 483788 8128 l
975360 483788 999746 483788 8128 l
28194 491535 48260 491535 8128 l
101020 491535 105920 491535 8128 l
179645 491535 181610 491535 8128 l
267080 491535 346867 491535 8128 l
975360 491535 999746 491535 8128 l
28194 499282 48260 499282 8128 l
102470 499282 104470 499282 8128 l
165970 499282 165970 499282 8128 l
181464 499282 181610 499282 8128 l
267462 499282 339120 499282 8128 l
975360 499282 999746 499282 8128 l
28194 507029 48260 507029 8128 l
100641 507029 106299 507029 8128 l
165970 507029 165970 507029 8128 l
179160 507029 181610 507029 8128 l
975360 507029 999746 507029 8128 l
28194 514776 48791 514776 8128 l
99799 514776 106680 514776 8128 l
160528 514776 181610 514776 8128 l
447010 514776 465710 514776 8128 l
730630 514776 749330 514776 8128 l
976630 514776 999746 514776 8128 l
28194 522523 106680 522523 8128 l
160528 522523 176179 522523 8128 l
439263 522523 465710 522523 8128 l
730630 522523 757077 522523 8128 l
976630 522523 999746 522523 8128 l
28194 530270 38371 530270 8128 l
58420 530270 58420 530270 8128 l
78469 530270 95106 530270 8128 l
160528 530270 168432 530270 8128 l
431516 530270 466031 530270 8128 l
730309 530270 764824 530270 8128 l
975360 530270 999746 530270 8128 l
28194 538017 36741 538017 8128 l
80099 538017 92710 538017 8128 l
160528 538017 160685 538017 8128 l
423769 538017 449911 538017 8128 l
458470 538017 458470 538017 8128 l
467029 538017 470282 538017 8128 l
751458 538017 754711 538017 8128 l
763270 538017 763270 538017 8128 l
975360 538017 999746 538017 8128 l
28194 545764 39856 545764 8128 l
416022 545764 444246 545764 8128 l
458470 545764 458470 545764 8128 l
763270 545764 763270 545764 8128 l
975360 545764 999746 545764 8128 l
28194 553511 35351 553511 8128 l
248412 553511 278784 553511 8128 l
413512 553511 444246 553511 8128 l
458470 553511 458470 553511 8128 l
763270 553511 763270 553511 8128 l
975360 553511 999746 553511 8128 l
28194 561258 33180 561258 8128 l
248412 561258 276860 561258 8128 l
413512 561258 450038 561258 8128 l
458470 561258 458470 561258 8128 l
763270 561258 763270 561258 8128 l
975360 561258 999746 561258 8128 l
28194 569005 34510 569005 8128 l
254254 569005 254254 569005 8128 l
270457 569005 276860 569005 8128 l
419354 569005 419354 569005 8128 l
435557 569005 444323 569005 8128 l
458470 569005 458470 569005 8128 l
763270 569005 763270 569005 8128 l
975360 569005 999746 569005 8128 l
28194 576752 40326 576752 8128 l
273461 576752 281178 576752 8128 l
763270 576752 763270 576752 8128 l
975360 576752 999746 576752 8128 l
28194 584499 92710 584499 8128 l
763270 584499 763270 584499 8128 l
773861 584499 774603 584499 8128 l
975360 584499 999746 584499 8128 l
28194 592246 44911 592246 8128 l
58420 592246 58420 592246 8128 l
71929 592246 93767 592246 8128 l
729467 592246 729997 592246 8128 l
745743 592246 766856 592246 8128 l
941040 592246 944880 592246 8128 l
975360 592246 999746 592246 8128 l
28194 599993 35639 599993 8128 l
58420 599993 58420 599993 8128 l
81201 599993 100330 599993 8128 l
730630 599993 759109 599993 8128 l
933293 599993 944880 599993 8128 l
975360 599993 999746 599993 8128 l
28194 607740 33909 607740 8128 l
58420 607740 58420 607740 8128 l
82931 607740 100330 607740 8128 l
730630 607740 751362 607740 8128 l
925546 607740 944880 607740 8128 l
975360 607740 999746 607740 8128 l
28194 615487 36312 615487 8128 l
58420 615487 58420 615487 8128 l
80528 615487 100330 615487 8128 l
917799 615487 931485 615487 8128 l
976055 615487 999746 615487 8128 l
28194 623234 100330 623234 8128 l
909574 623234 928530 623234 8128 l
979010 623234 999746 623234 8128 l
28194 630981 100330 630981 8128 l
905527 630981 929228 630981 8128 l
978312 630981 999746 630981 8128 l
28194 638728 43932 638728 8128 l
72908 638728 100330 638728 8128 l
902462 638728 934152 638728 8128 l
973388 638728 999746 638728 8128 l
28194 646475 33189 646475 8128 l
83651 646475 100330 646475 8128 l
902462 646475 932885 646475 8128 l
974655 646475 999746 646475 8128 l
28194 654222 30353 654222 8128 l
86487 654222 100330 654222 8128 l
902462 654222 932392 654222 8128 l
953770 654222 953770 654222 8128 l
975148 654222 999746 654222 8128 l
28194 661969 30785 661969 8128 l
902462 661969 937025 661969 8128 l
953770 661969 953770 661969 8128 l
970515 661969 999746 661969 8128 l
28194 669716 35028 669716 8128 l
901047 669716 999746 669716 8128 l
28194 677463 43548 677463 8128 l
703423 677463 999746 677463 8128 l
28194 685210 50057 685210 8128 l
695676 685210 999746 685210 8128 l
28194 692957 61179 692957 8128 l
687929 692957 999746 692957 8128 l
28194 700704 141478 700704 8128 l
165862 700704 174805 700704 8128 l
680182 700704 999746 700704 8128 l
28194 708451 141478 708451 8128 l
177806 708451 257205 708451 8128 l
672435 708451 999746 708451 8128 l
28194 716198 141860 716198 8128 l
178180 716198 264952 716198 8128 l
664688 716198 999746 716198 8128 l
28194 723945 71400 723945 8128 l
83540 723945 141860 723945 8128 l
178180 723945 272699 723945 8128 l
656941 723945 947700 723945 8128 l
959840 723945 999746 723945 8128 l
28194 731692 62299 731692 8128 l
92641 731692 144970 731692 8128 l
175070 731692 280446 731692 8128 l
649194 731692 938599 731692 8128 l
968941 731692 999746 731692 8128 l
28194 739439 60246 739439 8128 l
94694 739439 145416 739439 8128 l
160020 739439 160020 739439 8128 l
174624 739439 288193 739439 8128 l
641447 739439 936546 739439 8128 l
970994 739439 999746 739439 8128 l
28194 747186 61773 747186 8128 l
93167 747186 146625 747186 8128 l
160020 747186 160020 747186 8128 l
173415 747186 295940 747186 8128 l
633700 747186 938073 747186 8128 l
969467 747186 999746 747186 8128 l
28194 754933 68334 754933 8128 l
86606 754933 296809 754933 8128 l
625953 754933 944634 754933 8128 l
962906 754933 999746 754933 8128 l
28194 762680 294260 762680 8128 l
618206 762680 999746 762680 8128 l
28194 770427 294260 770427 8128 l
347980 770427 999746 770427 8128 l
28194 778174 294666 778174 8128 l
345838 778174 999746 778174 8128 l
28194 785921 297816 785921 8128 l
327024 785921 999746 785921 8128 l
357886 600374 357886 613074 4064 l
357886 613074 331470 613074 4064 l
192786 613074 172720 613074 4064 l
172720 613074 166370 613074 4064 l
192786 613074 192786 600374 4064 l
166370 613074 12700 12700 0.0 o
889254 581324 889254 594024 4064 l
889254 594024 889254 588690 4064 l
889254 588690 890270 587674 4064 l
890270 587674 890270 581324 4064 l
890270 581324 915670 581324 4064 l
915670 581324 934720 562274 4064 l
934720 562274 934720 498774 4064 l
674370 87040 661670 87040 4064 l
674370 87040 674370 54274 4064 l
674370 54274 750570 54274 4064 l
750570 54274 890270 193974 4064 l
890270 193974 890270 447974 4064 l
890270 447974 915670 473374 4064 l
915670 473374 934720 473374 4064 l
934720 498774 12700 12700 0.0 o
934720 473374 12700 12700 0.0 o
661670 87040 661670 41574 4064 l
661670 41574 585470 41574 4064 l
585470 41574 579120 47924 4064 l
579120 47924 528320 47924 4064 l
528320 47924 515620 60624 4064 l
515620 60624 325120 60624 4064 l
325120 60624 318770 66974 4064 l
331470 124124 370586 124124 4064 l
370586 124124 370586 136824 4064 l
331470 613074 12700 12700 0.0 o
293370 66974 318770 66974 4064 l
318770 111424 12700 12700 0.0 o
318770 613074 12700 12700 0.0 o
115570 384474 115570 409874 6096 l
115570 409874 102870 422574 6096 l
102870 422574 102870 441624 6096 l
102870 441624 147320 486074 6096 l
147320 486074 147320 606724 6096 l
147320 606724 153670 613074 6096 l
153670 613074 172720 613074 6096 l
318770 66974 318770 105074 4064 l
331470 124124 318770 111424 4064 l
318770 111424 318770 105074 4064 l
370586 149524 388620 149524 4064 l
388620 149524 388620 111424 4064 l
388620 111424 414020 86024 4064 l
414020 86024 477520 86024 4064 l
483870 86024 477520 86024 4064 l
483870 89224 483870 86024 4064 l
648970 87040 648970 54274 4064 l
648970 54274 591820 54274 4064 l
591820 54274 585470 60624 4064 l
585470 60624 553720 60624 4064 l
553720 60624 12700 12700 0.0 o
553720 35224 12700 12700 0.0 o
566420 32024 556920 32024 4064 l
556920 32024 553720 35224 4064 l
636270 87040 636270 66974 4064 l
636270 66974 598170 66974 4064 l
598170 66974 591820 73324 4064 l
591820 73324 401320 73324 4064 l
401320 73324 375920 98724 4064 l
375920 98724 370586 98724 4064 l
192786 587674 166370 587674 4064 l
166370 587674 12700 12700 0.0 o
889254 606724 909320 606724 4064 l
909320 606724 947420 568624 4064 l
947420 568624 947420 492424 4064 l
687070 87040 687070 66974 4064 l
687070 66974 725170 66974 4064 l
725170 66974 731520 73324 4064 l
731520 73324 737870 79674 4064 l
737870 79674 763270 79674 4064 l
763270 79674 877570 193974 4064 l
877570 193974 877570 447974 4064 l
877570 447974 915670 486074 4064 l
915670 486074 941070 486074 4064 l
941070 486074 947420 492424 4064 l
731520 73324 12700 12700 0.0 o
370586 111424 350520 111424 4064 l
350520 111424 344170 105074 4064 l
344170 105074 344170 92374 4064 l
344170 73324 12700 12700 0.0 o
731520 73324 11064 11064 0.0 o
344170 92374 344170 73324 4064 l
267970 66974 267970 92374 4064 l
267970 92374 12700 12700 0.0 o
344170 92374 12700 12700 0.0 o
306070 587674 12700 12700 0.0 o
306070 587674 357886 587674 4064 l
206470 428924 206470 418224 6096 l
206470 418224 198120 409874 6096 l
198120 409874 198120 384474 6096 l
166370 587674 166370 549574 4064 l
166370 549574 206070 509874 4064 l
206070 509874 217170 498774 4064 l
217170 498774 252120 498774 4064 l
255270 498774 252120 498774 4064 l
252120 498774 248920 495574 4064 l
248920 495574 252070 495574 4064 l
252070 495574 255270 498774 4064 l
206070 498824 206070 509874 4064 l
280670 92374 12700 12700 0.0 o
206470 428924 261620 428924 4064 l
261620 428924 280670 409874 4064 l
280670 409874 280670 168574 4064 l
280670 168574 12700 12700 0.0 o
192786 625774 153670 625774 4064 l
153670 625774 153670 711524 4064 l
153670 711524 160020 717874 4064 l
889254 568624 871220 568624 4064 l
871220 568624 871220 638474 4064 l
871220 638474 871220 644824 4064 l
868020 644824 868020 641674 4064 l
868020 641674 871220 638474 4064 l
242570 66974 242570 92374 4064 l
242570 92374 280670 130474 4064 l
280670 130474 325120 130474 4064 l
370586 162224 350520 162224 4064 l
325120 130474 331470 136824 4064 l
331470 136824 350520 136824 4064 l
350520 136824 350520 162224 4064 l
204470 66974 242570 66974 6096 l
483870 209874 483870 206674 4064 l
483870 206674 445770 206674 4064 l
370586 174924 350520 174924 4064 l
350520 174924 344170 181274 4064 l
344170 181274 344170 206674 4064 l
344170 206674 12700 12700 0.0 o
445770 206674 12700 12700 0.0 o
432054 187624 432054 319958 4064 l
432054 319958 445770 333674 4064 l
445770 333674 480670 333674 4064 l
480670 333674 483870 330474 4064 l
432054 174924 458470 174924 4064 l
458470 174924 464820 174924 4064 l
509270 193974 509270 209874 4064 l
509270 193974 490220 174924 4064 l
490220 174924 464820 174924 4064 l
432054 162224 414020 162224 4064 l
414020 327324 433070 346374 4064 l
433070 346374 509270 346374 4064 l
509270 346374 509270 330474 4064 l
414020 162224 414020 327324 4064 l
432054 149524 477520 149524 4064 l
534670 193974 534670 209874 4064 l
477520 149524 521970 193974 4064 l
521970 193974 534670 193974 4064 l
432054 136824 407670 136824 4064 l
401320 340024 420370 359074 4064 l
420370 359074 534670 359074 4064 l
534670 359074 534670 330474 4064 l
407670 136824 407670 206674 4064 l
407670 206674 401320 213024 4064 l
401320 213024 401320 340024 4064 l
432054 124124 464820 124124 4064 l
560070 187624 560070 209874 4064 l
560070 187624 528320 187624 4064 l
528320 187624 464820 124124 4064 l
432054 111424 401320 111424 4064 l
388620 352724 407670 371774 4064 l
407670 371774 560070 371774 4064 l
560070 371774 560070 330474 4064 l
401320 111424 401320 149524 4064 l
401320 149524 394970 155874 4064 l
394970 155874 394970 206674 4064 l
394970 206674 388620 213024 4064 l
388620 213024 388620 352724 4064 l
623570 87040 623570 105074 4064 l
585470 105074 585470 209874 4064 l
623570 105074 585470 105074 4064 l
636270 105074 763270 105074 4064 l
610870 148508 610870 117774 4064 l
610870 117774 636270 117774 4064 l
636270 117774 636270 105074 4064 l
763270 105074 852170 193974 4064 l
852170 193974 852170 346374 4064 l
852170 346374 788670 409874 4064 l
788670 409874 636270 409874 4064 l
636270 409874 585470 359074 4064 l
585470 359074 585470 330474 4064 l
623570 148508 623570 168574 4064 l
623570 168574 610870 181274 4064 l
610870 181274 610870 209874 4064 l
648970 117774 763270 117774 4064 l
636270 148508 636270 130474 4064 l
636270 130474 648970 130474 4064 l
648970 130474 648970 117774 4064 l
763270 117774 839470 193974 4064 l
839470 193974 839470 346374 4064 l
839470 346374 788670 397174 4064 l
788670 397174 648970 397174 4064 l
648970 397174 610870 359074 4064 l
610870 359074 610870 330474 4064 l
648970 148508 648970 168574 4064 l
648970 168574 636270 181274 4064 l
636270 181274 636270 209874 4064 l
661670 148508 661670 130474 4064 l
661670 130474 763270 130474 4064 l
763270 130474 826770 193974 4064 l
826770 193974 826770 346374 4064 l
826770 346374 788670 384474 4064 l
788670 384474 661670 384474 4064 l
661670 384474 636270 359074 4064 l
636270 359074 636270 330474 4064 l
674370 148508 674370 168574 4064 l
674370 168574 661670 181274 4064 l
661670 181274 661670 209874 4064 l
687070 148508 687070 168574 4064 l
687070 168574 788670 168574 4064 l
788670 168574 814070 193974 4064 l
814070 193974 814070 346374 4064 l
814070 346374 788670 371774 4064 l
788670 371774 674370 371774 4064 l
674370 371774 661670 359074 4064 l
661670 359074 661670 330474 4064 l
827786 530524 833120 530524 4064 l
833120 530524 833120 505124 4064 l
833120 505124 826770 498774 4064 l
826770 498774 769620 498774 4064 l
687070 330474 687070 346374 4064 l
687070 346374 699770 359074 4064 l
699770 359074 718820 359074 4064 l
769620 498774 12700 12700 0.0 o
718820 359074 12700 12700 0.0 o
827786 555924 795020 555924 4064 l
795020 555924 795020 511474 4064 l
795020 511474 10160 10160 0.0 o
712470 330474 734670 330474 4064 l
734670 330474 737870 333674 4064 l
737870 333674 737870 346374 4064 l
795020 511474 12700 12700 0.0 o
737870 346374 12700 12700 0.0 o
715670 498774 712470 501974 4064 l
782320 568624 827786 568624 4064 l
715670 498774 750570 498774 4064 l
750570 498774 782320 530524 4064 l
782320 530524 782320 568624 4064 l
827786 581324 795020 581324 4064 l
795020 581324 750570 625774 4064 l
750570 625774 715670 625774 4064 l
715670 625774 712470 622574 4064 l
687070 501974 687070 486074 4064 l
687070 486074 826770 486074 4064 l
826770 486074 852170 511474 4064 l
852170 511474 852170 594024 4064 l
852170 594024 827786 594024 4064 l
687070 638474 687070 622574 4064 l
827786 606724 782320 606724 4064 l
782320 606724 750570 638474 4064 l
750570 638474 687070 638474 4064 l
483870 228874 483870 257474 6096 l
483870 311474 483870 282874 6096 l
509270 228874 509270 257474 6096 l
509270 311474 509270 282874 6096 l
534670 228874 534670 257474 6096 l
534670 311474 534670 282874 6096 l
560070 228874 560070 257474 6096 l
560070 311474 560070 282874 6096 l
585470 228874 585470 257474 6096 l
585470 282874 585470 311474 6096 l
610870 228874 610870 257474 6096 l
610870 311474 610870 282874 6096 l
636270 228874 636270 257474 6096 l
636270 311474 636270 282874 6096 l
661670 228874 661670 257474 6096 l
661670 311474 661670 282874 6096 l
687070 228874 687070 257474 6096 l
687070 311474 687070 282874 6096 l
712470 228874 712470 257474 6096 l
712470 311474 712470 282874 6096 l
331470 632124 12700 12700 0.0 o
357886 625774 337820 625774 4064 l
337820 625774 331470 632124 4064 l
312420 768674 331470 765474 4064 l
331470 765474 12700 12700 0.0 o
889254 555924 922020 555924 4064 l
699770 87040 707136 87040 4064 l
707136 87040 712470 92374 4064 l
712470 92374 763270 92374 4064 l
763270 92374 864870 193974 4064 l
864870 193974 864870 447974 4064 l
922020 505124 922020 555924 4064 l
864870 447974 922020 505124 4064 l
192786 638474 166370 638474 4064 l
166370 638474 166370 676574 4064 l
166370 676574 179070 689274 4064 l
179070 689274 255270 689274 4064 l
255270 689274 318770 752774 4064 l
699770 663874 890270 663874 4064 l
890270 663874 890270 620440 4064 l
890270 620440 889254 619424 4064 l
318770 752774 610870 752774 4064 l
610870 752774 699770 663874 4064 l
357886 638474 344170 638474 4064 l
344170 638474 331470 651174 4064 l
331470 651174 318770 651174 4064 l
293370 562274 293370 594024 4064 l
293370 594024 306070 606724 4064 l
306070 606724 306070 638474 4064 l
306070 638474 318770 651174 4064 l
293370 562274 12700 12700 0.0 o
192786 574974 192786 563290 4064 l
192786 563290 191770 562274 4064 l
191770 562274 12700 12700 0.0 o
636270 501974 636270 473374 4064 l
223520 524174 223520 651174 4064 l
223520 651174 254254 651174 4064 l
223520 524174 344170 524174 4064 l
420370 447974 598170 447974 4064 l
598170 447974 636270 473374 4064 l
420370 447974 344170 524174 4064 l
610870 501974 610870 473374 4064 l
229870 530524 229870 625774 4064 l
229870 625774 254254 625774 4064 l
229870 530524 350520 530524 4064 l
426720 454324 585470 454324 4064 l
585470 454324 610870 473374 4064 l
350520 530524 426720 454324 4064 l
560070 501974 560070 473374 4064 l
560070 473374 433070 473374 4064 l
382270 524174 382270 651174 4064 l
382270 651174 357886 651174 4064 l
382270 524174 433070 473374 4064 l
661670 501974 661670 473374 4064 l
217170 517824 217170 651174 4064 l
217170 651174 192786 651174 4064 l
217170 517824 337820 517824 4064 l
414020 441624 610870 441624 4064 l
610870 441624 661670 473374 4064 l
337820 517824 414020 441624 4064 l
254254 663874 261620 663874 4064 l
331470 727374 585470 727374 4064 l
585470 727374 661670 651174 4064 l
661670 651174 661670 622574 4064 l
331470 727374 267970 663874 4064 l
267970 663874 254254 663874 4064 l
636270 622574 636270 651174 4064 l
280670 663874 280670 638474 4064 l
280670 638474 254254 638474 4064 l
636270 651174 572770 714674 4064 l
572770 714674 331470 714674 4064 l
331470 714674 280670 663874 4064 l
610870 622574 610870 651174 4064 l
331470 701974 560070 701974 4064 l
560070 701974 610870 651174 4064 l
331470 701974 287020 657524 4064 l
254254 613074 274320 613074 4064 l
287020 657524 287020 625774 4064 l
287020 625774 274320 613074 4064 l
585470 501974 585470 473374 4064 l
236220 536874 236220 600374 4064 l
236220 600374 254254 600374 4064 l
236220 536874 356870 536874 4064 l
433070 460674 572770 460674 4064 l
572770 460674 585470 473374 4064 l
356870 536874 433070 460674 4064 l
585470 622574 585470 651174 4064 l
585470 651174 547370 689274 4064 l
547370 689274 331470 689274 4064 l
267970 587674 254254 587674 4064 l
331470 689274 293370 651174 4064 l
293370 651174 293370 613074 4064 l
293370 613074 267970 587674 4064 l
560070 622574 560070 651174 4064 l
419354 663874 547370 663874 4064 l
547370 663874 560070 651174 4064 l
534670 501974 534670 479724 4064 l
534670 479724 439420 479724 4064 l
419354 651174 388620 651174 4064 l
388620 651174 388620 530524 4064 l
388620 530524 439420 479724 4064 l
534670 622574 534670 651174 4064 l
419354 638474 458470 638474 4064 l
458470 638474 471170 651174 4064 l
471170 651174 534670 651174 4064 l
509270 501974 509270 486074 4064 l
509270 486074 445770 486074 4064 l
419354 625774 394970 625774 4064 l
394970 625774 394970 536874 4064 l
394970 536874 445770 486074 4064 l
509270 622574 509270 638474 4064 l
419354 613074 445770 613074 4064 l
445770 613074 471170 638474 4064 l
471170 638474 509270 638474 4064 l
419354 600374 401320 600374 4064 l
480720 505124 483870 501974 4064 l
480720 505124 480720 501924 4064 l
480720 501924 483870 498774 4064 l
483870 498774 445770 498774 4064 l
445770 498774 401320 543224 4064 l
401320 543224 401320 600374 4064 l
419354 587674 445770 587674 4064 l
445770 587674 458470 600374 4064 l
458470 600374 458470 613074 4064 l
458470 613074 471170 625774 4064 l
471170 625774 480670 625774 4064 l
480670 625774 483870 622574 4064 l
712470 520974 712470 549574 6096 l
712470 603574 712470 574974 6096 l
687070 520974 687070 549574 6096 l
687070 603574 687070 574974 6096 l
661670 549574 661670 520974 6096 l
661670 603574 661670 574974 6096 l
636270 549574 636270 520974 6096 l
636270 603574 636270 574974 6096 l
610870 549574 610870 520974 6096 l
610870 603574 610870 574974 6096 l
585470 549574 585470 520974 6096 l
585470 603574 585470 574974 6096 l
560070 549574 560070 520974 6096 l
560070 603574 560070 574974 6096 l
534670 520974 534670 549574 6096 l
534670 603574 534670 574974 6096 l
509270 520974 509270 549574 6096 l
509270 603574 509270 574974 6096 l
483870 520974 483870 549574 6096 l
483870 603574 483870 574974 6096 l
90170 384474 90170 409874 6096 l
90170 409874 83820 416224 6096 l
83820 416224 83820 428924 6096 l
61570 384474 90170 384474 6096 l
83820 428924 83820 498424 6096 l
83820 498424 83420 498824 6096 l
179070 66974 153670 66974 6096 l
153670 66974 153670 41574 6096 l
153670 41574 156870 35224 6096 l
687070 209874 687070 193974 4064 l
687070 193974 750570 193974 4064 l
750570 193974 801370 244774 4064 l
801370 244774 801370 308274 4064 l
801370 308274 788670 320974 4064 l
788670 320974 788670 346374 4064 l
788670 346374 10160 10160 0.0 o
889254 543224 909320 543224 4064 l
909320 543224 909320 505124 4064 l
909320 505124 896620 492424 4064 l
896620 492424 852170 492424 4064 l
852170 492424 833120 473374 4064 l
788670 346374 12700 12700 0.0 o
833120 390824 12700 12700 0.0 o
833120 473374 833120 390824 4064 l
827786 543224 807720 543224 4064 l
807720 543224 807720 511474 4064 l
807720 511474 820420 511474 4064 l
712470 209874 753770 209874 4064 l
753770 209874 788670 244774 4064 l
788670 244774 788670 295574 4064 l
788670 295574 763270 320974 4064 l
763270 320974 763270 346374 4064 l
763270 346374 10160 10160 0.0 o
763270 346374 12700 12700 0.0 o
820420 511474 12700 12700 0.0 o
458470 257474 10160 h
483870 257474 10160 h
509270 257474 10160 h
534670 257474 10160 h
560070 257474 10160 h
585470 257474 10160 h
458470 282874 10160 h
483870 282874 10160 h
509270 282874 10160 h
534670 282874 10160 h
560070 282874 10160 h
585470 282874 10160 h
610870 257474 10160 h
610870 282874 10160 h
636270 257474 10160 h
661670 257474 10160 h
687070 257474 10160 h
712470 257474 10160 h
737870 257474 10160 h
763270 257474 10160 h
636270 282874 10160 h
661670 282874 10160 h
687070 282874 10160 h
712470 282874 10160 h
737870 282874 10160 h
763270 282874 10160 h
458470 549574 10160 h
483870 549574 10160 h
509270 549574 10160 h
534670 549574 10160 h
560070 549574 10160 h
585470 549574 10160 h
458470 574974 10160 h
483870 574974 10160 h
509270 574974 10160 h
534670 574974 10160 h
560070 574974 10160 h
585470 574974 10160 h
610870 549574 10160 h
610870 574974 10160 h
636270 549574 10160 h
661670 549574 10160 h
687070 549574 10160 h
712470 549574 10160 h
737870 549574 10160 h
763270 549574 10160 h
636270 574974 10160 h
661670 574974 10160 h
687070 574974 10160 h
712470 574974 10160 h
737870 574974 10160 h
763270 574974 10160 h
293370 66974 10160 h
267970 66974 10160 h
242570 66974 10160 h
58420 562274 10000 h
58420 536874 10000 h
953770 155874 10000 h
953770 181274 10000 h
953770 625774 10000 h
953770 651174 10000 h
77470 155874 10000 h
77470 181274 10000 h
172720 384474 10000 h
198120 384474 10000 h
83820 428924 8000 h
123920 428924 8000 h
83420 498824 8000 h
123520 498824 8000 h
90170 384474 10000 h
115570 384474 10000 h
166370 428924 8000 h
206470 428924 8000 h
165970 498824 8000 h
206070 498824 8000 h
179070 66974 10000 h
204470 66974 10000 h
153670 66974 10000 h
128270 66974 10000 h
58420 607124 11938 h
58420 657124 11938 h
356870 740074 6000 h
134620 676574 6000 h
191770 676574 6000 h
782320 625774 6000 h
871220 517824 6000 h
337820 149524 7000 h
560070 149524 7000 h
890270 517824 7000 h
890270 517824 7000 h
960120 517824 7000 h
356870 676574 7000 h
356870 676574 7000 h
750570 320974 6000 h
737870 473374 6000 h
458470 511474 6000 h
458470 422574 6000 h
458470 320974 6000 h
471170 409874 6000 h
458470 409874 6000 h
280670 498774 6000 h
458470 225724 7000 h
521970 162224 7000 h
458470 225724 7000 h
826770 644824 7000 h
826770 689274 7000 h
820420 422574 7000 h
922020 422574 7000 h
750570 320974 7000 h
922020 320974 7000 h
458470 320974 8000 h
750570 320974 7000 h
737870 473374 7000 h
280670 549574 6000 h
750570 149524 7000 h
750570 149524 7000 h
750570 35224 7000 h
293370 498774 7000 h
293370 454324 7000 h
737870 524174 7000 h
77470 740074 32000 h
953770 740074 32000 h
953770 66974 32000 h
77470 66974 32000 h
166370 613074 6000 h
934720 498774 6000 h
934720 473374 6000 h
331470 613074 6000 h
318770 111424 7000 h
318770 613074 7000 h
553720 60624 7000 h
553720 35224 7000 h
166370 587674 6000 h
731520 73324 6000 h
344170 73324 6000 h
731520 73324 7000 h
267970 92374 7000 h
344170 92374 7000 h
306070 587674 6000 h
280670 92374 7000 h
280670 168574 7000 h
344170 206674 7000 h
445770 206674 7000 h
769620 498774 7000 h
718820 359074 7000 h
795020 511474 6000 h
795020 511474 7000 h
737870 346374 7000 h
331470 632124 6000 h
331470 765474 6000 h
293370 562274 7000 h
191770 562274 7000 h
788670 346374 6000 h
788670 346374 8000 h
833120 390824 6000 h
763270 346374 6000 h
763270 346374 7000 h
820420 511474 7000 h
