___lwdiv@dividend 72 0 COMMON
___awdiv@counter 7A 0 COMMON
___lwdiv@counter 76 0 COMMON
_RX 613 0 CODE
_TX 656 0 CODE
_RA2 2A 0 ABS
__S0 2008 0 ABS
__S1 7E 0 ABS
__S2 0 0 ABS
get_temp@temperature 24 0 BANK0
__Hintentry 0 0 CODE
__Lintentry 0 0 CODE
?_RX 70 0 COMMON
?_TX 70 0 COMMON
RX@d 71 0 COMMON
RX@i 72 0 COMMON
TX@i 73 0 COMMON
__end_of___awdiv 6EE 0 CODE
_RCIF 65 0 ABS
_TXIF 64 0 ABS
_INIT 633 0 CODE
??_RX 70 0 COMMON
??_TX 70 0 COMMON
_main 6EE 0 CODE
btemp 7E 0 ABS
_exit 0 0 CODE
start 0 0 CODE
_puts 5D4 0 CODE
get_temp@temp1 26 0 BANK0
_RCREG 1A 0 ABS
_RCSTA 18 0 ABS
_TXREG 19 0 ABS
reset_vec 0 0 CODE
_SPBRG 99 0 ABS
_TXSTA 98 0 ABS
_CMCON 1F 0 ABS
wtemp0 7E 0 ABS
?_INIT 70 0 COMMON
INIT@b 160 -134 BANK0
__Hconfig 2008 0 CONFIG
__Lconfig 2007 0 CONFIG
TX@cmd 71 0 COMMON
puts@s 72 0 COMMON
__Hram 0 0 ABS
__Lram 0 0 ABS
_getch 5CC 0 CODE
_putch 5D9 0 CODE
?_main 70 0 COMMON
?_puts 70 0 COMMON
_cputs 5DF 0 CODE
__Hfunctab 0 0 CODE
__Lfunctab 0 0 CODE
_TRISB1 431 0 ABS
_TRISA2 42A 0 ABS
main@temp 2A 0 BANK0
_TRISB2 432 0 ABS
??___bmul 78 0 COMMON
__end_of_putch 5DF 0 CODE
_get_temp 74B 0 CODE
__Hcommon 0 0 ABS
__Lcommon 0 0 ABS
__Heeprom_data 0 0 EEDATA
__Leeprom_data 0 0 EEDATA
??___wmul 74 0 COMMON
__end_of_get_temp 7F7 0 CODE
?___awdiv 76 0 COMMON
?___lwdiv 70 0 COMMON
__Habs1 0 0 ABS
__Labs1 0 0 ABS
__Hsfr0 0 0 ABS
__Lsfr0 0 0 ABS
__Hsfr1 0 0 ABS
__Lsfr1 0 0 ABS
__Hsfr2 0 0 ABS
__Lsfr2 0 0 ABS
__Hsfr3 0 0 ABS
__Lsfr3 0 0 ABS
??_INIT 70 0 COMMON
_temp_drob 2D 0 BANK0
__ptext230 633 0 CODE
__ptext231 6A9 0 CODE
__ptext232 67F 0 CODE
__ptext233 5FA 0 CODE
get_temp@temp2 27 0 BANK0
__ptext224 0 0 CODE
__Hcode 0 0 ABS
__Lcode 0 0 ABS
cputs@s 71 0 COMMON
__ptext234 5EC 0 CODE
?_getch 70 0 COMMON
putch@byte 70 0 COMMON
__ptext225 74B 0 CODE
?_putch 70 0 COMMON
??_main 28 0 BANK0
__HcstackBANK0 0 0 ABS
__ptext235 5CC 0 CODE
__LcstackBANK0 0 0 ABS
__pcstackBANK0 20 0 BANK0
TX@temp 72 0 COMMON
__ptext226 5D4 0 CODE
___bmul 5EC 0 CODE
__Hinit 0 0 CODE
__Linit 0 0 CODE
__ptext236 5D9 0 CODE
___wmul 5FA 0 CODE
__end_of_main 74B 0 CODE
__ptext227 5DF 0 CODE
__Htext 0 0 ABS
__Ltext 0 0 ABS
??_puts 72 0 COMMON
?_cputs 70 0 COMMON
__ptext237 0 0 CODE
___bmul@multiplier 79 0 COMMON
___wmul@multiplier 70 0 COMMON
__ptext228 613 0 CODE
end_of_initialization 5D2 0 CODE
__ptext229 656 0 CODE
___awdiv@sign 7B 0 COMMON
__end_of_cputs 5EC 0 CODE
___bmul@multiplicand 77 0 COMMON
__size_of_puts 0 0 ABS
___wmul@multiplicand 72 0 COMMON
?_get_temp 20 0 BANK0
__size_of_putch 0 0 ABS
__HbitbssBANK0 0 0 ABS
__LbitbssBANK0 0 0 ABS
__pbitbssBANK0 160 -134 BANK0
__Hstrings 0 0 ABS
__Lstrings 0 0 ABS
__pstrings 1 0 STRING
??___awdiv 7A 0 COMMON
??___lwdiv 74 0 COMMON
__size_of_get_temp 0 0 ABS
__Hbank0 0 0 ABS
__Lbank0 0 0 ABS
__Hbank1 0 0 ABS
__Lbank1 0 0 ABS
__Hbank2 0 0 ABS
__Lbank2 0 0 ABS
__Hbank3 0 0 BANK3
__Lbank3 0 0 BANK3
__Hpowerup 0 0 CODE
__Lpowerup 0 0 CODE
main@input 29 0 BANK0
__Hclrtext 0 0 ABS
__Lclrtext 0 0 ABS
__size_of_getch 0 0 ABS
__end_of___lwdiv 6A9 0 CODE
__Hidloc 0 0 IDLOC
__Lidloc 0 0 IDLOC
??_getch 70 0 COMMON
_signloc 161 -134 BANK0
??_putch 70 0 COMMON
?___bmul 77 0 COMMON
?___wmul 70 0 COMMON
__Hcinit 0 0 ABS
__Lcinit 0 0 ABS
___awdiv 6A9 0 CODE
___lwdiv 67F 0 CODE
__size_of_main 0 0 ABS
??_cputs 71 0 COMMON
__size_of_cputs 0 0 ABS
__size_of___lwdiv 0 0 ABS
__end_of_puts 5D9 0 CODE
__HbssBANK0 0 0 ABS
__LbssBANK0 0 0 ABS
__pbssBANK0 2D 0 BANK0
__Hpa_nodes 0 0 ABS
__Lpa_nodes 0 0 ABS
__size_of_RX 0 0 ABS
??_get_temp 22 0 BANK0
__size_of___awdiv 0 0 ABS
__size_of_TX 0 0 ABS
__end_of_getch 5D0 0 CODE
__Hend_init 1 0 CODE
__Lend_init 0 0 CODE
___awdiv@divisor 76 0 COMMON
___lwdiv@divisor 70 0 COMMON
__size_of_INIT 0 0 ABS
__size_of___wmul 0 0 ABS
__Hreset_vec 0 0 CODE
__Lreset_vec 0 0 CODE
intlevel0 0 0 CODE
intlevel1 0 0 CODE
__end_of_RX 633 0 CODE
intlevel2 0 0 CODE
intlevel3 0 0 CODE
intlevel4 0 0 CODE
intlevel5 0 0 CODE
__end_of_TX 67F 0 CODE
__HcstackCOMMON 0 0 ABS
__LcstackCOMMON 0 0 ABS
__end_of_INIT 656 0 CODE
__pcstackCOMMON 70 0 COMMON
__end_of___wmul 613 0 CODE
start_initialization 5D0 0 CODE
___awdiv@quotient 7C 0 COMMON
___lwdiv@quotient 74 0 COMMON
get_temp@init 162 -134 BANK0
__Hmaintext 0 0 ABS
__Lmaintext 0 0 ABS
__pmaintext 6EE 0 CODE
___bmul@product 78 0 COMMON
___wmul@product 74 0 COMMON
__size_of___bmul 0 0 ABS
__end_of___bmul 5FA 0 CODE
___awdiv@dividend 78 0 COMMON
%segments
reset_vec 0 1 CODE 0
config 400E 400F CONFIG 400E
cstackCOMMON 70 7D COMMON 70
cstackBANK0 20 2D BANK0 20
text225 E96 FFF CODE E96
maintext DDC E95 CODE DDC
text231 D52 DDB CODE D52
text232 CFE D51 CODE CFE
text229 CAC CFD CODE CAC
text230 C66 CAB CODE C66
text228 C26 C65 CODE C26
text233 BF4 C25 CODE BF4
strings 2 2B STRING 2
text234 BD8 BF3 CODE BD8
text227 BBE BD7 CODE BBE
text236 BB2 BBD CODE BB2
text226 BA8 BB1 CODE BA8
cinit BA0 BA7 CODE BA0
text235 B98 B9F CODE B98
%locals
dist/default/production\OneWireTest.X.production.obj
../main.c
12 2007 0 CONFIG
C:\Users\sarge\AppData\Local\Temp\seao.
155 5D0 0 CODE
158 5D1 0 CODE
165 5D2 0 CODE
166 5D3 0 CODE
../main.c
17 6EE 0 CODE
18 6F9 0 CODE
20 6FC 0 CODE
21 6FE 0 CODE
22 703 0 CODE
23 70C 0 CODE
24 70E 0 CODE
25 71B 0 CODE
26 72E 0 CODE
27 730 0 CODE
28 734 0 CODE
31 736 0 CODE
33 738 0 CODE
34 73B 0 CODE
35 740 0 CODE
../onewire.c
73 74B 0 CODE
74 74F 0 CODE
76 753 0 CODE
77 755 0 CODE
78 757 0 CODE
79 761 0 CODE
80 76B 0 CODE
81 775 0 CODE
82 77F 0 CODE
85 789 0 CODE
86 78D 0 CODE
87 791 0 CODE
88 793 0 CODE
90 795 0 CODE
91 799 0 CODE
94 79D 0 CODE
96 7A1 0 CODE
97 7A3 0 CODE
98 7AE 0 CODE
99 7B3 0 CODE
100 7B5 0 CODE
102 7B7 0 CODE
103 7B9 0 CODE
105 7BC 0 CODE
106 7C3 0 CODE
107 7D1 0 CODE
110 7D4 0 CODE
111 7DB 0 CODE
116 7DD 0 CODE
117 7E0 0 CODE
120 7EE 0 CODE
122 7F6 0 CODE
C:\Program Files (x86)\HI-TECH Software\PICC\9.71a\sources\puts.c
9 5D4 0 CODE
10 5D5 0 CODE
11 5D7 0 CODE
C:\Program Files (x86)\HI-TECH Software\PICC\9.71a\sources\cputs.c
5 5DF 0 CODE
6 5E0 0 CODE
7 5E6 0 CODE
6 5EB 0 CODE
../onewire.c
47 613 0 CODE
48 614 0 CODE
49 615 0 CODE
50 616 0 CODE
51 619 0 CODE
52 61C 0 CODE
53 61F 0 CODE
54 621 0 CODE
55 623 0 CODE
57 627 0 CODE
49 62C 0 CODE
63 631 0 CODE
65 632 0 CODE
26 656 0 CODE
27 658 0 CODE
28 659 0 CODE
29 65A 0 CODE
30 65C 0 CODE
31 65F 0 CODE
32 662 0 CODE
33 665 0 CODE
34 669 0 CODE
35 66A 0 CODE
36 66D 0 CODE
37 671 0 CODE
38 674 0 CODE
41 677 0 CODE
28 679 0 CODE
12 633 0 CODE
13 636 0 CODE
14 637 0 CODE
15 63C 0 CODE
16 63F 0 CODE
17 644 0 CODE
18 649 0 CODE
20 64E 0 CODE
22 655 0 CODE
C:\Program Files (x86)\HI-TECH Software\PICC\9.71a\sources\awdiv.c
9 6A9 0 CODE
10 6AA 0 CODE
11 6AC 0 CODE
12 6B1 0 CODE
14 6B3 0 CODE
15 6B5 0 CODE
16 6BA 0 CODE
18 6BC 0 CODE
19 6BE 0 CODE
20 6C2 0 CODE
23 6C3 0 CODE
21 6C4 0 CODE
22 6C6 0 CODE
21 6C9 0 CODE
26 6CA 0 CODE
27 6CD 0 CODE
28 6D5 0 CODE
29 6DB 0 CODE
31 6DC 0 CODE
32 6DF 0 CODE
34 6E1 0 CODE
35 6E4 0 CODE
36 6E9 0 CODE
37 6ED 0 CODE
C:\Program Files (x86)\HI-TECH Software\PICC\9.71a\sources\lwdiv.c
9 67F 0 CODE
10 681 0 CODE
11 685 0 CODE
14 686 0 CODE
12 687 0 CODE
13 689 0 CODE
12 68C 0 CODE
17 68D 0 CODE
18 690 0 CODE
19 698 0 CODE
20 69E 0 CODE
22 69F 0 CODE
23 6A2 0 CODE
25 6A4 0 CODE
26 6A8 0 CODE
C:\Program Files (x86)\HI-TECH Software\PICC\9.71a\sources\wmul.c
4 5FA 0 CODE
7 5FC 0 CODE
8 5FE 0 CODE
9 604 0 CODE
10 607 0 CODE
11 60A 0 CODE
12 60E 0 CODE
13 612 0 CODE
C:\Program Files (x86)\HI-TECH Software\PICC\9.71a\sources\bmul.c
3 5EC 0 CODE
4 5ED 0 CODE
8 5EE 0 CODE
7 5EF 0 CODE
8 5F0 0 CODE
9 5F1 0 CODE
10 5F3 0 CODE
11 5F5 0 CODE
12 5F8 0 CODE
13 5F9 0 CODE
../usart.c
17 5CC 0 CODE
19 5CE 0 CODE
20 5CF 0 CODE
7 5D9 0 CODE
9 5DA 0 CODE
11 5DC 0 CODE
12 5DE 0 CODE
