%!PS-Adobe-3.0 EPSF-3.0
%%Title: EAGLE Drawing E:/Dropbox/PCB/TrueOrFalse/TrueOrFalseSch.brd
%%Creator: EAGLE
%%Pages: 1
%%BoundingBox: 0 0 169 170
%%EndComments

% Coordinate transfer:

/EU { 254 div 0.072 mul } def
/inch { 72 mul } def

% Linestyle:

1 setlinecap
1 setlinejoin

% Drawing functions:

/l {  % draw a line
   /lw exch def
   /y2 exch def
   /x2 exch def
   /y1 exch def
   /x1 exch def
   newpath
   x1 EU y1 EU moveto
   x2 EU y2 EU lineto
   lw EU setlinewidth
   stroke
   } def

/h {  % draw a hole
   /d  exch def
   /y  exch def
   /x  exch def
   d 0 gt {
     newpath
     x EU y EU d 2 div EU 0 360 arc
     currentgray dup
     1 exch sub setgray
     fill
     setgray
     } if
   } def

/b {  % draw a bar
   /an exch def
   /y2 exch def
   /x2 exch def
   /y1 exch def
   /x1 exch def
   /w2 x2 x1 sub 2 div EU def
   /h2 y2 y1 sub 2 div EU def
   gsave
   x1 x2 add 2 div EU y1 y2 add 2 div EU translate
   an rotate
   newpath
   w2     h2     moveto
   w2 neg h2     lineto
   w2 neg h2 neg lineto
   w2     h2 neg lineto
   closepath
   fill
   grestore
   } def

/c {  % draw a circle
   /lw exch def
   /rd exch def
   /y  exch def
   /x  exch def
   newpath
   lw EU setlinewidth
   x EU y EU rd EU 0 360 arc
   stroke
   } def

/a {  % draw an arc
   /lc exch def
   /ae exch def
   /as exch def
   /lw exch def
   /rd exch def
   /y  exch def
   /x  exch def
   lw rd 2 mul gt {
     /rd rd lw 2 div add 2 div def
     /lw rd 2 mul def
     } if
   currentlinecap currentlinejoin
   lc setlinecap 0 setlinejoin
   newpath
   lw EU setlinewidth
   x EU y EU rd EU as ae arc
   stroke
   setlinejoin setlinecap
   } def

/p {  % draw a pie
   /d exch def
   /y exch def
   /x exch def
   newpath
   x EU y EU d 2 div EU 0 360 arc
   fill
   } def

/edge { 0.20710678119 mul } def

/o {  % draw an octagon
   /an exch def
   /dy exch def
   /dx exch def
   /y  exch def
   /x  exch def
   gsave
   x EU y EU translate
   an dx dy lt { 90 add /dx dy /dy dx def def } if rotate
   newpath
      0 dx 2 div sub EU                    0 dy edge  add EU moveto
      0 dx dy sub 2 div sub dy edge sub EU 0 dy 2 div add EU lineto
      0 dx dy sub 2 div add dy edge add EU 0 dy 2 div add EU lineto
      0 dx 2 div add EU                    0 dy edge  add EU lineto
      0 dx 2 div add EU                    0 dy edge  sub EU lineto
      0 dx dy sub 2 div add dy edge add EU 0 dy 2 div sub EU lineto
      0 dx dy sub 2 div sub dy edge sub EU 0 dy 2 div sub EU lineto
      0 dx 2 div sub EU                    0 dy edge  sub EU lineto
   closepath
   fill
   grestore
   } def

233192 291390 258592 392990 0.0 b
222492 289390 235192 390990 0.0 b
209792 238590 324092 289390 0.0 b
127250 125058 119624 125058 2540 l
119624 125058 117082 127600 2540 l
117082 127600 119624 130142 2540 l
119624 130142 117082 132685 2540 l
117082 132685 119624 135227 2540 l
119624 135227 127250 135227 2540 l
127250 141430 127250 143972 2540 l
127250 143972 117082 143972 2540 l
117082 141430 117082 146514 2540 l
134877 143972 132335 143972 2540 l
132335 152344 132335 154886 2540 l
132335 154886 117082 154886 2540 l
117082 152344 117082 157428 2540 l
132335 173427 117082 173427 2540 l
117082 173427 117082 165801 2540 l
117082 165801 119624 163258 2540 l
119624 163258 124708 163258 2540 l
124708 163258 127250 165801 2540 l
127250 165801 127250 173427 2540 l
127250 189799 127250 182172 2540 l
127250 182172 124708 179630 2540 l
124708 179630 119624 179630 2540 l
119624 179630 117082 182172 2540 l
117082 182172 117082 189799 2540 l
127250 196002 127250 198544 2540 l
127250 198544 117082 198544 2540 l
117082 196002 117082 201086 2540 l
134877 198544 132335 198544 2540 l
129793 209458 119624 209458 2540 l
119624 209458 117082 212000 2540 l
127250 206916 127250 212000 2540 l
127250 217830 119624 217830 2540 l
119624 217830 117082 220372 2540 l
117082 220372 117082 227999 2540 l
127250 227999 114540 227999 2540 l
114540 227999 111997 225457 2540 l
111997 225457 111997 222915 2540 l
117082 234202 119624 234202 2540 l
119624 234202 119624 236744 2540 l
119624 236744 117082 236744 2540 l
117082 236744 117082 234202 2540 l
117082 250014 117082 244930 2540 l
117082 244930 119624 242388 2540 l
119624 242388 124708 242388 2540 l
124708 242388 127250 244930 2540 l
127250 244930 127250 250014 2540 l
127250 250014 124708 252556 2540 l
124708 252556 122166 252556 2540 l
122166 252556 122166 242388 2540 l
117082 258759 127250 258759 2540 l
127250 258759 127250 266386 2540 l
127250 266386 124708 268928 2540 l
124708 268928 117082 268928 2540 l
117082 275131 119624 275131 2540 l
119624 275131 119624 277673 2540 l
119624 277673 117082 277673 2540 l
117082 277673 117082 275131 2540 l
127250 293485 127250 285859 2540 l
127250 285859 124708 283317 2540 l
124708 283317 119624 283317 2540 l
119624 283317 117082 285859 2540 l
117082 285859 117082 293485 2540 l
127250 299688 117082 309857 2540 l
117082 299688 127250 309857 2540 l
397752 114130 387583 114130 5080 l
387583 114130 384193 117520 5080 l
384193 117520 387583 120909 5080 l
387583 120909 394362 120909 5080 l
394362 120909 397752 124299 5080 l
397752 124299 394362 127688 5080 l
394362 127688 384193 127688 5080 l
374364 114130 374364 134467 5080 l
374364 134467 364195 134467 5080 l
364195 134467 360805 131078 5080 l
360805 131078 360805 124299 5080 l
360805 124299 364195 120909 5080 l
364195 120909 374364 120909 5080 l
347586 114130 340807 114130 5080 l
340807 114130 337417 117520 5080 l
337417 117520 337417 124299 5080 l
337417 124299 340807 127688 5080 l
340807 127688 347586 127688 5080 l
347586 127688 350976 124299 5080 l
350976 124299 350976 117520 5080 l
350976 117520 347586 114130 5080 l
327588 114130 327588 127688 5080 l
327588 120909 320809 127688 5080 l
320809 127688 317419 127688 5080 l
308098 114130 308098 127688 5080 l
308098 127688 297929 127688 5080 l
297929 127688 294540 124299 5080 l
294540 124299 294540 114130 5080 l
281320 114130 274541 114130 5080 l
274541 114130 271152 117520 5080 l
271152 117520 271152 124299 5080 l
271152 124299 274541 127688 5080 l
274541 127688 281320 127688 5080 l
281320 127688 284710 124299 5080 l
284710 124299 284710 117520 5080 l
284710 117520 281320 114130 5080 l
82792 98890 95492 581490 0.0 b
82792 86190 578092 98890 0.0 b
476492 505290 501892 530690 0.0 b
95492 505290 108192 581490 0.0 b
95492 390990 108192 454490 0.0 b
82792 98890 108192 352890 0.0 b
208792 268190 258792 406190 0.0 b
212792 456190 238792 476190 0.0 b
88792 320190 104792 578190 0.0 b
84792 88190 104792 576190 0.0 b
100792 88190 574792 108190 0.0 b
560792 88190 578792 582190 0.0 b
88792 576190 574792 582190 0.0 b
504792 358190 524792 372190 0.0 b
504792 306190 522792 324190 0.0 b
450792 268190 474792 284190 0.0 b
454792 406190 472792 428190 0.0 b
224792 218190 246792 234190 0.0 b
286792 218190 306792 234190 0.0 b
264792 368190 282792 388190 0.0 b
264792 342190 282792 362190 0.0 b
264792 318190 282792 336190 0.0 b
264792 294190 282792 312190 0.0 b
494792 536190 510792 552190 0.0 b
468792 534190 482792 552190 0.0 b
106992 561390 249992 581190 0.0 b
102592 504190 115792 574590 0.0 b
146592 105990 183992 257790 0.0 b
177392 103790 256592 134590 0.0 b
546992 277590 566792 435990 0.0 b
549192 479990 564592 504190 0.0 b
544792 534990 566792 576790 0.0 b
469992 567990 509592 581190 0.0 b
419392 103790 494192 123590 0.0 b
434582 286596 442202 298026 180.0 b
421882 286596 429502 298026 180.0 b
409182 286596 416802 298026 180.0 b
396482 286596 404102 298026 180.0 b
383782 286596 391402 298026 180.0 b
371082 286596 378702 298026 180.0 b
358382 286596 366002 298026 180.0 b
345682 286596 353302 298026 180.0 b
332982 286596 340602 298026 180.0 b
332982 382354 340602 393784 180.0 b
345682 382354 353302 393784 180.0 b
358382 382354 366002 393784 180.0 b
371082 382354 378702 393784 180.0 b
383782 382354 391402 393784 180.0 b
396482 382354 404102 393784 180.0 b
409182 382354 416802 393784 180.0 b
421882 382354 429502 393784 180.0 b
434582 382354 442202 393784 180.0 b
217332 492590 202252 492590 15080 l
217332 517990 202252 517990 15080 l
136195 479890 118288 479890 17907 l
136195 530690 118288 530690 17907 l
394196 556090 380988 556090 13208 l
292596 556090 279388 556090 13208 l
215792 415590 231792 442590 180.0 b
187792 415590 203792 442590 180.0 b
124292 415590 140292 442590 0.0 b
152292 415590 168292 442590 0.0 b
139592 371290 149592 385290 90.0 b
117592 380790 127592 394790 90.0 b
117592 361790 127592 375790 90.0 b
150992 340690 166992 367690 270.0 b
150992 312690 166992 339690 270.0 b
247892 180170 247892 195410 15240 l
273292 180170 273292 195410 15240 l
298692 180170 298692 195410 15240 l
235192 251290 13208 13208 0.0 o
235192 225890 13208 13208 0.0 o
298692 251290 13208 13208 0.0 o
298692 225890 13208 13208 0.0 o
533292 237790 549292 264790 180.0 b
505292 237790 521292 264790 180.0 b
533292 199690 549292 226690 180.0 b
505292 199690 521292 226690 180.0 b
533292 161590 549292 188590 180.0 b
505292 161590 521292 188590 180.0 b
533292 123490 549292 150490 180.0 b
505292 123490 521292 150490 180.0 b
493892 439690 509892 466690 90.0 b
493892 467690 509892 494690 90.0 b
523992 446990 536992 461990 0.0 b
542992 446990 555992 461990 0.0 b
520792 539090 533792 554090 90.0 b
520792 558090 533792 573090 90.0 b
463792 462110 463792 446870 15240 l
438392 462110 438392 446870 15240 l
412992 462110 412992 446870 15240 l
387592 462110 387592 446870 15240 l
362192 462110 362192 446870 15240 l
336792 462110 336792 446870 15240 l
520180 314790 509004 314790 11176 l
520180 365590 509004 365590 11176 l
469992 329490 482992 344490 270.0 b
469992 310490 482992 325490 270.0 b
469992 361290 482992 376290 90.0 b
469992 380290 482992 395290 90.0 b
273292 302090 15240 15240 0.0 o
273292 327490 15240 15240 0.0 o
273292 352890 15240 15240 0.0 o
273292 378290 15240 15240 0.0 o
247892 302090 15240 15240 0.0 o
247892 327490 15240 15240 0.0 o
247892 352890 15240 15240 0.0 o
247892 378290 15240 15240 0.0 o
268212 492590 252972 492590 15240 l
268212 517990 252972 517990 15240 l
268212 543390 252972 543390 15240 l
501892 543390 13208 13208 180.0 o
489192 524340 13208 13208 180.0 o
476492 543390 13208 13208 180.0 o
444592 539090 457592 554090 90.0 b
444592 558090 457592 573090 90.0 b
523992 510490 536992 525490 0.0 b
542992 510490 555992 525490 0.0 b
127242 530690 82792 530690 12700 l
127242 530690 158992 530690 12700 l
158992 530690 171692 517990 12700 l
171692 517990 209792 517990 12700 l
209792 517990 209792 581490 12700 l
476492 317990 476492 302090 12700 l
476492 302090 489192 289390 12700 l
489192 289390 578092 289390 12700 l
578092 289390 578092 384590 12700 l
578092 384590 574892 387790 12700 l
476492 317990 390792 317990 8128 l
390792 317990 387592 314790 8128 l
387592 314790 387592 292311 8128 l
578092 289390 578092 251290 8128 l
578092 251290 578092 213190 8128 l
578092 213190 578092 175090 8128 l
578092 175090 578092 136990 8128 l
578092 136990 578092 124290 8128 l
476492 387790 574892 387790 12700 l
574892 387790 578092 390990 12700 l
578092 390990 578092 454490 12700 l
578092 454490 578092 581490 12700 l
578092 581490 527292 581490 12700 l
527292 581490 489192 581490 12700 l
489192 581490 451092 581490 12700 l
451092 581490 412992 581490 12700 l
412992 581490 209792 581490 12700 l
132292 429090 120892 429090 8128 l
120892 429090 82792 429090 8128 l
82792 429090 82792 530690 8128 l
122592 387790 122592 427390 8128 l
122592 427390 120892 429090 8128 l
412992 568790 16764 p
412992 568790 412992 581490 8128 l
412992 479890 16764 p
412992 454490 412992 479890 8128 l
541292 251290 578092 251290 8128 l
541292 213190 578092 213190 8128 l
541292 175090 578092 175090 8128 l
541292 136990 578092 136990 8128 l
410198 559273 407761 565154 2540 l
407761 565154 406124 566792 2540 l
406124 566792 449822 566792 2540 l
449822 566792 449822 564320 2540 l
449822 564320 439782 564320 2540 l
439782 564320 439782 561684 2540 l
439782 561684 438268 561057 2540 l
438268 561057 435624 558414 2540 l
435624 558414 435398 557868 2540 l
435398 557868 410198 557868 2540 l
410198 557868 410198 559273 2540 l
402019 437230 403416 440604 2540 l
403416 440604 404273 439424 2540 l
404273 439424 405546 438152 2540 l
405546 438152 407001 437094 2540 l
407001 437094 408604 436277 2540 l
408604 436277 410315 435721 2540 l
410315 435721 411722 435499 2540 l
411722 435499 411722 453220 2540 l
411722 453220 414262 453220 2540 l
414262 453220 414262 435499 2540 l
414262 435499 415668 435721 2540 l
415668 435721 417379 436277 2540 l
417379 436277 418982 437094 2540 l
418982 437094 420438 438152 2540 l
420438 438152 421710 439424 2540 l
421710 439424 422567 440604 2540 l
422567 440604 423965 437230 2540 l
423965 437230 424930 436265 2540 l
424930 436265 424930 434666 2540 l
424930 434666 420116 429852 2540 l
420116 429852 401054 429852 2540 l
401054 429852 401054 436265 2540 l
401054 436265 402019 437230 2540 l
422644 491828 422644 468561 2540 l
422644 468561 422567 468376 2540 l
422567 468376 421710 469556 2540 l
421710 469556 420438 470828 2540 l
420438 470828 418982 471886 2540 l
418982 471886 417379 472703 2540 l
417379 472703 415668 473259 2540 l
415668 473259 414262 473481 2540 l
414262 473481 414262 455760 2540 l
414262 455760 411722 455760 2540 l
411722 455760 411722 473481 2540 l
411722 473481 410315 473259 2540 l
410315 473259 408604 472703 2540 l
408604 472703 407001 471886 2540 l
407001 471886 405546 470828 2540 l
405546 470828 404273 469556 2540 l
404273 469556 403416 468376 2540 l
403416 468376 402019 471750 2540 l
402019 471750 401054 472715 2540 l
401054 472715 401054 482568 2540 l
401054 482568 399004 487516 2540 l
399004 487516 394692 491828 2540 l
394692 491828 422644 491828 2540 l
181890 364059 180459 367514 2540 l
180459 367514 177815 370157 2540 l
177815 370157 174361 371588 2540 l
174361 371588 172454 371588 2540 l
172454 371588 172454 380968 2540 l
172454 380968 170404 385916 2540 l
170404 385916 166617 389703 2540 l
166617 389703 161669 391752 2540 l
161669 391752 155721 391752 2540 l
155721 391752 153461 392688 2540 l
153461 392688 135722 392688 2540 l
135722 392688 133402 391727 2540 l
133402 391727 133402 393292 2540 l
133402 393292 133142 394261 2540 l
133142 394261 132640 395129 2540 l
132640 395129 131931 395839 2540 l
131931 395839 131062 396340 2540 l
131062 396340 130093 396600 2540 l
130093 396600 123822 396600 2540 l
123822 396600 123822 389020 2540 l
123822 389020 121362 389020 2540 l
121362 389020 121362 396600 2540 l
121362 396600 117590 396600 2540 l
117590 396600 117590 456359 2540 l
117590 456359 116159 459814 2540 l
116159 459814 114290 461683 2540 l
114290 461683 114638 461539 2540 l
114638 461539 139846 461539 2540 l
139846 461539 146131 464142 2540 l
146131 464142 162124 464142 2540 l
162124 464142 167912 466540 2540 l
167912 466540 178215 476842 2540 l
178215 476842 196010 476842 2540 l
196010 476842 198882 475652 2540 l
198882 475652 203394 475652 2540 l
203394 475652 203394 464256 2540 l
203394 464256 203317 464180 2540 l
203317 464180 200102 460965 2540 l
200102 460965 198362 456764 2540 l
198362 456764 198362 451988 2540 l
198362 451988 185922 451988 2540 l
185922 451988 182468 450557 2540 l
182468 450557 179824 447914 2540 l
179824 447914 178394 444459 2540 l
178394 444459 178394 442552 2540 l
178394 442552 177690 442552 2540 l
177690 442552 177690 444459 2540 l
177690 444459 176259 447914 2540 l
176259 447914 173615 450557 2540 l
173615 450557 170161 451988 2540 l
170161 451988 150422 451988 2540 l
150422 451988 146968 450557 2540 l
146968 450557 144324 447914 2540 l
144324 447914 143162 445108 2540 l
143162 445108 142631 445639 2540 l
142631 445639 141762 446140 2540 l
141762 446140 140793 446400 2540 l
140793 446400 133562 446400 2540 l
133562 446400 133562 430360 2540 l
133562 430360 131022 430360 2540 l
131022 430360 131022 446400 2540 l
131022 446400 123790 446400 2540 l
123790 446400 122821 446140 2540 l
122821 446140 121952 445639 2540 l
121952 445639 121243 444929 2540 l
121243 444929 120741 444061 2540 l
120741 444061 120482 443092 2540 l
120482 443092 120482 430360 2540 l
120482 430360 131022 430360 2540 l
131022 430360 131022 427820 2540 l
131022 427820 120482 427820 2540 l
120482 427820 120482 415088 2540 l
120482 415088 120741 414119 2540 l
120741 414119 121243 413251 2540 l
121243 413251 121952 412541 2540 l
121952 412541 122821 412040 2540 l
122821 412040 123790 411780 2540 l
123790 411780 131022 411780 2540 l
131022 411780 131022 427820 2540 l
131022 427820 133562 427820 2540 l
133562 427820 133562 411780 2540 l
133562 411780 140793 411780 2540 l
140793 411780 141762 412040 2540 l
141762 412040 142631 412541 2540 l
142631 412541 143162 413072 2540 l
143162 413072 144324 410266 2540 l
144324 410266 146968 407623 2540 l
146968 407623 150422 406192 2540 l
150422 406192 170161 406192 2540 l
170161 406192 173615 407623 2540 l
173615 407623 176259 410266 2540 l
176259 410266 177690 413721 2540 l
177690 413721 177690 415628 2540 l
177690 415628 178394 415628 2540 l
178394 415628 178394 413721 2540 l
178394 413721 179824 410266 2540 l
179824 410266 182468 407623 2540 l
182468 407623 185662 406300 2540 l
185662 406300 185662 357624 2540 l
185662 357624 181890 353852 2540 l
181890 353852 181890 364059 2540 l
146131 495638 139846 498241 2540 l
139846 498241 123134 498241 2540 l
123134 498241 123759 498866 2540 l
123759 498866 125190 502321 2540 l
125190 502321 125190 517927 2540 l
125190 517927 125972 517927 2540 l
125972 517927 125972 529420 2540 l
125972 529420 128512 529420 2540 l
128512 529420 128512 517927 2540 l
128512 517927 137200 517927 2540 l
137200 517927 139184 518241 2540 l
139184 518241 141095 518862 2540 l
141095 518862 142885 519774 2540 l
142885 519774 144510 520955 2540 l
144510 520955 145931 522375 2540 l
145931 522375 147111 524000 2540 l
147111 524000 148024 525791 2540 l
148024 525791 148644 527701 2540 l
148644 527701 148917 529420 2540 l
148917 529420 128512 529420 2540 l
128512 529420 128512 531960 2540 l
128512 531960 148917 531960 2540 l
148917 531960 148644 533679 2540 l
148644 533679 148024 535589 2540 l
148024 535589 147111 537380 2540 l
147111 537380 145931 539005 2540 l
145931 539005 144510 540425 2540 l
144510 540425 142885 541606 2540 l
142885 541606 141095 542518 2540 l
141095 542518 139184 543139 2540 l
139184 543139 137200 543453 2540 l
137200 543453 128512 543453 2540 l
128512 543453 128512 531960 2540 l
128512 531960 125972 531960 2540 l
125972 531960 125972 543453 2540 l
125972 543453 125190 543453 2540 l
125190 543453 125190 551992 2540 l
125190 551992 238115 551992 2540 l
238115 551992 235954 546775 2540 l
235954 546775 235954 540005 2540 l
235954 540005 238545 533750 2540 l
238545 533750 241345 530949 2540 l
241345 530949 239691 530264 2540 l
239691 530264 226187 516760 2540 l
226187 516760 211022 516760 2540 l
211022 516760 211022 519220 2540 l
211022 519220 228628 519220 2540 l
228628 519220 228402 520648 2540 l
228402 520648 227850 522347 2540 l
227850 522347 227039 523939 2540 l
227039 523939 225989 525384 2540 l
225989 525384 224726 526647 2540 l
224726 526647 223280 527697 2540 l
223280 527697 221689 528508 2540 l
221689 528508 219989 529061 2540 l
219989 529061 218225 529340 2540 l
218225 529340 211022 529340 2540 l
211022 529340 211022 519220 2540 l
211022 519220 208562 519220 2540 l
208562 519220 208562 529340 2540 l
208562 529340 201358 529340 2540 l
201358 529340 199594 529061 2540 l
199594 529061 197895 528508 2540 l
197895 528508 196303 527697 2540 l
196303 527697 194858 526647 2540 l
194858 526647 193594 525384 2540 l
193594 525384 192544 523939 2540 l
192544 523939 191733 522347 2540 l
191733 522347 191181 520648 2540 l
191181 520648 190955 519220 2540 l
190955 519220 208561 519220 2540 l
208561 519220 208561 516760 2540 l
208561 516760 190955 516760 2540 l
190955 516760 191181 515332 2540 l
191181 515332 191733 513633 2540 l
191733 513633 192544 512041 2540 l
192544 512041 193594 510596 2540 l
193594 510596 194858 509333 2540 l
194858 509333 196148 508395 2540 l
196148 508395 196010 508338 2540 l
196010 508338 168559 508338 2540 l
168559 508338 162771 505940 2540 l
162771 505940 158341 501511 2540 l
158341 501511 152469 495638 2540 l
152469 495638 146131 495638 2540 l
539794 478121 541224 474666 2540 l
541224 474666 543868 472023 2540 l
543868 472023 547322 470592 2540 l
547322 470592 551394 470592 2540 l
551394 470592 551394 465800 2540 l
551394 465800 550762 465800 2540 l
550762 465800 550762 455760 2540 l
550762 455760 548222 455760 2540 l
548222 455760 548222 465800 2540 l
548222 465800 545586 465800 2540 l
545586 465800 544959 467314 2540 l
544959 467314 542315 469957 2540 l
542315 469957 538861 471388 2540 l
538861 471388 524790 471388 2540 l
524790 471388 524790 478112 2540 l
524790 478112 530172 478112 2540 l
530172 478112 535493 480316 2540 l
535493 480316 539566 484389 2540 l
539566 484389 539794 484940 2540 l
539794 484940 539794 478121 2540 l
532190 304321 532190 305607 2540 l
532190 305607 532884 306301 2540 l
532884 306301 535166 311809 2540 l
535166 311809 535166 317771 2540 l
535166 317771 532884 323279 2540 l
532884 323279 532190 323973 2540 l
532190 323973 532190 326059 2540 l
532190 326059 530759 329514 2540 l
530759 329514 528115 332157 2540 l
528115 332157 527046 332600 2540 l
527046 332600 526004 335116 2540 l
526004 335116 513304 347816 2540 l
513304 347816 512328 348792 2540 l
512328 348792 526661 348792 2540 l
526661 348792 530115 350223 2540 l
530115 350223 532759 352866 2540 l
532759 352866 534190 356321 2540 l
534190 356321 534190 360253 2540 l
534190 360253 535166 362609 2540 l
535166 362609 535166 368571 2540 l
535166 368571 534190 370927 2540 l
534190 370927 534190 374059 2540 l
534190 374059 532759 377514 2540 l
532759 377514 530115 380157 2540 l
530115 380157 526661 381588 2540 l
526661 381588 502922 381588 2540 l
502922 381588 499468 380157 2540 l
499468 380157 498363 379052 2540 l
498363 379052 492606 379052 2540 l
492606 379052 491959 380614 2540 l
491959 380614 489315 383257 2540 l
489315 383257 487802 383884 2540 l
487802 383884 487802 386520 2540 l
487802 386520 477762 386520 2540 l
477762 386520 477762 389060 2540 l
477762 389060 487802 389060 2540 l
487802 389060 487802 394792 2540 l
487802 394792 487542 395761 2540 l
487542 395761 487040 396629 2540 l
487040 396629 486331 397339 2540 l
486331 397339 485462 397840 2540 l
485462 397840 484493 398100 2540 l
484493 398100 477819 398100 2540 l
477819 398100 478115 398223 2540 l
478115 398223 480759 400866 2540 l
480759 400866 482190 404321 2540 l
482190 404321 482190 430059 2540 l
482190 430059 480759 433514 2540 l
480759 433514 478115 436157 2540 l
478115 436157 477430 436441 2540 l
477430 436441 478219 437230 2540 l
478219 437230 479371 440012 2540 l
479371 440012 480364 440012 2540 l
480364 440012 480424 439866 2540 l
480424 439866 483068 437223 2540 l
483068 437223 486522 435792 2540 l
486522 435792 517261 435792 2540 l
517261 435792 520715 437223 2540 l
520715 437223 521388 437896 2540 l
521388 437896 522122 437592 2540 l
522122 437592 537594 437592 2540 l
537594 437592 537594 275721 2540 l
537594 275721 539024 272266 2540 l
539024 272266 541668 269623 2540 l
541668 269623 544137 268600 2540 l
544137 268600 542562 268600 2540 l
542562 268600 542562 252560 2540 l
542562 252560 540022 252560 2540 l
540022 252560 540022 268600 2540 l
540022 268600 532790 268600 2540 l
532790 268600 531821 268340 2540 l
531821 268340 530952 267839 2540 l
530952 267839 530421 267308 2540 l
530421 267308 529259 270114 2540 l
529259 270114 526615 272757 2540 l
526615 272757 523161 274188 2540 l
523161 274188 503422 274188 2540 l
503422 274188 499968 272757 2540 l
499968 272757 497324 270114 2540 l
497324 270114 495894 266659 2540 l
495894 266659 495894 264752 2540 l
495894 264752 483540 264752 2540 l
483540 264752 484190 266321 2540 l
484190 266321 484190 286059 2540 l
484190 286059 482759 289514 2540 l
482759 289514 480115 292157 2540 l
480115 292157 476661 293588 2540 l
476661 293588 469458 293588 2540 l
469458 293588 467328 294470 2540 l
467328 294470 460255 294470 2540 l
460255 294470 458126 293588 2540 l
458126 293588 451600 293588 2540 l
451600 293588 451600 299895 2540 l
451600 299895 450169 303350 2540 l
450169 303350 447525 305993 2540 l
447525 305993 444071 307424 2540 l
444071 307424 432712 307424 2540 l
432712 307424 432042 307146 2540 l
432042 307146 431371 307424 2540 l
431371 307424 420012 307424 2540 l
420012 307424 419342 307146 2540 l
419342 307146 418671 307424 2540 l
418671 307424 407312 307424 2540 l
407312 307424 406642 307146 2540 l
406642 307146 405971 307424 2540 l
405971 307424 394612 307424 2540 l
394612 307424 391158 305993 2540 l
391158 305993 388514 303350 2540 l
388514 303350 388354 302961 2540 l
388354 302961 388354 342868 2540 l
388354 342868 386304 347816 2540 l
386304 347816 382517 351603 2540 l
382517 351603 361164 372956 2540 l
361164 372956 367871 372956 2540 l
367871 372956 368542 373234 2540 l
368542 373234 369212 372956 2540 l
369212 372956 380571 372956 2540 l
380571 372956 381242 373234 2540 l
381242 373234 381912 372956 2540 l
381912 372956 386830 372956 2540 l
386830 372956 386830 350212 2540 l
386830 350212 388879 345264 2540 l
388879 345264 392666 341477 2540 l
392666 341477 392666 341477 2540 l
392666 341477 401579 332564 2540 l
401579 332564 401579 332564 2540 l
401579 332564 405366 328777 2540 l
405366 328777 410314 326728 2540 l
410314 326728 460378 326728 2540 l
460378 326728 461024 325166 2540 l
461024 325166 463668 322523 2540 l
463668 322523 465182 321896 2540 l
465182 321896 465182 319260 2540 l
465182 319260 475222 319260 2540 l
475222 319260 475222 316720 2540 l
475222 316720 465182 316720 2540 l
465182 316720 465182 310988 2540 l
465182 310988 465441 310019 2540 l
465441 310019 465943 309151 2540 l
465943 309151 466652 308441 2540 l
466652 308441 467521 307940 2540 l
467521 307940 468490 307680 2540 l
468490 307680 475222 307680 2540 l
475222 307680 475222 316720 2540 l
475222 316720 477762 316720 2540 l
477762 316720 477762 307680 2540 l
477762 307680 484493 307680 2540 l
484493 307680 485462 307940 2540 l
485462 307940 486331 308441 2540 l
486331 308441 487040 309151 2540 l
487040 309151 487542 310019 2540 l
487542 310019 487802 310988 2540 l
487802 310988 487802 316720 2540 l
487802 316720 477762 316720 2540 l
477762 316720 477762 319260 2540 l
477762 319260 487802 319260 2540 l
487802 319260 487802 321896 2540 l
487802 321896 489315 322523 2540 l
489315 322523 491959 325166 2540 l
491959 325166 492606 326728 2540 l
492606 326728 495671 326728 2540 l
495671 326728 495394 326059 2540 l
495394 326059 495394 321093 2540 l
495394 321093 494018 317771 2540 l
494018 317771 494018 311809 2540 l
494018 311809 495394 308487 2540 l
495394 308487 495394 304321 2540 l
495394 304321 496824 300866 2540 l
496824 300866 499468 298223 2540 l
499468 298223 502922 296792 2540 l
502922 296792 524661 296792 2540 l
524661 296792 528115 298223 2540 l
528115 298223 530759 300866 2540 l
530759 300866 532190 304321 2540 l
451600 380485 451600 395653 2540 l
451600 395653 450756 397689 2540 l
450756 397689 452922 396792 2540 l
452922 396792 466106 396792 2540 l
466106 396792 465943 396629 2540 l
465943 396629 465441 395761 2540 l
465441 395761 465182 394792 2540 l
465182 394792 465182 389060 2540 l
465182 389060 475222 389060 2540 l
475222 389060 475222 386520 2540 l
475222 386520 465182 386520 2540 l
465182 386520 465182 383884 2540 l
465182 383884 463668 383257 2540 l
463668 383257 461024 380614 2540 l
461024 380614 460378 379052 2540 l
460378 379052 451006 379052 2540 l
451006 379052 451600 380485 2540 l
529259 232466 530421 235272 2540 l
530421 235272 530952 234741 2540 l
530952 234741 531821 234240 2540 l
531821 234240 532790 233980 2540 l
532790 233980 540022 233980 2540 l
540022 233980 540022 250020 2540 l
540022 250020 542562 250020 2540 l
542562 250020 542562 233980 2540 l
542562 233980 549793 233980 2540 l
549793 233980 550762 234240 2540 l
550762 234240 551394 234604 2540 l
551394 234604 551394 229876 2540 l
551394 229876 550762 230240 2540 l
550762 230240 549793 230500 2540 l
549793 230500 542562 230500 2540 l
542562 230500 542562 214460 2540 l
542562 214460 540022 214460 2540 l
540022 214460 540022 230500 2540 l
540022 230500 532790 230500 2540 l
532790 230500 531821 230240 2540 l
531821 230240 530952 229739 2540 l
530952 229739 530421 229208 2540 l
530421 229208 529259 232014 2540 l
529259 232014 529032 232240 2540 l
529032 232240 529259 232466 2540 l
529259 194366 530421 197172 2540 l
530421 197172 530952 196641 2540 l
530952 196641 531821 196140 2540 l
531821 196140 532790 195880 2540 l
532790 195880 540022 195880 2540 l
540022 195880 540022 211920 2540 l
540022 211920 542562 211920 2540 l
542562 211920 542562 195880 2540 l
542562 195880 549793 195880 2540 l
549793 195880 550762 196140 2540 l
550762 196140 551394 196504 2540 l
551394 196504 551394 191776 2540 l
551394 191776 550762 192140 2540 l
550762 192140 549793 192400 2540 l
549793 192400 542562 192400 2540 l
542562 192400 542562 176360 2540 l
542562 176360 540022 176360 2540 l
540022 176360 540022 192400 2540 l
540022 192400 532790 192400 2540 l
532790 192400 531821 192140 2540 l
531821 192140 530952 191639 2540 l
530952 191639 530421 191108 2540 l
530421 191108 529259 193914 2540 l
529259 193914 529032 194140 2540 l
529032 194140 529259 194366 2540 l
540022 119680 540022 135720 2540 l
540022 135720 542562 135720 2540 l
542562 135720 542562 119680 2540 l
542562 119680 549793 119680 2540 l
549793 119680 550762 119940 2540 l
550762 119940 551394 120304 2540 l
551394 120304 551394 117588 2540 l
551394 117588 528680 117588 2540 l
528680 117588 529259 118166 2540 l
529259 118166 530421 120972 2540 l
530421 120972 530952 120441 2540 l
530952 120441 531821 119940 2540 l
531821 119940 532790 119680 2540 l
532790 119680 540022 119680 2540 l
529259 156266 530421 159072 2540 l
530421 159072 530952 158541 2540 l
530952 158541 531821 158040 2540 l
531821 158040 532790 157780 2540 l
532790 157780 540022 157780 2540 l
540022 157780 540022 173820 2540 l
540022 173820 542562 173820 2540 l
542562 173820 542562 157780 2540 l
542562 157780 549793 157780 2540 l
549793 157780 550762 158040 2540 l
550762 158040 551394 158404 2540 l
551394 158404 551394 153676 2540 l
551394 153676 550762 154040 2540 l
550762 154040 549793 154300 2540 l
549793 154300 542562 154300 2540 l
542562 154300 542562 138260 2540 l
542562 138260 540022 138260 2540 l
540022 138260 540022 154300 2540 l
540022 154300 532790 154300 2540 l
532790 154300 531821 154040 2540 l
531821 154040 530952 153539 2540 l
530952 153539 530421 153008 2540 l
530421 153008 529259 155814 2540 l
529259 155814 529032 156040 2540 l
529032 156040 529259 156266 2540 l
529627 119054 551394 119054 2540 l
540022 121582 542562 121582 2540 l
540022 124110 542562 124110 2540 l
540022 126638 542562 126638 2540 l
540022 129166 542562 129166 2540 l
540022 131694 542562 131694 2540 l
540022 134222 542562 134222 2540 l
540022 139278 542562 139278 2540 l
540022 141806 542562 141806 2540 l
540022 144334 542562 144334 2540 l
540022 146862 542562 146862 2540 l
540022 149390 542562 149390 2540 l
540022 151918 542562 151918 2540 l
529825 154446 551394 154446 2540 l
529552 156974 551394 156974 2540 l
540022 159502 542562 159502 2540 l
540022 162030 542562 162030 2540 l
540022 164558 542562 164558 2540 l
540022 167086 542562 167086 2540 l
540022 169614 542562 169614 2540 l
540022 172142 542562 172142 2540 l
540022 177198 542562 177198 2540 l
540022 179726 542562 179726 2540 l
540022 182254 542562 182254 2540 l
540022 184782 542562 184782 2540 l
540022 187310 542562 187310 2540 l
540022 189838 542562 189838 2540 l
529900 192366 532663 192366 2540 l
540022 192366 542562 192366 2540 l
549920 192366 551394 192366 2540 l
529477 194894 551394 194894 2540 l
540022 197422 542562 197422 2540 l
540022 199950 542562 199950 2540 l
540022 202478 542562 202478 2540 l
540022 205006 542562 205006 2540 l
540022 207534 542562 207534 2540 l
540022 210062 542562 210062 2540 l
540022 215118 542562 215118 2540 l
540022 217646 542562 217646 2540 l
540022 220174 542562 220174 2540 l
540022 222702 542562 222702 2540 l
540022 225230 542562 225230 2540 l
540022 227758 542562 227758 2540 l
529974 230286 531992 230286 2540 l
540022 230286 542562 230286 2540 l
550592 230286 551394 230286 2540 l
529403 232814 551394 232814 2540 l
540022 235342 542562 235342 2540 l
540022 237870 542562 237870 2540 l
540022 240398 542562 240398 2540 l
540022 242926 542562 242926 2540 l
540022 245454 542562 245454 2540 l
540022 247982 542562 247982 2540 l
540022 253038 542562 253038 2540 l
540022 255566 542562 255566 2540 l
540022 258094 542562 258094 2540 l
540022 260622 542562 260622 2540 l
540022 263150 542562 263150 2540 l
483923 265678 495894 265678 2540 l
540022 265678 542562 265678 2540 l
484190 268206 496534 268206 2540 l
530049 268206 531588 268206 2540 l
540022 268206 542562 268206 2540 l
484190 270734 497945 270734 2540 l
528638 270734 540557 270734 2540 l
484190 273262 501187 273262 2540 l
525397 273262 538612 273262 2540 l
484190 275790 537594 275790 2540 l
484190 278318 537594 278318 2540 l
484190 280846 537594 280846 2540 l
484190 283374 537594 283374 2540 l
484190 285902 537594 285902 2540 l
483208 288430 537594 288430 2540 l
481314 290958 537594 290958 2540 l
476907 293486 537594 293486 2540 l
451600 296014 537594 296014 2540 l
451600 298542 499149 298542 2540 l
528434 298542 537594 298542 2540 l
451113 301070 496740 301070 2540 l
530843 301070 537594 301070 2540 l
388354 303598 388763 303598 2540 l
449920 303598 495693 303598 2540 l
531890 303598 537594 303598 2540 l
388354 306126 391479 306126 2540 l
447205 306126 495394 306126 2540 l
532709 306126 537594 306126 2540 l
388354 308654 466440 308654 2540 l
475222 308654 477762 308654 2540 l
486544 308654 495325 308654 2540 l
533859 308654 537594 308654 2540 l
388354 311182 465182 311182 2540 l
475222 311182 477762 311182 2540 l
487802 311182 494277 311182 2540 l
534906 311182 537594 311182 2540 l
388354 313710 465182 313710 2540 l
475222 313710 477762 313710 2540 l
487802 313710 494018 313710 2540 l
535166 313710 537594 313710 2540 l
388354 316238 465182 316238 2540 l
475222 316238 477762 316238 2540 l
487802 316238 494018 316238 2540 l
535166 316238 537594 316238 2540 l
388354 318766 475222 318766 2540 l
477762 318766 494430 318766 2540 l
534753 318766 537594 318766 2540 l
388354 321294 465182 321294 2540 l
487802 321294 495394 321294 2540 l
533706 321294 537594 321294 2540 l
388354 323822 462369 323822 2540 l
490614 323822 495394 323822 2540 l
532341 323822 537594 323822 2540 l
388354 326350 460534 326350 2540 l
492449 326350 495514 326350 2540 l
532069 326350 537594 326350 2540 l
388354 328878 405266 328878 2540 l
531022 328878 537594 328878 2540 l
388354 331406 402738 331406 2540 l
528866 331406 537594 331406 2540 l
388354 333934 400210 333934 2540 l
526494 333934 537594 333934 2540 l
388354 336462 397682 336462 2540 l
524658 336462 537594 336462 2540 l
388354 338990 395154 338990 2540 l
522130 338990 537594 338990 2540 l
388354 341518 392626 341518 2540 l
519602 341518 537594 341518 2540 l
387866 344046 390098 344046 2540 l
517074 344046 537594 344046 2540 l
386818 346574 388337 346574 2540 l
514546 346574 537594 346574 2540 l
385018 349102 387290 349102 2540 l
527409 349102 537594 349102 2540 l
382490 351630 386830 351630 2540 l
531522 351630 537594 351630 2540 l
181890 354158 182195 354158 2540 l
379962 354158 386830 354158 2540 l
533294 354158 537594 354158 2540 l
181890 356686 184723 356686 2540 l
377434 356686 386830 356686 2540 l
534190 356686 537594 356686 2540 l
181890 359214 185662 359214 2540 l
374906 359214 386830 359214 2540 l
534190 359214 537594 359214 2540 l
181890 361742 185662 361742 2540 l
372378 361742 386830 361742 2540 l
534806 361742 537594 361742 2540 l
181802 364270 185662 364270 2540 l
369850 364270 386830 364270 2540 l
535166 364270 537594 364270 2540 l
180755 366798 185662 366798 2540 l
367322 366798 386830 366798 2540 l
535166 366798 537594 366798 2540 l
178646 369326 185662 369326 2540 l
364794 369326 386830 369326 2540 l
534853 369326 537594 369326 2540 l
172454 371854 185662 371854 2540 l
362266 371854 386830 371854 2540 l
534190 371854 537594 371854 2540 l
172454 374382 185662 374382 2540 l
534056 374382 537594 374382 2540 l
172454 376910 185662 376910 2540 l
533009 376910 537594 376910 2540 l
172454 379438 185662 379438 2540 l
451166 379438 460538 379438 2540 l
492446 379438 498749 379438 2540 l
530834 379438 537594 379438 2540 l
172040 381966 185662 381966 2540 l
451600 381966 462377 381966 2540 l
490606 381966 537594 381966 2540 l
170993 384494 185662 384494 2540 l
451600 384494 465182 384494 2540 l
487802 384494 537594 384494 2540 l
169298 387022 185662 387022 2540 l
451600 387022 475222 387022 2540 l
477762 387022 537594 387022 2540 l
121362 389550 123822 389550 2540 l
166770 389550 185662 389550 2540 l
451600 389550 465182 389550 2540 l
487802 389550 537594 389550 2540 l
121362 392078 123822 392078 2540 l
133402 392078 134250 392078 2540 l
154934 392078 185662 392078 2540 l
451600 392078 465182 392078 2540 l
487802 392078 537594 392078 2540 l
121362 394606 123822 394606 2540 l
132943 394606 185662 394606 2540 l
451600 394606 465182 394606 2540 l
487802 394606 537594 394606 2540 l
117590 397134 185662 397134 2540 l
450986 397134 452097 397134 2540 l
486536 397134 537594 397134 2540 l
117590 399662 185662 399662 2540 l
479554 399662 537594 399662 2540 l
117590 402190 185662 402190 2540 l
481307 402190 537594 402190 2540 l
117590 404718 185662 404718 2540 l
482190 404718 537594 404718 2540 l
117590 407246 147878 407246 2540 l
172706 407246 183378 407246 2540 l
482190 407246 537594 407246 2540 l
117590 409774 144817 409774 2540 l
175766 409774 180317 409774 2540 l
482190 409774 537594 409774 2540 l
117590 412302 122367 412302 2540 l
131022 412302 133562 412302 2540 l
142217 412302 143481 412302 2540 l
177102 412302 178981 412302 2540 l
482190 412302 537594 412302 2540 l
117590 414830 120551 414830 2540 l
131022 414830 133562 414830 2540 l
177690 414830 178394 414830 2540 l
482190 414830 537594 414830 2540 l
117590 417358 120482 417358 2540 l
131022 417358 133562 417358 2540 l
482190 417358 537594 417358 2540 l
117590 419886 120482 419886 2540 l
131022 419886 133562 419886 2540 l
482190 419886 537594 419886 2540 l
117590 422414 120482 422414 2540 l
131022 422414 133562 422414 2540 l
482190 422414 537594 422414 2540 l
117590 424942 120482 424942 2540 l
131022 424942 133562 424942 2540 l
482190 424942 537594 424942 2540 l
117590 427470 120482 427470 2540 l
131022 427470 133562 427470 2540 l
482190 427470 537594 427470 2540 l
117590 429998 131022 429998 2540 l
401054 429998 420262 429998 2540 l
482190 429998 537594 429998 2540 l
117590 432526 120482 432526 2540 l
131022 432526 133562 432526 2540 l
401054 432526 422790 432526 2540 l
481168 432526 537594 432526 2540 l
117590 435054 120482 435054 2540 l
131022 435054 133562 435054 2540 l
401054 435054 424930 435054 2540 l
479218 435054 537594 435054 2540 l
117590 437582 120482 437582 2540 l
131022 437582 133562 437582 2540 l
402165 437582 406330 437582 2540 l
411722 437582 414262 437582 2540 l
419654 437582 423819 437582 2540 l
478365 437582 482709 437582 2540 l
521074 437582 537594 437582 2540 l
117590 440110 120482 440110 2540 l
131022 440110 133562 440110 2540 l
403212 440110 403775 440110 2540 l
411722 440110 414262 440110 2540 l
422208 440110 422772 440110 2540 l
117590 442638 120482 442638 2540 l
131022 442638 133562 442638 2540 l
177690 442638 178394 442638 2540 l
411722 442638 414262 442638 2540 l
117590 445166 121480 445166 2540 l
131022 445166 133562 445166 2540 l
143104 445166 143186 445166 2540 l
177397 445166 178686 445166 2540 l
411722 445166 414262 445166 2540 l
117590 447694 144234 447694 2540 l
176350 447694 179734 447694 2540 l
411722 447694 414262 447694 2540 l
117590 450222 146633 450222 2540 l
173950 450222 182133 450222 2540 l
411722 450222 414262 450222 2540 l
117590 452750 198362 452750 2540 l
411722 452750 414262 452750 2540 l
117590 455278 198362 455278 2540 l
116990 457806 198793 457806 2540 l
411722 457806 414262 457806 2540 l
548222 457806 550762 457806 2540 l
115638 460334 199841 460334 2540 l
411722 460334 414262 460334 2540 l
548222 460334 550762 460334 2540 l
143041 462862 201999 462862 2540 l
411722 462862 414262 462862 2540 l
548222 462862 550762 462862 2540 l
165137 465390 203394 465390 2540 l
411722 465390 414262 465390 2540 l
548222 465390 550762 465390 2540 l
169291 467918 203394 467918 2540 l
411722 467918 414262 467918 2540 l
544354 467918 551394 467918 2540 l
171819 470446 203394 470446 2540 l
402559 470446 405163 470446 2540 l
411722 470446 414262 470446 2540 l
420820 470446 422644 470446 2540 l
541135 470446 551394 470446 2540 l
174347 472974 203394 472974 2540 l
401054 472974 409439 472974 2540 l
411722 472974 414262 472974 2540 l
416544 472974 422644 472974 2540 l
524790 472974 542917 472974 2540 l
176875 475502 203394 475502 2540 l
401054 475502 422644 475502 2540 l
524790 475502 540878 475502 2540 l
401054 478030 422644 478030 2540 l
524790 478030 539831 478030 2540 l
401054 480558 422644 480558 2540 l
535735 480558 539794 480558 2540 l
400839 483086 422644 483086 2540 l
538263 483086 539794 483086 2540 l
399792 485614 422644 485614 2540 l
398378 488142 422644 488142 2540 l
395850 490670 422644 490670 2540 l
145918 495726 152557 495726 2540 l
123146 498254 155085 498254 2540 l
124552 500782 157613 500782 2540 l
125190 503310 160141 503310 2540 l
125190 505838 162669 505838 2540 l
125190 508366 196077 508366 2540 l
125190 510894 193378 510894 2540 l
125190 513422 191841 513422 2540 l
125190 515950 191083 515950 2540 l
125972 518478 128512 518478 2540 l
139914 518478 208561 518478 2540 l
211022 518478 227905 518478 2540 l
125972 521006 128512 521006 2540 l
144561 521006 191298 521006 2540 l
208562 521006 211022 521006 2540 l
228286 521006 230433 521006 2540 l
125972 523534 128512 523534 2540 l
146773 523534 192338 523534 2540 l
208562 523534 211022 523534 2540 l
227245 523534 232961 523534 2540 l
125972 526062 128512 526062 2540 l
148112 526062 194272 526062 2540 l
208562 526062 211022 526062 2540 l
225311 526062 235489 526062 2540 l
125972 528590 128512 528590 2540 l
148785 528590 198146 528590 2540 l
208562 528590 211022 528590 2540 l
221438 528590 238017 528590 2540 l
128512 531118 241177 531118 2540 l
125972 533646 128512 533646 2540 l
148650 533646 238649 533646 2540 l
125972 536174 128512 536174 2540 l
147726 536174 237540 536174 2540 l
125972 538702 128512 538702 2540 l
146151 538702 236493 538702 2540 l
125972 541230 128512 541230 2540 l
143403 541230 235954 541230 2540 l
125190 543758 235954 543758 2540 l
125190 546286 235954 546286 2540 l
125190 548814 236798 548814 2540 l
125190 551342 237845 551342 2540 l
410198 558926 436137 558926 2540 l
409294 561454 439226 561454 2540 l
408247 563982 439782 563982 2540 l
406406 566510 449822 566510 2540 l
82792 581490 82792 86190 12700 l
82792 86190 578092 86190 12700 l
578092 86190 578092 390990 12700 l
209792 581490 82792 581490 12700 l
451092 565590 451092 581490 10160 l
489192 524340 489192 581490 4064 l
527292 565590 527292 581490 10160 l
549492 454490 578092 454490 10160 l
539032 477969 540578 474235 4064 l
540578 474235 543436 471377 4064 l
543436 471377 547171 469830 4064 l
547171 469830 550632 469830 4064 l
550632 469830 550632 455708 4064 l
550632 455708 548274 455708 4064 l
548274 455708 548274 466562 4064 l
548274 466562 546095 466562 4064 l
546095 466562 545605 467745 4064 l
545605 467745 542747 470603 4064 l
542747 470603 539013 472150 4064 l
539013 472150 525552 472150 4064 l
525552 472150 525552 477350 4064 l
525552 477350 530323 477350 4064 l
530323 477350 535924 479670 4064 l
535924 479670 539032 482777 4064 l
539032 482777 539032 477969 4064 l
530718 195897 531527 195430 4064 l
531527 195430 532690 195118 4064 l
532690 195118 539324 195118 4064 l
539324 195118 539324 211222 4064 l
539324 211222 543260 211222 4064 l
543260 211222 543260 195118 4064 l
543260 195118 549894 195118 4064 l
549894 195118 550632 195316 4064 l
550632 195316 550632 192964 4064 l
550632 192964 549894 193162 4064 l
549894 193162 543260 193162 4064 l
543260 193162 543260 177058 4064 l
543260 177058 539324 177058 4064 l
539324 177058 539324 193162 4064 l
539324 193162 532690 193162 4064 l
532690 193162 531527 192850 4064 l
531527 192850 530718 192383 4064 l
530718 192383 529990 194140 4064 l
529990 194140 530718 195897 4064 l
410960 559425 408407 565586 4064 l
408407 565586 407963 566030 4064 l
407963 566030 449873 566030 4064 l
449873 566030 449873 564372 4064 l
449873 564372 439020 564372 4064 l
439020 564372 439020 562193 4064 l
439020 562193 437836 561703 4064 l
437836 561703 434978 558845 4064 l
434978 558845 434889 558630 4064 l
434889 558630 410960 558630 4064 l
410960 558630 410960 559425 4064 l
182652 364211 181105 367945 4064 l
181105 367945 178247 370803 4064 l
178247 370803 174513 372350 4064 l
174513 372350 173216 372350 4064 l
173216 372350 173216 381119 4064 l
173216 381119 171050 386347 4064 l
171050 386347 167049 390349 4064 l
167049 390349 161821 392514 4064 l
161821 392514 155872 392514 4064 l
155872 392514 153613 393450 4064 l
153613 393450 135571 393450 4064 l
135571 393450 134164 392867 4064 l
134164 392867 134164 393392 4064 l
134164 393392 133852 394555 4064 l
133852 394555 133250 395597 4064 l
133250 395597 132399 396449 4064 l
132399 396449 131356 397050 4064 l
131356 397050 130194 397362 4064 l
130194 397362 123060 397362 4064 l
123060 397362 123060 388258 4064 l
123060 388258 122124 388258 4064 l
122124 388258 122124 397362 4064 l
122124 397362 118352 397362 4064 l
118352 397362 118352 456511 4064 l
118352 456511 116805 460245 4064 l
116805 460245 116274 460777 4064 l
116274 460777 139997 460777 4064 l
139997 460777 146282 463380 4064 l
146282 463380 162276 463380 4064 l
162276 463380 168344 465894 4064 l
168344 465894 178530 476080 4064 l
178530 476080 195858 476080 4064 l
195858 476080 198731 474890 4064 l
198731 474890 202632 474890 4064 l
202632 474890 202632 464572 4064 l
202632 464572 199456 461396 4064 l
199456 461396 197600 456915 4064 l
197600 456915 197600 452750 4064 l
197600 452750 185771 452750 4064 l
185771 452750 182036 451203 4064 l
182036 451203 179178 448345 4064 l
179178 448345 178042 445601 4064 l
178042 445601 176905 448345 4064 l
176905 448345 174047 451203 4064 l
174047 451203 170313 452750 4064 l
170313 452750 150271 452750 4064 l
150271 452750 146536 451203 4064 l
146536 451203 143678 448345 4064 l
143678 448345 142866 446383 4064 l
142866 446383 142056 446850 4064 l
142056 446850 140894 447162 4064 l
140894 447162 134260 447162 4064 l
134260 447162 134260 431058 4064 l
134260 431058 130324 431058 4064 l
130324 431058 130324 447162 4064 l
130324 447162 123690 447162 4064 l
123690 447162 122527 446850 4064 l
122527 446850 121484 446249 4064 l
121484 446249 120633 445397 4064 l
120633 445397 120031 444355 4064 l
120031 444355 119720 443192 4064 l
119720 443192 119720 431058 4064 l
119720 431058 130323 431058 4064 l
130323 431058 130323 427122 4064 l
130323 427122 119720 427122 4064 l
119720 427122 119720 414988 4064 l
119720 414988 120031 413825 4064 l
120031 413825 120633 412783 4064 l
120633 412783 121484 411931 4064 l
121484 411931 122527 411330 4064 l
122527 411330 123690 411018 4064 l
123690 411018 130324 411018 4064 l
130324 411018 130324 427122 4064 l
130324 427122 134260 427122 4064 l
134260 427122 134260 411018 4064 l
134260 411018 140894 411018 4064 l
140894 411018 142056 411330 4064 l
142056 411330 142866 411797 4064 l
142866 411797 143678 409835 4064 l
143678 409835 146536 406977 4064 l
146536 406977 150271 405430 4064 l
150271 405430 170313 405430 4064 l
170313 405430 174047 406977 4064 l
174047 406977 176905 409835 4064 l
176905 409835 178042 412579 4064 l
178042 412579 179178 409835 4064 l
179178 409835 182036 406977 4064 l
182036 406977 184900 405791 4064 l
184900 405791 184900 357940 4064 l
184900 357940 182652 355692 4064 l
182652 355692 182652 364211 4064 l
402665 436798 403599 439055 4064 l
403599 439055 403692 438927 4064 l
403692 438927 405049 437570 4064 l
405049 437570 406602 436442 4064 l
406602 436442 408312 435571 4064 l
408312 435571 410137 434978 4064 l
410137 434978 412032 434678 4064 l
412032 434678 412484 434678 4064 l
412484 434678 412484 453982 4064 l
412484 453982 413500 453982 4064 l
413500 453982 413500 434678 4064 l
413500 434678 413951 434678 4064 l
413951 434678 415847 434978 4064 l
415847 434978 417672 435571 4064 l
417672 435571 419382 436442 4064 l
419382 436442 420934 437570 4064 l
420934 437570 422291 438927 4064 l
422291 438927 422384 439055 4064 l
422384 439055 423319 436798 4064 l
423319 436798 424168 435949 4064 l
424168 435949 424168 434982 4064 l
424168 434982 419800 430614 4064 l
419800 430614 401816 430614 4064 l
401816 430614 401816 435949 4064 l
401816 435949 402665 436798 4064 l
421882 491066 421882 470462 4064 l
421882 470462 420934 471410 4064 l
420934 471410 419382 472538 4064 l
419382 472538 417672 473409 4064 l
417672 473409 415847 474002 4064 l
415847 474002 413951 474302 4064 l
413951 474302 413500 474302 4064 l
413500 474302 413500 454998 4064 l
413500 454998 412484 454998 4064 l
412484 454998 412484 474302 4064 l
412484 474302 412032 474302 4064 l
412032 474302 410137 474002 4064 l
410137 474002 408312 473409 4064 l
408312 473409 406602 472538 4064 l
406602 472538 405049 471410 4064 l
405049 471410 403692 470053 4064 l
403692 470053 403599 469925 4064 l
403599 469925 402665 472182 4064 l
402665 472182 401816 473031 4064 l
401816 473031 401816 482719 4064 l
401816 482719 399650 487947 4064 l
399650 487947 396531 491066 4064 l
396531 491066 421882 491066 4064 l
452362 380333 452362 395805 4064 l
452362 395805 452164 396281 4064 l
452164 396281 452771 396030 4064 l
452771 396030 464725 396030 4064 l
464725 396030 464420 394892 4064 l
464420 394892 464420 389008 4064 l
464420 389008 475273 389008 4064 l
475273 389008 475273 386572 4064 l
475273 386572 464420 386572 4064 l
464420 386572 464420 384393 4064 l
464420 384393 463236 383903 4064 l
463236 383903 460378 381045 4064 l
460378 381045 459868 379814 4064 l
459868 379814 452147 379814 4064 l
452147 379814 452362 380333 4064 l
534952 356169 534952 360101 4064 l
534952 360101 535928 362458 4064 l
535928 362458 535928 368722 4064 l
535928 368722 534952 371079 4064 l
534952 371079 534952 374211 4064 l
534952 374211 533405 377945 4064 l
533405 377945 530547 380803 4064 l
530547 380803 526813 382350 4064 l
526813 382350 502771 382350 4064 l
502771 382350 499036 380803 4064 l
499036 380803 498047 379814 4064 l
498047 379814 493115 379814 4064 l
493115 379814 492605 381045 4064 l
492605 381045 489747 383903 4064 l
489747 383903 488564 384393 4064 l
488564 384393 488564 386572 4064 l
488564 386572 477710 386572 4064 l
477710 386572 477710 389008 4064 l
477710 389008 488564 389008 4064 l
488564 389008 488564 394892 4064 l
488564 394892 488252 396055 4064 l
488252 396055 487650 397097 4064 l
487650 397097 486799 397949 4064 l
486799 397949 485756 398550 4064 l
485756 398550 484594 398862 4064 l
484594 398862 479832 398862 4064 l
479832 398862 481405 400435 4064 l
481405 400435 482952 404169 4064 l
482952 404169 482952 430211 4064 l
482952 430211 481405 433945 4064 l
481405 433945 478708 436642 4064 l
478708 436642 478865 436798 4064 l
478865 436798 479880 439250 4064 l
479880 439250 479963 439250 4064 l
479963 439250 482636 436577 4064 l
482636 436577 486371 435030 4064 l
486371 435030 517413 435030 4064 l
517413 435030 521147 436577 4064 l
521147 436577 521567 436997 4064 l
521567 436997 521971 436830 4064 l
521971 436830 536832 436830 4064 l
536832 436830 536832 275569 4064 l
536832 275569 538378 271835 4064 l
538378 271835 541236 268977 4064 l
541236 268977 543260 268139 4064 l
543260 268139 543260 253258 4064 l
543260 253258 539324 253258 4064 l
539324 253258 539324 269362 4064 l
539324 269362 532690 269362 4064 l
532690 269362 531527 269050 4064 l
531527 269050 530718 268583 4064 l
530718 268583 529905 270545 4064 l
529905 270545 527047 273403 4064 l
527047 273403 523313 274950 4064 l
523313 274950 503271 274950 4064 l
503271 274950 499536 273403 4064 l
499536 273403 496678 270545 4064 l
496678 270545 495132 266811 4064 l
495132 266811 495132 265514 4064 l
495132 265514 484680 265514 4064 l
484680 265514 484952 266169 4064 l
484952 266169 484952 286211 4064 l
484952 286211 483405 289945 4064 l
483405 289945 480547 292803 4064 l
480547 292803 476813 294350 4064 l
476813 294350 469609 294350 4064 l
469609 294350 467480 295232 4064 l
467480 295232 460103 295232 4064 l
460103 295232 457974 294350 4064 l
457974 294350 452362 294350 4064 l
452362 294350 452362 300047 4064 l
452362 300047 450815 303781 4064 l
450815 303781 447957 306639 4064 l
447957 306639 444223 308186 4064 l
444223 308186 432561 308186 4064 l
432561 308186 432042 307971 4064 l
432042 307971 431523 308186 4064 l
431523 308186 419861 308186 4064 l
419861 308186 419342 307971 4064 l
419342 307971 418823 308186 4064 l
418823 308186 407161 308186 4064 l
407161 308186 406642 307971 4064 l
406642 307971 406123 308186 4064 l
406123 308186 394461 308186 4064 l
394461 308186 390726 306639 4064 l
390726 306639 389116 305028 4064 l
389116 305028 389116 343019 4064 l
389116 343019 388457 344609 4064 l
388457 344609 392234 340831 4064 l
392234 340831 392234 340831 4064 l
392234 340831 400933 332133 4064 l
400933 332133 400933 332133 4064 l
400933 332133 404934 328131 4064 l
404934 328131 410162 325966 4064 l
410162 325966 459868 325966 4064 l
459868 325966 460378 324735 4064 l
460378 324735 463236 321877 4064 l
463236 321877 464420 321387 4064 l
464420 321387 464420 319208 4064 l
464420 319208 475273 319208 4064 l
475273 319208 475273 316772 4064 l
475273 316772 464420 316772 4064 l
464420 316772 464420 310888 4064 l
464420 310888 464731 309725 4064 l
464731 309725 465333 308683 4064 l
465333 308683 466184 307831 4064 l
466184 307831 467227 307230 4064 l
467227 307230 468390 306918 4064 l
468390 306918 475274 306918 4064 l
475274 306918 475274 316772 4064 l
475274 316772 477710 316772 4064 l
477710 316772 477710 306918 4064 l
477710 306918 484594 306918 4064 l
484594 306918 485756 307230 4064 l
485756 307230 486799 307831 4064 l
486799 307831 487650 308683 4064 l
487650 308683 488252 309725 4064 l
488252 309725 488564 310888 4064 l
488564 310888 488564 316772 4064 l
488564 316772 477710 316772 4064 l
477710 316772 477710 319208 4064 l
477710 319208 488564 319208 4064 l
488564 319208 488564 321387 4064 l
488564 321387 489747 321877 4064 l
489747 321877 492605 324735 4064 l
492605 324735 493115 325966 4064 l
493115 325966 494632 325966 4064 l
494632 325966 494632 321244 4064 l
494632 321244 493256 317922 4064 l
493256 317922 493256 311658 4064 l
493256 311658 494632 308336 4064 l
494632 308336 494632 304169 4064 l
494632 304169 496178 300435 4064 l
496178 300435 499036 297577 4064 l
499036 297577 502771 296030 4064 l
502771 296030 524813 296030 4064 l
524813 296030 528547 297577 4064 l
528547 297577 531405 300435 4064 l
531405 300435 532952 304169 4064 l
532952 304169 532952 305291 4064 l
532952 305291 533530 305869 4064 l
533530 305869 535928 311658 4064 l
535928 311658 535928 317922 4064 l
535928 317922 533530 323711 4064 l
533530 323711 532952 324289 4064 l
532952 324289 532952 326211 4064 l
532952 326211 531405 329945 4064 l
531405 329945 528547 332803 4064 l
528547 332803 527629 333183 4064 l
527629 333183 526650 335547 4064 l
526650 335547 514167 348030 4064 l
514167 348030 526813 348030 4064 l
526813 348030 530547 349577 4064 l
530547 349577 533405 352435 4064 l
533405 352435 534952 356169 4064 l
146282 496400 139997 499003 4064 l
139997 499003 124640 499003 4064 l
124640 499003 125952 502169 4064 l
125952 502169 125952 517165 4064 l
125952 517165 126289 517165 4064 l
126289 517165 126289 529737 4064 l
126289 529737 128194 529737 4064 l
128194 529737 128194 517165 4064 l
128194 517165 137260 517165 4064 l
137260 517165 139362 517498 4064 l
139362 517498 141387 518155 4064 l
141387 518155 143284 519122 4064 l
143284 519122 145006 520373 4064 l
145006 520373 146512 521879 4064 l
146512 521879 147763 523601 4064 l
147763 523601 148730 525498 4064 l
148730 525498 149388 527523 4064 l
149388 527523 149721 529626 4064 l
149721 529626 149721 529737 4064 l
149721 529737 128194 529737 4064 l
128194 529737 128194 531643 4064 l
128194 531643 149721 531643 4064 l
149721 531643 149721 531754 4064 l
149721 531754 149388 533857 4064 l
149388 533857 148730 535882 4064 l
148730 535882 147763 537779 4064 l
147763 537779 146512 539501 4064 l
146512 539501 145006 541007 4064 l
145006 541007 143284 542258 4064 l
143284 542258 141387 543225 4064 l
141387 543225 139362 543882 4064 l
139362 543882 137260 544215 4064 l
137260 544215 128194 544215 4064 l
128194 544215 128194 531643 4064 l
128194 531643 126289 531643 4064 l
126289 531643 126289 544215 4064 l
126289 544215 125952 544215 4064 l
125952 544215 125952 551230 4064 l
125952 551230 236974 551230 4064 l
236974 551230 235192 546927 4064 l
235192 546927 235192 539853 4064 l
235192 539853 237899 533318 4064 l
237899 533318 240000 531217 4064 l
240000 531217 239259 530910 4064 l
239259 530910 229149 520800 4064 l
229149 520800 229145 520826 4064 l
229145 520826 228556 522639 4064 l
228556 522639 227691 524338 4064 l
227691 524338 226570 525880 4064 l
226570 525880 225222 527229 4064 l
225222 527229 223680 528349 4064 l
223680 528349 221981 529215 4064 l
221981 529215 220168 529804 4064 l
220168 529804 218285 530102 4064 l
218285 530102 210260 530102 4064 l
210260 530102 210260 518458 4064 l
210260 518458 209324 518458 4064 l
209324 518458 209324 530102 4064 l
209324 530102 201298 530102 4064 l
201298 530102 199415 529804 4064 l
199415 529804 197602 529215 4064 l
197602 529215 195904 528349 4064 l
195904 528349 194361 527229 4064 l
194361 527229 193013 525880 4064 l
193013 525880 191893 524338 4064 l
191893 524338 191027 522639 4064 l
191027 522639 190438 520826 4064 l
190438 520826 190140 518943 4064 l
190140 518943 190140 518458 4064 l
190140 518458 209323 518458 4064 l
209323 518458 209323 517522 4064 l
209323 517522 190140 517522 4064 l
190140 517522 190140 517037 4064 l
190140 517037 190438 515154 4064 l
190438 515154 191027 513341 4064 l
191027 513341 191893 511642 4064 l
191893 511642 193013 510100 4064 l
193013 510100 194013 509100 4064 l
194013 509100 168408 509100 4064 l
168408 509100 162339 506586 4064 l
162339 506586 157695 501942 4064 l
157695 501942 152153 496400 4064 l
152153 496400 146282 496400 4064 l
530718 233997 531527 233530 4064 l
531527 233530 532690 233218 4064 l
532690 233218 539324 233218 4064 l
539324 233218 539324 249322 4064 l
539324 249322 543260 249322 4064 l
543260 249322 543260 233218 4064 l
543260 233218 549894 233218 4064 l
549894 233218 550632 233416 4064 l
550632 233416 550632 231064 4064 l
550632 231064 549894 231262 4064 l
549894 231262 543260 231262 4064 l
543260 231262 543260 215158 4064 l
543260 215158 539324 215158 4064 l
539324 215158 539324 231262 4064 l
539324 231262 532690 231262 4064 l
532690 231262 531527 230950 4064 l
531527 230950 530718 230483 4064 l
530718 230483 529990 232240 4064 l
529990 232240 530718 233997 4064 l
530718 157797 531527 157330 4064 l
531527 157330 532690 157018 4064 l
532690 157018 539324 157018 4064 l
539324 157018 539324 173122 4064 l
539324 173122 543260 173122 4064 l
543260 173122 543260 157018 4064 l
543260 157018 549894 157018 4064 l
549894 157018 550632 157216 4064 l
550632 157216 550632 154864 4064 l
550632 154864 549894 155062 4064 l
549894 155062 543260 155062 4064 l
543260 155062 543260 138958 4064 l
543260 138958 539324 138958 4064 l
539324 138958 539324 155062 4064 l
539324 155062 532690 155062 4064 l
532690 155062 531527 154750 4064 l
531527 154750 530718 154283 4064 l
530718 154283 529990 156040 4064 l
529990 156040 530718 157797 4064 l
539324 142918 543260 142918 4064 l
539324 146970 543260 146970 4064 l
539324 151022 543260 151022 4064 l
530390 155074 550632 155074 4064 l
539324 159126 543260 159126 4064 l
539324 163178 543260 163178 4064 l
539324 167230 543260 167230 4064 l
539324 171282 543260 171282 4064 l
539324 179386 543260 179386 4064 l
539324 183438 543260 183438 4064 l
539324 187490 543260 187490 4064 l
539324 191542 543260 191542 4064 l
530592 195594 531242 195594 4064 l
539324 195594 543260 195594 4064 l
539324 199646 543260 199646 4064 l
539324 203698 543260 203698 4064 l
539324 207750 543260 207750 4064 l
539324 215854 543260 215854 4064 l
539324 219906 543260 219906 4064 l
539324 223958 543260 223958 4064 l
539324 228010 543260 228010 4064 l
530064 232062 550632 232062 4064 l
539324 236114 543260 236114 4064 l
539324 240166 543260 240166 4064 l
539324 244218 543260 244218 4064 l
539324 248270 543260 248270 4064 l
539324 256374 543260 256374 4064 l
539324 260426 543260 260426 4064 l
539324 264478 543260 264478 4064 l
484952 268530 495844 268530 4064 l
539324 268530 542315 268530 4064 l
484952 272582 498715 272582 4064 l
527868 272582 538069 272582 4064 l
484952 276634 536832 276634 4064 l
484952 280686 536832 280686 4064 l
484952 284738 536832 284738 4064 l
483883 288790 536832 288790 4064 l
480453 292842 536832 292842 4064 l
452362 296894 500685 296894 4064 l
526898 296894 536832 296894 4064 l
451989 300946 495967 300946 4064 l
531617 300946 536832 300946 4064 l
449598 304998 494632 304998 4064 l
532952 304998 536832 304998 4064 l
389116 309050 465121 309050 4064 l
475274 309050 477710 309050 4064 l
487862 309050 494336 309050 4064 l
534848 309050 536832 309050 4064 l
389116 313102 464420 313102 4064 l
475274 313102 477710 313102 4064 l
488564 313102 493256 313102 4064 l
535928 313102 536832 313102 4064 l
389116 317154 475273 317154 4064 l
477710 317154 493256 317154 4064 l
535928 317154 536832 317154 4064 l
389116 321206 464420 321206 4064 l
488564 321206 494616 321206 4064 l
534568 321206 536832 321206 4064 l
389116 325258 460162 325258 4064 l
492822 325258 494632 325258 4064 l
532952 325258 536832 325258 4064 l
389116 329310 403756 329310 4064 l
531668 329310 536832 329310 4064 l
389116 333362 399704 333362 4064 l
527555 333362 536832 333362 4064 l
389116 337414 395652 337414 4064 l
524783 337414 536832 337414 4064 l
389116 341466 391600 341466 4064 l
520731 341466 536832 341466 4064 l
516679 345518 536832 345518 4064 l
530531 349570 536832 349570 4064 l
533897 353622 536832 353622 4064 l
182652 357674 184634 357674 4064 l
534952 357674 536832 357674 4064 l
182652 361726 184900 361726 4064 l
535625 361726 536832 361726 4064 l
182003 365778 184900 365778 4064 l
535928 365778 536832 365778 4064 l
179220 369830 184900 369830 4064 l
535469 369830 536832 369830 4064 l
173216 373882 184900 373882 4064 l
534952 373882 536832 373882 4064 l
173216 377934 184900 377934 4064 l
533410 377934 536832 377934 4064 l
172857 381986 184900 381986 4064 l
452362 381986 461319 381986 4064 l
491664 381986 501892 381986 4064 l
527691 381986 536832 381986 4064 l
171178 386038 184900 386038 4064 l
452362 386038 464420 386038 4064 l
488564 386038 536832 386038 4064 l
122124 390090 123060 390090 4064 l
167307 390090 184900 390090 4064 l
452362 390090 464420 390090 4064 l
488564 390090 536832 390090 4064 l
122124 394142 123060 394142 4064 l
133963 394142 184900 394142 4064 l
452362 394142 464420 394142 4064 l
488564 394142 536832 394142 4064 l
118352 398194 184900 398194 4064 l
486374 398194 536832 398194 4064 l
118352 402246 184900 402246 4064 l
482155 402246 536832 402246 4064 l
118352 406298 148175 406298 4064 l
172408 406298 183675 406298 4064 l
482952 406298 536832 406298 4064 l
118352 410350 143465 410350 4064 l
177118 410350 178965 410350 4064 l
482952 410350 536832 410350 4064 l
118352 414402 119877 414402 4064 l
130324 414402 134260 414402 4064 l
482952 414402 536832 414402 4064 l
118352 418454 119720 418454 4064 l
130324 418454 134260 418454 4064 l
482952 418454 536832 418454 4064 l
118352 422506 119720 422506 4064 l
130324 422506 134260 422506 4064 l
482952 422506 536832 422506 4064 l
118352 426558 119720 426558 4064 l
130324 426558 134260 426558 4064 l
482952 426558 536832 426558 4064 l
118352 430610 130323 430610 4064 l
482786 430610 536832 430610 4064 l
118352 434662 119720 434662 4064 l
130324 434662 134260 434662 4064 l
401816 434662 423848 434662 4064 l
480688 434662 536832 434662 4064 l
118352 438714 119720 438714 4064 l
130324 438714 134260 438714 4064 l
403458 438714 403906 438714 4064 l
412484 438714 413500 438714 4064 l
422078 438714 422525 438714 4064 l
479658 438714 480499 438714 4064 l
118352 442766 119720 442766 4064 l
130324 442766 134260 442766 4064 l
412484 442766 413500 442766 4064 l
118352 446818 122471 446818 4064 l
130324 446818 134260 446818 4064 l
142113 446818 143046 446818 4064 l
177537 446818 178546 446818 4064 l
412484 446818 413500 446818 4064 l
118352 450870 146203 450870 4064 l
174380 450870 181703 450870 4064 l
412484 450870 413500 450870 4064 l
118352 454922 197600 454922 4064 l
117331 458974 198453 458974 4064 l
412484 458974 413500 458974 4064 l
548274 458974 550632 458974 4064 l
145428 463026 201086 463026 4064 l
412484 463026 413500 463026 4064 l
548274 463026 550632 463026 4064 l
169528 467078 202632 467078 4064 l
412484 467078 413500 467078 4064 l
545881 467078 550632 467078 4064 l
173580 471130 202632 471130 4064 l
403100 471130 404770 471130 4064 l
412484 471130 413500 471130 4064 l
421214 471130 421882 471130 4064 l
541475 471130 544032 471130 4064 l
177632 475182 198026 475182 4064 l
401816 475182 421882 475182 4064 l
525552 475182 540186 475182 4064 l
401816 479234 421882 479234 4064 l
534871 479234 539032 479234 4064 l
401581 483286 421882 483286 4064 l
399903 487338 421882 487338 4064 l
124844 499494 155247 499494 4064 l
125952 503546 159299 503546 4064 l
125952 507598 164782 507598 4064 l
125952 511650 191888 511650 4064 l
125952 515702 190351 515702 4064 l
126289 519754 128194 519754 4064 l
144154 519754 190268 519754 4064 l
209324 519754 210260 519754 4064 l
126289 523806 128194 523806 4064 l
147868 523806 191621 523806 4064 l
209324 523806 210260 523806 4064 l
227962 523806 232155 523806 4064 l
126289 527858 128194 527858 4064 l
149441 527858 195228 527858 4064 l
209324 527858 210260 527858 4064 l
224356 527858 236207 527858 4064 l
126289 531910 128194 531910 4064 l
149696 531910 239307 531910 4064 l
126289 535962 128194 535962 4064 l
148689 535962 236803 535962 4064 l
126289 540014 128194 540014 4064 l
145999 540014 235192 540014 4064 l
126289 544066 128194 544066 4064 l
138203 544066 235192 544066 4064 l
125952 548118 235685 548118 4064 l
410608 560274 436407 560274 4064 l
408929 564326 439020 564326 4064 l
438392 505290 438392 492590 12700 l
438392 492590 438392 454490 12700 l
387592 388069 387592 403690 8128 l
387592 403690 400292 416390 8128 l
400292 416390 425692 416390 8128 l
425692 416390 438392 429090 8128 l
438392 429090 438392 454490 8128 l
438392 505290 311392 505290 8128 l
311392 505290 273292 467190 8128 l
273292 467190 260592 467190 8128 l
260592 467190 235192 467190 8128 l
235192 467190 222492 467190 4064 l
222492 467190 209792 454490 4064 l
209792 454490 209792 403690 4064 l
209792 403690 222492 390990 4064 l
222492 390990 235192 378290 8128 l
235192 378290 247892 378290 8128 l
247892 327490 247892 302090 8128 l
247892 378290 247892 352890 8128 l
247892 352890 247892 327490 8128 l
235192 251290 298692 251290 8128 l
235192 251290 235192 276690 8128 l
235192 276690 247892 289390 8128 l
247892 289390 247892 302090 8128 l
222492 467190 16764 p
222492 390990 16764 p
260592 492590 260592 467190 10160 l
501892 543390 524092 543390 10160 l
524092 543390 527292 546590 10160 l
527292 546590 527292 521190 10160 l
527292 521190 530492 517990 10160 l
438392 492590 501892 492590 10160 l
501892 492590 527292 492590 10160 l
527292 492590 527292 521190 10160 l
501892 481190 501892 492590 10160 l
127242 479890 133592 479890 12700 l
133592 479890 158992 479890 12700 l
158992 479890 171692 492590 12700 l
171692 492590 197092 492590 12700 l
197092 492590 209792 492590 12700 l
120892 479890 133592 479890 8128 l
260592 517990 247892 517990 10160 l
247892 517990 222492 492590 10160 l
222492 492590 197092 492590 10160 l
349492 292311 349492 238590 8128 l
349492 238590 412992 175090 8128 l
412992 175090 513292 175090 8128 l
273292 327490 336792 327490 8128 l
336792 327490 349492 314790 8128 l
349492 314790 349492 292311 8128 l
513292 213190 400292 213190 8128 l
400292 213190 362192 251290 8128 l
362192 251290 362192 292311 8128 l
273292 352890 336792 352890 8128 l
336792 352890 362192 327490 8128 l
362192 327490 362192 292311 8128 l
160292 429090 195792 429090 8128 l
122592 368790 122592 351190 4064 l
122592 351190 133592 340190 4064 l
133592 340190 184392 340190 4064 l
184392 340190 197092 352890 4064 l
197092 352890 197092 427790 4064 l
197092 427790 195792 429090 4064 l
374892 388069 374892 416390 8128 l
374892 416390 387592 429090 8128 l
387592 429090 387592 454490 8128 l
387592 454490 387592 479890 8128 l
387592 479890 374892 492590 8128 l
374892 492590 324092 492590 8128 l
324092 492590 311392 479890 8128 l
311392 479890 311392 441790 8128 l
311392 441790 298692 429090 8128 l
298692 429090 223792 429090 8128 l
144592 378290 158992 378290 8128 l
158992 378290 158992 354190 8128 l
247892 187790 235192 200490 8128 l
235192 200490 235192 225890 8128 l
298692 187790 298692 225890 8128 l
374892 292311 374892 263990 8128 l
374892 263990 387592 251290 8128 l
387592 251290 513292 251290 8128 l
514592 251290 513292 251290 8128 l
273292 378290 298692 378290 8128 l
298692 378290 311392 365590 8128 l
311392 365590 349492 365590 8128 l
349492 365590 374892 340190 8128 l
374892 340190 374892 292311 8128 l
400292 292311 400292 276690 8128 l
400292 276690 412992 263990 8128 l
412992 263990 451092 263990 8128 l
451092 263990 463792 276690 8128 l
463792 454490 463792 416390 8128 l
463792 416390 16764 p
463792 276690 16764 p
463792 454490 500592 454490 10160 l
500592 454490 501892 453190 10160 l
501892 453190 529192 453190 10160 l
529192 453190 530492 454490 10160 l
362192 454490 362192 388069 8128 l
336792 454490 336792 388069 8128 l
514592 314790 514592 327490 8128 l
514592 327490 501892 340190 8128 l
501892 340190 476492 340190 8128 l
476492 340190 412992 340190 8128 l
412992 340190 400292 352890 8128 l
400292 352890 400292 388069 8128 l
476492 336990 476492 340190 8128 l
412992 388069 412992 378290 8128 l
412992 378290 425692 365590 8128 l
425692 365590 476492 365590 8128 l
476492 365590 514592 365590 8128 l
476492 368790 476492 365590 8128 l
513292 136990 425692 136990 8128 l
425692 136990 336792 225890 8128 l
336792 225890 336792 292311 8128 l
273292 302090 327013 302090 8128 l
327013 302090 336792 292311 8128 l
158992 326190 158992 302090 8128 l
158992 302090 197092 263990 8128 l
197092 263990 197092 187790 8128 l
197092 187790 235192 149690 8128 l
235192 149690 260592 149690 8128 l
260592 149690 273292 162390 8128 l
273292 162390 273292 187790 8128 l
260592 543390 260592 556090 10160 l
260592 556090 285992 556090 10160 l
387592 556090 400292 543390 10160 l
400292 543390 451092 543390 10160 l
451092 543390 476492 543390 10160 l
451092 546590 451092 543390 10160 l
209792 492590 10000 h
209792 517990 10000 h
127242 479890 11938 h
127242 530690 11938 h
387592 556090 8128 h
285992 556090 8128 h
247892 187790 10160 h
273292 187790 10160 h
298692 187790 10160 h
235192 251290 8128 h
235192 225890 8128 h
298692 251290 8128 h
298692 225890 8128 h
463792 454490 10160 h
438392 454490 10160 h
412992 454490 10160 h
387592 454490 10160 h
362192 454490 10160 h
336792 454490 10160 h
514592 314790 6096 h
514592 365590 6096 h
273292 302090 10160 h
273292 327490 10160 h
273292 352890 10160 h
273292 378290 10160 h
247892 302090 10160 h
247892 327490 10160 h
247892 352890 10160 h
247892 378290 10160 h
260592 492590 10160 h
260592 517990 10160 h
260592 543390 10160 h
501892 543390 8128 h
489192 524340 8128 h
476492 543390 8128 h
412992 568790 8000 h
412992 479890 8000 h
222492 467190 8000 h
222492 390990 8000 h
463792 416390 8000 h
463792 276690 8000 h
