<?xml version="1.0" encoding="utf-8"?>
<!DOCTYPE eagle SYSTEM "eagle.dtd">
<eagle version="6.6.0">
<drawing>
<settings>
<setting alwaysvectorfont="no"/>
<setting verticaltext="up"/>
</settings>
<grid distance="0.1" unitdist="inch" unit="inch" style="lines" multiple="1" display="no" altdistance="0.01" altunitdist="inch" altunit="inch"/>
<layers>
<layer number="1" name="Top" color="4" fill="1" visible="yes" active="yes"/>
<layer number="16" name="Bottom" color="1" fill="1" visible="yes" active="yes"/>
<layer number="17" name="Pads" color="2" fill="1" visible="yes" active="yes"/>
<layer number="18" name="Vias" color="2" fill="1" visible="yes" active="yes"/>
<layer number="19" name="Unrouted" color="6" fill="1" visible="yes" active="yes"/>
<layer number="20" name="Dimension" color="15" fill="1" visible="yes" active="yes"/>
<layer number="21" name="tPlace" color="7" fill="1" visible="yes" active="yes"/>
<layer number="22" name="bPlace" color="7" fill="1" visible="yes" active="yes"/>
<layer number="23" name="tOrigins" color="15" fill="1" visible="yes" active="yes"/>
<layer number="24" name="bOrigins" color="15" fill="1" visible="yes" active="yes"/>
<layer number="25" name="tNames" color="7" fill="1" visible="yes" active="yes"/>
<layer number="26" name="bNames" color="7" fill="1" visible="yes" active="yes"/>
<layer number="27" name="tValues" color="7" fill="1" visible="yes" active="yes"/>
<layer number="28" name="bValues" color="7" fill="1" visible="yes" active="yes"/>
<layer number="29" name="tStop" color="7" fill="3" visible="no" active="yes"/>
<layer number="30" name="bStop" color="7" fill="6" visible="no" active="yes"/>
<layer number="31" name="tCream" color="7" fill="4" visible="no" active="yes"/>
<layer number="32" name="bCream" color="7" fill="5" visible="no" active="yes"/>
<layer number="33" name="tFinish" color="6" fill="3" visible="no" active="yes"/>
<layer number="34" name="bFinish" color="6" fill="6" visible="no" active="yes"/>
<layer number="35" name="tGlue" color="7" fill="4" visible="no" active="yes"/>
<layer number="36" name="bGlue" color="7" fill="5" visible="no" active="yes"/>
<layer number="37" name="tTest" color="7" fill="1" visible="no" active="yes"/>
<layer number="38" name="bTest" color="7" fill="1" visible="no" active="yes"/>
<layer number="39" name="tKeepout" color="4" fill="11" visible="yes" active="yes"/>
<layer number="40" name="bKeepout" color="1" fill="11" visible="yes" active="yes"/>
<layer number="41" name="tRestrict" color="4" fill="10" visible="yes" active="yes"/>
<layer number="42" name="bRestrict" color="1" fill="10" visible="yes" active="yes"/>
<layer number="43" name="vRestrict" color="2" fill="10" visible="yes" active="yes"/>
<layer number="44" name="Drills" color="7" fill="1" visible="no" active="yes"/>
<layer number="45" name="Holes" color="7" fill="1" visible="no" active="yes"/>
<layer number="46" name="Milling" color="3" fill="1" visible="no" active="yes"/>
<layer number="47" name="Measures" color="7" fill="1" visible="no" active="yes"/>
<layer number="48" name="Document" color="7" fill="1" visible="yes" active="yes"/>
<layer number="49" name="Reference" color="7" fill="1" visible="yes" active="yes"/>
<layer number="51" name="tDocu" color="7" fill="1" visible="yes" active="yes"/>
<layer number="52" name="bDocu" color="7" fill="1" visible="yes" active="yes"/>
<layer number="91" name="Nets" color="2" fill="1" visible="yes" active="yes"/>
<layer number="92" name="Busses" color="1" fill="1" visible="yes" active="yes"/>
<layer number="93" name="Pins" color="2" fill="1" visible="yes" active="yes"/>
<layer number="94" name="Symbols" color="4" fill="1" visible="yes" active="yes"/>
<layer number="95" name="Names" color="7" fill="1" visible="yes" active="yes"/>
<layer number="96" name="Values" color="7" fill="1" visible="yes" active="yes"/>
<layer number="97" name="Info" color="7" fill="1" visible="yes" active="yes"/>
<layer number="98" name="Guide" color="6" fill="1" visible="yes" active="yes"/>
</layers>
<library>
<packages>
<package name="PIC18F14K50-E/SS">
<smd name="1" x="-3.429" y="2.9718" dx="2.0574" dy="0.4318" layer="1"/>
<smd name="2" x="-3.429" y="2.3114" dx="2.0574" dy="0.4318" layer="1"/>
<smd name="3" x="-3.429" y="1.651" dx="2.0574" dy="0.4318" layer="1"/>
<smd name="4" x="-3.429" y="0.9906" dx="2.0574" dy="0.4318" layer="1"/>
<smd name="5" x="-3.429" y="0.3302" dx="2.0574" dy="0.4318" layer="1"/>
<smd name="6" x="-3.429" y="-0.3302" dx="2.0574" dy="0.4318" layer="1"/>
<smd name="7" x="-3.429" y="-0.9906" dx="2.0574" dy="0.4318" layer="1"/>
<smd name="8" x="-3.429" y="-1.651" dx="2.0574" dy="0.4318" layer="1"/>
<smd name="9" x="-3.429" y="-2.3114" dx="2.0574" dy="0.4318" layer="1"/>
<smd name="10" x="-3.429" y="-2.9718" dx="2.0574" dy="0.4318" layer="1"/>
<smd name="11" x="3.429" y="-2.9718" dx="2.0574" dy="0.4318" layer="1"/>
<smd name="12" x="3.429" y="-2.3114" dx="2.0574" dy="0.4318" layer="1"/>
<smd name="13" x="3.429" y="-1.651" dx="2.0574" dy="0.4318" layer="1"/>
<smd name="14" x="3.429" y="-0.9906" dx="2.0574" dy="0.4318" layer="1"/>
<smd name="15" x="3.429" y="-0.3302" dx="2.0574" dy="0.4318" layer="1"/>
<smd name="16" x="3.429" y="0.3302" dx="2.0574" dy="0.4318" layer="1"/>
<smd name="17" x="3.429" y="0.9906" dx="2.0574" dy="0.4318" layer="1"/>
<smd name="18" x="3.429" y="1.651" dx="2.0574" dy="0.4318" layer="1"/>
<smd name="19" x="3.429" y="2.3114" dx="2.0574" dy="0.4318" layer="1"/>
<smd name="20" x="3.429" y="2.9718" dx="2.0574" dy="0.4318" layer="1"/>
<wire x1="-2.794" y1="-3.7592" x2="2.794" y2="-3.7592" width="0.1524" layer="51"/>
<wire x1="2.794" y1="3.7592" x2="0.3048" y2="3.7592" width="0.1524" layer="51"/>
<wire x1="0.3048" y1="3.7592" x2="-0.3048" y2="3.7592" width="0.1524" layer="51"/>
<wire x1="-0.3048" y1="3.7592" x2="-2.794" y2="3.7592" width="0.1524" layer="51"/>
<wire x1="0.3048" y1="3.7592" x2="-0.3048" y2="3.7592" width="0" layer="51" curve="-180"/>
<wire x1="-4.9784" y1="-2.794" x2="-4.9784" y2="-3.1496" width="0.1524" layer="51"/>
<wire x1="-4.9784" y1="-3.1496" x2="-4.7244" y2="-3.1496" width="0.1524" layer="51"/>
<wire x1="-4.7244" y1="-3.1496" x2="-4.7244" y2="-2.794" width="0.1524" layer="51"/>
<wire x1="-4.7244" y1="-2.794" x2="-4.9784" y2="-2.794" width="0.1524" layer="51"/>
<wire x1="4.9784" y1="3.1496" x2="4.9784" y2="2.794" width="0.1524" layer="51"/>
<wire x1="4.9784" y1="2.794" x2="4.7244" y2="2.794" width="0.1524" layer="51"/>
<wire x1="4.7244" y1="2.794" x2="4.7244" y2="3.1496" width="0.1524" layer="51"/>
<wire x1="4.7244" y1="3.1496" x2="4.9784" y2="3.1496" width="0.1524" layer="51"/>
<text x="-4.2672" y="3.2766" size="1.27" layer="51" ratio="6" rot="SR0">*</text>
<wire x1="-2.794" y1="2.794" x2="-2.794" y2="3.1496" width="0.1524" layer="25"/>
<wire x1="-2.794" y1="3.1496" x2="-4.1148" y2="3.1496" width="0.1524" layer="25"/>
<wire x1="-4.1148" y1="3.1496" x2="-4.1148" y2="2.794" width="0.1524" layer="25"/>
<wire x1="-4.1148" y1="2.794" x2="-2.794" y2="2.794" width="0.1524" layer="25"/>
<wire x1="-2.794" y1="2.1336" x2="-2.794" y2="2.4892" width="0.1524" layer="25"/>
<wire x1="-2.794" y1="2.4892" x2="-4.1148" y2="2.4892" width="0.1524" layer="25"/>
<wire x1="-4.1148" y1="2.4892" x2="-4.1148" y2="2.1082" width="0.1524" layer="25"/>
<wire x1="-4.1148" y1="2.1082" x2="-2.794" y2="2.1336" width="0.1524" layer="25"/>
<wire x1="-2.794" y1="1.4732" x2="-2.794" y2="1.8288" width="0.1524" layer="25"/>
<wire x1="-2.794" y1="1.8288" x2="-4.1148" y2="1.8288" width="0.1524" layer="25"/>
<wire x1="-4.1148" y1="1.8288" x2="-4.1148" y2="1.4478" width="0.1524" layer="25"/>
<wire x1="-4.1148" y1="1.4478" x2="-2.794" y2="1.4732" width="0.1524" layer="25"/>
<wire x1="-2.794" y1="0.8128" x2="-2.794" y2="1.1684" width="0.1524" layer="25"/>
<wire x1="-2.794" y1="1.1684" x2="-4.1148" y2="1.1684" width="0.1524" layer="25"/>
<wire x1="-4.1148" y1="1.1684" x2="-4.1148" y2="0.7874" width="0.1524" layer="25"/>
<wire x1="-4.1148" y1="0.7874" x2="-2.794" y2="0.8128" width="0.1524" layer="25"/>
<wire x1="-2.794" y1="0.1524" x2="-2.794" y2="0.508" width="0.1524" layer="25"/>
<wire x1="-2.794" y1="0.508" x2="-4.1148" y2="0.508" width="0.1524" layer="25"/>
<wire x1="-4.1148" y1="0.508" x2="-4.1148" y2="0.127" width="0.1524" layer="25"/>
<wire x1="-4.1148" y1="0.127" x2="-2.794" y2="0.1524" width="0.1524" layer="25"/>
<wire x1="-2.794" y1="-0.508" x2="-2.794" y2="-0.1524" width="0.1524" layer="25"/>
<wire x1="-2.794" y1="-0.1524" x2="-4.1148" y2="-0.1524" width="0.1524" layer="25"/>
<wire x1="-4.1148" y1="-0.1524" x2="-4.1148" y2="-0.5334" width="0.1524" layer="25"/>
<wire x1="-4.1148" y1="-0.5334" x2="-2.794" y2="-0.508" width="0.1524" layer="25"/>
<wire x1="-2.794" y1="-1.1684" x2="-2.794" y2="-0.8128" width="0.1524" layer="25"/>
<wire x1="-2.794" y1="-0.8128" x2="-4.1148" y2="-0.8128" width="0.1524" layer="25"/>
<wire x1="-4.1148" y1="-0.8128" x2="-4.1148" y2="-1.1938" width="0.1524" layer="25"/>
<wire x1="-4.1148" y1="-1.1938" x2="-2.794" y2="-1.1684" width="0.1524" layer="25"/>
<wire x1="-2.794" y1="-1.8288" x2="-2.794" y2="-1.4732" width="0.1524" layer="25"/>
<wire x1="-2.794" y1="-1.4732" x2="-4.1148" y2="-1.4732" width="0.1524" layer="25"/>
<wire x1="-4.1148" y1="-1.4732" x2="-4.1148" y2="-1.8542" width="0.1524" layer="25"/>
<wire x1="-4.1148" y1="-1.8542" x2="-2.794" y2="-1.8288" width="0.1524" layer="25"/>
<wire x1="-2.794" y1="-2.4892" x2="-2.794" y2="-2.1336" width="0.1524" layer="25"/>
<wire x1="-2.794" y1="-2.1336" x2="-4.1148" y2="-2.1336" width="0.1524" layer="25"/>
<wire x1="-4.1148" y1="-2.1336" x2="-4.1148" y2="-2.5146" width="0.1524" layer="25"/>
<wire x1="-4.1148" y1="-2.5146" x2="-2.794" y2="-2.4892" width="0.1524" layer="25"/>
<wire x1="-2.794" y1="-3.1496" x2="-2.794" y2="-2.794" width="0.1524" layer="25"/>
<wire x1="-2.794" y1="-2.794" x2="-4.1148" y2="-2.794" width="0.1524" layer="25"/>
<wire x1="-4.1148" y1="-2.794" x2="-4.1148" y2="-3.1496" width="0.1524" layer="25"/>
<wire x1="-4.1148" y1="-3.1496" x2="-2.794" y2="-3.1496" width="0.1524" layer="25"/>
<wire x1="2.794" y1="-2.794" x2="2.794" y2="-3.1496" width="0.1524" layer="25"/>
<wire x1="2.794" y1="-3.1496" x2="4.1148" y2="-3.1496" width="0.1524" layer="25"/>
<wire x1="4.1148" y1="-3.1496" x2="4.1148" y2="-2.794" width="0.1524" layer="25"/>
<wire x1="4.1148" y1="-2.794" x2="2.794" y2="-2.794" width="0.1524" layer="25"/>
<wire x1="2.794" y1="-2.1336" x2="2.794" y2="-2.4892" width="0.1524" layer="25"/>
<wire x1="2.794" y1="-2.4892" x2="4.1148" y2="-2.4892" width="0.1524" layer="25"/>
<wire x1="4.1148" y1="-2.4892" x2="4.1148" y2="-2.1082" width="0.1524" layer="25"/>
<wire x1="4.1148" y1="-2.1082" x2="2.794" y2="-2.1336" width="0.1524" layer="25"/>
<wire x1="2.794" y1="-1.4732" x2="2.794" y2="-1.8288" width="0.1524" layer="25"/>
<wire x1="2.794" y1="-1.8288" x2="4.1148" y2="-1.8288" width="0.1524" layer="25"/>
<wire x1="4.1148" y1="-1.8288" x2="4.1148" y2="-1.4478" width="0.1524" layer="25"/>
<wire x1="4.1148" y1="-1.4478" x2="2.794" y2="-1.4732" width="0.1524" layer="25"/>
<wire x1="2.794" y1="-0.8128" x2="2.794" y2="-1.1684" width="0.1524" layer="25"/>
<wire x1="2.794" y1="-1.1684" x2="4.1148" y2="-1.1684" width="0.1524" layer="25"/>
<wire x1="4.1148" y1="-1.1684" x2="4.1148" y2="-0.7874" width="0.1524" layer="25"/>
<wire x1="4.1148" y1="-0.7874" x2="2.794" y2="-0.8128" width="0.1524" layer="25"/>
<wire x1="2.794" y1="-0.1524" x2="2.794" y2="-0.508" width="0.1524" layer="25"/>
<wire x1="2.794" y1="-0.508" x2="4.1148" y2="-0.508" width="0.1524" layer="25"/>
<wire x1="4.1148" y1="-0.508" x2="4.1148" y2="-0.127" width="0.1524" layer="25"/>
<wire x1="4.1148" y1="-0.127" x2="2.794" y2="-0.1524" width="0.1524" layer="25"/>
<wire x1="2.794" y1="0.508" x2="2.794" y2="0.1524" width="0.1524" layer="25"/>
<wire x1="2.794" y1="0.1524" x2="4.1148" y2="0.1524" width="0.1524" layer="25"/>
<wire x1="4.1148" y1="0.1524" x2="4.1148" y2="0.5334" width="0.1524" layer="25"/>
<wire x1="4.1148" y1="0.5334" x2="2.794" y2="0.508" width="0.1524" layer="25"/>
<wire x1="2.794" y1="1.1684" x2="2.794" y2="0.8128" width="0.1524" layer="25"/>
<wire x1="2.794" y1="0.8128" x2="4.1148" y2="0.8128" width="0.1524" layer="25"/>
<wire x1="4.1148" y1="0.8128" x2="4.1148" y2="1.1938" width="0.1524" layer="25"/>
<wire x1="4.1148" y1="1.1938" x2="2.794" y2="1.1684" width="0.1524" layer="25"/>
<wire x1="2.794" y1="1.8288" x2="2.794" y2="1.4732" width="0.1524" layer="25"/>
<wire x1="2.794" y1="1.4732" x2="4.1148" y2="1.4732" width="0.1524" layer="25"/>
<wire x1="4.1148" y1="1.4732" x2="4.1148" y2="1.8542" width="0.1524" layer="25"/>
<wire x1="4.1148" y1="1.8542" x2="2.794" y2="1.8288" width="0.1524" layer="25"/>
<wire x1="2.794" y1="2.4892" x2="2.794" y2="2.1336" width="0.1524" layer="25"/>
<wire x1="2.794" y1="2.1336" x2="4.1148" y2="2.1336" width="0.1524" layer="25"/>
<wire x1="4.1148" y1="2.1336" x2="4.1148" y2="2.5146" width="0.1524" layer="25"/>
<wire x1="4.1148" y1="2.5146" x2="2.794" y2="2.4892" width="0.1524" layer="25"/>
<wire x1="2.794" y1="3.1496" x2="2.794" y2="2.794" width="0.1524" layer="25"/>
<wire x1="2.794" y1="2.794" x2="4.1148" y2="2.794" width="0.1524" layer="25"/>
<wire x1="4.1148" y1="2.794" x2="4.1148" y2="3.1496" width="0.1524" layer="25"/>
<wire x1="4.1148" y1="3.1496" x2="2.794" y2="3.1496" width="0.1524" layer="25"/>
<wire x1="-2.794" y1="-3.7592" x2="2.794" y2="-3.7592" width="0.1524" layer="25"/>
<wire x1="2.794" y1="-3.7592" x2="2.794" y2="3.7592" width="0.1524" layer="25"/>
<wire x1="2.794" y1="3.7592" x2="0.3048" y2="3.7592" width="0.1524" layer="25"/>
<wire x1="0.3048" y1="3.7592" x2="-0.3048" y2="3.7592" width="0.1524" layer="25"/>
<wire x1="-0.3048" y1="3.7592" x2="-2.794" y2="3.7592" width="0.1524" layer="25"/>
<wire x1="-2.794" y1="3.7592" x2="-2.794" y2="-3.7592" width="0.1524" layer="25"/>
<wire x1="0.3048" y1="3.7592" x2="-0.3048" y2="3.7592" width="0" layer="25" curve="-180"/>
<text x="-4.2672" y="3.2766" size="1.27" layer="25" ratio="6" rot="SR0">*</text>
<text x="-2.8702" y="-0.635" size="1.27" layer="25" ratio="6" rot="SR0">&gt;NAME</text>
<text x="-3.4544" y="-0.635" size="1.27" layer="27" ratio="6" rot="SR0">&gt;VALUE</text>
</package>
</packages>
<symbols>
<symbol name="PIC18F14K50-E-SS">
<pin name="RA0/D+/PGD" x="0" y="0" length="middle"/>
<pin name="RA1/D-/PGC" x="0" y="-2.54" length="middle"/>
<pin name="RA3/*MCLR/VPP" x="0" y="-5.08" length="middle"/>
<pin name="RA4/AN3/OSC2/CLKOUT" x="0" y="-7.62" length="middle"/>
<pin name="RA5/OSC1/CLKIN" x="0" y="-10.16" length="middle"/>
<pin name="RB4/AN10/SDI/SDA" x="0" y="-12.7" length="middle"/>
<pin name="RB5/AN11/RX/DT" x="0" y="-15.24" length="middle"/>
<pin name="RB6/SCK/SCL" x="0" y="-17.78" length="middle"/>
<pin name="RB7/TX/CK" x="0" y="-20.32" length="middle"/>
<pin name="VDD" x="0" y="-25.4" length="middle" direction="pwr"/>
<pin name="VUSB" x="0" y="-27.94" length="middle" direction="pwr"/>
<pin name="RC0/AN4/C12IN+/INT0/VREF+" x="93.98" y="0" length="middle" rot="R180"/>
<pin name="RC1/AN5/C12IN1-/INT1/VREFRC2/" x="93.98" y="-2.54" length="middle" rot="R180"/>
<pin name="RC2/AN6/P1D/C12IN2-/CVREF/INT2" x="93.98" y="-5.08" length="middle" rot="R180"/>
<pin name="RC3/AN7/P1C/C12IN3-/PGM" x="93.98" y="-7.62" length="middle" rot="R180"/>
<pin name="RC4/P1B/C12OUT/SRQ" x="93.98" y="-10.16" length="middle" rot="R180"/>
<pin name="RC5/CCP1/P1A/T0CKI" x="93.98" y="-12.7" length="middle" rot="R180"/>
<pin name="RC6/AN8/*SS/T13CKI/T1OSCI" x="93.98" y="-15.24" length="middle" rot="R180"/>
<pin name="RC7/AN9/SDO/T1OSCO" x="93.98" y="-17.78" length="middle" rot="R180"/>
<pin name="VSS" x="0" y="-30.48" length="middle" direction="pwr"/>
<wire x1="7.112" y1="0" x2="6.0452" y2="0.508" width="0.1524" layer="94"/>
<wire x1="7.112" y1="0" x2="6.0452" y2="-0.508" width="0.1524" layer="94"/>
<wire x1="5.5372" y1="0.508" x2="4.4958" y2="0" width="0.1524" layer="94"/>
<wire x1="5.5372" y1="-0.508" x2="4.4958" y2="0" width="0.1524" layer="94"/>
<wire x1="7.112" y1="-2.54" x2="6.0452" y2="-2.032" width="0.1524" layer="94"/>
<wire x1="7.112" y1="-2.54" x2="6.0452" y2="-3.048" width="0.1524" layer="94"/>
<wire x1="5.5372" y1="-2.032" x2="4.4958" y2="-2.54" width="0.1524" layer="94"/>
<wire x1="5.5372" y1="-3.048" x2="4.4958" y2="-2.54" width="0.1524" layer="94"/>
<wire x1="7.112" y1="-5.08" x2="6.0452" y2="-4.572" width="0.1524" layer="94"/>
<wire x1="7.112" y1="-5.08" x2="6.0452" y2="-5.588" width="0.1524" layer="94"/>
<wire x1="5.5372" y1="-4.572" x2="4.4958" y2="-5.08" width="0.1524" layer="94"/>
<wire x1="5.5372" y1="-5.588" x2="4.4958" y2="-5.08" width="0.1524" layer="94"/>
<wire x1="7.112" y1="-7.62" x2="6.0452" y2="-7.112" width="0.1524" layer="94"/>
<wire x1="7.112" y1="-7.62" x2="6.0452" y2="-8.128" width="0.1524" layer="94"/>
<wire x1="5.5372" y1="-7.112" x2="4.4958" y2="-7.62" width="0.1524" layer="94"/>
<wire x1="5.5372" y1="-8.128" x2="4.4958" y2="-7.62" width="0.1524" layer="94"/>
<wire x1="7.112" y1="-10.16" x2="6.0452" y2="-9.652" width="0.1524" layer="94"/>
<wire x1="7.112" y1="-10.16" x2="6.0452" y2="-10.668" width="0.1524" layer="94"/>
<wire x1="5.5372" y1="-9.652" x2="4.4958" y2="-10.16" width="0.1524" layer="94"/>
<wire x1="5.5372" y1="-10.668" x2="4.4958" y2="-10.16" width="0.1524" layer="94"/>
<wire x1="7.112" y1="-12.7" x2="6.0452" y2="-12.192" width="0.1524" layer="94"/>
<wire x1="7.112" y1="-12.7" x2="6.0452" y2="-13.208" width="0.1524" layer="94"/>
<wire x1="5.5372" y1="-12.192" x2="4.4958" y2="-12.7" width="0.1524" layer="94"/>
<wire x1="5.5372" y1="-13.208" x2="4.4958" y2="-12.7" width="0.1524" layer="94"/>
<wire x1="7.112" y1="-15.24" x2="6.0452" y2="-14.732" width="0.1524" layer="94"/>
<wire x1="7.112" y1="-15.24" x2="6.0452" y2="-15.748" width="0.1524" layer="94"/>
<wire x1="5.5372" y1="-14.732" x2="4.4958" y2="-15.24" width="0.1524" layer="94"/>
<wire x1="5.5372" y1="-15.748" x2="4.4958" y2="-15.24" width="0.1524" layer="94"/>
<wire x1="7.112" y1="-17.78" x2="6.0452" y2="-17.272" width="0.1524" layer="94"/>
<wire x1="7.112" y1="-17.78" x2="6.0452" y2="-18.288" width="0.1524" layer="94"/>
<wire x1="5.5372" y1="-17.272" x2="4.4958" y2="-17.78" width="0.1524" layer="94"/>
<wire x1="5.5372" y1="-18.288" x2="4.4958" y2="-17.78" width="0.1524" layer="94"/>
<wire x1="7.112" y1="-20.32" x2="6.0452" y2="-19.812" width="0.1524" layer="94"/>
<wire x1="7.112" y1="-20.32" x2="6.0452" y2="-20.828" width="0.1524" layer="94"/>
<wire x1="5.5372" y1="-19.812" x2="4.4958" y2="-20.32" width="0.1524" layer="94"/>
<wire x1="5.5372" y1="-20.828" x2="4.4958" y2="-20.32" width="0.1524" layer="94"/>
<wire x1="86.868" y1="0" x2="87.9348" y2="0.508" width="0.1524" layer="94"/>
<wire x1="86.868" y1="0" x2="87.9348" y2="-0.508" width="0.1524" layer="94"/>
<wire x1="88.4428" y1="0.508" x2="89.4842" y2="0" width="0.1524" layer="94"/>
<wire x1="88.4428" y1="-0.508" x2="89.4842" y2="0" width="0.1524" layer="94"/>
<wire x1="86.868" y1="-2.54" x2="87.9348" y2="-2.032" width="0.1524" layer="94"/>
<wire x1="86.868" y1="-2.54" x2="87.9348" y2="-3.048" width="0.1524" layer="94"/>
<wire x1="88.4428" y1="-2.032" x2="89.4842" y2="-2.54" width="0.1524" layer="94"/>
<wire x1="88.4428" y1="-3.048" x2="89.4842" y2="-2.54" width="0.1524" layer="94"/>
<wire x1="86.868" y1="-5.08" x2="87.9348" y2="-4.572" width="0.1524" layer="94"/>
<wire x1="86.868" y1="-5.08" x2="87.9348" y2="-5.588" width="0.1524" layer="94"/>
<wire x1="88.4428" y1="-4.572" x2="89.4842" y2="-5.08" width="0.1524" layer="94"/>
<wire x1="88.4428" y1="-5.588" x2="89.4842" y2="-5.08" width="0.1524" layer="94"/>
<wire x1="86.868" y1="-7.62" x2="87.9348" y2="-7.112" width="0.1524" layer="94"/>
<wire x1="86.868" y1="-7.62" x2="87.9348" y2="-8.128" width="0.1524" layer="94"/>
<wire x1="88.4428" y1="-7.112" x2="89.4842" y2="-7.62" width="0.1524" layer="94"/>
<wire x1="88.4428" y1="-8.128" x2="89.4842" y2="-7.62" width="0.1524" layer="94"/>
<wire x1="86.868" y1="-10.16" x2="87.9348" y2="-9.652" width="0.1524" layer="94"/>
<wire x1="86.868" y1="-10.16" x2="87.9348" y2="-10.668" width="0.1524" layer="94"/>
<wire x1="88.4428" y1="-9.652" x2="89.4842" y2="-10.16" width="0.1524" layer="94"/>
<wire x1="88.4428" y1="-10.668" x2="89.4842" y2="-10.16" width="0.1524" layer="94"/>
<wire x1="86.868" y1="-12.7" x2="87.9348" y2="-12.192" width="0.1524" layer="94"/>
<wire x1="86.868" y1="-12.7" x2="87.9348" y2="-13.208" width="0.1524" layer="94"/>
<wire x1="88.4428" y1="-12.192" x2="89.4842" y2="-12.7" width="0.1524" layer="94"/>
<wire x1="88.4428" y1="-13.208" x2="89.4842" y2="-12.7" width="0.1524" layer="94"/>
<wire x1="86.868" y1="-15.24" x2="87.9348" y2="-14.732" width="0.1524" layer="94"/>
<wire x1="86.868" y1="-15.24" x2="87.9348" y2="-15.748" width="0.1524" layer="94"/>
<wire x1="88.4428" y1="-14.732" x2="89.4842" y2="-15.24" width="0.1524" layer="94"/>
<wire x1="88.4428" y1="-15.748" x2="89.4842" y2="-15.24" width="0.1524" layer="94"/>
<wire x1="86.868" y1="-17.78" x2="87.9348" y2="-17.272" width="0.1524" layer="94"/>
<wire x1="86.868" y1="-17.78" x2="87.9348" y2="-18.288" width="0.1524" layer="94"/>
<wire x1="88.4428" y1="-17.272" x2="89.4842" y2="-17.78" width="0.1524" layer="94"/>
<wire x1="88.4428" y1="-18.288" x2="89.4842" y2="-17.78" width="0.1524" layer="94"/>
<wire x1="7.112" y1="5.08" x2="7.112" y2="-25.4" width="0.1524" layer="94"/>
<wire x1="7.112" y1="-25.4" x2="7.112" y2="-27.94" width="0.1524" layer="94"/>
<wire x1="7.112" y1="-27.94" x2="7.112" y2="-30.48" width="0.1524" layer="94"/>
<wire x1="7.112" y1="-30.48" x2="7.112" y2="-35.56" width="0.1524" layer="94"/>
<wire x1="7.112" y1="-35.56" x2="86.868" y2="-35.56" width="0.1524" layer="94"/>
<wire x1="86.868" y1="-35.56" x2="86.868" y2="5.08" width="0.1524" layer="94"/>
<wire x1="86.868" y1="5.08" x2="7.112" y2="5.08" width="0.1524" layer="94"/>
<text x="7.9756" y="9.1186" size="2.0828" layer="95" ratio="6" rot="SR0">&gt;NAME</text>
<text x="8.0518" y="6.0706" size="2.0828" layer="96" ratio="6" rot="SR0">&gt;VALUE</text>
<wire x1="5.08" y1="-25.4" x2="7.112" y2="-25.4" width="0.1524" layer="94"/>
<wire x1="5.08" y1="-27.94" x2="7.112" y2="-27.94" width="0.1524" layer="94"/>
<wire x1="5.08" y1="-30.48" x2="7.112" y2="-30.48" width="0.1524" layer="94"/>
</symbol>
</symbols>
<devicesets>
<deviceset name="PIC18F14K50-E-SS" prefix="U">
<gates>
<gate name="A" symbol="PIC18F14K50-E-SS" x="0" y="0"/>
</gates>
<devices>
<device name="" package="PIC18F14K50-E/SS">
<connects>
<connect gate="A" pin="RA0/D+/PGD" pad="19"/>
<connect gate="A" pin="RA1/D-/PGC" pad="18"/>
<connect gate="A" pin="RA3/*MCLR/VPP" pad="4"/>
<connect gate="A" pin="RA4/AN3/OSC2/CLKOUT" pad="3"/>
<connect gate="A" pin="RA5/OSC1/CLKIN" pad="2"/>
<connect gate="A" pin="RB4/AN10/SDI/SDA" pad="13"/>
<connect gate="A" pin="RB5/AN11/RX/DT" pad="12"/>
<connect gate="A" pin="RB6/SCK/SCL" pad="11"/>
<connect gate="A" pin="RB7/TX/CK" pad="10"/>
<connect gate="A" pin="RC0/AN4/C12IN+/INT0/VREF+" pad="16"/>
<connect gate="A" pin="RC1/AN5/C12IN1-/INT1/VREFRC2/" pad="15"/>
<connect gate="A" pin="RC2/AN6/P1D/C12IN2-/CVREF/INT2" pad="14"/>
<connect gate="A" pin="RC3/AN7/P1C/C12IN3-/PGM" pad="7"/>
<connect gate="A" pin="RC4/P1B/C12OUT/SRQ" pad="6"/>
<connect gate="A" pin="RC5/CCP1/P1A/T0CKI" pad="5"/>
<connect gate="A" pin="RC6/AN8/*SS/T13CKI/T1OSCI" pad="8"/>
<connect gate="A" pin="RC7/AN9/SDO/T1OSCO" pad="9"/>
<connect gate="A" pin="VDD" pad="1"/>
<connect gate="A" pin="VSS" pad="20"/>
<connect gate="A" pin="VUSB" pad="17"/>
</connects>
<technologies>
<technology name=""/>
</technologies>
</device>
</devices>
</deviceset>
</devicesets>
</library>
</drawing>
</eagle>
