%!PS-Adobe-3.0 EPSF-3.0
%%Title: EAGLE Drawing D:/Diymicro.ru/Projects/HumTempBaby/PCB/MainBoard/MainBoard.brd
%%Creator: EAGLE
%%Pages: 1
%%BoundingBox: 0 0 292 144
%%EndComments

% Coordinate transfer:

/EU { 254 div 0.072 mul } def
/inch { 72 mul } def

% Linestyle:

1 setlinecap
1 setlinejoin

% Drawing functions:

/l {  % draw a line
   /lw exch def
   /y2 exch def
   /x2 exch def
   /y1 exch def
   /x1 exch def
   newpath
   x1 EU y1 EU moveto
   x2 EU y2 EU lineto
   lw EU setlinewidth
   stroke
   } def

/h {  % draw a hole
   /d  exch def
   /y  exch def
   /x  exch def
   d 0 gt {
     newpath
     x EU y EU d 2 div EU 0 360 arc
     currentgray dup
     1 exch sub setgray
     fill
     setgray
     } if
   } def

/b {  % draw a bar
   /an exch def
   /y2 exch def
   /x2 exch def
   /y1 exch def
   /x1 exch def
   /w2 x2 x1 sub 2 div EU def
   /h2 y2 y1 sub 2 div EU def
   gsave
   x1 x2 add 2 div EU y1 y2 add 2 div EU translate
   an rotate
   newpath
   w2     h2     moveto
   w2 neg h2     lineto
   w2 neg h2 neg lineto
   w2     h2 neg lineto
   closepath
   fill
   grestore
   } def

/c {  % draw a circle
   /lw exch def
   /rd exch def
   /y  exch def
   /x  exch def
   newpath
   lw EU setlinewidth
   x EU y EU rd EU 0 360 arc
   stroke
   } def

/a {  % draw an arc
   /lc exch def
   /ae exch def
   /as exch def
   /lw exch def
   /rd exch def
   /y  exch def
   /x  exch def
   lw rd 2 mul gt {
     /rd rd lw 2 div add 2 div def
     /lw rd 2 mul def
     } if
   currentlinecap currentlinejoin
   lc setlinecap 0 setlinejoin
   newpath
   lw EU setlinewidth
   x EU y EU rd EU as ae arc
   stroke
   setlinejoin setlinecap
   } def

/p {  % draw a pie
   /d exch def
   /y exch def
   /x exch def
   newpath
   x EU y EU d 2 div EU 0 360 arc
   fill
   } def

/edge { 0.20710678119 mul } def

/o {  % draw an octagon
   /an exch def
   /dy exch def
   /dx exch def
   /y  exch def
   /x  exch def
   gsave
   x EU y EU translate
   an dx dy lt { 90 add /dx dy /dy dx def def } if rotate
   newpath
      0 dx 2 div sub EU                    0 dy edge  add EU moveto
      0 dx dy sub 2 div sub dy edge sub EU 0 dy 2 div add EU lineto
      0 dx dy sub 2 div add dy edge add EU 0 dy 2 div add EU lineto
      0 dx 2 div add EU                    0 dy edge  add EU lineto
      0 dx 2 div add EU                    0 dy edge  sub EU lineto
      0 dx dy sub 2 div add dy edge add EU 0 dy 2 div sub EU lineto
      0 dx dy sub 2 div sub dy edge sub EU 0 dy 2 div sub EU lineto
      0 dx 2 div sub EU                    0 dy edge  sub EU lineto
   closepath
   fill
   grestore
   } def

-679450 298450 -660400 311150 180.0 b
-654050 311150 -641350 330200 180.0 b
-654050 279400 -641350 298450 180.0 b
-965200 342900 -914400 393700 180.0 b
-356362 254762 -364497 254762 1524 l
-364497 254762 -367209 257474 1524 l
-367209 257474 -364497 260185 1524 l
-364497 260185 -359074 260185 1524 l
-359074 260185 -356362 262897 1524 l
-356362 262897 -359074 265609 1524 l
-359074 265609 -367209 265609 1524 l
-375445 265609 -380869 265609 1524 l
-380869 265609 -383580 262897 1524 l
-383580 262897 -383580 254762 1524 l
-383580 254762 -375445 254762 1524 l
-375445 254762 -372734 257474 1524 l
-372734 257474 -375445 260185 1524 l
-375445 260185 -383580 260185 1524 l
-389105 254762 -389105 265609 1524 l
-389105 260185 -394528 265609 1524 l
-394528 265609 -397240 265609 1524 l
-408171 249339 -410883 249339 1524 l
-410883 249339 -413595 252050 1524 l
-413595 252050 -413595 265609 1524 l
-413595 265609 -405460 265609 1524 l
-405460 265609 -402748 262897 1524 l
-402748 262897 -402748 257474 1524 l
-402748 257474 -405460 254762 1524 l
-405460 254762 -413595 254762 1524 l
-427255 254762 -421831 254762 1524 l
-421831 254762 -419120 257474 1524 l
-419120 257474 -419120 262897 1524 l
-419120 262897 -421831 265609 1524 l
-421831 265609 -427255 265609 1524 l
-427255 265609 -429966 262897 1524 l
-429966 262897 -429966 260185 1524 l
-429966 260185 -419120 260185 1524 l
-446338 257474 -443626 254762 1524 l
-443626 254762 -438203 254762 1524 l
-438203 254762 -435491 257474 1524 l
-435491 257474 -435491 268320 1524 l
-435491 268320 -438203 271032 1524 l
-438203 271032 -443626 271032 1524 l
-443626 271032 -446338 268320 1524 l
-446338 268320 -446338 262897 1524 l
-446338 262897 -443626 260185 1524 l
-443626 260185 -438203 260185 1524 l
-438203 260185 -438203 265609 1524 l
-438203 265609 -443626 265609 1524 l
-443626 265609 -443626 260185 1524 l
-462709 271032 -462709 254762 1524 l
-462709 254762 -454574 254762 1524 l
-454574 254762 -451863 257474 1524 l
-451863 257474 -451863 262897 1524 l
-451863 262897 -454574 265609 1524 l
-454574 265609 -462709 265609 1524 l
-468234 265609 -470946 265609 1524 l
-470946 265609 -470946 254762 1524 l
-468234 254762 -473658 254762 1524 l
-470946 273744 -470946 271032 1524 l
-479149 265609 -479149 257474 1524 l
-479149 257474 -481860 254762 1524 l
-481860 254762 -489995 254762 1524 l
-489995 265609 -489995 252050 1524 l
-489995 252050 -487284 249339 1524 l
-487284 249339 -484572 249339 1524 l
-495520 254762 -495520 265609 1524 l
-495520 265609 -498232 265609 1524 l
-498232 265609 -500944 262897 1524 l
-500944 262897 -500944 254762 1524 l
-500944 262897 -503655 265609 1524 l
-503655 265609 -506367 262897 1524 l
-506367 262897 -506367 254762 1524 l
-511892 265609 -514603 265609 1524 l
-514603 265609 -514603 254762 1524 l
-511892 254762 -517315 254762 1524 l
-514603 273744 -514603 271032 1524 l
-533653 265609 -525518 265609 1524 l
-525518 265609 -522806 262897 1524 l
-522806 262897 -522806 257474 1524 l
-522806 257474 -525518 254762 1524 l
-525518 254762 -533653 254762 1524 l
-539178 254762 -539178 265609 1524 l
-539178 260185 -544601 265609 1524 l
-544601 265609 -547313 265609 1524 l
-555532 254762 -560956 254762 1524 l
-560956 254762 -563667 257474 1524 l
-563667 257474 -563667 262897 1524 l
-563667 262897 -560956 265609 1524 l
-560956 265609 -555532 265609 1524 l
-555532 265609 -552821 262897 1524 l
-552821 262897 -552821 257474 1524 l
-552821 257474 -555532 254762 1524 l
-569192 254762 -569192 257474 1524 l
-569192 257474 -571904 257474 1524 l
-571904 257474 -571904 254762 1524 l
-571904 254762 -569192 254762 1524 l
-577378 254762 -577378 265609 1524 l
-577378 260185 -582801 265609 1524 l
-582801 265609 -585513 265609 1524 l
-591021 265609 -591021 257474 1524 l
-591021 257474 -593733 254762 1524 l
-593733 254762 -601868 254762 1524 l
-601868 254762 -601868 265609 1524 l
-977900 482600 0 495300 180.0 b
-977900 0 -965200 482600 180.0 b
-965200 0 0 12700 180.0 b
-12700 12700 0 495300 180.0 b
-924497 266700 -942404 266700 17907 l
-924497 215900 -942404 215900 17907 l
-779860 254000 -794940 254000 15080 l
-779860 228600 -794940 228600 15080 l
-767160 101600 -782240 101600 15080 l
-767160 76200 -782240 76200 15080 l
-678260 101600 -693340 101600 15080 l
-678260 76200 -693340 76200 15080 l
-883400 352900 -883400 332900 20000 l
-944400 352900 -944400 332900 20000 l
-924400 390900 -904400 390900 20000 l
-718820 228600 -703580 228600 15240 l
-718820 254000 -703580 254000 15240 l
-718820 279400 -703580 279400 15240 l
-647700 317500 13208 13208 0.0 o
-666750 304800 13208 13208 0.0 o
-647700 292100 13208 13208 0.0 o
-657400 259200 -644400 274200 180.0 b
-676400 259200 -663400 274200 180.0 b
-679600 427500 -666600 442500 90.0 b
-679600 446500 -666600 461500 90.0 b
-603600 221600 -593600 235600 270.0 b
-625600 212100 -615600 226100 270.0 b
-625600 231100 -615600 245100 270.0 b
-720500 177000 -704500 204000 0.0 b
-692500 177000 -676500 204000 0.0 b
-655700 201100 -639700 228100 90.0 b
-655700 229100 -639700 256100 90.0 b
-641096 190500 -654304 190500 13208 l
-742696 190500 -755904 190500 13208 l
-159131 146685 -151511 158115 90.0 b
-159131 159385 -151511 170815 90.0 b
-159131 172085 -151511 183515 90.0 b
-159131 184785 -151511 196215 90.0 b
-159131 197485 -151511 208915 90.0 b
-159131 210185 -151511 221615 90.0 b
-159131 222885 -151511 234315 90.0 b
-159131 235585 -151511 247015 90.0 b
-159131 248285 -151511 259715 90.0 b
-254889 248285 -247269 259715 90.0 b
-254889 235585 -247269 247015 90.0 b
-254889 222885 -247269 234315 90.0 b
-254889 210185 -247269 221615 90.0 b
-254889 197485 -247269 208915 90.0 b
-254889 184785 -247269 196215 90.0 b
-254889 172085 -247269 183515 90.0 b
-254889 159385 -247269 170815 90.0 b
-254889 146685 -247269 158115 90.0 b
-516000 368800 -500000 395800 270.0 b
-516000 340800 -500000 367800 270.0 b
-527200 440200 -514200 455200 90.0 b
-527200 459200 -514200 474200 90.0 b
-949500 132200 -936500 147200 180.0 b
-968500 132200 -955500 147200 180.0 b
-482600 414020 -482600 398780 15240 l
-457200 414020 -457200 398780 15240 l
-431800 414020 -431800 398780 15240 l
-406400 414020 -406400 398780 15240 l
-381000 414020 -381000 398780 15240 l
-355600 414020 -355600 398780 15240 l
-350012 190500 -361188 190500 11176 l
-350012 139700 -361188 139700 11176 l
-390700 183000 -377700 198000 180.0 b
-409700 183000 -396700 198000 180.0 b
-390700 132200 -377700 147200 180.0 b
-409700 132200 -396700 147200 180.0 b
-312340 76200 -297260 76200 15080 l
-312340 101600 -297260 101600 15080 l
-43180 381000 -58420 381000 15240 l
-43180 355600 -58420 355600 15240 l
-43180 330200 -58420 330200 15240 l
-43180 304800 -58420 304800 15240 l
-43180 279400 -58420 279400 15240 l
-43180 254000 -58420 254000 15240 l
-241300 414020 -241300 398780 15240 l
-215900 414020 -215900 398780 15240 l
-190500 414020 -190500 398780 15240 l
-165100 414020 -165100 398780 15240 l
-222600 431000 -206600 458000 180.0 b
-250600 431000 -234600 458000 180.0 b
-830660 152400 -845740 152400 15080 l
-830660 127000 -845740 127000 15080 l
-939800 38100 50000 p
-38100 38100 50000 p
-939800 12700 -774700 12700 8128 l
-774700 12700 -685800 12700 8128 l
-685800 12700 -584200 12700 8128 l
-584200 12700 -12700 12700 8128 l
-12700 12700 -12700 203200 8128 l
-12700 203200 -12700 482600 8128 l
-12700 482600 -165100 482600 8128 l
-165100 482600 -431800 482600 8128 l
-431800 482600 -520700 482600 8128 l
-520700 482600 -673100 482600 8128 l
-673100 482600 -965200 482600 8128 l
-787400 228600 -787400 203200 8128 l
-787400 203200 -812800 177800 8128 l
-812800 177800 -914400 177800 8128 l
-933450 215900 -933450 196850 8128 l
-933450 196850 -914400 177800 8128 l
-685800 76200 -685800 12700 8128 l
-774700 76200 -774700 12700 8128 l
-939800 12700 -965200 38100 8128 l
-965200 38100 -965200 152400 8128 l
-965200 152400 -965200 215900 8128 l
-965200 215900 -933450 215900 8128 l
-666750 304800 -666750 273050 8128 l
-666750 273050 -673100 266700 8128 l
-673100 266700 -679450 260350 4064 l
-679450 260350 -679450 228600 4064 l
-679450 228600 -698500 209550 4064 l
-698500 209550 -698500 165100 4064 l
-812800 177800 -787400 152400 8128 l
-787400 152400 -711200 152400 8128 l
-711200 152400 -698500 165100 8128 l
-962000 139700 -962000 149200 8128 l
-962000 149200 -965200 152400 8128 l
-165100 406400 -165100 482600 8128 l
-431800 406400 -431800 482600 8128 l
-520700 466700 -520700 482600 8128 l
-403200 190500 -403200 139700 8128 l
-673100 454000 -673100 482600 8128 l
-403200 190500 -558800 190500 8128 l
-558800 190500 -584200 165100 8128 l
-584200 165100 -584200 12700 8128 l
-12700 203200 -25400 203200 8128 l
-25400 203200 20000 p
-155321 203200 -133350 203200 8128 l
-133350 203200 20000 p
-944400 342900 -965200 342900 8128 l
-965200 342900 -965200 393700 8128 l
-965200 393700 -965200 482600 8128 l
-914400 390900 -962400 390900 8128 l
-962400 390900 -965200 393700 8128 l
-965200 215900 -965200 342900 8128 l
-403200 153804 -403200 139700 8128 l
-403200 139700 -403200 139700 8128 l
-403200 139700 -403200 153804 8128 l
-403200 153804 -401023 153804 8128 l
-401023 153804 -400927 154034 8128 l
-400927 154034 -397534 157427 8128 l
-397534 157427 -393100 159264 8128 l
-393100 159264 -375300 159264 8128 l
-375300 159264 -370866 157427 8128 l
-370866 157427 -369267 155828 8128 l
-369267 155828 -368378 155828 8128 l
-368378 155828 -364699 157352 8128 l
-364699 157352 -346501 157352 8128 l
-346501 157352 -342822 155828 8128 l
-342822 155828 -326131 155828 8128 l
-326131 155828 -313769 174372 8128 l
-313769 174372 -342822 174372 8128 l
-342822 174372 -346501 172848 8128 l
-346501 172848 -364699 172848 8128 l
-364699 172848 -368378 174372 8128 l
-368378 174372 -369267 174372 8128 l
-369267 174372 -370866 172773 8128 l
-370866 172773 -375300 170936 8128 l
-375300 170936 -393100 170936 8128 l
-393100 170936 -397534 172773 8128 l
-397534 172773 -400927 176166 8128 l
-400927 176166 -401023 176396 8128 l
-401023 176396 -403200 176396 8128 l
-403200 176396 -403200 190500 8128 l
-403200 190500 -403200 190500 8128 l
-403200 190500 -403200 176396 8128 l
-403200 176396 -410350 176396 8128 l
-410350 176396 -411626 176650 8128 l
-411626 176650 -412828 177148 8128 l
-412828 177148 -413910 177870 8128 l
-413910 177870 -414830 178790 8128 l
-414830 178790 -415552 179872 8128 l
-415552 179872 -416050 181074 8128 l
-416050 181074 -416304 182350 8128 l
-416304 182350 -416304 190500 8128 l
-416304 190500 -403200 190500 8128 l
-403200 190500 -403200 190500 8128 l
-403200 190500 -416304 190500 8128 l
-416304 190500 -416304 198650 8128 l
-416304 198650 -416081 199772 8128 l
-416081 199772 -582472 199772 8128 l
-582472 199772 -582472 122092 8128 l
-582472 122092 -584927 116164 8128 l
-584927 116164 -589464 111627 8128 l
-589464 111627 -589464 111627 8128 l
-589464 111627 -608627 92464 8128 l
-608627 92464 -608627 92464 8128 l
-608627 92464 -613164 87927 8128 l
-613164 87927 -619092 85472 8128 l
-619092 85472 -666664 85472 8128 l
-666664 85472 -667155 84981 8128 l
-667155 84981 -667156 84980 8128 l
-667156 84980 -666163 83613 8128 l
-666163 83613 -665152 81629 8128 l
-665152 81629 -664464 79512 8128 l
-664464 79512 -664116 77313 8128 l
-664116 77313 -664116 76200 8128 l
-664116 76200 -685800 76200 8128 l
-685800 76200 -685800 76200 8128 l
-685800 76200 -664116 76200 8128 l
-664116 76200 -664116 75087 8128 l
-664116 75087 -664464 72888 8128 l
-664464 72888 -665152 70771 8128 l
-665152 70771 -666163 68787 8128 l
-666163 68787 -667472 66986 8128 l
-667472 66986 -669046 65412 8128 l
-669046 65412 -670847 64103 8128 l
-670847 64103 -672831 63092 8128 l
-672831 63092 -674948 62404 8128 l
-674948 62404 -677147 62056 8128 l
-677147 62056 -685800 62056 8128 l
-685800 62056 -685800 76200 8128 l
-685800 76200 -685800 76200 8128 l
-685800 76200 -685800 62056 8128 l
-685800 62056 -694453 62056 8128 l
-694453 62056 -696652 62404 8128 l
-696652 62404 -698769 63092 8128 l
-698769 63092 -700753 64103 8128 l
-700753 64103 -702554 65412 8128 l
-702554 65412 -704128 66986 8128 l
-704128 66986 -705437 68787 8128 l
-705437 68787 -706448 70771 8128 l
-706448 70771 -707136 72888 8128 l
-707136 72888 -707484 75087 8128 l
-707484 75087 -707484 76200 8128 l
-707484 76200 -685800 76200 8128 l
-685800 76200 -685800 76200 8128 l
-685800 76200 -707484 76200 8128 l
-707484 76200 -707484 77313 8128 l
-707484 77313 -707136 79512 8128 l
-707136 79512 -706448 81629 8128 l
-706448 81629 -705437 83613 8128 l
-705437 83613 -704444 84980 8128 l
-704444 84980 -704445 84981 8128 l
-704445 84981 -704936 85472 8128 l
-704936 85472 -755564 85472 8128 l
-755564 85472 -756055 84981 8128 l
-756055 84981 -756056 84980 8128 l
-756056 84980 -755063 83613 8128 l
-755063 83613 -754052 81629 8128 l
-754052 81629 -753364 79512 8128 l
-753364 79512 -753016 77313 8128 l
-753016 77313 -753016 76200 8128 l
-753016 76200 -774700 76200 8128 l
-774700 76200 -774700 76200 8128 l
-774700 76200 -753016 76200 8128 l
-753016 76200 -753016 75087 8128 l
-753016 75087 -753364 72888 8128 l
-753364 72888 -754052 70771 8128 l
-754052 70771 -755063 68787 8128 l
-755063 68787 -756372 66986 8128 l
-756372 66986 -757946 65412 8128 l
-757946 65412 -759747 64103 8128 l
-759747 64103 -761731 63092 8128 l
-761731 63092 -763848 62404 8128 l
-763848 62404 -766047 62056 8128 l
-766047 62056 -774700 62056 8128 l
-774700 62056 -774700 76200 8128 l
-774700 76200 -774700 76200 8128 l
-774700 76200 -774700 62056 8128 l
-774700 62056 -783353 62056 8128 l
-783353 62056 -785552 62404 8128 l
-785552 62404 -787669 63092 8128 l
-787669 63092 -789653 64103 8128 l
-789653 64103 -791454 65412 8128 l
-791454 65412 -793028 66986 8128 l
-793028 66986 -794337 68787 8128 l
-794337 68787 -795348 70771 8128 l
-795348 70771 -796036 72888 8128 l
-796036 72888 -796384 75087 8128 l
-796384 75087 -796384 76200 8128 l
-796384 76200 -774700 76200 8128 l
-774700 76200 -774700 76200 8128 l
-774700 76200 -796384 76200 8128 l
-796384 76200 -796384 77313 8128 l
-796384 77313 -796036 79512 8128 l
-796036 79512 -795348 81629 8128 l
-795348 81629 -794337 83613 8128 l
-794337 83613 -793344 84980 8128 l
-793344 84980 -793345 84981 8128 l
-793345 84981 -793836 85472 8128 l
-793836 85472 -866808 85472 8128 l
-866808 85472 -872736 87927 8128 l
-872736 87927 -885436 100627 8128 l
-885436 100627 -889973 105164 8128 l
-889973 105164 -892428 111092 8128 l
-892428 111092 -892428 123572 8128 l
-892428 123572 -928067 123572 8128 l
-928067 123572 -929666 121973 8128 l
-929666 121973 -934100 120136 8128 l
-934100 120136 -951900 120136 8128 l
-951900 120136 -953136 120648 8128 l
-953136 120648 -953136 24764 8128 l
-953136 24764 -24764 24764 8128 l
-24764 24764 -24764 247024 8128 l
-24764 247024 -26493 242850 8128 l
-26493 242850 -32030 237313 8128 l
-32030 237313 -34672 236218 8128 l
-34672 236218 -34672 199992 8128 l
-34672 199992 -37127 194064 8128 l
-37127 194064 -104936 126256 8128 l
-104936 126256 -104936 122611 8128 l
-104936 122611 -108295 114502 8128 l
-108295 114502 -114502 108295 8128 l
-114502 108295 -122611 104936 8128 l
-122611 104936 -131389 104936 8128 l
-131389 104936 -139498 108295 8128 l
-139498 108295 -145705 114502 8128 l
-145705 114502 -149064 122611 8128 l
-149064 122611 -149064 131389 8128 l
-149064 131389 -147041 136272 8128 l
-147041 136272 -158529 136272 8128 l
-158529 136272 -159142 136526 8128 l
-159142 136526 -163436 136526 8128 l
-163436 136526 -167870 138363 8128 l
-167870 138363 -171263 141756 8128 l
-171263 141756 -173100 146190 8128 l
-173100 146190 -173100 158610 8128 l
-173100 158610 -173042 158750 8128 l
-173042 158750 -173100 158890 8128 l
-173100 158890 -173100 171310 8128 l
-173100 171310 -173042 171450 8128 l
-173042 171450 -173100 171590 8128 l
-173100 171590 -173100 174372 8128 l
-173100 174372 -193708 174372 8128 l
-193708 174372 -199636 176827 8128 l
-199636 176827 -199772 176964 8128 l
-199772 176964 -199772 98392 8128 l
-199772 98392 -202227 92464 8128 l
-202227 92464 -206764 87927 8128 l
-206764 87927 -232164 62527 8128 l
-232164 62527 -238092 60072 8128 l
-238092 60072 -285664 60072 8128 l
-285664 60072 -286155 59581 8128 l
-286155 59581 -293361 56596 8128 l
-293361 56596 -316239 56596 8128 l
-316239 56596 -323445 59581 8128 l
-323445 59581 -328959 65095 8128 l
-328959 65095 -331944 72301 8128 l
-331944 72301 -331944 80099 8128 l
-331944 80099 -328959 87305 8128 l
-328959 87305 -327364 88900 8128 l
-327364 88900 -328959 90495 8128 l
-328959 90495 -331944 97701 8128 l
-331944 97701 -331944 102448 8128 l
-331944 102448 -341927 92464 8128 l
-341927 92464 -346464 87927 8128 l
-346464 87927 -352392 85472 8128 l
-352392 85472 -519120 85472 8128 l
-519120 85472 -520717 85156 8128 l
-520717 85156 -522297 85472 8128 l
-522297 85472 -523908 85472 8128 l
-523908 85472 -525412 86095 8128 l
-525412 86095 -527009 86414 8128 l
-527009 86414 -528347 87311 8128 l
-528347 87311 -529836 87927 8128 l
-529836 87927 -530987 89079 8128 l
-530987 89079 -532340 89985 8128 l
-532340 89985 -533233 91325 8128 l
-533233 91325 -534373 92464 8128 l
-534373 92464 -534996 93968 8128 l
-534996 93968 -551561 118817 8128 l
-551561 118817 -554411 117636 8128 l
-554411 117636 -563189 117636 8128 l
-563189 117636 -571298 120995 8128 l
-571298 120995 -577505 127202 8128 l
-577505 127202 -580864 135311 8128 l
-580864 135311 -580864 144089 8128 l
-580864 144089 -577505 152198 8128 l
-577505 152198 -571298 158405 8128 l
-571298 158405 -563189 161764 8128 l
-563189 161764 -554411 161764 8128 l
-554411 161764 -546302 158405 8128 l
-546302 158405 -543725 155828 8128 l
-543725 155828 -542892 155828 8128 l
-542892 155828 -541388 155205 8128 l
-541388 155205 -539791 154886 8128 l
-539791 154886 -538453 153989 8128 l
-538453 153989 -536964 153373 8128 l
-536964 153373 -535813 152221 8128 l
-535813 152221 -534460 151315 8128 l
-534460 151315 -533567 149975 8128 l
-533567 149975 -532427 148836 8128 l
-532427 148836 -531804 147332 8128 l
-531804 147332 -512069 117728 8128 l
-512069 117728 -362280 117728 8128 l
-362280 117728 -357960 122048 8128 l
-357960 122048 -364699 122048 8128 l
-364699 122048 -368378 123572 8128 l
-368378 123572 -369267 123572 8128 l
-369267 123572 -370866 121973 8128 l
-370866 121973 -375300 120136 8128 l
-375300 120136 -393100 120136 8128 l
-393100 120136 -397534 121973 8128 l
-397534 121973 -400927 125366 8128 l
-400927 125366 -401023 125596 8128 l
-401023 125596 -403200 125596 8128 l
-403200 125596 -403200 139700 8128 l
-403200 139700 -403200 139700 8128 l
-403200 139700 -403200 125596 8128 l
-403200 125596 -410350 125596 8128 l
-410350 125596 -411626 125850 8128 l
-411626 125850 -412828 126348 8128 l
-412828 126348 -413910 127070 8128 l
-413910 127070 -414830 127990 8128 l
-414830 127990 -415552 129072 8128 l
-415552 129072 -416050 130274 8128 l
-416050 130274 -416304 131550 8128 l
-416304 131550 -416304 139700 8128 l
-416304 139700 -403200 139700 8128 l
-403200 139700 -403200 139700 8128 l
-403200 139700 -416304 139700 8128 l
-416304 139700 -416304 147850 8128 l
-416304 147850 -416050 149126 8128 l
-416050 149126 -415552 150328 8128 l
-415552 150328 -414830 151410 8128 l
-414830 151410 -413910 152330 8128 l
-413910 152330 -412828 153052 8128 l
-412828 153052 -411626 153550 8128 l
-411626 153550 -410350 153804 8128 l
-410350 153804 -403200 153804 8128 l
-69570 397687 -62335 400684 8128 l
-62335 400684 -39265 400684 8128 l
-39265 400684 -32030 397687 8128 l
-32030 397687 -26493 392150 8128 l
-26493 392150 -24764 387976 8128 l
-24764 387976 -24764 422402 8128 l
-24764 422402 -33220 420136 8128 l
-33220 420136 -42980 420136 8128 l
-42980 420136 -52406 422662 8128 l
-52406 422662 -60858 427541 8128 l
-60858 427541 -67759 434442 8128 l
-67759 434442 -72638 442894 8128 l
-72638 442894 -75164 452320 8128 l
-75164 452320 -75164 462080 8128 l
-75164 462080 -72898 470536 8128 l
-72898 470536 -320728 470536 8128 l
-320728 470536 -316527 466336 8128 l
-316527 466336 -292100 441908 8128 l
-292100 441908 -275836 458173 8128 l
-275836 458173 -269908 460628 8128 l
-269908 460628 -262569 460628 8128 l
-262569 460628 -260827 464834 8128 l
-260827 464834 -257434 468227 8128 l
-257434 468227 -253000 470064 8128 l
-253000 470064 -232200 470064 8128 l
-232200 470064 -228600 468573 8128 l
-228600 468573 -225000 470064 8128 l
-225000 470064 -204200 470064 8128 l
-204200 470064 -199766 468227 8128 l
-199766 468227 -196373 464834 8128 l
-196373 464834 -194536 460400 8128 l
-194536 460400 -194536 433654 8128 l
-194536 433654 -194415 433704 8128 l
-194415 433704 -186585 433704 8128 l
-186585 433704 -179350 430707 8128 l
-179350 430707 -173872 425229 8128 l
-173872 425229 -172555 426185 8128 l
-172555 426185 -170560 427202 8128 l
-170560 427202 -168431 427894 8128 l
-168431 427894 -166219 428244 8128 l
-166219 428244 -165100 428244 8128 l
-165100 428244 -165100 406400 8128 l
-165100 406400 -165100 406400 8128 l
-165100 406400 -165100 428244 8128 l
-165100 428244 -163981 428244 8128 l
-163981 428244 -161769 427894 8128 l
-161769 427894 -159640 427202 8128 l
-159640 427202 -157645 426185 8128 l
-157645 426185 -155834 424869 8128 l
-155834 424869 -154251 423286 8128 l
-154251 423286 -152935 421475 8128 l
-152935 421475 -151918 419480 8128 l
-151918 419480 -151226 417351 8128 l
-151226 417351 -150876 415139 8128 l
-150876 415139 -150876 406400 8128 l
-150876 406400 -165100 406400 8128 l
-165100 406400 -165100 406400 8128 l
-165100 406400 -150876 406400 8128 l
-150876 406400 -150876 397661 8128 l
-150876 397661 -151226 395449 8128 l
-151226 395449 -151918 393320 8128 l
-151918 393320 -152935 391325 8128 l
-152935 391325 -154251 389514 8128 l
-154251 389514 -155834 387931 8128 l
-155834 387931 -157645 386615 8128 l
-157645 386615 -159640 385598 8128 l
-159640 385598 -161769 384906 8128 l
-161769 384906 -163981 384556 8128 l
-163981 384556 -165100 384556 8128 l
-165100 384556 -165100 406400 8128 l
-165100 406400 -165100 406400 8128 l
-165100 406400 -165100 384556 8128 l
-165100 384556 -166219 384556 8128 l
-166219 384556 -168431 384906 8128 l
-168431 384906 -170560 385598 8128 l
-170560 385598 -172555 386615 8128 l
-172555 386615 -173872 387571 8128 l
-173872 387571 -179350 382093 8128 l
-179350 382093 -186585 379096 8128 l
-186585 379096 -194415 379096 8128 l
-194415 379096 -199772 381315 8128 l
-199772 381315 -199772 362280 8128 l
-199772 362280 -170433 332941 8128 l
-170433 332941 -168994 336415 8128 l
-168994 336415 -115273 390136 8128 l
-115273 390136 -110736 394673 8128 l
-110736 394673 -104808 397128 8128 l
-104808 397128 -70129 397128 8128 l
-70129 397128 -69570 397687 8128 l
-137542 212472 -137542 209690 8128 l
-137542 209690 -139379 205256 8128 l
-139379 205256 -141435 203200 8128 l
-141435 203200 -139379 201144 8128 l
-139379 201144 -137542 196710 8128 l
-137542 196710 -137542 190066 8128 l
-137542 190066 -117728 209880 8128 l
-117728 209880 -117728 215064 8128 l
-117728 215064 -117864 214927 8128 l
-117864 214927 -123792 212472 8128 l
-123792 212472 -130208 212472 8128 l
-130208 212472 -137542 212472 8128 l
-669900 280804 -669900 266700 8128 l
-669900 266700 -669900 266700 8128 l
-669900 266700 -669900 280804 8128 l
-669900 280804 -667723 280804 8128 l
-667723 280804 -667627 281034 8128 l
-667627 281034 -666114 282547 8128 l
-666114 282547 -666114 284113 8128 l
-666114 284113 -666368 284367 8128 l
-666368 284367 -666368 286386 8128 l
-666368 286386 -681850 286386 8128 l
-681850 286386 -685855 288045 8128 l
-685855 288045 -683896 283315 8128 l
-683896 283315 -683896 275485 8128 l
-683896 275485 -686893 268250 8128 l
-686893 268250 -688443 266700 8128 l
-688443 266700 -686893 265150 8128 l
-686893 265150 -683896 257915 8128 l
-683896 257915 -683896 250085 8128 l
-683896 250085 -686893 242850 8128 l
-686893 242850 -688443 241300 8128 l
-688443 241300 -686893 239750 8128 l
-686893 239750 -683896 232515 8128 l
-683896 232515 -683896 224685 8128 l
-683896 224685 -686893 217450 8128 l
-686893 217450 -688279 216064 8128 l
-688279 216064 -674100 216064 8128 l
-674100 216064 -673264 215718 8128 l
-673264 215718 -673264 225000 8128 l
-673264 225000 -671773 228600 8128 l
-671773 228600 -673264 232200 8128 l
-673264 232200 -673264 252596 8128 l
-673264 252596 -677050 252596 8128 l
-677050 252596 -678326 252850 8128 l
-678326 252850 -679528 253348 8128 l
-679528 253348 -680610 254070 8128 l
-680610 254070 -681530 254990 8128 l
-681530 254990 -682252 256072 8128 l
-682252 256072 -682750 257274 8128 l
-682750 257274 -683004 258550 8128 l
-683004 258550 -683004 266700 8128 l
-683004 266700 -669900 266700 8128 l
-669900 266700 -669900 266700 8128 l
-669900 266700 -683004 266700 8128 l
-683004 266700 -683004 274850 8128 l
-683004 274850 -682750 276126 8128 l
-682750 276126 -682252 277328 8128 l
-682252 277328 -681530 278410 8128 l
-681530 278410 -680610 279330 8128 l
-680610 279330 -679528 280052 8128 l
-679528 280052 -678326 280550 8128 l
-678326 280550 -677050 280804 8128 l
-677050 280804 -669900 280804 8128 l
-773727 288536 -771272 282608 8128 l
-771272 282608 -771272 271662 8128 l
-771272 271662 -768755 270619 8128 l
-768755 270619 -768264 270128 8128 l
-768264 270128 -736285 270128 8128 l
-736285 270128 -738504 275485 8128 l
-738504 275485 -738504 283315 8128 l
-738504 283315 -735507 290550 8128 l
-735507 290550 -729970 296087 8128 l
-729970 296087 -727328 297182 8128 l
-727328 297182 -727328 320708 8128 l
-727328 320708 -724873 326636 8128 l
-724873 326636 -720336 331173 8128 l
-720336 331173 -707636 343873 8128 l
-707636 343873 -701708 346328 8128 l
-701708 346328 -689228 346328 8128 l
-689228 346328 -689228 420067 8128 l
-689228 420067 -690827 421666 8128 l
-690827 421666 -692664 426100 8128 l
-692664 426100 -692664 443900 8128 l
-692664 443900 -690827 448334 8128 l
-690827 448334 -687434 451727 8128 l
-687434 451727 -687204 451823 8128 l
-687204 451823 -687204 454000 8128 l
-687204 454000 -673100 454000 8128 l
-673100 454000 -673100 454000 8128 l
-673100 454000 -687204 454000 8128 l
-687204 454000 -687204 461150 8128 l
-687204 461150 -686950 462426 8128 l
-686950 462426 -686452 463628 8128 l
-686452 463628 -685730 464710 8128 l
-685730 464710 -684810 465630 8128 l
-684810 465630 -683728 466352 8128 l
-683728 466352 -682526 466850 8128 l
-682526 466850 -681250 467104 8128 l
-681250 467104 -673100 467104 8128 l
-673100 467104 -673100 454000 8128 l
-673100 454000 -673100 454000 8128 l
-673100 454000 -673100 467104 8128 l
-673100 467104 -664950 467104 8128 l
-664950 467104 -663674 466850 8128 l
-663674 466850 -662472 466352 8128 l
-662472 466352 -661390 465630 8128 l
-661390 465630 -660470 464710 8128 l
-660470 464710 -659748 463628 8128 l
-659748 463628 -659250 462426 8128 l
-659250 462426 -658996 461150 8128 l
-658996 461150 -658996 454000 8128 l
-658996 454000 -673100 454000 8128 l
-673100 454000 -673100 454000 8128 l
-673100 454000 -658996 454000 8128 l
-658996 454000 -658996 451823 8128 l
-658996 451823 -658766 451727 8128 l
-658766 451727 -655373 448334 8128 l
-655373 448334 -653536 443900 8128 l
-653536 443900 -653536 426100 8128 l
-653536 426100 -655373 421666 8128 l
-655373 421666 -656972 420067 8128 l
-656972 420067 -656972 346237 8128 l
-656972 346237 -651264 343873 8128 l
-651264 343873 -649656 342264 8128 l
-649656 342264 -638950 342264 8128 l
-638950 342264 -634516 340427 8128 l
-634516 340427 -631123 337034 8128 l
-631123 337034 -629712 333628 8128 l
-629712 333628 -619092 333628 8128 l
-619092 333628 -613164 331173 8128 l
-613164 331173 -608627 326636 8128 l
-608627 326636 -590220 308228 8128 l
-590220 308228 -514680 308228 8128 l
-514680 308228 -484736 338172 8128 l
-484736 338172 -485567 338172 8128 l
-485567 338172 -487666 336073 8128 l
-487666 336073 -492100 334236 8128 l
-492100 334236 -523900 334236 8128 l
-523900 334236 -528334 336073 8128 l
-528334 336073 -531727 339466 8128 l
-531727 339466 -533564 343900 8128 l
-533564 343900 -533564 364700 8128 l
-533564 364700 -532073 368300 8128 l
-532073 368300 -533564 371900 8128 l
-533564 371900 -533564 392700 8128 l
-533564 392700 -532464 395356 8128 l
-532464 395356 -534373 397264 8128 l
-534373 397264 -536828 403192 8128 l
-536828 403192 -536828 432767 8128 l
-536828 432767 -538427 434366 8128 l
-538427 434366 -540264 438800 8128 l
-540264 438800 -540264 456600 8128 l
-540264 456600 -538427 461034 8128 l
-538427 461034 -535034 464427 8128 l
-535034 464427 -534804 464523 8128 l
-534804 464523 -534804 466700 8128 l
-534804 466700 -520700 466700 8128 l
-520700 466700 -520700 466700 8128 l
-520700 466700 -534804 466700 8128 l
-534804 466700 -534804 470536 8128 l
-534804 470536 -905002 470536 8128 l
-905002 470536 -902736 462080 8128 l
-902736 462080 -902736 452320 8128 l
-902736 452320 -905262 442894 8128 l
-905262 442894 -910141 434442 8128 l
-910141 434442 -917042 427541 8128 l
-917042 427541 -925494 422662 8128 l
-925494 422662 -934920 420136 8128 l
-934920 420136 -944680 420136 8128 l
-944680 420136 -953136 422402 8128 l
-953136 422402 -953136 405764 8128 l
-953136 405764 -931863 405764 8128 l
-931863 405764 -931760 405824 8128 l
-931760 405824 -929749 406657 8128 l
-929749 406657 -927646 407220 8128 l
-927646 407220 -925488 407504 8128 l
-925488 407504 -914400 407504 8128 l
-914400 407504 -914400 405764 8128 l
-914400 405764 -914400 405764 8128 l
-914400 405764 -914400 407504 8128 l
-914400 407504 -903312 407504 8128 l
-903312 407504 -901154 407220 8128 l
-901154 407220 -899051 406657 8128 l
-899051 406657 -897040 405824 8128 l
-897040 405824 -895156 404735 8128 l
-895156 404735 -893429 403410 8128 l
-893429 403410 -891890 401871 8128 l
-891890 401871 -890565 400144 8128 l
-890565 400144 -889476 398260 8128 l
-889476 398260 -888643 396249 8128 l
-888643 396249 -888080 394146 8128 l
-888080 394146 -887796 391988 8128 l
-887796 391988 -887796 390900 8128 l
-887796 390900 -902336 390900 8128 l
-902336 390900 -902336 390900 8128 l
-902336 390900 -887796 390900 8128 l
-887796 390900 -887796 389812 8128 l
-887796 389812 -888080 387654 8128 l
-888080 387654 -888643 385551 8128 l
-888643 385551 -889476 383540 8128 l
-889476 383540 -890565 381656 8128 l
-890565 381656 -891890 379929 8128 l
-891890 379929 -893429 378390 8128 l
-893429 378390 -895156 377065 8128 l
-895156 377065 -897040 375976 8128 l
-897040 375976 -899051 375143 8128 l
-899051 375143 -901154 374580 8128 l
-901154 374580 -902336 374424 8128 l
-902336 374424 -902336 364840 8128 l
-902336 364840 -902105 365398 8128 l
-902105 365398 -895898 371605 8128 l
-895898 371605 -887789 374964 8128 l
-887789 374964 -879011 374964 8128 l
-879011 374964 -870902 371605 8128 l
-870902 371605 -864695 365398 8128 l
-864695 365398 -861336 357289 8128 l
-861336 357289 -861336 328511 8128 l
-861336 328511 -864477 320928 8128 l
-864477 320928 -809592 320928 8128 l
-809592 320928 -803664 318473 8128 l
-803664 318473 -799127 313936 8128 l
-799127 313936 -773727 288536 8128 l
-902323 320928 -905464 328511 8128 l
-905464 328511 -905464 334775 8128 l
-905464 334775 -907566 332673 8128 l
-907566 332673 -912000 330836 8128 l
-912000 330836 -927924 330836 8128 l
-927924 330836 -928080 329654 8128 l
-928080 329654 -928643 327551 8128 l
-928643 327551 -929476 325540 8128 l
-929476 325540 -930565 323656 8128 l
-930565 323656 -931890 321929 8128 l
-931890 321929 -933429 320390 8128 l
-933429 320390 -935156 319065 8128 l
-935156 319065 -937040 317976 8128 l
-937040 317976 -939051 317143 8128 l
-939051 317143 -941154 316580 8128 l
-941154 316580 -943312 316296 8128 l
-943312 316296 -944400 316296 8128 l
-944400 316296 -944400 330836 8128 l
-944400 330836 -944400 330836 8128 l
-944400 330836 -944400 316296 8128 l
-944400 316296 -945488 316296 8128 l
-945488 316296 -947646 316580 8128 l
-947646 316580 -949749 317143 8128 l
-949749 317143 -951760 317976 8128 l
-951760 317976 -953136 318771 8128 l
-953136 318771 -953136 285004 8128 l
-953136 285004 -949578 286477 8128 l
-949578 286477 -949578 288958 8128 l
-949578 288958 -947123 294886 8128 l
-947123 294886 -923536 318473 8128 l
-923536 318473 -917608 320928 8128 l
-917608 320928 -911192 320928 8128 l
-911192 320928 -902323 320928 8128 l
-809084 227487 -809084 228600 8128 l
-809084 228600 -787400 228600 8128 l
-787400 228600 -787400 228600 8128 l
-787400 228600 -809084 228600 8128 l
-809084 228600 -809084 229713 8128 l
-809084 229713 -808736 231912 8128 l
-808736 231912 -808048 234029 8128 l
-808048 234029 -807037 236013 8128 l
-807037 236013 -806044 237380 8128 l
-806044 237380 -806045 237381 8128 l
-806045 237381 -811559 242895 8128 l
-811559 242895 -814544 250101 8128 l
-814544 250101 -814544 257899 8128 l
-814544 257899 -811559 265105 8128 l
-811559 265105 -806045 270619 8128 l
-806045 270619 -803528 271662 8128 l
-803528 271662 -803528 272720 8128 l
-803528 272720 -819480 288672 8128 l
-819480 288672 -841528 288672 8128 l
-841528 288672 -838679 285823 8128 l
-838679 285823 -834578 278721 8128 l
-834578 278721 -832456 270800 8128 l
-832456 270800 -832456 262600 8128 l
-832456 262600 -834578 254679 8128 l
-834578 254679 -838679 247577 8128 l
-838679 247577 -844477 241779 8128 l
-844477 241779 -845306 241300 8128 l
-845306 241300 -844477 240821 8128 l
-844477 240821 -838679 235023 8128 l
-838679 235023 -834578 227921 8128 l
-834578 227921 -832456 220000 8128 l
-832456 220000 -832456 211800 8128 l
-832456 211800 -834578 203879 8128 l
-834578 203879 -838679 196777 8128 l
-838679 196777 -844477 190979 8128 l
-844477 190979 -851579 186878 8128 l
-851579 186878 -859500 184756 8128 l
-859500 184756 -867700 184756 8128 l
-867700 184756 -875621 186878 8128 l
-875621 186878 -882723 190979 8128 l
-882723 190979 -888521 196777 8128 l
-888521 196777 -892622 203879 8128 l
-892622 203879 -894744 211800 8128 l
-894744 211800 -894744 220000 8128 l
-894744 220000 -892622 227921 8128 l
-892622 227921 -888521 235023 8128 l
-888521 235023 -882723 240821 8128 l
-882723 240821 -881894 241300 8128 l
-881894 241300 -882723 241779 8128 l
-882723 241779 -888521 247577 8128 l
-888521 247577 -892622 254679 8128 l
-892622 254679 -894744 262600 8128 l
-894744 262600 -894744 270800 8128 l
-894744 270800 -892622 278721 8128 l
-892622 278721 -888521 285823 8128 l
-888521 285823 -885672 288672 8128 l
-885672 288672 -907720 288672 8128 l
-907720 288672 -912232 284159 8128 l
-912232 284159 -906679 278605 8128 l
-906679 278605 -903479 270881 8128 l
-903479 270881 -903479 262519 8128 l
-903479 262519 -906679 254795 8128 l
-906679 254795 -912591 248882 8128 l
-912591 248882 -920316 245683 8128 l
-920316 245683 -946584 245683 8128 l
-946584 245683 -953136 248396 8128 l
-953136 248396 -953136 227169 8128 l
-953136 227169 -952539 227767 8128 l
-952539 227767 -950557 229206 8128 l
-950557 229206 -948376 230318 8128 l
-948376 230318 -946047 231074 8128 l
-946047 231074 -943628 231457 8128 l
-943628 231457 -933450 231457 8128 l
-933450 231457 -933450 215900 8128 l
-933450 215900 -933450 215900 8128 l
-933450 215900 -933450 231457 8128 l
-933450 231457 -923272 231457 8128 l
-923272 231457 -920853 231074 8128 l
-920853 231074 -918524 230318 8128 l
-918524 230318 -916343 229206 8128 l
-916343 229206 -914361 227767 8128 l
-914361 227767 -912630 226035 8128 l
-912630 226035 -911191 224054 8128 l
-911191 224054 -910079 221872 8128 l
-910079 221872 -909322 219543 8128 l
-909322 219543 -908939 217124 8128 l
-908939 217124 -908939 215900 8128 l
-908939 215900 -933450 215900 8128 l
-933450 215900 -933450 215900 8128 l
-933450 215900 -908939 215900 8128 l
-908939 215900 -908939 214676 8128 l
-908939 214676 -909322 212257 8128 l
-909322 212257 -910079 209928 8128 l
-910079 209928 -911191 207746 8128 l
-911191 207746 -912630 205765 8128 l
-912630 205765 -914361 204033 8128 l
-914361 204033 -916343 202594 8128 l
-916343 202594 -918524 201482 8128 l
-918524 201482 -920853 200726 8128 l
-920853 200726 -923272 200343 8128 l
-923272 200343 -933450 200342 8128 l
-933450 200342 -933450 215900 8128 l
-933450 215900 -933450 215900 8128 l
-933450 215900 -933450 200343 8128 l
-933450 200343 -943628 200343 8128 l
-943628 200343 -946047 200726 8128 l
-946047 200726 -948376 201482 8128 l
-948376 201482 -950557 202594 8128 l
-950557 202594 -952539 204033 8128 l
-952539 204033 -953136 204631 8128 l
-953136 204631 -953136 158752 8128 l
-953136 158752 -951900 159264 8128 l
-951900 159264 -934100 159264 8128 l
-934100 159264 -929666 157427 8128 l
-929666 157427 -928067 155828 8128 l
-928067 155828 -882980 155828 8128 l
-882980 155828 -877273 161536 8128 l
-877273 161536 -872736 166073 8128 l
-872736 166073 -866808 168528 8128 l
-866808 168528 -857336 168528 8128 l
-857336 168528 -856845 169019 8128 l
-856845 169019 -849639 172004 8128 l
-849639 172004 -826761 172004 8128 l
-826761 172004 -819555 169019 8128 l
-819555 169019 -814041 163505 8128 l
-814041 163505 -811056 156299 8128 l
-811056 156299 -811056 148501 8128 l
-811056 148501 -813281 143128 8128 l
-813281 143128 -654380 143128 8128 l
-654380 143128 -648673 148836 8128 l
-648673 148836 -648673 148836 8128 l
-648673 148836 -644136 153373 8128 l
-644136 153373 -638208 155828 8128 l
-638208 155828 -637375 155828 8128 l
-637375 155828 -634798 158405 8128 l
-634798 158405 -626689 161764 8128 l
-626689 161764 -617911 161764 8128 l
-617911 161764 -614728 160445 8128 l
-614728 160445 -614728 202036 8128 l
-614728 202036 -623033 202036 8128 l
-623033 202036 -623973 199766 8128 l
-623973 199766 -624507 199232 8128 l
-624507 199232 -622428 194213 8128 l
-622428 194213 -622428 186787 8128 l
-622428 186787 -625270 179925 8128 l
-625270 179925 -630521 174674 8128 l
-630521 174674 -637383 171832 8128 l
-637383 171832 -658017 171832 8128 l
-658017 171832 -664149 174372 8128 l
-664149 174372 -664531 174372 8128 l
-664531 174372 -666273 170166 8128 l
-666273 170166 -669666 166773 8128 l
-669666 166773 -674100 164936 8128 l
-674100 164936 -694900 164936 8128 l
-694900 164936 -698500 166427 8128 l
-698500 166427 -702100 164936 8128 l
-702100 164936 -722900 164936 8128 l
-722900 164936 -727334 166773 8128 l
-727334 166773 -730727 170166 8128 l
-730727 170166 -732469 174372 8128 l
-732469 174372 -732851 174372 8128 l
-732851 174372 -738983 171832 8128 l
-738983 171832 -759617 171832 8128 l
-759617 171832 -766479 174674 8128 l
-766479 174674 -771730 179925 8128 l
-771730 179925 -774572 186787 8128 l
-774572 186787 -774572 194213 8128 l
-774572 194213 -771730 201075 8128 l
-771730 201075 -766479 206326 8128 l
-766479 206326 -759617 209168 8128 l
-759617 209168 -738983 209168 8128 l
-738983 209168 -732851 206628 8128 l
-732851 206628 -732469 206628 8128 l
-732469 206628 -730727 210834 8128 l
-730727 210834 -729743 211818 8128 l
-729743 211818 -729970 211913 8128 l
-729970 211913 -735507 217450 8128 l
-735507 217450 -738504 224685 8128 l
-738504 224685 -738504 232515 8128 l
-738504 232515 -736285 237872 8128 l
-736285 237872 -768264 237872 8128 l
-768264 237872 -768755 237381 8128 l
-768755 237381 -768756 237380 8128 l
-768756 237380 -767763 236013 8128 l
-767763 236013 -766752 234029 8128 l
-766752 234029 -766064 231912 8128 l
-766064 231912 -765716 229713 8128 l
-765716 229713 -765716 228600 8128 l
-765716 228600 -787400 228600 8128 l
-787400 228600 -787400 228600 8128 l
-787400 228600 -765716 228600 8128 l
-765716 228600 -765716 227487 8128 l
-765716 227487 -766064 225288 8128 l
-766064 225288 -766752 223171 8128 l
-766752 223171 -767763 221187 8128 l
-767763 221187 -769072 219386 8128 l
-769072 219386 -770646 217812 8128 l
-770646 217812 -772447 216503 8128 l
-772447 216503 -774431 215492 8128 l
-774431 215492 -776548 214804 8128 l
-776548 214804 -778747 214456 8128 l
-778747 214456 -787400 214456 8128 l
-787400 214456 -787400 228600 8128 l
-787400 228600 -787400 228600 8128 l
-787400 228600 -787400 214456 8128 l
-787400 214456 -796053 214456 8128 l
-796053 214456 -798252 214804 8128 l
-798252 214804 -800369 215492 8128 l
-800369 215492 -802353 216503 8128 l
-802353 216503 -804154 217812 8128 l
-804154 217812 -805728 219386 8128 l
-805728 219386 -807037 221187 8128 l
-807037 221187 -808048 223171 8128 l
-808048 223171 -808736 225288 8128 l
-808736 225288 -809084 227487 8128 l
-479264 461589 -475905 469698 8128 l
-475905 469698 -475067 470536 8128 l
-475067 470536 -506596 470536 8128 l
-506596 470536 -506596 466700 8128 l
-506596 466700 -520700 466700 8128 l
-520700 466700 -520700 466700 8128 l
-520700 466700 -506596 466700 8128 l
-506596 466700 -506596 464523 8128 l
-506596 464523 -506366 464427 8128 l
-506366 464427 -502973 461034 8128 l
-502973 461034 -501136 456600 8128 l
-501136 456600 -501136 444467 8128 l
-501136 444467 -495098 450505 8128 l
-495098 450505 -486989 453864 8128 l
-486989 453864 -479264 453864 8128 l
-479264 453864 -479264 461589 8128 l
-378625 441072 -381202 438495 8128 l
-381202 438495 -389311 435136 8128 l
-389311 435136 -398089 435136 8128 l
-398089 435136 -406198 438495 8128 l
-406198 438495 -412405 444702 8128 l
-412405 444702 -415764 452811 8128 l
-415764 452811 -415764 461589 8128 l
-415764 461589 -412405 469698 8128 l
-412405 469698 -411567 470536 8128 l
-411567 470536 -439333 470536 8128 l
-439333 470536 -438495 469698 8128 l
-438495 469698 -435136 461589 8128 l
-435136 461589 -435136 452811 8128 l
-435136 452811 -438495 444702 8128 l
-438495 444702 -441072 442125 8128 l
-441072 442125 -441072 425729 8128 l
-441072 425729 -440572 425229 8128 l
-440572 425229 -439255 426185 8128 l
-439255 426185 -437260 427202 8128 l
-437260 427202 -435131 427894 8128 l
-435131 427894 -432919 428244 8128 l
-432919 428244 -431800 428244 8128 l
-431800 428244 -431800 406400 8128 l
-431800 406400 -431800 406400 8128 l
-431800 406400 -431800 428244 8128 l
-431800 428244 -430681 428244 8128 l
-430681 428244 -428469 427894 8128 l
-428469 427894 -426340 427202 8128 l
-426340 427202 -424345 426185 8128 l
-424345 426185 -423028 425229 8128 l
-423028 425229 -417550 430707 8128 l
-417550 430707 -410315 433704 8128 l
-410315 433704 -402485 433704 8128 l
-402485 433704 -395250 430707 8128 l
-395250 430707 -393700 429157 8128 l
-393700 429157 -392150 430707 8128 l
-392150 430707 -384915 433704 8128 l
-384915 433704 -377085 433704 8128 l
-377085 433704 -369850 430707 8128 l
-369850 430707 -368300 429157 8128 l
-368300 429157 -366750 430707 8128 l
-366750 430707 -364964 431447 8128 l
-364964 431447 -364964 436189 8128 l
-364964 436189 -362941 441072 8128 l
-362941 441072 -378625 441072 8128 l
-423028 387571 -424345 386615 8128 l
-424345 386615 -426340 385598 8128 l
-426340 385598 -428469 384906 8128 l
-428469 384906 -430681 384556 8128 l
-430681 384556 -431800 384556 8128 l
-431800 384556 -431800 406400 8128 l
-431800 406400 -431800 406400 8128 l
-431800 406400 -431800 384556 8128 l
-431800 384556 -432919 384556 8128 l
-432919 384556 -435131 384906 8128 l
-435131 384906 -437260 385598 8128 l
-437260 385598 -439255 386615 8128 l
-439255 386615 -440572 387571 8128 l
-440572 387571 -441072 387071 8128 l
-441072 387071 -441072 339692 8128 l
-441072 339692 -443527 333764 8128 l
-443527 333764 -487521 289771 8128 l
-487521 289771 -349199 289771 8128 l
-349199 289771 -348254 289696 8128 l
-348254 289696 -347318 289548 8128 l
-347318 289548 -346396 289327 8128 l
-346396 289327 -345495 289034 8128 l
-345495 289034 -344619 288671 8128 l
-344619 288671 -343774 288241 8128 l
-343774 288241 -342966 287745 8128 l
-342966 287745 -342199 287188 8128 l
-342199 287188 -341478 286572 8128 l
-341478 286572 -340808 285902 8128 l
-340808 285902 -340192 285181 8128 l
-340192 285181 -339635 284414 8128 l
-339635 284414 -339139 283606 8128 l
-339139 283606 -338709 282761 8128 l
-338709 282761 -338346 281885 8128 l
-338346 281885 -338053 280984 8128 l
-338053 280984 -337832 280062 8128 l
-337832 280062 -337684 279126 8128 l
-337684 279126 -337609 278181 8128 l
-337609 278181 -337609 247599 8128 l
-337609 247599 -337684 246654 8128 l
-337684 246654 -337832 245718 8128 l
-337832 245718 -338053 244796 8128 l
-338053 244796 -338346 243895 8128 l
-338346 243895 -338709 243019 8128 l
-338709 243019 -339139 242174 8128 l
-339139 242174 -339635 241366 8128 l
-339635 241366 -340192 240599 8128 l
-340192 240599 -340808 239878 8128 l
-340808 239878 -341478 239208 8128 l
-341478 239208 -342199 238592 8128 l
-342199 238592 -342966 238035 8128 l
-342966 238035 -343774 237539 8128 l
-343774 237539 -344619 237109 8128 l
-344619 237109 -345495 236746 8128 l
-345495 236746 -346396 236453 8128 l
-346396 236453 -347318 236232 8128 l
-347318 236232 -348254 236084 8128 l
-348254 236084 -349199 236009 8128 l
-349199 236009 -576132 236009 8128 l
-576132 236009 -577077 236084 8128 l
-577077 236084 -578014 236232 8128 l
-578014 236232 -578936 236453 8128 l
-578936 236453 -579837 236746 8128 l
-579837 236746 -579847 236750 8128 l
-579847 236750 -579536 236000 8128 l
-579536 236000 -579536 232028 8128 l
-579536 232028 -339692 232028 8128 l
-339692 232028 -333764 229573 8128 l
-333764 229573 -329227 225036 8128 l
-329227 225036 -323520 219328 8128 l
-323520 219328 -318336 219328 8128 l
-318336 219328 -326636 227627 8128 l
-326636 227627 -331173 232164 8128 l
-331173 232164 -333628 238092 8128 l
-333628 238092 -333628 285420 8128 l
-333628 285420 -415536 367327 8128 l
-415536 367327 -415536 367327 8128 l
-415536 367327 -420073 371864 8128 l
-420073 371864 -422528 377792 8128 l
-422528 377792 -422528 387071 8128 l
-422528 387071 -423028 387571 8128 l
-24764 32464 -953136 32464 8128 l
-24764 40580 -953136 40580 8128 l
-24764 48696 -953136 48696 8128 l
-24764 56812 -292839 56812 8128 l
-316761 56812 -953136 56812 8128 l
-24764 64928 -229764 64928 8128 l
-328792 64928 -669711 64928 8128 l
-685800 64928 -685800 64928 8128 l
-701889 64928 -758611 64928 8128 l
-774700 64928 -774700 64928 8128 l
-790789 64928 -953136 64928 8128 l
-24764 73044 -221648 73044 8128 l
-331944 73044 -664440 73044 8128 l
-685800 73044 -685800 73044 8128 l
-707160 73044 -753340 73044 8128 l
-774700 73044 -774700 73044 8128 l
-796060 73044 -953136 73044 8128 l
-24764 81160 -213532 81160 8128 l
-331505 81160 -665000 81160 8128 l
-706600 81160 -753900 81160 8128 l
-795500 81160 -953136 81160 8128 l
-24764 89276 -205416 89276 8128 l
-327740 89276 -345116 89276 8128 l
-531282 89276 -611816 89276 8128 l
-874084 89276 -953136 89276 8128 l
-24764 97392 -200186 97392 8128 l
-331816 97392 -337000 97392 8128 l
-537278 97392 -603700 97392 8128 l
-882200 97392 -953136 97392 8128 l
-24764 105508 -121230 105508 8128 l
-132770 105508 -199772 105508 8128 l
-542689 105508 -595584 105508 8128 l
-890115 105508 -953136 105508 8128 l
-24764 113624 -109173 113624 8128 l
-144827 113624 -199772 113624 8128 l
-548099 113624 -587468 113624 8128 l
-892428 113624 -953136 113624 8128 l
-24764 121740 -105297 121740 8128 l
-148703 121740 -199772 121740 8128 l
-358268 121740 -371428 121740 8128 l
-396972 121740 -514743 121740 8128 l
-572043 121740 -582618 121740 8128 l
-892428 121740 -930228 121740 8128 l
-24764 129856 -101336 129856 8128 l
-149064 129856 -199772 129856 8128 l
-403200 129856 -403200 129856 8128 l
-415877 129856 -520154 129856 8128 l
-578604 129856 -582472 129856 8128 l
-24764 137972 -93220 137972 8128 l
-166927 137972 -199772 137972 8128 l
-403200 137972 -403200 137972 8128 l
-416304 137972 -525565 137972 8128 l
-580864 137972 -582472 137972 8128 l
-24764 146088 -85104 146088 8128 l
-173058 146088 -199772 146088 8128 l
-403200 146088 -403200 146088 8128 l
-416304 146088 -530975 146088 8128 l
-580036 146088 -582472 146088 8128 l
-651420 146088 -812055 146088 8128 l
-24764 154204 -76988 154204 8128 l
-173100 154204 -199772 154204 8128 l
-400757 154204 -538773 154204 8128 l
-575499 154204 -582472 154204 8128 l
-642129 154204 -811056 154204 8128 l
-24764 162320 -68872 162320 8128 l
-173100 162320 -199772 162320 8128 l
-321803 162320 -582472 162320 8128 l
-614728 162320 -813550 162320 8128 l
-876488 162320 -953136 162320 8128 l
-24764 170436 -60756 170436 8128 l
-173100 170436 -199772 170436 8128 l
-316393 170436 -582472 170436 8128 l
-614728 170436 -666161 170436 8128 l
-730839 170436 -822975 170436 8128 l
-853425 170436 -953136 170436 8128 l
-24764 178552 -52640 178552 8128 l
-403200 178552 -403200 178552 8128 l
-414591 178552 -582472 178552 8128 l
-614728 178552 -626643 178552 8128 l
-770357 178552 -953136 178552 8128 l
-24764 186668 -44524 186668 8128 l
-403200 186668 -403200 186668 8128 l
-416304 186668 -582472 186668 8128 l
-614728 186668 -622477 186668 8128 l
-774523 186668 -852364 186668 8128 l
-874836 186668 -953136 186668 8128 l
-24764 194784 -36829 194784 8128 l
-132824 194784 -137542 194784 8128 l
-416304 194784 -582472 194784 8128 l
-614728 194784 -622664 194784 8128 l
-774336 194784 -840672 194784 8128 l
-886528 194784 -953136 194784 8128 l
-24764 202900 -34672 202900 8128 l
-124708 202900 -141135 202900 8128 l
-769905 202900 -835144 202900 8128 l
-892056 202900 -915921 202900 8128 l
-933450 202900 -933450 202900 8128 l
-950979 202900 -953136 202900 8128 l
-24764 211016 -34672 211016 8128 l
-117728 211016 -137542 211016 8128 l
-730545 211016 -832666 211016 8128 l
-894534 211016 -909725 211016 8128 l
-933450 211016 -933450 211016 8128 l
-24764 219132 -34672 219132 8128 l
-673264 219132 -686196 219132 8128 l
-736204 219132 -769325 219132 8128 l
-787400 219132 -787400 219132 8128 l
-805475 219132 -832456 219132 8128 l
-894744 219132 -909257 219132 8128 l
-933450 219132 -933450 219132 8128 l
-24764 227248 -34672 227248 8128 l
-326256 227248 -331440 227248 8128 l
-672333 227248 -683896 227248 8128 l
-738504 227248 -765754 227248 8128 l
-787400 227248 -787400 227248 8128 l
-809046 227248 -834398 227248 8128 l
-892802 227248 -913843 227248 8128 l
-933450 227248 -933450 227248 8128 l
-953057 227248 -953136 227248 8128 l
-24764 235364 -34672 235364 8128 l
-332498 235364 -579536 235364 8128 l
-673264 235364 -685076 235364 8128 l
-737324 235364 -767432 235364 8128 l
-807368 235364 -839020 235364 8128 l
-888180 235364 -953136 235364 8128 l
-24764 243480 -26232 243480 8128 l
-333628 243480 -338518 243480 8128 l
-673264 243480 -686632 243480 8128 l
-811802 243480 -842776 243480 8128 l
-884424 243480 -953136 243480 8128 l
-333628 251596 -337609 251596 8128 l
-673264 251596 -683896 251596 8128 l
-814544 251596 -836358 251596 8128 l
-890842 251596 -909877 251596 8128 l
-333628 259712 -337609 259712 8128 l
-683004 259712 -684640 259712 8128 l
-813793 259712 -833230 259712 8128 l
-893970 259712 -904642 259712 8128 l
-333628 267828 -337609 267828 8128 l
-669900 267828 -669900 267828 8128 l
-683004 267828 -687315 267828 8128 l
-808836 267828 -832456 267828 8128 l
-894744 267828 -903479 267828 8128 l
-333628 275944 -337609 275944 8128 l
-669900 275944 -669900 275944 8128 l
-682786 275944 -683896 275944 8128 l
-738504 275944 -771272 275944 8128 l
-806752 275944 -833834 275944 8128 l
-893366 275944 -905576 275944 8128 l
-333628 284060 -339418 284060 8128 l
-666114 284060 -684204 284060 8128 l
-738196 284060 -771873 284060 8128 l
-814868 284060 -837661 284060 8128 l
-889539 284060 -912133 284060 8128 l
-340384 292176 -485116 292176 8128 l
-733881 292176 -777368 292176 8128 l
-948245 292176 -953136 292176 8128 l
-348500 300292 -477000 300292 8128 l
-727328 300292 -785484 300292 8128 l
-941716 300292 -953136 300292 8128 l
-356616 308408 -468884 308408 8128 l
-514500 308408 -590400 308408 8128 l
-727328 308408 -793600 308408 8128 l
-933600 308408 -953136 308408 8128 l
-364732 316524 -460768 316524 8128 l
-506384 316524 -598516 316524 8128 l
-727328 316524 -801716 316524 8128 l
-925484 316524 -941580 316524 8128 l
-944400 316524 -944400 316524 8128 l
-947220 316524 -953136 316524 8128 l
-372848 324640 -452652 324640 8128 l
-498268 324640 -606632 324640 8128 l
-725699 324640 -862940 324640 8128 l
-903860 324640 -929996 324640 8128 l
-944400 324640 -944400 324640 8128 l
-380964 332756 -444536 332756 8128 l
-490152 332756 -616987 332756 8128 l
-718752 332756 -861336 332756 8128 l
-905464 332756 -907483 332756 8128 l
-164536 340872 -178364 340872 8128 l
-389080 340872 -441072 340872 8128 l
-532310 340872 -635590 340872 8128 l
-710636 340872 -861336 340872 8128 l
-156420 348988 -186480 348988 8128 l
-397196 348988 -441072 348988 8128 l
-533564 348988 -656972 348988 8128 l
-689228 348988 -861336 348988 8128 l
-148304 357104 -194596 357104 8128 l
-405312 357104 -441072 357104 8128 l
-533564 357104 -656972 357104 8128 l
-689228 357104 -861336 357104 8128 l
-140188 365220 -199772 365220 8128 l
-413428 365220 -441072 365220 8128 l
-533348 365220 -656972 365220 8128 l
-689228 365220 -864621 365220 8128 l
-902179 365220 -902336 365220 8128 l
-132072 373336 -199772 373336 8128 l
-420682 373336 -441072 373336 8128 l
-533564 373336 -656972 373336 8128 l
-689228 373336 -875081 373336 8128 l
-891719 373336 -902336 373336 8128 l
-123956 381452 -180897 381452 8128 l
-422528 381452 -441072 381452 8128 l
-533564 381452 -656972 381452 8128 l
-689228 381452 -890721 381452 8128 l
-24764 389568 -25423 389568 8128 l
-115840 389568 -154211 389568 8128 l
-165100 389568 -165100 389568 8128 l
-431800 389568 -431800 389568 8128 l
-533564 389568 -656972 389568 8128 l
-689228 389568 -887828 389568 8128 l
-24764 397684 -32027 397684 8128 l
-69573 397684 -150876 397684 8128 l
-165100 397684 -165100 397684 8128 l
-431800 397684 -431800 397684 8128 l
-534547 397684 -656972 397684 8128 l
-689228 397684 -889238 397684 8128 l
-24764 405800 -150876 405800 8128 l
-165100 405800 -165100 405800 8128 l
-431800 405800 -431800 405800 8128 l
-536828 405800 -656972 405800 8128 l
-689228 405800 -897000 405800 8128 l
-914400 405800 -914400 405800 8128 l
-931800 405800 -953136 405800 8128 l
-24764 413916 -150876 413916 8128 l
-165100 413916 -165100 413916 8128 l
-431800 413916 -431800 413916 8128 l
-536828 413916 -656972 413916 8128 l
-689228 413916 -953136 413916 8128 l
-24764 422032 -26144 422032 8128 l
-50056 422032 -153339 422032 8128 l
-165100 422032 -165100 422032 8128 l
-431800 422032 -431800 422032 8128 l
-536828 422032 -655221 422032 8128 l
-690979 422032 -927844 422032 8128 l
-951755 422032 -953136 422032 8128 l
-63464 430148 -178791 430148 8128 l
-367309 430148 -369291 430148 8128 l
-392709 430148 -394691 430148 8128 l
-418109 430148 -441072 430148 8128 l
-536828 430148 -653536 430148 8128 l
-692664 430148 -914436 430148 8128 l
-69965 438264 -194536 438264 8128 l
-364104 438264 -381760 438264 8128 l
-405640 438264 -441072 438264 8128 l
-540042 438264 -653536 438264 8128 l
-692664 438264 -907935 438264 8128 l
-73572 446380 -194536 446380 8128 l
-287628 446380 -296572 446380 8128 l
-413100 446380 -437800 446380 8128 l
-499223 446380 -501136 446380 8128 l
-540264 446380 -654563 446380 8128 l
-691637 446380 -904328 446380 8128 l
-75164 454496 -194536 454496 8128 l
-279512 454496 -304688 454496 8128 l
-415764 454496 -435136 454496 8128 l
-479264 454496 -501136 454496 8128 l
-540264 454496 -658996 454496 8128 l
-673100 454496 -673100 454496 8128 l
-687204 454496 -902736 454496 8128 l
-75021 462612 -195452 462612 8128 l
-261748 462612 -312804 462612 8128 l
-415340 462612 -435560 462612 8128 l
-478840 462612 -504551 462612 8128 l
-536849 462612 -659327 462612 8128 l
-673100 462612 -673100 462612 8128 l
-686873 462612 -902879 462612 8128 l
-620600 238100 -643200 238100 8128 l
-643200 238100 -647700 242600 8128 l
-647700 242600 -647700 292100 8128 l
-647700 242600 -647700 263500 8128 l
-647700 263500 -650900 266700 8128 l
-685800 101600 -774700 101600 8128 l
-774700 101600 -863600 101600 8128 l
-863600 101600 -876300 114300 8128 l
-876300 114300 -876300 139700 8128 l
-876300 139700 -863600 152400 8128 l
-863600 152400 -838200 152400 8128 l
-647700 317500 -660400 330200 8128 l
-660400 330200 -673100 330200 8128 l
-673100 330200 -698500 330200 8128 l
-698500 330200 -711200 317500 8128 l
-711200 317500 -711200 279400 8128 l
-598600 228600 -598600 292100 8128 l
-598600 292100 -598600 293800 8128 l
-598600 293800 -622300 317500 8128 l
-622300 317500 -647700 317500 8128 l
-598600 228600 -598600 215900 8128 l
-598600 215900 -598600 125300 8128 l
-598600 125300 -622300 101600 8128 l
-622300 101600 -685800 101600 8128 l
-943000 139700 -876300 139700 8128 l
-251079 203200 -330200 203200 8128 l
-330200 203200 -342900 215900 8128 l
-342900 215900 -598600 215900 8128 l
-457200 406400 -457200 355600 8128 l
-457200 355600 -457200 342900 8128 l
-457200 342900 -508000 292100 8128 l
-508000 292100 -598600 292100 8128 l
-241300 406400 -279400 406400 8128 l
-279400 406400 -292100 419100 8128 l
-292100 419100 -330200 457200 8128 l
-330200 457200 -393700 457200 8128 l
-457200 406400 -457200 457200 8128 l
-393700 457200 20000 p
-457200 457200 20000 p
-242600 444500 -266700 444500 8128 l
-266700 444500 -292100 419100 8128 l
-508000 354300 -458500 354300 8128 l
-458500 354300 -457200 355600 8128 l
-673100 435000 -673100 330200 8128 l
-711200 228600 -711200 191800 8128 l
-711200 191800 -712500 190500 8128 l
-712500 190500 -749300 190500 8128 l
-684500 190500 -647700 190500 8128 l
-647700 190500 -647700 214600 8128 l
-620600 219100 -643200 219100 8128 l
-643200 219100 -647700 214600 8128 l
-304800 101600 -241300 101600 8128 l
-241300 101600 -228600 114300 8128 l
-228600 114300 -228600 215900 8128 l
-228600 215900 -251079 215900 8128 l
-251079 215900 -292100 215900 8128 l
-292100 215900 -317500 241300 8128 l
-317500 241300 -317500 292100 8128 l
-317500 292100 -406400 381000 8128 l
-406400 381000 -406400 406400 8128 l
-155321 190500 -190500 190500 8128 l
-190500 190500 -203200 203200 8128 l
-203200 203200 -203200 292100 8128 l
-203200 292100 -342900 431800 8128 l
-342900 431800 20000 p
-482600 406400 -482600 431800 8128 l
-482600 431800 20000 p
-508000 382300 -508000 393700 8128 l
-508000 393700 -495300 406400 8128 l
-495300 406400 -482600 406400 8128 l
-508000 393700 -520700 406400 8128 l
-520700 406400 -520700 447700 8128 l
-381000 406400 -381000 381000 8128 l
-381000 381000 -292100 292100 8128 l
-292100 292100 -292100 241300 8128 l
-292100 241300 -279400 228600 8128 l
-279400 228600 -251079 228600 8128 l
-251079 254000 -251079 314579 8128 l
-251079 314579 -342900 406400 8128 l
-342900 406400 -355600 406400 8128 l
-251079 190500 -355600 190500 8128 l
-355600 190500 -384200 190500 8128 l
-251079 177800 -292100 177800 8128 l
-292100 177800 -317500 139700 8128 l
-317500 139700 -355600 139700 8128 l
-355600 139700 -384200 139700 8128 l
-251079 165100 -254000 165100 8128 l
-254000 165100 -292100 127000 8128 l
-292100 127000 -330200 127000 8128 l
-330200 127000 -355600 101600 8128 l
-355600 101600 -520700 101600 8128 l
-520700 101600 -546100 139700 8128 l
-546100 139700 -558800 139700 8128 l
-838200 127000 -647700 127000 8128 l
-647700 127000 -635000 139700 8128 l
-635000 139700 -622300 139700 8128 l
-558800 139700 20000 p
-622300 139700 20000 p
-304800 76200 -241300 76200 8128 l
-241300 76200 -215900 101600 8128 l
-215900 101600 -215900 228600 8128 l
-215900 228600 -228600 241300 8128 l
-228600 241300 -251079 241300 8128 l
-50800 254000 -50800 203200 8128 l
-50800 203200 -127000 127000 8128 l
-254000 149479 -251079 152400 8128 l
-254000 149479 -254000 127000 8128 l
-127000 127000 20000 p
-254000 127000 20000 p
-155321 152400 -127000 152400 8128 l
-127000 152400 -88900 190500 8128 l
-88900 190500 -88900 266700 8128 l
-88900 266700 -76200 279400 8128 l
-76200 279400 -50800 279400 8128 l
-155321 215900 -177800 215900 8128 l
-177800 215900 -177800 317500 8128 l
-177800 317500 -215900 355600 8128 l
-215900 355600 -215900 406400 8128 l
-214600 444500 -214600 407700 8128 l
-214600 407700 -215900 406400 8128 l
-38100 457200 50000 p
-939800 457200 50000 p
-863600 266700 38160 p
-863600 215900 38160 p
-155321 228600 -127000 228600 8128 l
-127000 228600 -114300 241300 8128 l
-114300 241300 -114300 317500 8128 l
-114300 317500 -101600 330200 8128 l
-101600 330200 -50800 330200 8128 l
-155321 241300 -139700 241300 8128 l
-139700 241300 -127000 254000 8128 l
-127000 254000 -127000 330200 8128 l
-127000 330200 -101600 355600 8128 l
-101600 355600 -50800 355600 8128 l
-155321 254000 -155321 327279 8128 l
-155321 327279 -101600 381000 8128 l
-101600 381000 -50800 381000 8128 l
-155321 165100 -139700 165100 8128 l
-139700 165100 -101600 203200 8128 l
-101600 203200 -101600 292100 8128 l
-101600 292100 -88900 304800 8128 l
-88900 304800 -50800 304800 8128 l
-711200 254000 -787400 254000 8128 l
-787400 254000 -787400 279400 8128 l
-787400 279400 -812800 304800 8128 l
-812800 304800 -889000 304800 8128 l
-889000 304800 -914400 304800 8128 l
-933450 266700 -933450 285750 8128 l
-933450 285750 -914400 304800 8128 l
-883400 342900 -883400 310400 8128 l
-883400 310400 -889000 304800 8128 l
-933450 266700 11938 h
-933450 215900 11938 h
-787400 254000 10000 h
-787400 228600 10000 h
-774700 101600 10000 h
-774700 76200 10000 h
-685800 101600 10000 h
-685800 76200 10000 h
-883400 342900 10000 h
-944400 342900 10000 h
-914400 390900 10000 h
-711200 228600 10160 h
-711200 254000 10160 h
-711200 279400 10160 h
-647700 317500 8128 h
-666750 304800 8128 h
-647700 292100 8128 h
-647700 190500 8128 h
-749300 190500 8128 h
-482600 406400 10160 h
-457200 406400 10160 h
-431800 406400 10160 h
-406400 406400 10160 h
-381000 406400 10160 h
-355600 406400 10160 h
-355600 190500 6096 h
-355600 139700 6096 h
-304800 76200 10000 h
-304800 101600 10000 h
-50800 381000 10160 h
-50800 355600 10160 h
-50800 330200 10160 h
-50800 304800 10160 h
-50800 279400 10160 h
-50800 254000 10160 h
-241300 406400 10160 h
-215900 406400 10160 h
-190500 406400 10160 h
-165100 406400 10160 h
-838200 152400 10000 h
-838200 127000 10000 h
-939800 38100 25000 h
-38100 38100 25000 h
-25400 203200 10000 h
-133350 203200 10000 h
-393700 457200 10000 h
-457200 457200 10000 h
-342900 431800 10000 h
-482600 431800 10000 h
-558800 139700 10000 h
-622300 139700 10000 h
-127000 127000 10000 h
-254000 127000 10000 h
-38100 457200 25000 h
-939800 457200 25000 h
-863600 266700 28000 h
-863600 215900 28000 h
