%FSLAX25Y25*%
%MOIN*%
G70*
G01*
G75*
G04 Layer_Physical_Order=2*
G04 Layer_Color=16711680*
%ADD10R,0.06299X0.05906*%
%ADD11R,0.05118X0.02362*%
%ADD12R,0.11024X0.05906*%
%ADD13C,0.03937*%
%ADD14C,0.07874*%
%ADD15C,0.02756*%
%ADD16R,1.06299X0.11811*%
%ADD17R,0.11811X0.09843*%
%ADD18R,0.11811X0.17716*%
%ADD19R,0.11811X0.11811*%
%ADD20C,0.11811*%
%ADD21C,0.07874*%
%ADD22R,0.07874X0.07874*%
G36*
X755905Y480315D02*
X665354D01*
X625984Y440945D01*
Y437008D01*
Y423578D01*
X614625D01*
Y425509D01*
X602027D01*
Y423578D01*
X594410D01*
X585766Y432223D01*
X584861Y432917D01*
X584553Y433044D01*
X583808Y433353D01*
X582677Y433502D01*
X577936D01*
X576763Y435031D01*
X575036Y436356D01*
X573024Y437189D01*
X570866Y437473D01*
X568708Y437189D01*
X566697Y436356D01*
X564969Y435031D01*
X563644Y433303D01*
X562811Y431292D01*
X562527Y429134D01*
X562811Y426976D01*
X563644Y424964D01*
X564969Y423237D01*
X566697Y421912D01*
X568708Y421079D01*
X570866Y420795D01*
X573024Y421079D01*
X575036Y421912D01*
X576763Y423237D01*
X577936Y424766D01*
X580868D01*
X589512Y416121D01*
X590417Y415427D01*
X591470Y414991D01*
X592601Y414842D01*
X602027D01*
Y413578D01*
X578217D01*
X576975Y415196D01*
X575248Y416521D01*
X573237Y417354D01*
X571079Y417638D01*
X568920Y417354D01*
X566909Y416521D01*
X565182Y415196D01*
X563857Y413469D01*
X563024Y411457D01*
X562740Y409299D01*
X563024Y407141D01*
X563857Y405130D01*
X565182Y403403D01*
X566909Y402077D01*
X568920Y401244D01*
X571079Y400960D01*
X573237Y401244D01*
X575248Y402077D01*
X576975Y403403D01*
X578080Y404842D01*
X603738D01*
X603833Y404718D01*
X603981Y404604D01*
Y403817D01*
X603833Y403703D01*
X602824Y402387D01*
X602189Y400855D01*
X602038Y399710D01*
X614614D01*
X614463Y400855D01*
X613828Y402387D01*
X612819Y403703D01*
X612671Y403817D01*
Y404604D01*
X612819Y404718D01*
X612914Y404842D01*
X625984D01*
Y366142D01*
X633858Y358268D01*
Y342520D01*
X649606D01*
Y326772D01*
X559055D01*
Y496063D01*
X755905D01*
Y480315D01*
D02*
G37*
%LPC*%
G36*
X579346Y389114D02*
X571579D01*
Y381347D01*
X579346D01*
Y389114D01*
D02*
G37*
G36*
X570579Y397882D02*
X562811D01*
Y390114D01*
X570579D01*
Y397882D01*
D02*
G37*
G36*
X570866Y344953D02*
X568708Y344669D01*
X566697Y343836D01*
X564969Y342511D01*
X563644Y340784D01*
X562811Y338773D01*
X562527Y336614D01*
X562811Y334456D01*
X563644Y332445D01*
X564969Y330718D01*
X566697Y329392D01*
X568708Y328559D01*
X570866Y328275D01*
X573024Y328559D01*
X575036Y329392D01*
X576763Y330718D01*
X578088Y332445D01*
X578921Y334456D01*
X579205Y336614D01*
X578921Y338773D01*
X578088Y340784D01*
X576763Y342511D01*
X575036Y343836D01*
X573024Y344669D01*
X570866Y344953D01*
D02*
G37*
G36*
X570579Y389114D02*
X562811D01*
Y381347D01*
X570579D01*
Y389114D01*
D02*
G37*
G36*
X614614Y398710D02*
X608826D01*
Y392922D01*
X609970Y393073D01*
X611503Y393708D01*
X612819Y394718D01*
X613828Y396033D01*
X614463Y397566D01*
X614614Y398710D01*
D02*
G37*
G36*
X570866Y494559D02*
X568708Y494275D01*
X566697Y493442D01*
X564969Y492117D01*
X563644Y490390D01*
X562811Y488379D01*
X562527Y486221D01*
X562811Y484062D01*
X563644Y482051D01*
X564969Y480324D01*
X566697Y478999D01*
X568708Y478166D01*
X570866Y477881D01*
X573024Y478166D01*
X575036Y478999D01*
X576763Y480324D01*
X578088Y482051D01*
X578921Y484062D01*
X579205Y486221D01*
X578921Y488379D01*
X578088Y490390D01*
X576763Y492117D01*
X575036Y493442D01*
X573024Y494275D01*
X570866Y494559D01*
D02*
G37*
G36*
X579346Y397882D02*
X571579D01*
Y390114D01*
X579346D01*
Y397882D01*
D02*
G37*
G36*
X607826Y398710D02*
X602038D01*
X602189Y397566D01*
X602824Y396033D01*
X603833Y394718D01*
X605149Y393708D01*
X606682Y393073D01*
X607826Y392922D01*
Y398710D01*
D02*
G37*
%LPD*%
G36*
X755905Y303150D02*
X665354D01*
X625984Y263779D01*
Y259842D01*
Y246413D01*
X614625D01*
Y248344D01*
X602027D01*
Y246413D01*
X594410D01*
X585766Y255057D01*
X584861Y255751D01*
X584553Y255879D01*
X583808Y256188D01*
X582677Y256337D01*
X577936D01*
X576763Y257865D01*
X575036Y259190D01*
X573024Y260023D01*
X570866Y260308D01*
X568708Y260023D01*
X566697Y259190D01*
X564969Y257865D01*
X563644Y256138D01*
X562811Y254127D01*
X562527Y251969D01*
X562811Y249810D01*
X563644Y247799D01*
X564969Y246072D01*
X566697Y244747D01*
X568708Y243914D01*
X570866Y243629D01*
X573024Y243914D01*
X575036Y244747D01*
X576763Y246072D01*
X577936Y247600D01*
X580868D01*
X589512Y238956D01*
X590417Y238262D01*
X591470Y237826D01*
X592601Y237677D01*
X602027D01*
Y236413D01*
X578217D01*
X576975Y238031D01*
X575248Y239356D01*
X573237Y240189D01*
X571079Y240473D01*
X568920Y240189D01*
X566909Y239356D01*
X565182Y238031D01*
X563857Y236303D01*
X563024Y234292D01*
X562740Y232134D01*
X563024Y229976D01*
X563857Y227964D01*
X565182Y226237D01*
X566909Y224912D01*
X568920Y224079D01*
X571079Y223795D01*
X573237Y224079D01*
X575248Y224912D01*
X576975Y226237D01*
X578080Y227677D01*
X603738D01*
X603833Y227552D01*
X603981Y227439D01*
Y226651D01*
X603833Y226537D01*
X602824Y225222D01*
X602189Y223689D01*
X602038Y222545D01*
X614614D01*
X614463Y223689D01*
X613828Y225222D01*
X612819Y226537D01*
X612671Y226651D01*
Y227439D01*
X612819Y227552D01*
X612914Y227677D01*
X625984D01*
Y188976D01*
X633858Y181102D01*
Y165354D01*
X649606D01*
Y149606D01*
X559055D01*
Y318898D01*
X755905D01*
Y303150D01*
D02*
G37*
%LPC*%
G36*
X579346Y211949D02*
X571579D01*
Y204181D01*
X579346D01*
Y211949D01*
D02*
G37*
G36*
X570579Y220717D02*
X562811D01*
Y212949D01*
X570579D01*
Y220717D01*
D02*
G37*
G36*
X570866Y167788D02*
X568708Y167504D01*
X566697Y166671D01*
X564969Y165345D01*
X563644Y163618D01*
X562811Y161607D01*
X562527Y159449D01*
X562811Y157290D01*
X563644Y155279D01*
X564969Y153552D01*
X566697Y152227D01*
X568708Y151394D01*
X570866Y151110D01*
X573024Y151394D01*
X575036Y152227D01*
X576763Y153552D01*
X578088Y155279D01*
X578921Y157290D01*
X579205Y159449D01*
X578921Y161607D01*
X578088Y163618D01*
X576763Y165345D01*
X575036Y166671D01*
X573024Y167504D01*
X570866Y167788D01*
D02*
G37*
G36*
X570579Y211949D02*
X562811D01*
Y204181D01*
X570579D01*
Y211949D01*
D02*
G37*
G36*
X614614Y221545D02*
X608826D01*
Y215757D01*
X609970Y215908D01*
X611503Y216543D01*
X612819Y217552D01*
X613828Y218868D01*
X614463Y220401D01*
X614614Y221545D01*
D02*
G37*
G36*
X570866Y317394D02*
X568708Y317110D01*
X566697Y316277D01*
X564969Y314952D01*
X563644Y313225D01*
X562811Y311213D01*
X562527Y309055D01*
X562811Y306897D01*
X563644Y304886D01*
X564969Y303158D01*
X566697Y301833D01*
X568708Y301000D01*
X570866Y300716D01*
X573024Y301000D01*
X575036Y301833D01*
X576763Y303158D01*
X578088Y304886D01*
X578921Y306897D01*
X579205Y309055D01*
X578921Y311213D01*
X578088Y313225D01*
X576763Y314952D01*
X575036Y316277D01*
X573024Y317110D01*
X570866Y317394D01*
D02*
G37*
G36*
X579346Y220717D02*
X571579D01*
Y212949D01*
X579346D01*
Y220717D01*
D02*
G37*
G36*
X607826Y221545D02*
X602038D01*
X602189Y220401D01*
X602824Y218868D01*
X603833Y217552D01*
X605149Y216543D01*
X606682Y215908D01*
X607826Y215757D01*
Y221545D01*
D02*
G37*
%LPD*%
G36*
X755905Y653543D02*
X665354D01*
X625984Y614173D01*
Y610236D01*
Y596807D01*
X614625D01*
Y598738D01*
X602027D01*
Y596807D01*
X594410D01*
X585766Y605451D01*
X584861Y606145D01*
X584553Y606273D01*
X583808Y606581D01*
X582677Y606730D01*
X577936D01*
X576763Y608259D01*
X575036Y609584D01*
X573024Y610417D01*
X570866Y610701D01*
X568708Y610417D01*
X566697Y609584D01*
X564969Y608259D01*
X563644Y606532D01*
X562811Y604521D01*
X562527Y602362D01*
X562811Y600204D01*
X563644Y598193D01*
X564969Y596466D01*
X566697Y595140D01*
X568708Y594307D01*
X570866Y594023D01*
X573024Y594307D01*
X575036Y595140D01*
X576763Y596466D01*
X577936Y597994D01*
X580868D01*
X589512Y589350D01*
X590417Y588656D01*
X591470Y588219D01*
X592601Y588070D01*
X602027D01*
Y586807D01*
X578217D01*
X576975Y588424D01*
X575248Y589749D01*
X573237Y590582D01*
X571079Y590867D01*
X568920Y590582D01*
X566909Y589749D01*
X565182Y588424D01*
X563857Y586697D01*
X563024Y584686D01*
X562740Y582527D01*
X563024Y580369D01*
X563857Y578358D01*
X565182Y576631D01*
X566909Y575306D01*
X568920Y574473D01*
X571079Y574189D01*
X573237Y574473D01*
X575248Y575306D01*
X576975Y576631D01*
X578080Y578070D01*
X603738D01*
X603833Y577946D01*
X603981Y577832D01*
Y577045D01*
X603833Y576931D01*
X602824Y575615D01*
X602189Y574083D01*
X602038Y572939D01*
X614614D01*
X614463Y574083D01*
X613828Y575615D01*
X612819Y576931D01*
X612671Y577045D01*
Y577832D01*
X612819Y577946D01*
X612914Y578070D01*
X625984D01*
Y539370D01*
X633858Y531496D01*
Y515748D01*
X649606D01*
Y500000D01*
X559055D01*
Y669291D01*
X755905D01*
Y653543D01*
D02*
G37*
%LPC*%
G36*
X579346Y562343D02*
X571579D01*
Y554575D01*
X579346D01*
Y562343D01*
D02*
G37*
G36*
X570579Y571110D02*
X562811D01*
Y563343D01*
X570579D01*
Y571110D01*
D02*
G37*
G36*
X570866Y518182D02*
X568708Y517897D01*
X566697Y517064D01*
X564969Y515739D01*
X563644Y514012D01*
X562811Y512001D01*
X562527Y509842D01*
X562811Y507684D01*
X563644Y505673D01*
X564969Y503946D01*
X566697Y502621D01*
X568708Y501788D01*
X570866Y501504D01*
X573024Y501788D01*
X575036Y502621D01*
X576763Y503946D01*
X578088Y505673D01*
X578921Y507684D01*
X579205Y509842D01*
X578921Y512001D01*
X578088Y514012D01*
X576763Y515739D01*
X575036Y517064D01*
X573024Y517897D01*
X570866Y518182D01*
D02*
G37*
G36*
X570579Y562343D02*
X562811D01*
Y554575D01*
X570579D01*
Y562343D01*
D02*
G37*
G36*
X614614Y571939D02*
X608826D01*
Y566151D01*
X609970Y566301D01*
X611503Y566936D01*
X612819Y567946D01*
X613828Y569262D01*
X614463Y570794D01*
X614614Y571939D01*
D02*
G37*
G36*
X570866Y667788D02*
X568708Y667504D01*
X566697Y666671D01*
X564969Y665345D01*
X563644Y663618D01*
X562811Y661607D01*
X562527Y659449D01*
X562811Y657291D01*
X563644Y655279D01*
X564969Y653552D01*
X566697Y652227D01*
X568708Y651394D01*
X570866Y651110D01*
X573024Y651394D01*
X575036Y652227D01*
X576763Y653552D01*
X578088Y655279D01*
X578921Y657291D01*
X579205Y659449D01*
X578921Y661607D01*
X578088Y663618D01*
X576763Y665345D01*
X575036Y666671D01*
X573024Y667504D01*
X570866Y667788D01*
D02*
G37*
G36*
X579346Y571110D02*
X571579D01*
Y563343D01*
X579346D01*
Y571110D01*
D02*
G37*
G36*
X607826Y571939D02*
X602038D01*
X602189Y570794D01*
X602824Y569262D01*
X603833Y567946D01*
X605149Y566936D01*
X606682Y566301D01*
X607826Y566151D01*
Y571939D01*
D02*
G37*
%LPD*%
G36*
X527559Y480315D02*
X437008D01*
X397638Y440945D01*
Y437008D01*
Y423578D01*
X386279D01*
Y425509D01*
X373680D01*
Y423578D01*
X366064D01*
X357419Y432223D01*
X356515Y432917D01*
X356206Y433044D01*
X355461Y433353D01*
X354331Y433502D01*
X349589D01*
X348416Y435031D01*
X346689Y436356D01*
X344678Y437189D01*
X342520Y437473D01*
X340361Y437189D01*
X338350Y436356D01*
X336623Y435031D01*
X335298Y433303D01*
X334465Y431292D01*
X334181Y429134D01*
X334465Y426976D01*
X335298Y424964D01*
X336623Y423237D01*
X338350Y421912D01*
X340361Y421079D01*
X342520Y420795D01*
X344678Y421079D01*
X346689Y421912D01*
X348416Y423237D01*
X349589Y424766D01*
X352521D01*
X361166Y416121D01*
X362070Y415427D01*
X363124Y414991D01*
X364254Y414842D01*
X373680D01*
Y413578D01*
X349870D01*
X348629Y415196D01*
X346902Y416521D01*
X344891Y417354D01*
X342732Y417638D01*
X340574Y417354D01*
X338563Y416521D01*
X336836Y415196D01*
X335510Y413469D01*
X334677Y411457D01*
X334393Y409299D01*
X334677Y407141D01*
X335510Y405130D01*
X336836Y403403D01*
X338563Y402077D01*
X340574Y401244D01*
X342732Y400960D01*
X344891Y401244D01*
X346902Y402077D01*
X348629Y403403D01*
X349733Y404842D01*
X375391D01*
X375487Y404718D01*
X375635Y404604D01*
Y403817D01*
X375487Y403703D01*
X374477Y402387D01*
X373843Y400855D01*
X373692Y399710D01*
X386267D01*
X386117Y400855D01*
X385482Y402387D01*
X384472Y403703D01*
X384324Y403817D01*
Y404604D01*
X384472Y404718D01*
X384568Y404842D01*
X397638D01*
Y366142D01*
X405512Y358268D01*
Y342520D01*
X421260D01*
Y326772D01*
X330709D01*
Y496063D01*
X527559D01*
Y480315D01*
D02*
G37*
%LPC*%
G36*
X351000Y389114D02*
X343232D01*
Y381347D01*
X351000D01*
Y389114D01*
D02*
G37*
G36*
X342232Y397882D02*
X334465D01*
Y390114D01*
X342232D01*
Y397882D01*
D02*
G37*
G36*
X342520Y344953D02*
X340361Y344669D01*
X338350Y343836D01*
X336623Y342511D01*
X335298Y340784D01*
X334465Y338773D01*
X334181Y336614D01*
X334465Y334456D01*
X335298Y332445D01*
X336623Y330718D01*
X338350Y329392D01*
X340361Y328559D01*
X342520Y328275D01*
X344678Y328559D01*
X346689Y329392D01*
X348416Y330718D01*
X349742Y332445D01*
X350575Y334456D01*
X350859Y336614D01*
X350575Y338773D01*
X349742Y340784D01*
X348416Y342511D01*
X346689Y343836D01*
X344678Y344669D01*
X342520Y344953D01*
D02*
G37*
G36*
X342232Y389114D02*
X334465D01*
Y381347D01*
X342232D01*
Y389114D01*
D02*
G37*
G36*
X386267Y398710D02*
X380480D01*
Y392922D01*
X381624Y393073D01*
X383156Y393708D01*
X384472Y394718D01*
X385482Y396033D01*
X386117Y397566D01*
X386267Y398710D01*
D02*
G37*
G36*
X342520Y494559D02*
X340361Y494275D01*
X338350Y493442D01*
X336623Y492117D01*
X335298Y490390D01*
X334465Y488379D01*
X334181Y486221D01*
X334465Y484062D01*
X335298Y482051D01*
X336623Y480324D01*
X338350Y478999D01*
X340361Y478166D01*
X342520Y477881D01*
X344678Y478166D01*
X346689Y478999D01*
X348416Y480324D01*
X349742Y482051D01*
X350575Y484062D01*
X350859Y486221D01*
X350575Y488379D01*
X349742Y490390D01*
X348416Y492117D01*
X346689Y493442D01*
X344678Y494275D01*
X342520Y494559D01*
D02*
G37*
G36*
X351000Y397882D02*
X343232D01*
Y390114D01*
X351000D01*
Y397882D01*
D02*
G37*
G36*
X379480Y398710D02*
X373692D01*
X373843Y397566D01*
X374477Y396033D01*
X375487Y394718D01*
X376803Y393708D01*
X378335Y393073D01*
X379480Y392922D01*
Y398710D01*
D02*
G37*
%LPD*%
G36*
X527559Y303150D02*
X437008D01*
X397638Y263779D01*
Y259842D01*
Y246413D01*
X386279D01*
Y248344D01*
X373680D01*
Y246413D01*
X366064D01*
X357419Y255057D01*
X356515Y255751D01*
X356206Y255879D01*
X355461Y256188D01*
X354331Y256337D01*
X349589D01*
X348416Y257865D01*
X346689Y259190D01*
X344678Y260023D01*
X342520Y260308D01*
X340361Y260023D01*
X338350Y259190D01*
X336623Y257865D01*
X335298Y256138D01*
X334465Y254127D01*
X334181Y251969D01*
X334465Y249810D01*
X335298Y247799D01*
X336623Y246072D01*
X338350Y244747D01*
X340361Y243914D01*
X342520Y243629D01*
X344678Y243914D01*
X346689Y244747D01*
X348416Y246072D01*
X349589Y247600D01*
X352521D01*
X361166Y238956D01*
X362070Y238262D01*
X363124Y237826D01*
X364254Y237677D01*
X373680D01*
Y236413D01*
X349870D01*
X348629Y238031D01*
X346902Y239356D01*
X344891Y240189D01*
X342732Y240473D01*
X340574Y240189D01*
X338563Y239356D01*
X336836Y238031D01*
X335510Y236303D01*
X334677Y234292D01*
X334393Y232134D01*
X334677Y229976D01*
X335510Y227964D01*
X336836Y226237D01*
X338563Y224912D01*
X340574Y224079D01*
X342732Y223795D01*
X344891Y224079D01*
X346902Y224912D01*
X348629Y226237D01*
X349733Y227677D01*
X375391D01*
X375487Y227552D01*
X375635Y227439D01*
Y226651D01*
X375487Y226537D01*
X374477Y225222D01*
X373843Y223689D01*
X373692Y222545D01*
X386267D01*
X386117Y223689D01*
X385482Y225222D01*
X384472Y226537D01*
X384324Y226651D01*
Y227439D01*
X384472Y227552D01*
X384568Y227677D01*
X397638D01*
Y188976D01*
X405512Y181102D01*
Y165354D01*
X421260D01*
Y149606D01*
X330709D01*
Y318898D01*
X527559D01*
Y303150D01*
D02*
G37*
%LPC*%
G36*
X351000Y211949D02*
X343232D01*
Y204181D01*
X351000D01*
Y211949D01*
D02*
G37*
G36*
X342232Y220717D02*
X334465D01*
Y212949D01*
X342232D01*
Y220717D01*
D02*
G37*
G36*
X342520Y167788D02*
X340361Y167504D01*
X338350Y166671D01*
X336623Y165345D01*
X335298Y163618D01*
X334465Y161607D01*
X334181Y159449D01*
X334465Y157290D01*
X335298Y155279D01*
X336623Y153552D01*
X338350Y152227D01*
X340361Y151394D01*
X342520Y151110D01*
X344678Y151394D01*
X346689Y152227D01*
X348416Y153552D01*
X349742Y155279D01*
X350575Y157290D01*
X350859Y159449D01*
X350575Y161607D01*
X349742Y163618D01*
X348416Y165345D01*
X346689Y166671D01*
X344678Y167504D01*
X342520Y167788D01*
D02*
G37*
G36*
X342232Y211949D02*
X334465D01*
Y204181D01*
X342232D01*
Y211949D01*
D02*
G37*
G36*
X386267Y221545D02*
X380480D01*
Y215757D01*
X381624Y215908D01*
X383156Y216543D01*
X384472Y217552D01*
X385482Y218868D01*
X386117Y220401D01*
X386267Y221545D01*
D02*
G37*
G36*
X342520Y317394D02*
X340361Y317110D01*
X338350Y316277D01*
X336623Y314952D01*
X335298Y313225D01*
X334465Y311213D01*
X334181Y309055D01*
X334465Y306897D01*
X335298Y304886D01*
X336623Y303158D01*
X338350Y301833D01*
X340361Y301000D01*
X342520Y300716D01*
X344678Y301000D01*
X346689Y301833D01*
X348416Y303158D01*
X349742Y304886D01*
X350575Y306897D01*
X350859Y309055D01*
X350575Y311213D01*
X349742Y313225D01*
X348416Y314952D01*
X346689Y316277D01*
X344678Y317110D01*
X342520Y317394D01*
D02*
G37*
G36*
X351000Y220717D02*
X343232D01*
Y212949D01*
X351000D01*
Y220717D01*
D02*
G37*
G36*
X379480Y221545D02*
X373692D01*
X373843Y220401D01*
X374477Y218868D01*
X375487Y217552D01*
X376803Y216543D01*
X378335Y215908D01*
X379480Y215757D01*
Y221545D01*
D02*
G37*
%LPD*%
G36*
X527559Y653543D02*
X437008D01*
X397638Y614173D01*
Y610236D01*
Y596807D01*
X386279D01*
Y598738D01*
X373680D01*
Y596807D01*
X366064D01*
X357419Y605451D01*
X356515Y606145D01*
X356206Y606273D01*
X355461Y606581D01*
X354331Y606730D01*
X349589D01*
X348416Y608259D01*
X346689Y609584D01*
X344678Y610417D01*
X342520Y610701D01*
X340361Y610417D01*
X338350Y609584D01*
X336623Y608259D01*
X335298Y606532D01*
X334465Y604521D01*
X334181Y602362D01*
X334465Y600204D01*
X335298Y598193D01*
X336623Y596466D01*
X338350Y595140D01*
X340361Y594307D01*
X342520Y594023D01*
X344678Y594307D01*
X346689Y595140D01*
X348416Y596466D01*
X349589Y597994D01*
X352521D01*
X361166Y589350D01*
X362070Y588656D01*
X363124Y588219D01*
X364254Y588070D01*
X373680D01*
Y586807D01*
X349870D01*
X348629Y588424D01*
X346902Y589749D01*
X344891Y590582D01*
X342732Y590867D01*
X340574Y590582D01*
X338563Y589749D01*
X336836Y588424D01*
X335510Y586697D01*
X334677Y584686D01*
X334393Y582527D01*
X334677Y580369D01*
X335510Y578358D01*
X336836Y576631D01*
X338563Y575306D01*
X340574Y574473D01*
X342732Y574189D01*
X344891Y574473D01*
X346902Y575306D01*
X348629Y576631D01*
X349733Y578070D01*
X375391D01*
X375487Y577946D01*
X375635Y577832D01*
Y577045D01*
X375487Y576931D01*
X374477Y575615D01*
X373843Y574083D01*
X373692Y572939D01*
X386267D01*
X386117Y574083D01*
X385482Y575615D01*
X384472Y576931D01*
X384324Y577045D01*
Y577832D01*
X384472Y577946D01*
X384568Y578070D01*
X397638D01*
Y539370D01*
X405512Y531496D01*
Y515748D01*
X421260D01*
Y500000D01*
X330709D01*
Y669291D01*
X527559D01*
Y653543D01*
D02*
G37*
%LPC*%
G36*
X351000Y562343D02*
X343232D01*
Y554575D01*
X351000D01*
Y562343D01*
D02*
G37*
G36*
X342232Y571110D02*
X334465D01*
Y563343D01*
X342232D01*
Y571110D01*
D02*
G37*
G36*
X342520Y518182D02*
X340361Y517897D01*
X338350Y517064D01*
X336623Y515739D01*
X335298Y514012D01*
X334465Y512001D01*
X334181Y509842D01*
X334465Y507684D01*
X335298Y505673D01*
X336623Y503946D01*
X338350Y502621D01*
X340361Y501788D01*
X342520Y501504D01*
X344678Y501788D01*
X346689Y502621D01*
X348416Y503946D01*
X349742Y505673D01*
X350575Y507684D01*
X350859Y509842D01*
X350575Y512001D01*
X349742Y514012D01*
X348416Y515739D01*
X346689Y517064D01*
X344678Y517897D01*
X342520Y518182D01*
D02*
G37*
G36*
X342232Y562343D02*
X334465D01*
Y554575D01*
X342232D01*
Y562343D01*
D02*
G37*
G36*
X386267Y571939D02*
X380480D01*
Y566151D01*
X381624Y566301D01*
X383156Y566936D01*
X384472Y567946D01*
X385482Y569262D01*
X386117Y570794D01*
X386267Y571939D01*
D02*
G37*
G36*
X342520Y667788D02*
X340361Y667504D01*
X338350Y666671D01*
X336623Y665345D01*
X335298Y663618D01*
X334465Y661607D01*
X334181Y659449D01*
X334465Y657291D01*
X335298Y655279D01*
X336623Y653552D01*
X338350Y652227D01*
X340361Y651394D01*
X342520Y651110D01*
X344678Y651394D01*
X346689Y652227D01*
X348416Y653552D01*
X349742Y655279D01*
X350575Y657291D01*
X350859Y659449D01*
X350575Y661607D01*
X349742Y663618D01*
X348416Y665345D01*
X346689Y666671D01*
X344678Y667504D01*
X342520Y667788D01*
D02*
G37*
G36*
X351000Y571110D02*
X343232D01*
Y563343D01*
X351000D01*
Y571110D01*
D02*
G37*
G36*
X379480Y571939D02*
X373692D01*
X373843Y570794D01*
X374477Y569262D01*
X375487Y567946D01*
X376803Y566936D01*
X378335Y566301D01*
X379480Y566151D01*
Y571939D01*
D02*
G37*
%LPD*%
G36*
X299213Y653543D02*
X208661D01*
X169291Y614173D01*
Y610236D01*
Y596807D01*
X157932D01*
Y598738D01*
X145334D01*
Y596807D01*
X137717D01*
X129073Y605451D01*
X128168Y606145D01*
X127860Y606273D01*
X127115Y606581D01*
X125984Y606730D01*
X121243D01*
X120070Y608259D01*
X118343Y609584D01*
X116332Y610417D01*
X114173Y610701D01*
X112015Y610417D01*
X110004Y609584D01*
X108277Y608259D01*
X106951Y606532D01*
X106118Y604521D01*
X105834Y602362D01*
X106118Y600204D01*
X106951Y598193D01*
X108277Y596466D01*
X110004Y595140D01*
X112015Y594307D01*
X114173Y594023D01*
X116332Y594307D01*
X118343Y595140D01*
X120070Y596466D01*
X121243Y597994D01*
X124175D01*
X132819Y589350D01*
X133724Y588656D01*
X134777Y588219D01*
X135908Y588070D01*
X145334D01*
Y586807D01*
X121524D01*
X120282Y588424D01*
X118555Y589749D01*
X116544Y590582D01*
X114386Y590867D01*
X112227Y590582D01*
X110216Y589749D01*
X108489Y588424D01*
X107164Y586697D01*
X106331Y584686D01*
X106047Y582527D01*
X106331Y580369D01*
X107164Y578358D01*
X108489Y576631D01*
X110216Y575306D01*
X112227Y574473D01*
X114386Y574189D01*
X116544Y574473D01*
X118555Y575306D01*
X120282Y576631D01*
X121387Y578070D01*
X147045D01*
X147140Y577946D01*
X147289Y577832D01*
Y577045D01*
X147140Y576931D01*
X146131Y575615D01*
X145496Y574083D01*
X145345Y572939D01*
X157921D01*
X157770Y574083D01*
X157135Y575615D01*
X156126Y576931D01*
X155978Y577045D01*
Y577832D01*
X156126Y577946D01*
X156221Y578070D01*
X169291D01*
Y539370D01*
X177165Y531496D01*
Y515748D01*
X192913D01*
Y500000D01*
X102362D01*
Y669291D01*
X299213D01*
Y653543D01*
D02*
G37*
%LPC*%
G36*
X122653Y562343D02*
X114886D01*
Y554575D01*
X122653D01*
Y562343D01*
D02*
G37*
G36*
X113886Y571110D02*
X106118D01*
Y563343D01*
X113886D01*
Y571110D01*
D02*
G37*
G36*
X114173Y518182D02*
X112015Y517897D01*
X110004Y517064D01*
X108277Y515739D01*
X106951Y514012D01*
X106118Y512001D01*
X105834Y509842D01*
X106118Y507684D01*
X106951Y505673D01*
X108277Y503946D01*
X110004Y502621D01*
X112015Y501788D01*
X114173Y501504D01*
X116332Y501788D01*
X118343Y502621D01*
X120070Y503946D01*
X121395Y505673D01*
X122228Y507684D01*
X122512Y509842D01*
X122228Y512001D01*
X121395Y514012D01*
X120070Y515739D01*
X118343Y517064D01*
X116332Y517897D01*
X114173Y518182D01*
D02*
G37*
G36*
X113886Y562343D02*
X106118D01*
Y554575D01*
X113886D01*
Y562343D01*
D02*
G37*
G36*
X157921Y571939D02*
X152133D01*
Y566151D01*
X153278Y566301D01*
X154810Y566936D01*
X156126Y567946D01*
X157135Y569262D01*
X157770Y570794D01*
X157921Y571939D01*
D02*
G37*
G36*
X114173Y667788D02*
X112015Y667504D01*
X110004Y666671D01*
X108277Y665345D01*
X106951Y663618D01*
X106118Y661607D01*
X105834Y659449D01*
X106118Y657291D01*
X106951Y655279D01*
X108277Y653552D01*
X110004Y652227D01*
X112015Y651394D01*
X114173Y651110D01*
X116332Y651394D01*
X118343Y652227D01*
X120070Y653552D01*
X121395Y655279D01*
X122228Y657291D01*
X122512Y659449D01*
X122228Y661607D01*
X121395Y663618D01*
X120070Y665345D01*
X118343Y666671D01*
X116332Y667504D01*
X114173Y667788D01*
D02*
G37*
G36*
X122653Y571110D02*
X114886D01*
Y563343D01*
X122653D01*
Y571110D01*
D02*
G37*
G36*
X151133Y571939D02*
X145345D01*
X145496Y570794D01*
X146131Y569262D01*
X147140Y567946D01*
X148456Y566936D01*
X149989Y566301D01*
X151133Y566151D01*
Y571939D01*
D02*
G37*
%LPD*%
G36*
X299213Y303150D02*
X208661D01*
X169291Y263779D01*
Y259842D01*
Y246413D01*
X157932D01*
Y248344D01*
X145334D01*
Y246413D01*
X137717D01*
X129073Y255057D01*
X128168Y255751D01*
X127860Y255879D01*
X127115Y256188D01*
X125984Y256337D01*
X121243D01*
X120070Y257865D01*
X118343Y259190D01*
X116332Y260023D01*
X114173Y260308D01*
X112015Y260023D01*
X110004Y259190D01*
X108277Y257865D01*
X106951Y256138D01*
X106118Y254127D01*
X105834Y251969D01*
X106118Y249810D01*
X106951Y247799D01*
X108277Y246072D01*
X110004Y244747D01*
X112015Y243914D01*
X114173Y243629D01*
X116332Y243914D01*
X118343Y244747D01*
X120070Y246072D01*
X121243Y247600D01*
X124175D01*
X132819Y238956D01*
X133724Y238262D01*
X134777Y237826D01*
X135908Y237677D01*
X145334D01*
Y236413D01*
X121524D01*
X120282Y238031D01*
X118555Y239356D01*
X116544Y240189D01*
X114386Y240473D01*
X112227Y240189D01*
X110216Y239356D01*
X108489Y238031D01*
X107164Y236303D01*
X106331Y234292D01*
X106047Y232134D01*
X106331Y229976D01*
X107164Y227964D01*
X108489Y226237D01*
X110216Y224912D01*
X112227Y224079D01*
X114386Y223795D01*
X116544Y224079D01*
X118555Y224912D01*
X120282Y226237D01*
X121387Y227677D01*
X147045D01*
X147140Y227552D01*
X147289Y227439D01*
Y226651D01*
X147140Y226537D01*
X146131Y225222D01*
X145496Y223689D01*
X145345Y222545D01*
X157921D01*
X157770Y223689D01*
X157135Y225222D01*
X156126Y226537D01*
X155978Y226651D01*
Y227439D01*
X156126Y227552D01*
X156221Y227677D01*
X169291D01*
Y188976D01*
X177165Y181102D01*
Y165354D01*
X192913D01*
Y149606D01*
X102362D01*
Y318898D01*
X299213D01*
Y303150D01*
D02*
G37*
%LPC*%
G36*
X122653Y211949D02*
X114886D01*
Y204181D01*
X122653D01*
Y211949D01*
D02*
G37*
G36*
X113886Y220717D02*
X106118D01*
Y212949D01*
X113886D01*
Y220717D01*
D02*
G37*
G36*
X114173Y167788D02*
X112015Y167504D01*
X110004Y166671D01*
X108277Y165345D01*
X106951Y163618D01*
X106118Y161607D01*
X105834Y159449D01*
X106118Y157290D01*
X106951Y155279D01*
X108277Y153552D01*
X110004Y152227D01*
X112015Y151394D01*
X114173Y151110D01*
X116332Y151394D01*
X118343Y152227D01*
X120070Y153552D01*
X121395Y155279D01*
X122228Y157290D01*
X122512Y159449D01*
X122228Y161607D01*
X121395Y163618D01*
X120070Y165345D01*
X118343Y166671D01*
X116332Y167504D01*
X114173Y167788D01*
D02*
G37*
G36*
X113886Y211949D02*
X106118D01*
Y204181D01*
X113886D01*
Y211949D01*
D02*
G37*
G36*
X157921Y221545D02*
X152133D01*
Y215757D01*
X153278Y215908D01*
X154810Y216543D01*
X156126Y217552D01*
X157135Y218868D01*
X157770Y220401D01*
X157921Y221545D01*
D02*
G37*
G36*
X114173Y317394D02*
X112015Y317110D01*
X110004Y316277D01*
X108277Y314952D01*
X106951Y313225D01*
X106118Y311213D01*
X105834Y309055D01*
X106118Y306897D01*
X106951Y304886D01*
X108277Y303158D01*
X110004Y301833D01*
X112015Y301000D01*
X114173Y300716D01*
X116332Y301000D01*
X118343Y301833D01*
X120070Y303158D01*
X121395Y304886D01*
X122228Y306897D01*
X122512Y309055D01*
X122228Y311213D01*
X121395Y313225D01*
X120070Y314952D01*
X118343Y316277D01*
X116332Y317110D01*
X114173Y317394D01*
D02*
G37*
G36*
X122653Y220717D02*
X114886D01*
Y212949D01*
X122653D01*
Y220717D01*
D02*
G37*
G36*
X151133Y221545D02*
X145345D01*
X145496Y220401D01*
X146131Y218868D01*
X147140Y217552D01*
X148456Y216543D01*
X149989Y215908D01*
X151133Y215757D01*
Y221545D01*
D02*
G37*
%LPD*%
G36*
X299213Y480315D02*
X208661D01*
X169291Y440945D01*
Y437008D01*
Y423578D01*
X157932D01*
Y425509D01*
X145334D01*
Y423578D01*
X137717D01*
X129073Y432223D01*
X128168Y432917D01*
X127860Y433044D01*
X127115Y433353D01*
X125984Y433502D01*
X121243D01*
X120070Y435031D01*
X118343Y436356D01*
X116332Y437189D01*
X114173Y437473D01*
X112015Y437189D01*
X110004Y436356D01*
X108277Y435031D01*
X106951Y433303D01*
X106118Y431292D01*
X105834Y429134D01*
X106118Y426976D01*
X106951Y424964D01*
X108277Y423237D01*
X110004Y421912D01*
X112015Y421079D01*
X114173Y420795D01*
X116332Y421079D01*
X118343Y421912D01*
X120070Y423237D01*
X121243Y424766D01*
X124175D01*
X132819Y416121D01*
X133724Y415427D01*
X134777Y414991D01*
X135908Y414842D01*
X145334D01*
Y413578D01*
X121524D01*
X120282Y415196D01*
X118555Y416521D01*
X116544Y417354D01*
X114386Y417638D01*
X112227Y417354D01*
X110216Y416521D01*
X108489Y415196D01*
X107164Y413469D01*
X106331Y411457D01*
X106047Y409299D01*
X106331Y407141D01*
X107164Y405130D01*
X108489Y403403D01*
X110216Y402077D01*
X112227Y401244D01*
X114386Y400960D01*
X116544Y401244D01*
X118555Y402077D01*
X120282Y403403D01*
X121387Y404842D01*
X147045D01*
X147140Y404718D01*
X147289Y404604D01*
Y403817D01*
X147140Y403703D01*
X146131Y402387D01*
X145496Y400855D01*
X145345Y399710D01*
X157921D01*
X157770Y400855D01*
X157135Y402387D01*
X156126Y403703D01*
X155978Y403817D01*
Y404604D01*
X156126Y404718D01*
X156221Y404842D01*
X169291D01*
Y366142D01*
X177165Y358268D01*
Y342520D01*
X192913D01*
Y326772D01*
X102362D01*
Y496063D01*
X299213D01*
Y480315D01*
D02*
G37*
%LPC*%
G36*
X122653Y389114D02*
X114886D01*
Y381347D01*
X122653D01*
Y389114D01*
D02*
G37*
G36*
X113886Y397882D02*
X106118D01*
Y390114D01*
X113886D01*
Y397882D01*
D02*
G37*
G36*
X114173Y344953D02*
X112015Y344669D01*
X110004Y343836D01*
X108277Y342511D01*
X106951Y340784D01*
X106118Y338773D01*
X105834Y336614D01*
X106118Y334456D01*
X106951Y332445D01*
X108277Y330718D01*
X110004Y329392D01*
X112015Y328559D01*
X114173Y328275D01*
X116332Y328559D01*
X118343Y329392D01*
X120070Y330718D01*
X121395Y332445D01*
X122228Y334456D01*
X122512Y336614D01*
X122228Y338773D01*
X121395Y340784D01*
X120070Y342511D01*
X118343Y343836D01*
X116332Y344669D01*
X114173Y344953D01*
D02*
G37*
G36*
X113886Y389114D02*
X106118D01*
Y381347D01*
X113886D01*
Y389114D01*
D02*
G37*
G36*
X157921Y398710D02*
X152133D01*
Y392922D01*
X153278Y393073D01*
X154810Y393708D01*
X156126Y394718D01*
X157135Y396033D01*
X157770Y397566D01*
X157921Y398710D01*
D02*
G37*
G36*
X114173Y494559D02*
X112015Y494275D01*
X110004Y493442D01*
X108277Y492117D01*
X106951Y490390D01*
X106118Y488379D01*
X105834Y486221D01*
X106118Y484062D01*
X106951Y482051D01*
X108277Y480324D01*
X110004Y478999D01*
X112015Y478166D01*
X114173Y477881D01*
X116332Y478166D01*
X118343Y478999D01*
X120070Y480324D01*
X121395Y482051D01*
X122228Y484062D01*
X122512Y486221D01*
X122228Y488379D01*
X121395Y490390D01*
X120070Y492117D01*
X118343Y493442D01*
X116332Y494275D01*
X114173Y494559D01*
D02*
G37*
G36*
X122653Y397882D02*
X114886D01*
Y390114D01*
X122653D01*
Y397882D01*
D02*
G37*
G36*
X151133Y398710D02*
X145345D01*
X145496Y397566D01*
X146131Y396033D01*
X147140Y394718D01*
X148456Y393708D01*
X149989Y393073D01*
X151133Y392922D01*
Y398710D01*
D02*
G37*
%LPD*%
D10*
X726378Y415158D02*
D03*
Y407677D02*
D03*
X738189Y415158D02*
D03*
Y407677D02*
D03*
X726378Y237992D02*
D03*
Y230512D02*
D03*
X738189Y237992D02*
D03*
Y230512D02*
D03*
X726378Y588386D02*
D03*
Y580905D02*
D03*
X738189Y588386D02*
D03*
Y580905D02*
D03*
X498032Y415158D02*
D03*
Y407677D02*
D03*
X509842Y415158D02*
D03*
Y407677D02*
D03*
X498032Y237992D02*
D03*
Y230512D02*
D03*
X509842Y237992D02*
D03*
Y230512D02*
D03*
X498032Y588386D02*
D03*
Y580905D02*
D03*
X509842Y588386D02*
D03*
Y580905D02*
D03*
X269685Y588386D02*
D03*
Y580905D02*
D03*
X281496Y588386D02*
D03*
Y580905D02*
D03*
X269685Y237992D02*
D03*
Y230512D02*
D03*
X281496Y237992D02*
D03*
Y230512D02*
D03*
X269685Y415158D02*
D03*
Y407677D02*
D03*
X281496Y415158D02*
D03*
Y407677D02*
D03*
D11*
X730512Y434842D02*
D03*
Y427362D02*
D03*
X722244Y431102D02*
D03*
X730512Y257677D02*
D03*
Y250197D02*
D03*
X722244Y253937D02*
D03*
X730512Y608071D02*
D03*
Y600591D02*
D03*
X722244Y604331D02*
D03*
X502165Y434842D02*
D03*
Y427362D02*
D03*
X493898Y431102D02*
D03*
X502165Y257677D02*
D03*
Y250197D02*
D03*
X493898Y253937D02*
D03*
X502165Y608071D02*
D03*
Y600591D02*
D03*
X493898Y604331D02*
D03*
X273819Y608071D02*
D03*
Y600591D02*
D03*
X265551Y604331D02*
D03*
X273819Y257677D02*
D03*
Y250197D02*
D03*
X265551Y253937D02*
D03*
X273819Y434842D02*
D03*
Y427362D02*
D03*
X265551Y431102D02*
D03*
D12*
X675197Y425394D02*
D03*
Y413189D02*
D03*
X740158Y437205D02*
D03*
Y425000D02*
D03*
X675197Y248228D02*
D03*
Y236024D02*
D03*
X740158Y260039D02*
D03*
Y247835D02*
D03*
X675197Y598622D02*
D03*
Y586417D02*
D03*
X740158Y610433D02*
D03*
Y598228D02*
D03*
X446850Y425394D02*
D03*
Y413189D02*
D03*
X511811Y437205D02*
D03*
Y425000D02*
D03*
X446850Y248228D02*
D03*
Y236024D02*
D03*
X511811Y260039D02*
D03*
Y247835D02*
D03*
X446850Y598622D02*
D03*
Y586417D02*
D03*
X511811Y610433D02*
D03*
Y598228D02*
D03*
X218504Y598622D02*
D03*
Y586417D02*
D03*
X283465Y610433D02*
D03*
Y598228D02*
D03*
X218504Y248228D02*
D03*
Y236024D02*
D03*
X283465Y260039D02*
D03*
Y247835D02*
D03*
X218504Y425394D02*
D03*
Y413189D02*
D03*
X283465Y437205D02*
D03*
Y425000D02*
D03*
D13*
X738189Y415158D02*
Y425197D01*
X608326Y399210D02*
X657876D01*
X667323Y389764D01*
Y377953D02*
Y389764D01*
Y377953D02*
X683071Y362205D01*
X734252D01*
X748032Y375984D01*
Y411417D01*
X744291Y415158D02*
X748032Y411417D01*
X738189Y415158D02*
X744291D01*
X710630Y401575D02*
X716732Y407677D01*
X726378D01*
Y415158D02*
X738189D01*
Y383858D02*
Y407677D01*
X724409Y370079D02*
X738189Y383858D01*
X687008Y370079D02*
X724409D01*
X675197Y381890D02*
X687008Y370079D01*
X675197Y381890D02*
Y413189D01*
X737795Y427362D02*
X740158Y425000D01*
X671218Y409210D02*
X675197Y413189D01*
X608326Y409210D02*
X671218D01*
X728150Y437205D02*
X740158D01*
X718504Y446850D02*
X728150Y437205D01*
X688976Y446850D02*
X718504D01*
X683071Y440945D02*
X688976Y446850D01*
X683071Y433268D02*
Y440945D01*
X675197Y425394D02*
X683071Y433268D01*
X730512Y427362D02*
X737795D01*
X737795Y434842D02*
X740158Y437205D01*
X730512Y434842D02*
X737795D01*
X692913Y431102D02*
X722244D01*
X645669Y425197D02*
X651575Y419291D01*
X692913D02*
X710630Y401575D01*
Y389827D02*
Y401575D01*
X645669Y425197D02*
Y431102D01*
X639683Y419210D02*
X645669Y425197D01*
X608326Y419210D02*
X639683D01*
X592124Y399210D02*
X608326D01*
X582527Y389614D02*
X592124Y399210D01*
X571079Y389614D02*
X582527D01*
X571168Y409210D02*
X608326D01*
X592601Y419210D02*
X608326D01*
X582677Y429134D02*
X592601Y419210D01*
X570866Y429134D02*
X582677D01*
X738189Y237992D02*
Y248031D01*
X608326Y222045D02*
X657876D01*
X667323Y212598D01*
Y200787D02*
Y212598D01*
Y200787D02*
X683071Y185039D01*
X734252D01*
X748032Y198819D01*
Y234252D01*
X744291Y237992D02*
X748032Y234252D01*
X738189Y237992D02*
X744291D01*
X710630Y224410D02*
X716732Y230512D01*
X726378D01*
Y237992D02*
X738189D01*
Y206693D02*
Y230512D01*
X724409Y192913D02*
X738189Y206693D01*
X687008Y192913D02*
X724409D01*
X675197Y204724D02*
X687008Y192913D01*
X675197Y204724D02*
Y236024D01*
X737795Y250197D02*
X740158Y247835D01*
X671218Y232045D02*
X675197Y236024D01*
X608326Y232045D02*
X671218D01*
X728150Y260039D02*
X740158D01*
X718504Y269685D02*
X728150Y260039D01*
X688976Y269685D02*
X718504D01*
X683071Y263779D02*
X688976Y269685D01*
X683071Y256102D02*
Y263779D01*
X675197Y248228D02*
X683071Y256102D01*
X730512Y250197D02*
X737795D01*
X737795Y257677D02*
X740158Y260039D01*
X730512Y257677D02*
X737795D01*
X692913Y253937D02*
X722244D01*
X645669Y248031D02*
X651575Y242126D01*
X692913D02*
X710630Y224410D01*
Y212661D02*
Y224410D01*
X645669Y248031D02*
Y253937D01*
X639683Y242045D02*
X645669Y248031D01*
X608326Y242045D02*
X639683D01*
X592124Y222045D02*
X608326D01*
X582527Y212449D02*
X592124Y222045D01*
X571079Y212449D02*
X582527D01*
X571168Y232045D02*
X608326D01*
X592601Y242045D02*
X608326D01*
X582677Y251969D02*
X592601Y242045D01*
X570866Y251969D02*
X582677D01*
X738189Y588386D02*
Y598425D01*
X608326Y572439D02*
X657876D01*
X667323Y562992D01*
Y551181D02*
Y562992D01*
Y551181D02*
X683071Y535433D01*
X734252D01*
X748032Y549213D01*
Y584646D01*
X744291Y588386D02*
X748032Y584646D01*
X738189Y588386D02*
X744291D01*
X710630Y574803D02*
X716732Y580905D01*
X726378D01*
Y588386D02*
X738189D01*
Y557087D02*
Y580905D01*
X724409Y543307D02*
X738189Y557087D01*
X687008Y543307D02*
X724409D01*
X675197Y555118D02*
X687008Y543307D01*
X675197Y555118D02*
Y586417D01*
X737795Y600591D02*
X740158Y598228D01*
X671218Y582439D02*
X675197Y586417D01*
X608326Y582439D02*
X671218D01*
X728150Y610433D02*
X740158D01*
X718504Y620079D02*
X728150Y610433D01*
X688976Y620079D02*
X718504D01*
X683071Y614173D02*
X688976Y620079D01*
X683071Y606496D02*
Y614173D01*
X675197Y598622D02*
X683071Y606496D01*
X730512Y600591D02*
X737795D01*
X737795Y608071D02*
X740158Y610433D01*
X730512Y608071D02*
X737795D01*
X692913Y604331D02*
X722244D01*
X645669Y598425D02*
X651575Y592520D01*
X692913D02*
X710630Y574803D01*
Y563055D02*
Y574803D01*
X645669Y598425D02*
Y604331D01*
X639683Y592439D02*
X645669Y598425D01*
X608326Y592439D02*
X639683D01*
X592124Y572439D02*
X608326D01*
X582527Y562843D02*
X592124Y572439D01*
X571079Y562843D02*
X582527D01*
X571168Y582439D02*
X608326D01*
X592601Y592439D02*
X608326D01*
X582677Y602362D02*
X592601Y592439D01*
X570866Y602362D02*
X582677D01*
X509842Y415158D02*
Y425197D01*
X379979Y399210D02*
X429530D01*
X438976Y389764D01*
Y377953D02*
Y389764D01*
Y377953D02*
X454724Y362205D01*
X505905D01*
X519685Y375984D01*
Y411417D01*
X515945Y415158D02*
X519685Y411417D01*
X509842Y415158D02*
X515945D01*
X482283Y401575D02*
X488386Y407677D01*
X498032D01*
Y415158D02*
X509842D01*
Y383858D02*
Y407677D01*
X496063Y370079D02*
X509842Y383858D01*
X458661Y370079D02*
X496063D01*
X446850Y381890D02*
X458661Y370079D01*
X446850Y381890D02*
Y413189D01*
X509449Y427362D02*
X511811Y425000D01*
X442872Y409210D02*
X446850Y413189D01*
X379979Y409210D02*
X442872D01*
X499803Y437205D02*
X511811D01*
X490158Y446850D02*
X499803Y437205D01*
X460630Y446850D02*
X490158D01*
X454724Y440945D02*
X460630Y446850D01*
X454724Y433268D02*
Y440945D01*
X446850Y425394D02*
X454724Y433268D01*
X502165Y427362D02*
X509449D01*
X509449Y434842D02*
X511811Y437205D01*
X502165Y434842D02*
X509449D01*
X464567Y431102D02*
X493898D01*
X417323Y425197D02*
X423228Y419291D01*
X464567D02*
X482283Y401575D01*
Y389827D02*
Y401575D01*
X417323Y425197D02*
Y431102D01*
X411336Y419210D02*
X417323Y425197D01*
X379979Y419210D02*
X411336D01*
X363777Y399210D02*
X379979D01*
X354181Y389614D02*
X363777Y399210D01*
X342732Y389614D02*
X354181D01*
X342821Y409210D02*
X379979D01*
X364254Y419210D02*
X379979D01*
X354331Y429134D02*
X364254Y419210D01*
X342520Y429134D02*
X354331D01*
X509842Y237992D02*
Y248031D01*
X379979Y222045D02*
X429530D01*
X438976Y212598D01*
Y200787D02*
Y212598D01*
Y200787D02*
X454724Y185039D01*
X505905D01*
X519685Y198819D01*
Y234252D01*
X515945Y237992D02*
X519685Y234252D01*
X509842Y237992D02*
X515945D01*
X482283Y224410D02*
X488386Y230512D01*
X498032D01*
Y237992D02*
X509842D01*
Y206693D02*
Y230512D01*
X496063Y192913D02*
X509842Y206693D01*
X458661Y192913D02*
X496063D01*
X446850Y204724D02*
X458661Y192913D01*
X446850Y204724D02*
Y236024D01*
X509449Y250197D02*
X511811Y247835D01*
X442872Y232045D02*
X446850Y236024D01*
X379979Y232045D02*
X442872D01*
X499803Y260039D02*
X511811D01*
X490158Y269685D02*
X499803Y260039D01*
X460630Y269685D02*
X490158D01*
X454724Y263779D02*
X460630Y269685D01*
X454724Y256102D02*
Y263779D01*
X446850Y248228D02*
X454724Y256102D01*
X502165Y250197D02*
X509449D01*
X509449Y257677D02*
X511811Y260039D01*
X502165Y257677D02*
X509449D01*
X464567Y253937D02*
X493898D01*
X417323Y248031D02*
X423228Y242126D01*
X464567D02*
X482283Y224410D01*
Y212661D02*
Y224410D01*
X417323Y248031D02*
Y253937D01*
X411336Y242045D02*
X417323Y248031D01*
X379979Y242045D02*
X411336D01*
X363777Y222045D02*
X379979D01*
X354181Y212449D02*
X363777Y222045D01*
X342732Y212449D02*
X354181D01*
X342821Y232045D02*
X379979D01*
X364254Y242045D02*
X379979D01*
X354331Y251969D02*
X364254Y242045D01*
X342520Y251969D02*
X354331D01*
X509842Y588386D02*
Y598425D01*
X379979Y572439D02*
X429530D01*
X438976Y562992D01*
Y551181D02*
Y562992D01*
Y551181D02*
X454724Y535433D01*
X505905D01*
X519685Y549213D01*
Y584646D01*
X515945Y588386D02*
X519685Y584646D01*
X509842Y588386D02*
X515945D01*
X482283Y574803D02*
X488386Y580905D01*
X498032D01*
Y588386D02*
X509842D01*
Y557087D02*
Y580905D01*
X496063Y543307D02*
X509842Y557087D01*
X458661Y543307D02*
X496063D01*
X446850Y555118D02*
X458661Y543307D01*
X446850Y555118D02*
Y586417D01*
X509449Y600591D02*
X511811Y598228D01*
X442872Y582439D02*
X446850Y586417D01*
X379979Y582439D02*
X442872D01*
X499803Y610433D02*
X511811D01*
X490158Y620079D02*
X499803Y610433D01*
X460630Y620079D02*
X490158D01*
X454724Y614173D02*
X460630Y620079D01*
X454724Y606496D02*
Y614173D01*
X446850Y598622D02*
X454724Y606496D01*
X502165Y600591D02*
X509449D01*
X509449Y608071D02*
X511811Y610433D01*
X502165Y608071D02*
X509449D01*
X464567Y604331D02*
X493898D01*
X417323Y598425D02*
X423228Y592520D01*
X464567D02*
X482283Y574803D01*
Y563055D02*
Y574803D01*
X417323Y598425D02*
Y604331D01*
X411336Y592439D02*
X417323Y598425D01*
X379979Y592439D02*
X411336D01*
X363777Y572439D02*
X379979D01*
X354181Y562843D02*
X363777Y572439D01*
X342732Y562843D02*
X354181D01*
X342821Y582439D02*
X379979D01*
X364254Y592439D02*
X379979D01*
X354331Y602362D02*
X364254Y592439D01*
X342520Y602362D02*
X354331D01*
X281496Y588386D02*
Y598425D01*
X151633Y572439D02*
X201184D01*
X210630Y562992D01*
Y551181D02*
Y562992D01*
Y551181D02*
X226378Y535433D01*
X277559D01*
X291339Y549213D01*
Y584646D01*
X287598Y588386D02*
X291339Y584646D01*
X281496Y588386D02*
X287598D01*
X253937Y574803D02*
X260039Y580905D01*
X269685D01*
Y588386D02*
X281496D01*
Y557087D02*
Y580905D01*
X267717Y543307D02*
X281496Y557087D01*
X230315Y543307D02*
X267717D01*
X218504Y555118D02*
X230315Y543307D01*
X218504Y555118D02*
Y586417D01*
X281102Y600591D02*
X283465Y598228D01*
X214525Y582439D02*
X218504Y586417D01*
X151633Y582439D02*
X214525D01*
X271457Y610433D02*
X283465D01*
X261811Y620079D02*
X271457Y610433D01*
X232283Y620079D02*
X261811D01*
X226378Y614173D02*
X232283Y620079D01*
X226378Y606496D02*
Y614173D01*
X218504Y598622D02*
X226378Y606496D01*
X273819Y600591D02*
X281102D01*
X281102Y608071D02*
X283465Y610433D01*
X273819Y608071D02*
X281102D01*
X236221Y604331D02*
X265551D01*
X188976Y598425D02*
X194882Y592520D01*
X236221D02*
X253937Y574803D01*
Y563055D02*
Y574803D01*
X188976Y598425D02*
Y604331D01*
X182990Y592439D02*
X188976Y598425D01*
X151633Y592439D02*
X182990D01*
X135431Y572439D02*
X151633D01*
X125835Y562843D02*
X135431Y572439D01*
X114386Y562843D02*
X125835D01*
X114475Y582439D02*
X151633D01*
X135908Y592439D02*
X151633D01*
X125984Y602362D02*
X135908Y592439D01*
X114173Y602362D02*
X125984D01*
X281496Y237992D02*
Y248031D01*
X151633Y222045D02*
X201184D01*
X210630Y212598D01*
Y200787D02*
Y212598D01*
Y200787D02*
X226378Y185039D01*
X277559D01*
X291339Y198819D01*
Y234252D01*
X287598Y237992D02*
X291339Y234252D01*
X281496Y237992D02*
X287598D01*
X253937Y224410D02*
X260039Y230512D01*
X269685D01*
Y237992D02*
X281496D01*
Y206693D02*
Y230512D01*
X267717Y192913D02*
X281496Y206693D01*
X230315Y192913D02*
X267717D01*
X218504Y204724D02*
X230315Y192913D01*
X218504Y204724D02*
Y236024D01*
X281102Y250197D02*
X283465Y247835D01*
X214525Y232045D02*
X218504Y236024D01*
X151633Y232045D02*
X214525D01*
X271457Y260039D02*
X283465D01*
X261811Y269685D02*
X271457Y260039D01*
X232283Y269685D02*
X261811D01*
X226378Y263779D02*
X232283Y269685D01*
X226378Y256102D02*
Y263779D01*
X218504Y248228D02*
X226378Y256102D01*
X273819Y250197D02*
X281102D01*
X281102Y257677D02*
X283465Y260039D01*
X273819Y257677D02*
X281102D01*
X236221Y253937D02*
X265551D01*
X188976Y248031D02*
X194882Y242126D01*
X236221D02*
X253937Y224410D01*
Y212661D02*
Y224410D01*
X188976Y248031D02*
Y253937D01*
X182990Y242045D02*
X188976Y248031D01*
X151633Y242045D02*
X182990D01*
X135431Y222045D02*
X151633D01*
X125835Y212449D02*
X135431Y222045D01*
X114386Y212449D02*
X125835D01*
X114475Y232045D02*
X151633D01*
X135908Y242045D02*
X151633D01*
X125984Y251969D02*
X135908Y242045D01*
X114173Y251969D02*
X125984D01*
X281496Y415158D02*
Y425197D01*
X151633Y399210D02*
X201184D01*
X210630Y389764D01*
Y377953D02*
Y389764D01*
Y377953D02*
X226378Y362205D01*
X277559D01*
X291339Y375984D01*
Y411417D01*
X287598Y415158D02*
X291339Y411417D01*
X281496Y415158D02*
X287598D01*
X253937Y401575D02*
X260039Y407677D01*
X269685D01*
Y415158D02*
X281496D01*
Y383858D02*
Y407677D01*
X267717Y370079D02*
X281496Y383858D01*
X230315Y370079D02*
X267717D01*
X218504Y381890D02*
X230315Y370079D01*
X218504Y381890D02*
Y413189D01*
X281102Y427362D02*
X283465Y425000D01*
X214525Y409210D02*
X218504Y413189D01*
X151633Y409210D02*
X214525D01*
X271457Y437205D02*
X283465D01*
X261811Y446850D02*
X271457Y437205D01*
X232283Y446850D02*
X261811D01*
X226378Y440945D02*
X232283Y446850D01*
X226378Y433268D02*
Y440945D01*
X218504Y425394D02*
X226378Y433268D01*
X273819Y427362D02*
X281102D01*
X281102Y434842D02*
X283465Y437205D01*
X273819Y434842D02*
X281102D01*
X236221Y431102D02*
X265551D01*
X188976Y425197D02*
X194882Y419291D01*
X236221D02*
X253937Y401575D01*
Y389827D02*
Y401575D01*
X188976Y425197D02*
Y431102D01*
X182990Y419210D02*
X188976Y425197D01*
X151633Y419210D02*
X182990D01*
X135431Y399210D02*
X151633D01*
X125835Y389614D02*
X135431Y399210D01*
X114386Y389614D02*
X125835D01*
X114475Y409210D02*
X151633D01*
X135908Y419210D02*
X151633D01*
X125984Y429134D02*
X135908Y419210D01*
X114173Y429134D02*
X125984D01*
D14*
X744095Y352362D02*
X761992Y370260D01*
X659449Y352362D02*
X744095D01*
X645669Y366142D02*
X659449Y352362D01*
X761992Y421410D02*
Y450606D01*
X746063Y466535D02*
X761992Y450606D01*
X687008Y466535D02*
X746063D01*
X669291Y448819D02*
X687008Y466535D01*
X669291Y438976D02*
Y448819D01*
X761992Y370260D02*
Y401724D01*
X645669Y366142D02*
Y383858D01*
X744095Y175197D02*
X761992Y193095D01*
X659449Y175197D02*
X744095D01*
X645669Y188976D02*
X659449Y175197D01*
X761992Y244244D02*
Y273441D01*
X746063Y289370D02*
X761992Y273441D01*
X687008Y289370D02*
X746063D01*
X669291Y271654D02*
X687008Y289370D01*
X669291Y261811D02*
Y271654D01*
X761992Y193095D02*
Y224559D01*
X645669Y188976D02*
Y206693D01*
X744095Y525591D02*
X761992Y543488D01*
X659449Y525591D02*
X744095D01*
X645669Y539370D02*
X659449Y525591D01*
X761992Y594638D02*
Y623835D01*
X746063Y639764D02*
X761992Y623835D01*
X687008Y639764D02*
X746063D01*
X669291Y622047D02*
X687008Y639764D01*
X669291Y612205D02*
Y622047D01*
X761992Y543488D02*
Y574953D01*
X645669Y539370D02*
Y557087D01*
X515748Y352362D02*
X533646Y370260D01*
X431102Y352362D02*
X515748D01*
X417323Y366142D02*
X431102Y352362D01*
X533646Y421410D02*
Y450606D01*
X517717Y466535D02*
X533646Y450606D01*
X458661Y466535D02*
X517717D01*
X440945Y448819D02*
X458661Y466535D01*
X440945Y438976D02*
Y448819D01*
X533646Y370260D02*
Y401724D01*
X417323Y366142D02*
Y383858D01*
X515748Y175197D02*
X533646Y193095D01*
X431102Y175197D02*
X515748D01*
X417323Y188976D02*
X431102Y175197D01*
X533646Y244244D02*
Y273441D01*
X517717Y289370D02*
X533646Y273441D01*
X458661Y289370D02*
X517717D01*
X440945Y271654D02*
X458661Y289370D01*
X440945Y261811D02*
Y271654D01*
X533646Y193095D02*
Y224559D01*
X417323Y188976D02*
Y206693D01*
X515748Y525591D02*
X533646Y543488D01*
X431102Y525591D02*
X515748D01*
X417323Y539370D02*
X431102Y525591D01*
X533646Y594638D02*
Y623835D01*
X517717Y639764D02*
X533646Y623835D01*
X458661Y639764D02*
X517717D01*
X440945Y622047D02*
X458661Y639764D01*
X440945Y612205D02*
Y622047D01*
X533646Y543488D02*
Y574953D01*
X417323Y539370D02*
Y557087D01*
X287402Y525591D02*
X305299Y543488D01*
X202756Y525591D02*
X287402D01*
X188976Y539370D02*
X202756Y525591D01*
X305299Y594638D02*
Y623835D01*
X289370Y639764D02*
X305299Y623835D01*
X230315Y639764D02*
X289370D01*
X212598Y622047D02*
X230315Y639764D01*
X212598Y612205D02*
Y622047D01*
X305299Y543488D02*
Y574953D01*
X188976Y539370D02*
Y557087D01*
X287402Y175197D02*
X305299Y193095D01*
X202756Y175197D02*
X287402D01*
X188976Y188976D02*
X202756Y175197D01*
X305299Y244244D02*
Y273441D01*
X289370Y289370D02*
X305299Y273441D01*
X230315Y289370D02*
X289370D01*
X212598Y271654D02*
X230315Y289370D01*
X212598Y261811D02*
Y271654D01*
X305299Y193095D02*
Y224559D01*
X188976Y188976D02*
Y206693D01*
X287402Y352362D02*
X305299Y370260D01*
X202756Y352362D02*
X287402D01*
X188976Y366142D02*
X202756Y352362D01*
X305299Y421410D02*
Y450606D01*
X289370Y466535D02*
X305299Y450606D01*
X230315Y466535D02*
X289370D01*
X212598Y448819D02*
X230315Y466535D01*
X212598Y438976D02*
Y448819D01*
X305299Y370260D02*
Y401724D01*
X188976Y366142D02*
Y383858D01*
D15*
X651575Y419291D02*
X692913D01*
X651575Y242126D02*
X692913D01*
X651575Y592520D02*
X692913D01*
X423228Y419291D02*
X464567D01*
X423228Y242126D02*
X464567D01*
X423228Y592520D02*
X464567D01*
X194882D02*
X236221D01*
X194882Y242126D02*
X236221D01*
X194882Y419291D02*
X236221D01*
D16*
X702756Y332677D02*
D03*
Y155512D02*
D03*
Y505905D02*
D03*
X474409Y332677D02*
D03*
Y155512D02*
D03*
Y505905D02*
D03*
X246063D02*
D03*
Y155512D02*
D03*
Y332677D02*
D03*
D17*
X675197Y410433D02*
D03*
Y233268D02*
D03*
Y583661D02*
D03*
X446850Y410433D02*
D03*
Y233268D02*
D03*
Y583661D02*
D03*
X218504D02*
D03*
Y233268D02*
D03*
Y410433D02*
D03*
D18*
X645669Y426181D02*
D03*
Y249016D02*
D03*
Y599409D02*
D03*
X417323Y426181D02*
D03*
Y249016D02*
D03*
Y599409D02*
D03*
X188976D02*
D03*
Y249016D02*
D03*
Y426181D02*
D03*
D19*
X761992Y421410D02*
D03*
X571079Y389614D02*
D03*
X761992Y244244D02*
D03*
X571079Y212449D02*
D03*
X761992Y594638D02*
D03*
X571079Y562843D02*
D03*
X533646Y421410D02*
D03*
X342732Y389614D02*
D03*
X533646Y244244D02*
D03*
X342732Y212449D02*
D03*
X533646Y594638D02*
D03*
X342732Y562843D02*
D03*
X305299Y594638D02*
D03*
X114386Y562843D02*
D03*
X305299Y244244D02*
D03*
X114386Y212449D02*
D03*
X305299Y421410D02*
D03*
X114386Y389614D02*
D03*
D20*
X761992Y401724D02*
D03*
X571079Y409299D02*
D03*
X570866Y429134D02*
D03*
Y486221D02*
D03*
X767717D02*
D03*
Y336614D02*
D03*
X570866D02*
D03*
X761992Y224559D02*
D03*
X571079Y232134D02*
D03*
X570866Y251969D02*
D03*
Y309055D02*
D03*
X767717D02*
D03*
Y159449D02*
D03*
X570866D02*
D03*
X761992Y574953D02*
D03*
X571079Y582527D02*
D03*
X570866Y602362D02*
D03*
Y659449D02*
D03*
X767717D02*
D03*
Y509842D02*
D03*
X570866D02*
D03*
X533646Y401724D02*
D03*
X342732Y409299D02*
D03*
X342520Y429134D02*
D03*
Y486221D02*
D03*
X539370D02*
D03*
Y336614D02*
D03*
X342520D02*
D03*
X533646Y224559D02*
D03*
X342732Y232134D02*
D03*
X342520Y251969D02*
D03*
Y309055D02*
D03*
X539370D02*
D03*
Y159449D02*
D03*
X342520D02*
D03*
X533646Y574953D02*
D03*
X342732Y582527D02*
D03*
X342520Y602362D02*
D03*
Y659449D02*
D03*
X539370D02*
D03*
Y509842D02*
D03*
X342520D02*
D03*
X305299Y574953D02*
D03*
X114386Y582527D02*
D03*
X114173Y602362D02*
D03*
Y659449D02*
D03*
X311024D02*
D03*
Y509842D02*
D03*
X114173D02*
D03*
X305299Y224559D02*
D03*
X114386Y232134D02*
D03*
X114173Y251969D02*
D03*
Y309055D02*
D03*
X311024D02*
D03*
Y159449D02*
D03*
X114173D02*
D03*
X305299Y401724D02*
D03*
X114386Y409299D02*
D03*
X114173Y429134D02*
D03*
Y486221D02*
D03*
X311024D02*
D03*
Y336614D02*
D03*
X114173D02*
D03*
D21*
X669291Y438976D02*
D03*
X692913Y431102D02*
D03*
Y383858D02*
D03*
X645669D02*
D03*
Y431102D02*
D03*
X608326Y399210D02*
D03*
Y409210D02*
D03*
X710630Y431008D02*
D03*
X669291Y261811D02*
D03*
X692913Y253937D02*
D03*
Y206693D02*
D03*
X645669D02*
D03*
Y253937D02*
D03*
X608326Y222045D02*
D03*
Y232045D02*
D03*
X710630Y253842D02*
D03*
X669291Y612205D02*
D03*
X692913Y604331D02*
D03*
Y557087D02*
D03*
X645669D02*
D03*
Y604331D02*
D03*
X608326Y572439D02*
D03*
Y582439D02*
D03*
X710630Y604236D02*
D03*
X440945Y438976D02*
D03*
X464567Y431102D02*
D03*
Y383858D02*
D03*
X417323D02*
D03*
Y431102D02*
D03*
X379979Y399210D02*
D03*
Y409210D02*
D03*
X482283Y431008D02*
D03*
X440945Y261811D02*
D03*
X464567Y253937D02*
D03*
Y206693D02*
D03*
X417323D02*
D03*
Y253937D02*
D03*
X379979Y222045D02*
D03*
Y232045D02*
D03*
X482283Y253842D02*
D03*
X440945Y612205D02*
D03*
X464567Y604331D02*
D03*
Y557087D02*
D03*
X417323D02*
D03*
Y604331D02*
D03*
X379979Y572439D02*
D03*
Y582439D02*
D03*
X482283Y604236D02*
D03*
X212598Y612205D02*
D03*
X236221Y604331D02*
D03*
Y557087D02*
D03*
X188976D02*
D03*
Y604331D02*
D03*
X151633Y572439D02*
D03*
Y582439D02*
D03*
X253937Y604236D02*
D03*
X212598Y261811D02*
D03*
X236221Y253937D02*
D03*
Y206693D02*
D03*
X188976D02*
D03*
Y253937D02*
D03*
X151633Y222045D02*
D03*
Y232045D02*
D03*
X253937Y253842D02*
D03*
X212598Y438976D02*
D03*
X236221Y431102D02*
D03*
Y383858D02*
D03*
X188976D02*
D03*
Y431102D02*
D03*
X151633Y399210D02*
D03*
Y409210D02*
D03*
X253937Y431008D02*
D03*
D22*
X608326Y419210D02*
D03*
X710630Y389827D02*
D03*
X608326Y242045D02*
D03*
X710630Y212661D02*
D03*
X608326Y592439D02*
D03*
X710630Y563055D02*
D03*
X379979Y419210D02*
D03*
X482283Y389827D02*
D03*
X379979Y242045D02*
D03*
X482283Y212661D02*
D03*
X379979Y592439D02*
D03*
X482283Y563055D02*
D03*
X151633Y592439D02*
D03*
X253937Y563055D02*
D03*
X151633Y242045D02*
D03*
X253937Y212661D02*
D03*
X151633Y419210D02*
D03*
X253937Y389827D02*
D03*
M02*
