%!PS-Adobe-3.0 EPSF-3.0
%%Title: EAGLE Drawing /home/sarge/Diymicro.ru/diymicro.ru/Projects/TRHonline/Tx part/PCB/TestPCBv1/TestPCBv1.brd
%%Creator: EAGLE
%%Pages: 1
%%BoundingBox: 0 0 234 162
%%EndComments

% Coordinate transfer:

/EU { 254 div 0.072 mul } def
/inch { 72 mul } def

% Linestyle:

1 setlinecap
1 setlinejoin

% Drawing functions:

/l {  % draw a line
   /lw exch def
   /y2 exch def
   /x2 exch def
   /y1 exch def
   /x1 exch def
   newpath
   x1 EU y1 EU moveto
   x2 EU y2 EU lineto
   lw EU setlinewidth
   stroke
   } def

/h {  % draw a hole
   /d  exch def
   /y  exch def
   /x  exch def
   d 0 gt {
     newpath
     x EU y EU d 2 div EU 0 360 arc
     currentgray dup
     1 exch sub setgray
     fill
     setgray
     } if
   } def

/b {  % draw a bar
   /an exch def
   /y2 exch def
   /x2 exch def
   /y1 exch def
   /x1 exch def
   /w2 x2 x1 sub 2 div EU def
   /h2 y2 y1 sub 2 div EU def
   gsave
   x1 x2 add 2 div EU y1 y2 add 2 div EU translate
   an rotate
   newpath
   w2     h2     moveto
   w2 neg h2     lineto
   w2 neg h2 neg lineto
   w2     h2 neg lineto
   closepath
   fill
   grestore
   } def

/c {  % draw a circle
   /lw exch def
   /rd exch def
   /y  exch def
   /x  exch def
   newpath
   lw EU setlinewidth
   x EU y EU rd EU 0 360 arc
   stroke
   } def

/a {  % draw an arc
   /lc exch def
   /ae exch def
   /as exch def
   /lw exch def
   /rd exch def
   /y  exch def
   /x  exch def
   lw rd 2 mul gt {
     /rd rd lw 2 div add 2 div def
     /lw rd 2 mul def
     } if
   currentlinecap currentlinejoin
   lc setlinecap 0 setlinejoin
   newpath
   lw EU setlinewidth
   x EU y EU rd EU as ae arc
   stroke
   setlinejoin setlinecap
   } def

/p {  % draw a pie
   /d exch def
   /y exch def
   /x exch def
   newpath
   x EU y EU d 2 div EU 0 360 arc
   fill
   } def

/edge { 0.20710678119 mul } def

/o {  % draw an octagon
   /an exch def
   /dy exch def
   /dx exch def
   /y  exch def
   /x  exch def
   gsave
   x EU y EU translate
   an dx dy lt { 90 add /dx dy /dy dx def def } if rotate
   newpath
      0 dx 2 div sub EU                    0 dy edge  add EU moveto
      0 dx dy sub 2 div sub dy edge sub EU 0 dy 2 div add EU lineto
      0 dx dy sub 2 div add dy edge add EU 0 dy 2 div add EU lineto
      0 dx 2 div add EU                    0 dy edge  add EU lineto
      0 dx 2 div add EU                    0 dy edge  sub EU lineto
      0 dx dy sub 2 div add dy edge add EU 0 dy 2 div sub EU lineto
      0 dx dy sub 2 div sub dy edge sub EU 0 dy 2 div sub EU lineto
      0 dx 2 div sub EU                    0 dy edge  sub EU lineto
   closepath
   fill
   grestore
   } def

38500 452300 76600 490400 0.0 b
400 452300 25800 490400 0.0 b
178800 549700 191500 575100 0.0 b
140700 549700 191500 575100 0.0 b
246000 582000 267000 603000 0.0 b
24000 604000 48000 624000 0.0 b
58000 604000 76000 622000 0.0 b
36000 574000 68000 600000 0.0 b
254000 584200 266700 596900 0.0 b
254000 584200 266700 596900 0.0 b
459000 591000 477000 615000 0.0 b
483000 594000 507000 615000 0.0 b
459000 585000 477000 594000 0.0 b
456000 621000 480000 642000 0.0 b
486000 624000 501000 639000 0.0 b
486000 648000 504000 666000 0.0 b
456000 648000 477000 666000 0.0 b
456000 672000 477000 693000 0.0 b
483000 675000 501000 690000 0.0 b
483000 687000 501000 693000 0.0 b
483000 687000 489000 699000 0.0 b
633000 330000 645000 798000 0.0 b
84000 639000 102000 654000 0.0 b
90000 651000 102000 657000 0.0 b
111000 615000 129000 633000 0.0 b
108000 615000 138000 633000 0.0 b
63000 459000 105000 513000 0.0 b
111000 468000 129000 513000 0.0 b
207000 531000 231000 546000 0.0 b
207000 579000 231000 594000 0.0 b
141000 549000 195000 576000 0.0 b
402000 405000 420000 453000 0.0 b
426000 417000 444000 453000 0.0 b
360000 507000 378000 525000 0.0 b
324000 513000 336000 534000 0.0 b
444000 519000 459000 537000 0.0 b
423000 537000 441000 555000 0.0 b
387000 549000 411000 561000 0.0 b
387000 576000 411000 591000 0.0 b
360000 597000 378000 615000 0.0 b
414000 621000 429000 639000 0.0 b
390000 639000 405000 651000 0.0 b
348000 648000 366000 699000 0.0 b
390000 639000 408000 651000 0.0 b
414000 648000 429000 669000 0.0 b
426000 690000 444000 705000 0.0 b
516000 579000 534000 594000 0.0 b
579000 579000 594000 597000 0.0 b
582000 690000 606000 717000 0.0 b
318000 624000 336000 642000 0.0 b
315000 624000 327000 642000 0.0 b
288000 642000 297000 657000 0.0 b
282000 651000 291000 657000 0.0 b
297000 639000 300000 657000 0.0 b
576000 687000 594000 717000 0.0 b
624000 330000 642000 798000 0.0 b
0 330000 633000 345000 0.0 b
0 342000 12000 447000 0.0 b
0 693000 15000 801000 0.0 b
0 789000 645000 801000 0.0 b
142000 586000 155000 601000 270.0 b
142000 567000 155000 582000 270.0 b
140550 526350 153550 541350 90.0 b
140550 545350 153550 560350 90.0 b
214612 587800 225788 587800 11176 l
214612 537000 225788 537000 11176 l
178650 583450 191650 598450 270.0 b
178650 564450 191650 579450 270.0 b
178650 526350 191650 541350 90.0 b
178650 545350 191650 560350 90.0 b
501670 422300 486430 422300 15240 l
501670 447700 486430 447700 15240 l
501670 473100 486430 473100 15240 l
501670 498500 486430 498500 15240 l
501670 523900 486430 523900 15240 l
501670 549300 486430 549300 15240 l
98400 546900 114400 573900 90.0 b
98400 574900 114400 601900 90.0 b
196000 727500 209000 742500 90.0 b
196000 746500 209000 761500 90.0 b
411650 427710 411650 442790 15080 l
437050 427710 437050 442790 15080 l
331200 719880 331200 735120 15240 l
356600 719880 356600 735120 15240 l
382000 719880 382000 735120 15240 l
407400 719880 407400 735120 15240 l
494400 605600 15240 15240 0.0 o
494400 631000 15240 15240 0.0 o
494400 656400 15240 15240 0.0 o
494400 681800 15240 15240 0.0 o
469000 605600 15240 15240 0.0 o
469000 631000 15240 15240 0.0 o
469000 656400 15240 15240 0.0 o
469000 681800 15240 15240 0.0 o
552880 682950 568120 682950 15240 l
552880 657550 568120 657550 15240 l
552880 632150 568120 632150 15240 l
552880 606750 568120 606750 15240 l
585900 644100 601900 671100 90.0 b
585900 672100 601900 699100 90.0 b
146550 765054 146550 747147 17907 l
95750 765054 95750 747147 17907 l
40340 665150 25260 665150 15080 l
40340 690550 25260 690550 15080 l
575840 492600 560760 492600 15080 l
575840 518000 560760 518000 15080 l
575840 439700 560760 439700 15080 l
575840 465100 560760 465100 15080 l
82400 672580 82400 687820 15240 l
107800 672580 107800 687820 15240 l
133200 672580 133200 687820 15240 l
65800 614700 13208 13208 180.0 o
53100 595650 13208 13208 180.0 o
40400 614700 13208 13208 180.0 o
20000 607100 33000 622100 180.0 b
1000 607100 14000 622100 180.0 b
29000 545000 42000 560000 180.0 b
10000 545000 23000 560000 180.0 b
17920 472550 16002 16002 180.0 o
53480 472550 16002 p
254495 590131 275069 594449 270.0 b
261099 590131 281673 594449 270.0 b
267703 590131 288277 594449 270.0 b
274307 590131 294881 594449 270.0 b
280911 590131 301485 594449 270.0 b
287515 590131 308089 594449 270.0 b
294119 590131 314693 594449 270.0 b
300723 590131 321297 594449 270.0 b
307327 590131 327901 594449 270.0 b
313931 590131 334505 594449 270.0 b
313931 521551 334505 525869 270.0 b
307327 521551 327901 525869 270.0 b
300723 521551 321297 525869 270.0 b
294119 521551 314693 525869 270.0 b
287515 521551 308089 525869 270.0 b
280911 521551 301485 525869 270.0 b
274307 521551 294881 525869 270.0 b
267703 521551 288277 525869 270.0 b
261099 521551 281673 525869 270.0 b
254495 521551 275069 525869 270.0 b
178800 675430 178800 690670 15240 l
204200 675430 204200 690670 15240 l
229600 675430 229600 690670 15240 l
255000 675430 255000 690670 15240 l
280400 675430 280400 690670 15240 l
305800 675430 305800 690670 15240 l
331200 675430 331200 690670 15240 l
356600 675430 356600 690670 15240 l
382000 675430 382000 690670 15240 l
382000 443020 382000 427780 15240 l
356600 443020 356600 427780 15240 l
331200 443020 331200 427780 15240 l
305800 443020 305800 427780 15240 l
280400 443020 280400 427780 15240 l
255000 443020 255000 427780 15240 l
229600 443020 229600 427780 15240 l
204200 443020 204200 427780 15240 l
229600 683050 229600 664000 4064 l
229600 664000 235950 657650 4064 l
235950 657650 248650 657650 4064 l
248650 657650 284594 621706 4064 l
284594 621706 284594 592290 4064 l
463858 378000 210000 378000 6096 l
210000 378000 117000 471000 6096 l
463858 388000 10000 6096 270.00 315.00 1 a
470929 380929 492000 402000 6096 l
492000 402000 492000 417351 6096 l
498999 417351 6999 6096 135.00 180.00 1 a
157600 712600 177000 732000 6096 l
177000 732000 204000 732000 6096 l
204000 732000 219000 732000 6096 l
219000 732000 228000 723000 6096 l
228000 723000 228000 684650 6096 l
228000 684650 229600 683050 6096 l
202500 735000 202500 733500 6096 l
202500 733500 204000 732000 6096 l
117000 471000 117000 500000 6096 l
117000 500000 117000 561000 6096 l
117000 561000 107000 561000 6096 l
107000 561000 106400 560400 6096 l
120000 624000 12000 12000 0.0 o
120000 506000 12000 12000 0.0 o
120000 624000 144000 624000 6096 l
144000 624000 158000 638000 6096 l
158000 638000 158000 712200 6096 l
158000 712200 157600 712600 6096 l
120000 506000 120000 503000 6096 l
120000 503000 117000 500000 6096 l
147050 552850 153000 552850 4064 l
153000 552850 185150 552850 4064 l
185150 571950 185150 552850 4064 l
147050 552850 143900 549700 4064 l
143900 549700 134350 549700 4064 l
134350 549700 128000 543350 4064 l
128000 543350 128000 524300 4064 l
128000 524300 147050 505250 4064 l
147050 505250 235950 505250 4064 l
235950 505250 255000 524300 4064 l
255000 524300 255590 523710 4064 l
255590 523710 264782 523710 4064 l
151500 554350 151925 553925 4064 l
151925 553925 153000 552850 4064 l
494400 605600 559350 605600 6096 l
559350 605600 560500 606750 6096 l
494400 605600 536600 605600 6096 l
536600 605600 537000 606000 6096 l
537000 606000 534000 606000 6096 l
534000 606000 534000 798000 6096 l
584100 518100 585000 519000 6096 l
568300 465100 588100 465100 6096 l
588100 465100 594000 471000 6096 l
594000 471000 594000 508200 6096 l
594000 508200 584100 518100 6096 l
494050 473100 518100 473100 6096 l
518100 473100 525000 480000 6096 l
525000 480000 525000 510000 6096 l
525000 510000 534000 519000 6096 l
534000 519000 567300 519000 6096 l
567300 519000 568300 518000 6096 l
568300 518000 584000 518000 6096 l
584000 518000 584100 518100 6096 l
4500 595500 3000 597000 8128 l
3000 597000 3000 612000 8128 l
3000 612000 3000 693000 8128 l
3000 693000 30350 693000 8128 l
30350 693000 32800 690550 8128 l
32800 690550 32800 743800 8128 l
57000 756000 95650 756000 8128 l
95650 756000 95750 756100 8128 l
38100 762000 50000 p
95750 756100 95750 797750 8128 l
95750 797750 96000 798000 8128 l
96000 798000 186000 798000 8128 l
186000 798000 201000 798000 8128 l
201000 798000 201000 755500 8128 l
201000 755500 202500 754000 8128 l
534000 798000 186000 798000 6096 l
148500 574500 148500 562500 6096 l
148500 562500 150000 561000 6096 l
150000 561000 150000 555850 6096 l
150000 555850 151925 553925 6096 l
53100 595650 4650 595650 6096 l
4650 595650 4500 595500 6096 l
7500 614600 5600 614600 6096 l
5600 614600 3000 612000 6096 l
4650 595650 4650 463350 8128 l
4650 463350 6000 462000 8128 l
6000 462000 6000 466000 8128 l
6000 466000 6000 554000 8128 l
6000 554000 15000 554000 8128 l
15000 554000 16500 552500 8128 l
128000 543350 128000 544000 4064 l
128000 544000 134000 550000 4064 l
134000 550000 146000 550000 4064 l
146000 550000 146000 572000 4064 l
146000 572000 148000 574000 4064 l
148000 574000 54000 574000 4064 l
54000 574000 52000 576000 4064 l
52000 576000 52000 594550 4064 l
52000 594550 53100 595650 4064 l
17920 472550 6000 472550 6096 l
6000 472550 6000 466000 6096 l
32800 743800 38100 743800 6096 l
596900 762000 50000 p
596900 368300 50000 p
38100 368300 50000 p
581328 606144 581328 606750 6096 l
581328 606750 560500 606750 6096 l
560500 606750 560500 606750 6096 l
560500 606750 581328 606750 6096 l
581328 606750 581328 607790 6096 l
581328 607790 581003 609843 6096 l
581003 609843 580360 611820 6096 l
580360 611820 579416 613673 6096 l
579416 613673 578194 615354 6096 l
578194 615354 576724 616824 6096 l
576724 616824 576072 617299 6096 l
576072 617299 577616 617938 6096 l
577616 617938 582332 622654 6096 l
582332 622654 584884 628815 6096 l
584884 628815 584884 635485 6096 l
584884 635485 582825 640456 6096 l
582825 640456 591808 640456 6096 l
591808 640456 591808 606144 6096 l
591808 606144 581328 606144 6096 l
614856 354144 504823 354144 6096 l
504823 354144 533482 382803 6096 l
533482 382803 537197 386518 6096 l
537197 386518 539208 391373 6096 l
539208 391373 539208 427508 6096 l
539208 427508 549357 427508 6096 l
549357 427508 551309 425556 6096 l
551309 425556 557441 423016 6096 l
557441 423016 579159 423016 6096 l
579159 423016 585291 425556 6096 l
585291 425556 589984 430249 6096 l
589984 430249 592524 436381 6096 l
592524 436381 592524 443019 6096 l
592524 443019 589984 449151 6096 l
589984 449151 585291 453844 6096 l
585291 453844 583629 454532 6096 l
583629 454532 584392 455087 6096 l
584392 455087 585853 456548 6096 l
585853 456548 587068 458219 6096 l
587068 458219 588006 460061 6096 l
588006 460061 588645 462026 6096 l
588645 462026 588968 464067 6096 l
588968 464067 588968 465100 6096 l
588968 465100 568300 465100 6096 l
568300 465100 568300 465100 6096 l
568300 465100 588968 465100 6096 l
588968 465100 588968 466133 6096 l
588968 466133 588645 468174 6096 l
588645 468174 588006 470139 6096 l
588006 470139 587068 471981 6096 l
587068 471981 585853 473652 6096 l
585853 473652 584392 475113 6096 l
584392 475113 582721 476328 6096 l
582721 476328 581569 476915 6096 l
581569 476915 585291 478456 6096 l
585291 478456 589984 483149 6096 l
589984 483149 592524 489281 6096 l
592524 489281 592524 495919 6096 l
592524 495919 589984 502051 6096 l
589984 502051 585291 506744 6096 l
585291 506744 583629 507432 6096 l
583629 507432 584392 507987 6096 l
584392 507987 585853 509448 6096 l
585853 509448 587068 511119 6096 l
587068 511119 588006 512961 6096 l
588006 512961 588645 514926 6096 l
588645 514926 588968 516967 6096 l
588968 516967 588968 518000 6096 l
588968 518000 568300 518000 6096 l
568300 518000 568300 518000 6096 l
568300 518000 588968 518000 6096 l
588968 518000 588968 519033 6096 l
588968 519033 588645 521074 6096 l
588645 521074 588006 523039 6096 l
588006 523039 587068 524881 6096 l
587068 524881 585853 526552 6096 l
585853 526552 584392 528013 6096 l
584392 528013 582721 529228 6096 l
582721 529228 580879 530166 6096 l
580879 530166 578914 530805 6096 l
578914 530805 576873 531128 6096 l
576873 531128 568300 531128 6096 l
568300 531128 568300 518000 6096 l
568300 518000 568300 518000 6096 l
568300 518000 568300 531128 6096 l
568300 531128 559727 531128 6096 l
559727 531128 557686 530805 6096 l
557686 530805 555721 530166 6096 l
555721 530166 553879 529228 6096 l
553879 529228 552208 528013 6096 l
552208 528013 550747 526552 6096 l
550747 526552 549532 524881 6096 l
549532 524881 548594 523039 6096 l
548594 523039 547955 521074 6096 l
547955 521074 547632 519033 6096 l
547632 519033 547632 518000 6096 l
547632 518000 568300 518000 6096 l
568300 518000 568300 518000 6096 l
568300 518000 547632 518000 6096 l
547632 518000 547632 516967 6096 l
547632 516967 547955 514926 6096 l
547955 514926 548594 512961 6096 l
548594 512961 549532 511119 6096 l
549532 511119 550747 509448 6096 l
550747 509448 552208 507987 6096 l
552208 507987 552971 507432 6096 l
552971 507432 551309 506744 6096 l
551309 506744 549357 504792 6096 l
549357 504792 544175 504792 6096 l
544175 504792 539694 502936 6096 l
539694 502936 536094 499336 6096 l
536094 499336 532664 495906 6096 l
532664 495906 530808 491425 6096 l
530808 491425 530808 473050 6096 l
530808 473050 523252 465494 6096 l
523252 465494 518582 465494 6096 l
518582 465494 513083 459995 6096 l
513083 459995 511166 461912 6096 l
511166 461912 509622 462551 6096 l
509622 462551 510274 463026 6096 l
510274 463026 511744 464496 6096 l
511744 464496 512966 466177 6096 l
512966 466177 513910 468030 6096 l
513910 468030 514553 470007 6096 l
514553 470007 514878 472060 6096 l
514878 472060 514878 473100 6096 l
514878 473100 494050 473100 6096 l
494050 473100 494050 473100 6096 l
494050 473100 514878 473100 6096 l
514878 473100 514878 474140 6096 l
514878 474140 514553 476193 6096 l
514553 476193 513910 478170 6096 l
513910 478170 512966 480023 6096 l
512966 480023 511744 481704 6096 l
511744 481704 510274 483174 6096 l
510274 483174 509622 483649 6096 l
509622 483649 511166 484288 6096 l
511166 484288 515882 489004 6096 l
515882 489004 518434 495165 6096 l
518434 495165 518434 501835 6096 l
518434 501835 515882 507996 6096 l
515882 507996 512678 511200 6096 l
512678 511200 515882 514404 6096 l
515882 514404 518434 520565 6096 l
518434 520565 518434 527235 6096 l
518434 527235 515882 533396 6096 l
515882 533396 512678 536600 6096 l
512678 536600 515882 539804 6096 l
515882 539804 518434 545965 6096 l
518434 545965 518434 552635 6096 l
518434 552635 516291 557808 6096 l
516291 557808 606425 557808 6096 l
606425 557808 610906 559664 6096 l
610906 559664 614336 563094 6096 l
614336 563094 614856 564350 6096 l
614856 564350 614856 354144 6096 l
138144 467098 138144 514819 6096 l
138144 514819 136752 518180 6096 l
136752 518180 136014 518917 6096 l
136014 518917 137731 518206 6096 l
137731 518206 146889 518206 6096 l
146889 518206 153475 511619 6096 l
153475 511619 153475 511619 6096 l
153475 511619 156619 508475 6096 l
156619 508475 160727 506774 6096 l
160727 506774 231823 506774 6096 l
231823 506774 235931 508475 6096 l
235931 508475 257035 529580 6096 l
257035 529580 257035 523710 6096 l
257035 523710 260083 523710 6096 l
260083 523710 260083 523710 6096 l
260083 523710 257035 523710 6096 l
257035 523710 257035 512687 6096 l
257035 512687 257416 511266 6096 l
257416 511266 257798 510604 6096 l
257798 510604 253371 506176 6096 l
253371 506176 234777 506176 6096 l
234777 506176 230669 504475 6096 l
230669 504475 197669 471475 6096 l
197669 471475 194525 468331 6096 l
194525 468331 192824 464223 6096 l
192824 464223 192824 455352 6096 l
192824 455352 189988 452516 6096 l
189988 452516 187436 446355 6096 l
187436 446355 187436 424445 6096 l
187436 424445 189988 418284 6096 l
189988 418284 192824 415448 6096 l
192824 415448 192824 412418 6096 l
192824 412418 138144 467098 6096 l
61181 522144 57820 520752 6096 l
57820 520752 55248 518180 6096 l
55248 518180 53856 514819 6096 l
53856 514819 53856 499544 6096 l
53856 499544 36681 499544 6096 l
36681 499544 33320 498152 6096 l
33320 498152 32150 496982 6096 l
32150 496982 30980 498152 6096 l
30980 498152 27619 499544 6096 l
27619 499544 13208 499544 6096 l
13208 499544 13208 539412 6096 l
13208 539412 16298 539412 6096 l
16298 539412 16298 552298 6096 l
16298 552298 16702 552298 6096 l
16702 552298 16702 539412 6096 l
16702 539412 21656 539412 6096 l
21656 539412 23820 537248 6096 l
23820 537248 27181 535856 6096 l
27181 535856 43819 535856 6096 l
43819 535856 47180 537248 6096 l
47180 537248 49224 539292 6096 l
49224 539292 60029 539292 6096 l
60029 539292 77177 522144 6096 l
77177 522144 61181 522144 6096 l
21144 354144 21144 443156 6096 l
21144 443156 27619 443156 6096 l
27619 443156 30980 444548 6096 l
30980 444548 32150 445718 6096 l
32150 445718 33320 444548 6096 l
33320 444548 36681 443156 6096 l
36681 443156 78419 443156 6096 l
78419 443156 81780 444548 6096 l
81780 444548 84352 447120 6096 l
84352 447120 85485 449856 6096 l
85485 449856 93465 449856 6096 l
93465 449856 186803 356518 6096 l
186803 356518 189177 354144 6096 l
189177 354144 21144 354144 6096 l
106842 737673 108187 739525 6096 l
108187 739525 109226 741564 6096 l
109226 741564 109933 743741 6096 l
109933 743741 110291 746002 6096 l
110291 746002 110291 756100 6096 l
110291 756100 95750 756100 6096 l
95750 756100 95750 756100 6096 l
95750 756100 110291 756100 6096 l
110291 756100 110291 766198 6096 l
110291 766198 109933 768459 6096 l
109933 768459 109226 770636 6096 l
109226 770636 108187 772675 6096 l
108187 772675 106842 774527 6096 l
106842 774527 105223 776145 6096 l
105223 776145 103371 777490 6096 l
103371 777490 101332 778530 6096 l
101332 778530 99155 779237 6096 l
99155 779237 96894 779595 6096 l
96894 779595 95750 779595 6096 l
95750 779595 95750 756100 6096 l
95750 756100 95750 756100 6096 l
95750 756100 95750 779595 6096 l
95750 779595 94606 779595 6096 l
94606 779595 92345 779237 6096 l
92345 779237 90168 778530 6096 l
90168 778530 88129 777490 6096 l
88129 777490 86277 776145 6096 l
86277 776145 84658 774527 6096 l
84658 774527 83313 772675 6096 l
83313 772675 82274 770636 6096 l
82274 770636 81567 768459 6096 l
81567 768459 81209 766198 6096 l
81209 766198 81209 756100 6096 l
81209 756100 95750 756100 6096 l
95750 756100 95750 756100 6096 l
95750 756100 81208 756100 6096 l
81208 756100 81209 746002 6096 l
81209 746002 81567 743741 6096 l
81567 743741 82274 741564 6096 l
82274 741564 83313 739525 6096 l
83313 739525 84658 737673 6096 l
84658 737673 86124 736208 6096 l
86124 736208 69373 736208 6096 l
69373 736208 64518 734197 6096 l
64518 734197 60803 730482 6096 l
60803 730482 45803 715482 6096 l
45803 715482 43792 710627 6096 l
43792 710627 43792 703232 6096 l
43792 703232 43414 703355 6096 l
43414 703355 41373 703678 6096 l
41373 703678 32800 703678 6096 l
32800 703678 32800 690550 6096 l
32800 690550 32800 690550 6096 l
32800 690550 32800 703678 6096 l
32800 703678 24227 703678 6096 l
24227 703678 24144 703665 6096 l
24144 703665 24144 779856 6096 l
24144 779856 135759 779856 6096 l
135759 779856 131208 775305 6096 l
131208 775305 128453 768653 6096 l
128453 768653 128453 743547 6096 l
128453 743547 130039 739718 6096 l
130039 739718 126529 736208 6096 l
126529 736208 105376 736208 6096 l
105376 736208 106842 737673 6096 l
161892 736895 164647 743547 6096 l
164647 743547 164647 768653 6096 l
164647 768653 161892 775305 6096 l
161892 775305 157341 779856 6096 l
157341 779856 614856 779856 6096 l
614856 779856 614856 719514 6096 l
614856 719514 613752 722180 6096 l
613752 722180 611180 724752 6096 l
611180 724752 607819 726144 6096 l
607819 726144 574181 726144 6096 l
574181 726144 570820 724752 6096 l
570820 724752 568248 722180 6096 l
568248 722180 566856 718819 6096 l
566856 718819 566856 699714 6096 l
566856 699714 549545 699714 6096 l
549545 699714 543384 697162 6096 l
543384 697162 538668 692446 6096 l
538668 692446 536116 686285 6096 l
536116 686285 536116 679615 6096 l
536116 679615 538668 673454 6096 l
538668 673454 541872 670250 6096 l
541872 670250 538668 667046 6096 l
538668 667046 536116 660885 6096 l
536116 660885 536116 654215 6096 l
536116 654215 538668 648054 6096 l
538668 648054 541872 644850 6096 l
541872 644850 538668 641646 6096 l
538668 641646 536116 635485 6096 l
536116 635485 536116 628815 6096 l
536116 628815 538668 622654 6096 l
538668 622654 543384 617938 6096 l
543384 617938 544928 617299 6096 l
544928 617299 544276 616824 6096 l
544276 616824 542806 615354 6096 l
542806 615354 541584 613673 6096 l
541584 613673 540640 611820 6096 l
540640 611820 539997 609843 6096 l
539997 609843 539672 607790 6096 l
539672 607790 539672 606750 6096 l
539672 606750 560500 606750 6096 l
560500 606750 560500 606750 6096 l
560500 606750 539672 606750 6096 l
539672 606750 539672 605710 6096 l
539672 605710 539997 603657 6096 l
539997 603657 540640 601680 6096 l
540640 601680 541584 599827 6096 l
541584 599827 542806 598146 6096 l
542806 598146 543759 597192 6096 l
543759 597192 542575 597192 6096 l
542575 597192 541752 599180 6096 l
541752 599180 539180 601752 6096 l
539180 601752 535819 603144 6096 l
535819 603144 516144 603144 6096 l
516144 603144 516144 616819 6096 l
516144 616819 514752 620180 6096 l
514752 620180 514454 620477 6096 l
514454 620477 514906 620664 6096 l
514906 620664 528906 634664 6096 l
528906 634664 532336 638094 6096 l
532336 638094 534192 642575 6096 l
534192 642575 534192 707425 6096 l
534192 707425 532336 711906 6096 l
532336 711906 478336 765906 6096 l
478336 765906 474906 769336 6096 l
474906 769336 470425 771192 6096 l
470425 771192 276575 771192 6096 l
276575 771192 272094 769336 6096 l
272094 769336 248094 745336 6096 l
248094 745336 244664 741906 6096 l
244664 741906 242808 737425 6096 l
242808 737425 242808 702186 6096 l
242808 702186 242300 701678 6096 l
242300 701678 240192 703786 6096 l
240192 703786 240192 725425 6096 l
240192 725425 238336 729906 6096 l
238336 729906 234906 733336 6096 l
234906 733336 225906 742336 6096 l
225906 742336 221425 744192 6096 l
221425 744192 218782 744192 6096 l
218782 744192 217752 746680 6096 l
217752 746680 215588 748844 6096 l
215588 748844 215588 753798 6096 l
215588 753798 202702 753798 6096 l
202702 753798 202702 754202 6096 l
202702 754202 215588 754202 6096 l
215588 754202 215588 761236 6096 l
215588 761236 215207 762657 6096 l
215207 762657 214472 763931 6096 l
214472 763931 213431 764972 6096 l
213431 764972 212157 765707 6096 l
212157 765707 210736 766088 6096 l
210736 766088 202702 766088 6096 l
202702 766088 202702 754202 6096 l
202702 754202 202298 754202 6096 l
202298 754202 202298 766088 6096 l
202298 766088 194264 766088 6096 l
194264 766088 192843 765707 6096 l
192843 765707 191569 764972 6096 l
191569 764972 190528 763931 6096 l
190528 763931 189793 762657 6096 l
189793 762657 189412 761236 6096 l
189412 761236 189412 754202 6096 l
189412 754202 202298 754202 6096 l
202298 754202 202298 753798 6096 l
202298 753798 189412 753798 6096 l
189412 753798 189412 748844 6096 l
189412 748844 187248 746680 6096 l
187248 746680 186218 744192 6096 l
186218 744192 174575 744192 6096 l
174575 744192 170094 742336 6096 l
170094 742336 166664 738906 6096 l
166664 738906 147264 719506 6096 l
147264 719506 145408 715025 6096 l
145408 715025 145408 710175 6096 l
145408 710175 145808 709209 6096 l
145808 709209 145808 698920 6096 l
145808 698920 142696 702032 6096 l
142696 702032 136535 704584 6096 l
136535 704584 129865 704584 6096 l
129865 704584 123704 702032 6096 l
123704 702032 120500 698828 6096 l
120500 698828 119992 699336 6096 l
119992 699336 119992 709792 6096 l
119992 709792 134627 709792 6096 l
134627 709792 139482 711803 6096 l
139482 711803 151482 723803 6096 l
151482 723803 155197 727518 6096 l
155197 727518 157093 732096 6096 l
157093 732096 161892 736895 6096 l
21144 358956 184365 358956 6096 l
509635 358956 614856 358956 6096 l
21144 365040 178281 365040 6096 l
515719 365040 614856 365040 6096 l
21144 371124 172197 371124 6096 l
521803 371124 614856 371124 6096 l
21144 377208 166113 377208 6096 l
527887 377208 614856 377208 6096 l
21144 383292 160029 383292 6096 l
533971 383292 614856 383292 6096 l
21144 389376 153945 389376 6096 l
538381 389376 614856 389376 6096 l
21144 395460 147861 395460 6096 l
539208 395460 614856 395460 6096 l
21144 401544 141777 401544 6096 l
539208 401544 614856 401544 6096 l
21144 407628 135693 407628 6096 l
539208 407628 614856 407628 6096 l
21144 413712 129609 413712 6096 l
191530 413712 192824 413712 6096 l
539208 413712 614856 413712 6096 l
21144 419796 123525 419796 6096 l
185446 419796 189362 419796 6096 l
539208 419796 614856 419796 6096 l
21144 425880 117441 425880 6096 l
179362 425880 187436 425880 6096 l
539208 425880 550985 425880 6096 l
585615 425880 614856 425880 6096 l
21144 431964 111357 431964 6096 l
173278 431964 187436 431964 6096 l
590694 431964 614856 431964 6096 l
21144 438048 105273 438048 6096 l
167194 438048 187436 438048 6096 l
592524 438048 614856 438048 6096 l
29975 444132 34325 444132 6096 l
80775 444132 99189 444132 6096 l
161110 444132 187436 444132 6096 l
592063 444132 614856 444132 6096 l
155026 450216 189035 450216 6096 l
588919 450216 614856 450216 6096 l
148942 456300 192824 456300 6096 l
585606 456300 614856 456300 6096 l
142858 462384 192824 462384 6096 l
510026 462384 515472 462384 6096 l
588701 462384 614856 462384 6096 l
138144 468468 194663 468468 6096 l
514053 468468 526226 468468 6096 l
588549 468468 614856 468468 6096 l
138144 474552 200747 474552 6096 l
514813 474552 530808 474552 6096 l
584954 474552 614856 474552 6096 l
138144 480636 206831 480636 6096 l
512521 480636 530808 480636 6096 l
587471 480636 614856 480636 6096 l
138144 486720 212915 486720 6096 l
513598 486720 530808 486720 6096 l
591463 486720 614856 486720 6096 l
138144 492804 218999 492804 6096 l
517456 492804 531379 492804 6096 l
592524 492804 614856 492804 6096 l
29203 498888 35098 498888 6096 l
138144 498888 225083 498888 6096 l
518434 498888 535646 498888 6096 l
591294 498888 614856 498888 6096 l
13208 504972 53856 504972 6096 l
138144 504972 231870 504972 6096 l
517134 504972 549537 504972 6096 l
587063 504972 614856 504972 6096 l
13208 511056 53856 511056 6096 l
138144 511056 154039 511056 6096 l
238511 511056 257537 511056 6096 l
512822 511056 549578 511056 6096 l
587022 511056 614856 511056 6096 l
13208 517140 54817 517140 6096 l
137183 517140 147955 517140 6096 l
244595 517140 257035 517140 6096 l
517015 517140 547632 517140 6096 l
588968 517140 614856 517140 6096 l
13208 523224 76097 523224 6096 l
250679 523224 257035 523224 6096 l
518434 523224 548688 523224 6096 l
568300 523224 568300 523224 6096 l
587912 523224 614856 523224 6096 l
13208 529308 70013 529308 6096 l
256763 529308 257035 529308 6096 l
517575 529308 554036 529308 6096 l
568300 529308 568300 529308 6096 l
582564 529308 614856 529308 6096 l
13208 535392 63929 535392 6096 l
513886 535392 614856 535392 6096 l
16298 541476 16702 541476 6096 l
516574 541476 614856 541476 6096 l
16298 547560 16702 547560 6096 l
518434 547560 614856 547560 6096 l
518016 553644 614856 553644 6096 l
610970 559728 614856 559728 6096 l
537818 602316 540433 602316 6096 l
516144 608400 539769 608400 6096 l
581231 608400 591808 608400 6096 l
516144 614484 542173 614484 6096 l
578827 614484 591808 614484 6096 l
514674 620568 540754 620568 6096 l
580246 620568 591808 620568 6096 l
520894 626652 537012 626652 6096 l
583988 626652 591808 626652 6096 l
526978 632736 536116 632736 6096 l
584884 632736 591808 632736 6096 l
532637 638820 537498 638820 6096 l
583502 638820 591808 638820 6096 l
534192 644904 541818 644904 6096 l
534192 650988 537453 650988 6096 l
534192 657072 536116 657072 6096 l
534192 663156 537057 663156 6096 l
534192 669240 540862 669240 6096 l
534192 675324 537894 675324 6096 l
534192 681408 536116 681408 6096 l
534192 687492 536616 687492 6096 l
32800 693576 32800 693576 6096 l
534192 693576 539798 693576 6096 l
32800 699660 32800 699660 6096 l
119992 699660 121332 699660 6096 l
145068 699660 145808 699660 6096 l
534192 699660 549415 699660 6096 l
24144 705744 43792 705744 6096 l
119992 705744 145808 705744 6096 l
240192 705744 242808 705744 6096 l
534192 705744 566856 705744 6096 l
24144 711828 44289 711828 6096 l
139507 711828 145408 711828 6096 l
240192 711828 242808 711828 6096 l
532368 711828 566856 711828 6096 l
24144 717912 48233 717912 6096 l
145591 717912 146604 717912 6096 l
240192 717912 242808 717912 6096 l
526330 717912 566856 717912 6096 l
24144 723996 54317 723996 6096 l
151675 723996 151754 723996 6096 l
240192 723996 242808 723996 6096 l
520246 723996 570064 723996 6096 l
611936 723996 614856 723996 6096 l
24144 730080 60401 730080 6096 l
156258 730080 157838 730080 6096 l
238162 730080 242808 730080 6096 l
514162 730080 614856 730080 6096 l
24144 736164 69267 736164 6096 l
161161 736164 163922 736164 6096 l
232078 736164 242808 736164 6096 l
508078 736164 614856 736164 6096 l
24144 742248 82052 742248 6096 l
109448 742248 128990 742248 6096 l
164110 742248 170006 742248 6096 l
225994 742248 245006 742248 6096 l
501994 742248 614856 742248 6096 l
24144 748332 81208 748332 6096 l
110291 748332 128453 748332 6096 l
164647 748332 188900 748332 6096 l
216100 748332 251090 748332 6096 l
495910 748332 614856 748332 6096 l
24144 754416 81208 754416 6096 l
110291 754416 128453 754416 6096 l
164647 754416 189412 754416 6096 l
202298 754416 202702 754416 6096 l
215588 754416 257174 754416 6096 l
489826 754416 614856 754416 6096 l
24144 760500 81209 760500 6096 l
95750 760500 95750 760500 6096 l
110291 760500 128453 760500 6096 l
164647 760500 189412 760500 6096 l
202298 760500 202702 760500 6096 l
215588 760500 263258 760500 6096 l
483742 760500 614856 760500 6096 l
24144 766584 81270 766584 6096 l
95750 766584 95750 766584 6096 l
110230 766584 128453 766584 6096 l
164647 766584 269342 766584 6096 l
477658 766584 614856 766584 6096 l
24144 772668 83310 772668 6096 l
95750 772668 95750 772668 6096 l
108191 772668 130115 772668 6096 l
162985 772668 614856 772668 6096 l
24144 778752 90852 778752 6096 l
95750 778752 95750 778752 6096 l
100648 778752 134655 778752 6096 l
158445 778752 614856 778752 6096 l
469000 605600 469000 590000 6096 l
469000 590000 474000 585000 6096 l
474000 585000 525000 585000 6096 l
525000 585000 12700 12700 0.0 o
525000 450000 12700 12700 0.0 o
494050 447700 522700 447700 6096 l
522700 447700 525000 450000 6096 l
568200 492700 568300 492600 6096 l
568300 439700 535300 439700 6096 l
535300 439700 525000 450000 6096 l
568300 492600 546600 492600 6096 l
546600 492600 543000 489000 6096 l
543000 489000 543000 468000 6096 l
543000 468000 525000 450000 6096 l
144600 597400 148500 593500 6096 l
106400 588400 129400 588400 6096 l
129400 588400 135000 594000 6096 l
135000 594000 148000 594000 6096 l
148000 594000 148500 593500 6096 l
148500 593500 148500 607500 6096 l
148500 607500 156000 615000 6096 l
156000 615000 237000 615000 6096 l
237000 615000 258000 594000 6096 l
65800 614700 78300 614700 6096 l
78300 614700 99000 594000 6096 l
99000 594000 100800 594000 6096 l
100800 594000 106400 588400 6096 l
133200 680200 133200 661200 6096 l
133200 661200 120000 648000 6096 l
120000 648000 94000 648000 6096 l
94000 648000 60000 614000 6096 l
60000 614000 65100 614000 6096 l
65100 614000 65800 614700 6096 l
94000 648000 12000 12000 0.0 o
94000 506000 12000 12000 0.0 o
94000 506000 94000 474000 8128 l
94000 474000 94000 468000 8128 l
94000 468000 198000 364000 8128 l
198000 364000 496000 364000 8128 l
496000 364000 526000 394000 8128 l
526000 394000 526000 449000 8128 l
526000 449000 525000 450000 8128 l
35500 552500 65500 552500 8128 l
65500 552500 94000 524000 8128 l
94000 506000 94000 524000 8128 l
53480 472550 92550 472550 8128 l
92550 472550 94000 474000 8128 l
560500 682950 591250 682950 8128 l
591250 682950 593900 685600 8128 l
525000 585000 588000 585000 6096 l
588000 585000 588000 586000 6096 l
588000 586000 12000 12000 0.0 o
588000 708000 12000 12000 0.0 o
588000 708000 588000 688000 6096 l
588000 688000 593900 688000 6096 l
593900 688000 593900 685600 6096 l
264782 592290 258000 592290 2540 l
258000 592290 258000 594000 2540 l
147050 533850 162950 517950 4064 l
162950 517950 229600 517950 4064 l
229600 517950 255000 543350 4064 l
255000 543350 280400 543350 4064 l
280400 543350 284594 539156 4064 l
284594 539156 284594 523710 4064 l
220200 537000 241200 558000 4064 l
241200 558000 267500 558000 4064 l
267500 558000 277990 568490 4064 l
277990 568490 277990 592290 4064 l
204200 683050 204200 664000 4064 l
204200 664000 223250 644950 4064 l
223250 644950 248650 644950 4064 l
248650 644950 277990 615610 4064 l
277990 615610 277990 592290 4064 l
220200 537000 191500 537000 4064 l
191500 537000 188350 533850 4064 l
188350 533850 185150 533850 4064 l
220200 587800 241000 567000 4064 l
241000 567000 264500 567000 4064 l
264500 567000 271386 573886 4064 l
271386 573886 271386 592290 4064 l
178800 683050 178800 657650 4064 l
178800 657650 197850 638600 4064 l
197850 638600 242300 638600 4064 l
242300 638600 271386 609514 4064 l
271386 609514 271386 592290 4064 l
185150 590950 188300 587800 4064 l
188300 587800 220200 587800 4064 l
271386 523710 271386 508386 4064 l
271386 508386 258000 495000 4064 l
258000 495000 237000 495000 4064 l
237000 495000 204000 462000 4064 l
204000 462000 204000 435600 4064 l
204000 435600 204200 435400 4064 l
450000 390000 222000 390000 4064 l
222000 390000 204000 408000 4064 l
204000 408000 204000 435200 4064 l
204000 435200 204200 435400 4064 l
450000 397243 7243 4064 270.00 315.00 1 a
455121 392121 468000 405000 4064 l
468000 405000 468000 487858 4064 l
478000 487858 10000 4064 135.00 180.00 1 a
470929 494929 474000 498000 4064 l
474000 498000 492843 498000 4064 l
492843 499707 1707 4064 270.00 315.00 1 a
445500 397300 242300 397300 4064 l
242300 397300 229600 410000 4064 l
229600 410000 229600 435400 4064 l
229600 435400 229600 454450 4064 l
229600 454450 274050 498900 4064 l
274050 498900 274050 499050 4064 l
277990 523710 277990 502990 4064 l
277990 502990 274050 499050 4064 l
445983 397300 483 4064 135.00 180.00 1 a
445641 397641 456000 408000 4064 l
456000 408000 456000 505948 4064 l
458540 505948 2540 4064 135.00 180.00 1 a
456744 507744 471000 522000 4064 l
471000 522000 491098 522000 4064 l
491098 524540 2540 4064 270.00 315.00 1 a
492894 522744 494050 523900 4064 l
305800 683050 304406 681656 4064 l
304406 681656 304406 592290 4064 l
304406 592290 304406 574594 4064 l
304406 574594 312000 567000 4064 l
312000 567000 450000 567000 4064 l
450000 567000 468000 549000 4064 l
468000 549000 493750 549000 4064 l
493750 549000 494050 549300 4064 l
324850 498900 317614 506136 4064 l
317614 506136 317614 523710 4064 l
356600 435400 356000 434800 4064 l
356000 434800 356000 416000 4064 l
356000 416000 366000 406000 4064 l
366000 406000 406000 406000 4064 l
406000 406000 411650 411650 4064 l
411650 411650 411650 435250 4064 l
324850 498900 326100 498900 4064 l
326100 498900 357000 468000 4064 l
357000 468000 357000 444000 4064 l
356600 435400 356600 443600 4064 l
356600 443600 357000 444000 4064 l
382000 683050 382000 619550 4064 l
369000 606550 354740 592290 4064 l
354740 592290 324218 592290 4064 l
437050 435250 436000 436300 6096 l
384450 619550 382000 619550 6096 l
369000 519000 12700 12700 0.0 o
369000 606000 12700 12700 0.0 o
369000 606000 369000 606550 4064 l
369000 606550 382000 619550 4064 l
436000 436300 436000 500000 6096 l
436000 500000 417000 519000 6096 l
417000 519000 369000 519000 6096 l
331200 435400 331200 479850 4064 l
331200 479850 311010 500040 4064 l
311010 500040 311010 523710 4064 l
382000 727500 382000 721150 6096 l
382000 721150 401050 702100 6096 l
401050 702100 417000 702100 6096 l
417000 702100 483600 702100 6096 l
483600 702100 494400 691300 6096 l
494400 691300 494400 681800 6096 l
311010 523710 311010 539010 4064 l
311010 539010 315000 543000 4064 l
315000 543000 435000 543000 4064 l
435000 543000 12700 12700 0.0 o
435000 699000 12700 12700 0.0 o
435000 699000 420100 699000 4064 l
420100 699000 417000 702100 4064 l
407400 727500 420100 714800 6096 l
420100 714800 432000 714800 6096 l
432000 714800 489950 714800 6096 l
489950 714800 509000 695750 6096 l
509000 695750 509000 670350 6096 l
494400 656400 508350 670350 6096 l
508350 670350 509000 670350 6096 l
450000 531000 12700 12700 0.0 o
450000 717000 12700 12700 0.0 o
450000 717000 434200 717000 4064 l
434200 717000 432000 714800 4064 l
450000 531000 324000 531000 4064 l
324218 523710 324218 530782 4064 l
324218 530782 324000 531000 4064 l
382000 435400 382000 465928 4064 l
382000 465928 324218 523710 4064 l
356600 683050 356600 657650 4064 l
356600 657650 356600 632250 4064 l
356600 632250 343900 619550 4064 l
343900 619550 324850 619550 4064 l
324850 619550 317614 612314 4064 l
317614 612314 317614 592290 4064 l
356600 727500 356600 683050 4064 l
469000 656400 467750 657650 8128 l
467750 657650 419750 657650 8128 l
356600 657650 12700 12700 0.0 o
419750 657650 12700 12700 0.0 o
311010 618410 311010 592290 4064 l
311010 618410 324850 632250 4064 l
324850 632250 331200 638600 4064 l
331200 638600 331200 683050 4064 l
331200 727500 331200 683050 4064 l
469000 631000 467750 632250 8128 l
467750 632250 419750 632250 8128 l
324850 632250 12700 12700 0.0 o
419750 632250 12700 12700 0.0 o
280400 683050 277750 685700 4064 l
277750 685700 277750 658000 4064 l
277750 658000 297802 637948 4064 l
297802 637948 297802 636000 4064 l
297802 636000 297802 592290 4064 l
469000 681800 467750 683050 4064 l
467750 683050 407400 683050 4064 l
407400 683050 399000 674650 4064 l
399000 674650 399000 645000 4064 l
399000 645000 12700 12700 0.0 o
291000 645000 12700 12700 0.0 o
291000 645000 291000 642802 4064 l
291000 642802 297802 636000 4064 l
255000 683050 255000 664000 4064 l
255000 664000 291198 627802 4064 l
291198 627802 291198 592290 4064 l
494400 631000 508000 631000 6096 l
508000 631000 522000 645000 6096 l
522000 645000 522000 705000 6096 l
522000 705000 468000 759000 6096 l
468000 759000 279000 759000 6096 l
279000 759000 255000 735000 6096 l
255000 735000 255000 683050 6096 l
255000 435400 255000 460800 4064 l
255000 460800 261350 467150 4064 l
261350 467150 274050 467150 4064 l
274050 467150 291198 484298 4064 l
291198 484298 291198 523710 4064 l
291198 523710 291198 522198 4064 l
291198 522198 291000 522000 4064 l
291000 522000 291000 540000 4064 l
291000 540000 303000 552000 4064 l
303000 552000 399000 552000 4064 l
399000 582000 12700 12700 0.0 o
399000 555000 12700 12700 0.0 o
399000 552000 402000 552000 4064 l
399000 555000 399000 552000 6096 l
465000 570000 456000 579000 6096 l
456000 579000 402000 579000 6096 l
402000 579000 399000 582000 6096 l
560500 657550 586450 657550 8128 l
586450 657550 590000 654000 8128 l
590000 654000 590300 654000 8128 l
590300 654000 593900 657600 8128 l
465000 570000 604000 570000 6096 l
604000 570000 604000 652000 6096 l
604000 652000 590000 654000 6096 l
40400 614700 40400 631400 6096 l
40400 631400 81000 672000 6096 l
81000 672000 81000 678800 6096 l
81000 678800 82400 680200 6096 l
40400 614700 26500 614700 6096 l
26500 614700 26500 614600 6096 l
32800 665150 50150 665150 8128 l
50150 665150 57000 672000 8128 l
57000 672000 57000 708000 8128 l
57000 708000 72000 723000 8128 l
72000 723000 108000 723000 8128 l
108000 723000 132000 723000 8128 l
132000 723000 144000 735000 8128 l
144000 735000 144000 753550 8128 l
144000 753550 146550 756100 8128 l
107800 680200 107800 722800 6096 l
107800 722800 108000 723000 6096 l
280400 435400 280400 460800 4064 l
280400 460800 297802 478202 4064 l
297802 478202 297802 523710 4064 l
305800 435400 304406 436794 4064 l
304406 436794 304406 523710 4064 l
152000 574000 2000 574000 4064 l
2000 574000 2000 602000 4064 l
279000 654000 279000 651000 4064 l
279000 651000 297000 633000 4064 l
279000 651000 276000 654000 4064 l
276000 654000 276000 684000 4064 l
276000 684000 282000 684000 4064 l
282000 684000 282000 678000 4064 l
282000 675000 282000 678000 4064 l
282000 678000 279000 681000 4064 l
220200 587800 6096 h
220200 537000 6096 h
494050 422300 10160 h
494050 447700 10160 h
494050 473100 10160 h
494050 498500 10160 h
494050 523900 10160 h
494050 549300 10160 h
411650 435250 10000 h
437050 435250 10000 h
331200 727500 10160 h
356600 727500 10160 h
382000 727500 10160 h
407400 727500 10160 h
494400 605600 10160 h
494400 631000 10160 h
494400 656400 10160 h
494400 681800 10160 h
469000 605600 10160 h
469000 631000 10160 h
469000 656400 10160 h
469000 681800 10160 h
560500 682950 10160 h
560500 657550 10160 h
560500 632150 10160 h
560500 606750 10160 h
146550 756100 11938 h
95750 756100 11938 h
32800 665150 10000 h
32800 690550 10000 h
568300 492600 10000 h
568300 518000 10000 h
568300 439700 10000 h
568300 465100 10000 h
82400 680200 10160 h
107800 680200 10160 h
133200 680200 10160 h
65800 614700 8128 h
53100 595650 8128 h
40400 614700 8128 h
17920 472550 8128 h
53480 472550 8128 h
178800 683050 10160 h
204200 683050 10160 h
229600 683050 10160 h
255000 683050 10160 h
280400 683050 10160 h
305800 683050 10160 h
331200 683050 10160 h
356600 683050 10160 h
382000 683050 10160 h
382000 435400 10160 h
356600 435400 10160 h
331200 435400 10160 h
305800 435400 10160 h
280400 435400 10160 h
255000 435400 10160 h
229600 435400 10160 h
204200 435400 10160 h
120000 624000 6000 h
120000 506000 6000 h
38100 762000 30000 h
596900 762000 30000 h
596900 368300 30000 h
38100 368300 30000 h
525000 585000 6000 h
525000 450000 6000 h
94000 648000 6000 h
94000 506000 6000 h
588000 586000 6000 h
588000 708000 6000 h
369000 519000 6000 h
369000 606000 6000 h
435000 543000 6000 h
435000 699000 6000 h
450000 531000 6000 h
450000 717000 6000 h
356600 657650 6000 h
419750 657650 6000 h
324850 632250 6000 h
419750 632250 6000 h
399000 645000 6000 h
291000 645000 6000 h
399000 582000 6000 h
399000 555000 6000 h
