

HI-TECH Software PIC PRO Macro Assembler V9.70 build 5239 
                                                                                               Sun Apr 24 17:55:52 2011

HI-TECH Software Omniscient Code Generator (PRO mode) build 5239
     1                           	processor	16F628A
     2                           	opt	pw 120
     3                           	opt	pm
     4                           	psect	config,global,class=CONFIG,delta=2
     5                           	psect	maintext,local,class=CODE,delta=2
     6                           	psect	cinit,global,class=CODE,delta=2
     7                           	psect	cstackCOMMON,global,class=COMMON,space=1,delta=1
     8                           	psect	pa_nodes,global,class=CODE,delta=2
     9  000A                     	;#
    10                           
    11                           	psect	config
    12  2007  3F6A               	dw	16234	;#
    13                           
    14                           	psect	maintext
    15  07F0                     __pmaintext:
    16  04E3                     ;@ 0x0
    17                           ;Data sizes: Strings 0, constant 0, data 0, bss 0, persistent 0 stack 0
    18                           ;Auto spaces:   Size  Autos    Used
    19                           ; COMMON          14      0       0
    20                           ; BANK0           80      0       0
    21                           ; BANK1           80      0       0
    22                           ; BANK2           48      0       0
    23                           ;Pointer list with targets:
    24                           ;Main: autosize = 0, tempsize = 0, incstack = 0, save=0
    25                           ;Call graph:                      Base Space Used Autos Args Refs Density
    26                           ;_main                                                0    0    0   0.00
    27                           ; Estimated maximum call depth 0
    28                           ; Address spaces:
    29                           ;Name               Size   Autos  Total    Cost      Usage
    30                           ;BITCOMMON            E      0       0       0        0.0%
    31                           ;NULL                 0      0       0       0        0.0%
    32                           ;CODE                 0      0       0       0        0.0%
    33                           ;COMMON               E      0       0       1        0.0%
    34                           ;BITSFR0              0      0       0       1        0.0%
    35                           ;SFR0                 0      0       0       1        0.0%
    36                           ;BITSFR1              0      0       0       2        0.0%
    37                           ;SFR1                 0      0       0       2        0.0%
    38                           ;STACK                0      0       0       2        0.0%
    39                           ;BANK0               50      0       0       3        0.0%
    40                           ;BANK1               50      0       0       4        0.0%
    41                           ;BITSFR3              0      0       0       4        0.0%
    42                           ;SFR3                 0      0       0       4        0.0%
    43                           ;BANK2               30      0       0       5        0.0%
    44                           ;SFR2                 0      0       0       5        0.0%
    45                           ;BITSFR2              0      0       0       5        0.0%
    46                           ;ABS                  0      0       0       6        0.0%
    47                           ;BITBANK0            50      0       0       7        0.0%
    48                           ;BITBANK1            50      0       0       8        0.0%
    49                           ;BITBANK2            30      0       0       9        0.0%
    50                           ;DATA                 0      0       0      10        0.0%
    51                           ;EEDATA              80      0       0    1000        0.0%
    52                           ; *************** function _main *****************
    53                           ; Defined at:
    54                           ;		line 6 in file "X:\Hi-tech\Comparator\comp.c"
    55                           ; Parameters:    Size  Location     Type
    56                           ;		None
    57                           ; Auto vars:     Size  Location     Type
    58                           ;		None
    59                           ; Return value:  Size  Location     Type
    60                           ;		None               void
    61                           ; Registers used:
    62                           ;		wreg, status,2
    63                           ; Tracked objects:
    64                           ;		On entry : 17F/0
    65                           ;		On exit  : 60/0
    66                           ;		Unchanged: FFE00/0
    67                           ; Data sizes:     COMMON   BANK0   BANK1   BANK2
    68                           ;      Locals:         0       0       0       0
    69                           ;      Temp:     0
    70                           ;      Total:    0
    71                           ; This function calls:
    72                           ;		Nothing
    73                           ; This function is called by:
    74                           ;		Startup code after reset
    75                           ; This function uses a non-reentrant model
    76                           ; 
    77  07F0                     _main:	;comp.c: 4: asm("\tpsect config,class=CONFIG,delta=2"); asm("\tdw ""0x3FFB & 0x3F
      +                          FF & 0x3FFF & 0x3F7F & 0x3FEE");
    78                           ;comp.c: 6: void main(void) {
    79                           ;comp.c: 7: CMCON = 0b10000101;
    80                           ; Regs used in _main: [wreg+status,2]
    81  07F0  3085               	movlw	133
    82  07F1  009F               	movwf	31	;volatile
    83                           ;comp.c: 8: TRISA = 0xFF;
    84  07F2  30FF               	movlw	255
    85  07F3  1683               	bsf	3,5	;RP0=1, select bank1
    86  07F4  0085               	movwf	5	;volatile
    87                           ;comp.c: 9: TRISB = 0x00;
    88  07F5  0186               	clrf	6	;volatile
    89                           ;comp.c: 10: PORTB = 0;
    90  07F6  1283               	bcf	3,5	;RP0=0, select bank0
    91  07F7  0186               	clrf	6	;volatile
    92  07F8                     l30000252:
    93  07F8  1283               	bcf	3,5	;RP0=0, select bank0
    94  07F9  1303               	bcf	3,6	;RP1=0, select bank0
    95                           ;comp.c: 13: RB0 = C2OUT;
    96  07FA  1F9F               	btfss	31,7
    97  07FB  2FFE               	goto	L1
    98  07FC  1406               	bsf	6,0
    99  07FD  2FF8               	goto	l30000252
   100  07FE                     L1:
   101  07FE  1006               	bcf	6,0
   102  07FF  2FF8               	goto	l30000252
   103  0800                     __end_of_main:
   104                           
   105                           	psect	cinit
   106  07EE                     start_initialization:
   107  07EE                     end_of_initialization:	;End of C runtime variable initationation code
   108  07EE  0183               	clrf	3
   109  07EF  2FF0               	ljmp	_main	;jump to C main() function
   110                           
   111                           	psect	cstackCOMMON
   112  0070                     __pcstackCOMMON:
   113  0070                     ??_main:
   114  0070                     ?_main:	;@ 0x0


HI-TECH Software PICC Macro Assembler V9.70 build 5239 
Symbol Table                                                                                   Sun Apr 24 17:55:52 2011

                  _DC 0019                    _PD 001B                    _RD 04E0                    _TO 001C  
                  _WR 04E1                   _CM0 00F8                   _CM1 00F9                   _CM2 00FA  
                 _CIS 00FB                   _GIE 005F                   _BOR 0470                   _RA0 0028  
                 _RA1 0029                   _RB0 0030                   _RA2 002A                   _RB1 0031  
                 _RA3 002B                   _RB2 0032                   _RA4 002C                   _RB3 0033  
                 _RA5 002D                   _RB4 0034                   _RA6 002E                   _RB5 0035  
                 _RA7 002F                   _RB6 0036                   _RB7 0037                   _FSR 0004  
                 _PCL 0002                   _PS0 0408                   _PR2 0092                   _PS1 0409  
                 _PS2 040A                   _RP0 001D                   _IRP 001F                   _RP1 001E  
                 _PSA 040B                   _VR0 04F8                   _VR1 04F9                   _VR2 04FA  
                 _VR3 04FB                   _POR 0471                   _RX9 00C6                   _TX9 04C6  
                 _VRR 04FD                  _ADEN 00C3                  _EEIE 0467                  _EEIF 0067  
                _CMIE 0466                  _CMIF 0066                  _BRGH 04C2                  _T0IE 005D  
                _T0IF 005A                  _CREN 00C4                  _T0CS 040D                  _FERR 00C2  
                _T0SE 040C                  _CSRC 04C7                  _INDF 0000                  _PIE1 008C  
                _PEIE 005E                  _INTE 005C                  _INTF 0059                  _RBIE 005B  
                _RBIF 0058                  _RCIE 0465                  _RCIF 0065                  _PCON 008E  
                _PIR1 000C                  _OERR 00C1                  _RBPU 040F                  _OSCF 0473  
                _RX9D 00C0                  _TMR0 0001                  _TMR2 0011                  _SPEN 00C7  
                _TX9D 04C0                  _SREN 00C5                  _VREN 04FF                  _TRMT 04C1  
                _TXIE 0464                  _ZERO 001A                  _WREN 04E2                  _TXEN 04C5  
                _TXIF 0064                  _VROE 04FE                  _SYNC 04C4                  _main 07F0  
                start 0000   start_initialization 07EE               _CCP1CON 0017                 _C1INV 00FC  
               _C2INV 00FD                 _C1OUT 00FE                 _C2OUT 00FF                 ?_main 0070  
               _CCP1X 00BD                 _CCP1Y 00BC                 _EEADR 009B                 _CARRY 0018  
               _CMCON 001F                 _T1CON 0010                 _T2CON 0012               _T1CKPS0 0084  
             _T1CKPS1 0085               _T2CKPS0 0090               _T2CKPS1 0091                 _RCREG 001A  
               _RCSTA 0018                 _TMR1H 000F                 _TMR1L 000E                 _SPBRG 0099  
               _PORTA 0005                 _PORTB 0006               _T1OSCEN 0083                 _TRISA 0085  
               _TRISB 0086                 _VRCON 009F                 _WRERR 04E3                 _TXREG 0019  
               _TXSTA 0098        __pcstackCOMMON 0070               _TOUTPS0 0093               _TOUTPS1 0094  
             _TOUTPS2 0095               _TOUTPS3 0096                 status 0003         __size_of_main 0010  
            l30000250 0000              l30000251 0000              l30000252 07F8              l30000249 0000  
              ??_main 0070            __pmaintext 07F0                _CCP1M0 00B8                _CCP1M1 00B9  
              _CCP1M2 00BA                _CCP1M3 00BB                _CCP1IE 0462                _CCP1IF 0062  
              _EEDATA 009A                _CCPR1H 0016                _CCPR1L 0015                _EECON1 009C  
              _EECON2 009D          __end_of_main 0800  end_of_initialization 07EE                _T1SYNC 0082  
              _INTEDG 040E                _PCLATH 000A                _INTCON 000B                _TMR1IE 0460  
              _TMR1IF 0060                _TMR1CS 0081                _TMR2IE 0461                _TMR2IF 0061  
              _OPTION 0081                _TMR1ON 0080                _TMR2ON 0092                _TRISA0 0428  
              _TRISA1 0429                _TRISB0 0430                _TRISA2 042A                _TRISB1 0431  
              _TRISA3 042B                _TRISB2 0432                _TRISA4 042C                _TRISB3 0433  
              _TRISA5 042D                _TRISB4 0434                _TRISA6 042E                _TRISB5 0435  
              _TRISA7 042F                _TRISB6 0436                _TRISB7 0437                _STATUS 0003  
