%FSLAX25Y25*%
%MOIN*%
G70*
G01*
G75*
G04 Layer_Physical_Order=2*
G04 Layer_Color=16711680*
%ADD10R,0.07087X0.11024*%
%ADD11R,0.05906X0.06299*%
%ADD12R,0.05906X0.11024*%
%ADD13R,0.11024X0.05906*%
%ADD14R,0.06299X0.05906*%
%ADD15O,0.10236X0.02756*%
%ADD16C,0.02362*%
%ADD17C,0.03150*%
%ADD18C,0.01181*%
%ADD19C,0.01575*%
%ADD20C,0.01969*%
%ADD21R,0.12795X0.10827*%
%ADD22R,0.09843X0.27559*%
%ADD23R,0.14764X0.05906*%
%ADD24R,0.11811X0.11811*%
%ADD25R,0.07874X0.05906*%
%ADD26R,0.08858X0.07874*%
%ADD27R,0.09843X0.17716*%
%ADD28R,0.13780X0.13780*%
%ADD29R,0.06890X0.09843*%
%ADD30R,0.09843X0.12795*%
%ADD31R,0.08858X0.11811*%
%ADD32R,0.15748X0.07874*%
%ADD33R,0.07874X0.03937*%
%ADD34R,0.07874X0.76772*%
%ADD35C,0.06000*%
%ADD36R,0.07874X0.07874*%
%ADD37C,0.07874*%
%ADD38C,0.06693*%
%ADD39C,0.06299*%
%ADD40O,0.06000X0.07087*%
%ADD41O,0.07087X0.06000*%
%ADD42C,0.05906*%
%ADD43C,0.05000*%
D10*
X302234Y397638D02*
D03*
X288454D02*
D03*
D11*
X281761Y407480D02*
D03*
X289242D02*
D03*
X324675Y543307D02*
D03*
X317194D02*
D03*
X305383Y543307D02*
D03*
X312864D02*
D03*
D12*
X307352Y430118D02*
D03*
X295147D02*
D03*
X307352Y449803D02*
D03*
X295147D02*
D03*
X378124Y506862D02*
D03*
X390328D02*
D03*
X358533Y523622D02*
D03*
X346328D02*
D03*
X350565Y508831D02*
D03*
X362769D02*
D03*
X358533Y539370D02*
D03*
X346328D02*
D03*
X295147Y463583D02*
D03*
X307352D02*
D03*
X336486Y397638D02*
D03*
X348691D02*
D03*
X336486Y413386D02*
D03*
X348691D02*
D03*
X336486Y444882D02*
D03*
X348691D02*
D03*
X336486Y460630D02*
D03*
X348691D02*
D03*
D13*
X389832Y466339D02*
D03*
Y478543D02*
D03*
X389832Y531693D02*
D03*
Y519488D02*
D03*
D14*
X287470Y513583D02*
D03*
Y506102D02*
D03*
D15*
X335108Y483937D02*
D03*
Y488937D02*
D03*
Y493937D02*
D03*
Y498937D02*
D03*
Y503937D02*
D03*
Y508937D02*
D03*
Y513937D02*
D03*
Y518937D02*
D03*
Y523937D02*
D03*
X298887Y483937D02*
D03*
Y488937D02*
D03*
Y493937D02*
D03*
Y498937D02*
D03*
Y503937D02*
D03*
Y508937D02*
D03*
Y513937D02*
D03*
Y518937D02*
D03*
Y523937D02*
D03*
D16*
X288454Y397638D02*
Y408465D01*
X322352Y388779D02*
X318691Y392441D01*
X359320Y388779D02*
X322352D01*
X374084Y403543D02*
X359320Y388779D01*
X374084Y403543D02*
Y410433D01*
X399675Y436024D02*
X374084Y410433D01*
X399675Y436024D02*
Y470472D01*
X397706Y472441D01*
X285502Y482283D02*
X282549D01*
X292155Y488937D02*
X285502Y482283D01*
X298887Y488937D02*
X292155D01*
X286328Y493937D02*
X282549Y490158D01*
X298887Y493937D02*
X286328D01*
X275659Y460630D02*
Y493110D01*
X281486Y498937D02*
X275659Y493110D01*
X298887Y498937D02*
X281486D01*
X286486Y449803D02*
X275659Y460630D01*
X295147Y449803D02*
X286486D01*
X299281Y411417D02*
X291407D01*
X288454Y408465D01*
D17*
X316998Y545276D02*
Y547244D01*
X319950Y550197D02*
X316998Y547244D01*
X367194Y550197D02*
X319950D01*
X372116Y545276D02*
X367194Y550197D01*
X270738Y422244D02*
Y496063D01*
Y405512D02*
Y422244D01*
X283336Y506102D02*
X278612Y510827D01*
X283336Y506102D02*
X280777D01*
X287470D02*
X283336D01*
X288454Y397638D02*
X278612D01*
X270738Y405512D01*
X280777Y506102D02*
X270738Y496063D01*
X309061Y416339D02*
Y460890D01*
X307352Y463583D02*
Y468701D01*
Y462598D02*
Y463583D01*
X309061Y397638D02*
Y416339D01*
Y460890D02*
X307352Y462598D01*
X379990Y425197D02*
Y465551D01*
X380777Y466339D02*
X379990Y465551D01*
X389832Y466339D02*
X380777D01*
X278612Y510827D02*
Y536417D01*
X292391Y550197D02*
X278612Y536417D01*
X310108Y550197D02*
X292391D01*
X312864Y547441D02*
X310108Y550197D01*
X312864Y543307D02*
Y547441D01*
X395738Y501453D02*
X390328Y506862D01*
X395738Y488189D02*
Y501453D01*
X353494Y498937D02*
X335108D01*
X368179Y484252D02*
X353494Y498937D01*
X368179Y407480D02*
Y484252D01*
X350620Y493937D02*
X335108D01*
X362273Y482283D02*
X350620Y493937D01*
X362273Y417323D02*
Y482283D01*
X347746Y488937D02*
X335108D01*
X356368Y480315D02*
X347746Y488937D01*
X356368Y446850D02*
Y480315D01*
X385895Y545276D02*
X372116D01*
X389832Y541339D02*
X385895Y545276D01*
X389832Y531693D02*
Y541339D01*
X298806Y466257D02*
Y474468D01*
Y466257D02*
X295147Y462598D01*
X308806Y470155D02*
Y474468D01*
Y470155D02*
X307352Y468701D01*
X305187Y533465D02*
Y541536D01*
X324872Y533465D02*
Y543110D01*
X350462Y462402D02*
Y476378D01*
X348806Y474468D02*
X339337Y483937D01*
X335108D01*
X358336Y397638D02*
X348691D01*
X368179Y407480D02*
X358336Y397638D01*
X362273Y417323D02*
X358336Y413386D01*
X356368Y446850D02*
X354399Y444882D01*
X358336Y413386D02*
X350462D01*
X354399Y444882D02*
X348691D01*
X336486Y397638D02*
X336471D01*
X328691Y405418D01*
X336470Y413386D02*
X328691Y421165D01*
X336486Y413386D02*
X336470D01*
X336486Y444882D02*
X328691Y437087D01*
Y436913D02*
Y437087D01*
X336486Y460630D02*
X328691Y452835D01*
Y452661D02*
Y452835D01*
X350462Y462402D02*
X348691Y460630D01*
D18*
X309061Y416339D02*
X285502D01*
X281761Y412598D01*
Y407480D02*
Y412598D01*
X378124Y504039D02*
Y506862D01*
Y499898D02*
Y504039D01*
X373100Y499016D01*
X380974Y497047D02*
X378124Y499898D01*
X380974Y482283D02*
Y497047D01*
X384714Y478543D02*
X380974Y482283D01*
X389832Y478543D02*
X384714D01*
X373100Y499016D02*
X360380D01*
X350565Y508831D01*
X383927Y498032D02*
Y519685D01*
X386195Y495763D02*
X383927Y498032D01*
X386195Y488189D02*
Y495763D01*
X379990Y515748D02*
Y527559D01*
X358533Y523622D02*
Y525787D01*
X362714Y529969D02*
X358533Y525787D01*
X377580Y529969D02*
X362714D01*
X379990Y527559D02*
X377580Y529969D01*
X346328Y539370D02*
X335108Y528150D01*
Y523937D02*
Y528150D01*
X346328Y523622D02*
X341643Y518937D01*
X335108D01*
X346328Y508831D02*
X341435Y503937D01*
X335108D01*
X328651Y493937D02*
X324872Y490158D01*
Y484252D02*
Y490158D01*
X328809Y480315D02*
X324872Y484252D01*
X327746Y498937D02*
X320935Y492126D01*
Y484252D02*
Y492126D01*
X328806Y476380D02*
X320935Y484252D01*
X311092Y482283D02*
Y496063D01*
X318966Y503937D02*
X311092Y496063D01*
X335108Y503937D02*
X318966D01*
X335108Y498937D02*
X327746D01*
X335108Y493937D02*
X328651D01*
X289635Y513583D02*
X287470D01*
X294281Y508937D02*
X289635Y513583D01*
X298887Y508937D02*
X294281D01*
X338806Y474468D02*
X332959Y480315D01*
X328809D01*
X328806Y474468D02*
Y476380D01*
X311092Y482283D02*
X308806Y479998D01*
Y474468D02*
Y479998D01*
X306092Y508937D02*
X298887D01*
X307155Y507874D02*
X306092Y508937D01*
X307155Y482817D02*
Y507874D01*
Y482817D02*
X298806Y474468D01*
D19*
X288454Y390748D02*
Y397638D01*
X290423Y388779D02*
X288454Y390748D01*
X315029Y388779D02*
X290423D01*
X318691Y392441D02*
X315029Y388779D01*
X318691Y392441D02*
Y405418D01*
X356250Y425315D02*
X342494D01*
X356368Y435039D02*
X356092Y435315D01*
X342494D01*
X397706Y472441D02*
X379006D01*
X376053Y475394D01*
Y488189D01*
X289635Y503937D02*
X287470Y506102D01*
X298887Y503937D02*
X289635D01*
X309124Y527559D02*
X305187Y531496D01*
X309124Y517717D02*
Y527559D01*
X317903Y508937D02*
X309124Y517717D01*
X335108Y508937D02*
X317903D01*
X324872Y515748D02*
Y539370D01*
X326683Y513937D02*
X324872Y515748D01*
X335108Y513937D02*
X326683D01*
D20*
X372116Y519685D02*
Y525591D01*
Y519685D02*
X362273Y509842D01*
Y508831D02*
Y509842D01*
X362470Y535433D02*
X358533Y539370D01*
X371816Y535433D02*
X362470D01*
X372116Y535133D02*
X371816Y535433D01*
D21*
X273198Y421752D02*
D03*
D22*
X258927Y413386D02*
D03*
D23*
X261387Y396654D02*
D03*
D24*
X305187Y397638D02*
D03*
D25*
X296328Y442913D02*
D03*
D26*
X295836Y422244D02*
D03*
D27*
X400659Y493110D02*
D03*
D28*
X393769Y505905D02*
D03*
D29*
X369655Y515748D02*
D03*
D30*
X365226Y509350D02*
D03*
D31*
X348002Y508858D02*
D03*
D32*
X387864Y519685D02*
D03*
D33*
X315029Y543307D02*
D03*
D34*
X318966Y439961D02*
D03*
D35*
X282549Y481299D02*
D03*
Y490158D02*
D03*
D36*
X348806Y474468D02*
D03*
X309061Y396654D02*
D03*
D37*
X338806Y474468D02*
D03*
X328806D02*
D03*
X318806D02*
D03*
X308806D02*
D03*
X298806D02*
D03*
X267880Y396654D02*
D03*
D38*
X299281Y411417D02*
D03*
Y421654D02*
D03*
Y441732D02*
D03*
D39*
X342494Y435315D02*
D03*
Y425315D02*
D03*
X318690Y452661D02*
D03*
X328691D02*
D03*
X318690Y436913D02*
D03*
X328691D02*
D03*
X318690Y421165D02*
D03*
X328691D02*
D03*
X318691Y405418D02*
D03*
X328691D02*
D03*
D40*
X395738Y488189D02*
D03*
X386195D02*
D03*
X376053D02*
D03*
D41*
X372116Y525591D02*
D03*
Y535133D02*
D03*
Y545276D02*
D03*
D42*
X305187Y533465D02*
D03*
X324872D02*
D03*
D43*
X270738Y422244D02*
D03*
X258927D02*
D03*
X379990Y425197D02*
D03*
X356250Y425315D02*
D03*
X356092Y435315D02*
D03*
X401643Y488189D02*
D03*
M02*
