G04 EAGLE Gerber RS-274X export*
G75*
%MOMM*%
%FSLAX34Y34*%
%LPD*%
%INSilkscreen Bottom*%
%IPPOS*%
%AMOC8*
5,1,8,0,0,1.08239X$1,22.5*%
G01*
%ADD10C,0.101600*%


D10*
X514549Y183158D02*
X517146Y183158D01*
X517245Y183160D01*
X517345Y183166D01*
X517444Y183175D01*
X517542Y183188D01*
X517640Y183205D01*
X517738Y183226D01*
X517834Y183251D01*
X517929Y183279D01*
X518023Y183311D01*
X518116Y183346D01*
X518208Y183385D01*
X518298Y183428D01*
X518386Y183473D01*
X518473Y183523D01*
X518557Y183575D01*
X518640Y183631D01*
X518720Y183689D01*
X518798Y183751D01*
X518873Y183816D01*
X518946Y183884D01*
X519016Y183954D01*
X519084Y184027D01*
X519149Y184102D01*
X519211Y184180D01*
X519269Y184260D01*
X519325Y184343D01*
X519377Y184427D01*
X519427Y184514D01*
X519472Y184602D01*
X519515Y184692D01*
X519554Y184784D01*
X519589Y184877D01*
X519621Y184971D01*
X519649Y185066D01*
X519674Y185162D01*
X519695Y185260D01*
X519712Y185358D01*
X519725Y185456D01*
X519734Y185555D01*
X519740Y185655D01*
X519742Y185754D01*
X519742Y192246D01*
X519740Y192345D01*
X519734Y192445D01*
X519725Y192544D01*
X519712Y192642D01*
X519695Y192740D01*
X519674Y192838D01*
X519649Y192934D01*
X519621Y193029D01*
X519589Y193123D01*
X519554Y193216D01*
X519515Y193308D01*
X519472Y193398D01*
X519427Y193486D01*
X519377Y193573D01*
X519325Y193657D01*
X519269Y193740D01*
X519211Y193820D01*
X519149Y193898D01*
X519084Y193973D01*
X519016Y194046D01*
X518946Y194116D01*
X518873Y194184D01*
X518798Y194249D01*
X518720Y194311D01*
X518640Y194369D01*
X518557Y194425D01*
X518473Y194477D01*
X518386Y194527D01*
X518298Y194572D01*
X518208Y194615D01*
X518116Y194654D01*
X518023Y194689D01*
X517929Y194721D01*
X517834Y194749D01*
X517738Y194774D01*
X517640Y194795D01*
X517542Y194812D01*
X517444Y194825D01*
X517345Y194834D01*
X517245Y194840D01*
X517146Y194842D01*
X514549Y194842D01*
X510184Y183158D02*
X506938Y183158D01*
X506825Y183160D01*
X506712Y183166D01*
X506599Y183176D01*
X506486Y183190D01*
X506374Y183207D01*
X506263Y183229D01*
X506153Y183254D01*
X506043Y183284D01*
X505935Y183317D01*
X505828Y183354D01*
X505722Y183394D01*
X505618Y183439D01*
X505515Y183487D01*
X505414Y183538D01*
X505315Y183593D01*
X505218Y183651D01*
X505123Y183713D01*
X505030Y183778D01*
X504940Y183846D01*
X504852Y183917D01*
X504766Y183992D01*
X504683Y184069D01*
X504603Y184149D01*
X504526Y184232D01*
X504451Y184318D01*
X504380Y184406D01*
X504312Y184496D01*
X504247Y184589D01*
X504185Y184684D01*
X504127Y184781D01*
X504072Y184880D01*
X504021Y184981D01*
X503973Y185084D01*
X503928Y185188D01*
X503888Y185294D01*
X503851Y185401D01*
X503818Y185509D01*
X503788Y185619D01*
X503763Y185729D01*
X503741Y185840D01*
X503724Y185952D01*
X503710Y186065D01*
X503700Y186178D01*
X503694Y186291D01*
X503692Y186404D01*
X503694Y186517D01*
X503700Y186630D01*
X503710Y186743D01*
X503724Y186856D01*
X503741Y186968D01*
X503763Y187079D01*
X503788Y187189D01*
X503818Y187299D01*
X503851Y187407D01*
X503888Y187514D01*
X503928Y187620D01*
X503973Y187724D01*
X504021Y187827D01*
X504072Y187928D01*
X504127Y188027D01*
X504185Y188124D01*
X504247Y188219D01*
X504312Y188312D01*
X504380Y188402D01*
X504451Y188490D01*
X504526Y188576D01*
X504603Y188659D01*
X504683Y188739D01*
X504766Y188816D01*
X504852Y188891D01*
X504940Y188962D01*
X505030Y189030D01*
X505123Y189095D01*
X505218Y189157D01*
X505315Y189215D01*
X505414Y189270D01*
X505515Y189321D01*
X505618Y189369D01*
X505722Y189414D01*
X505828Y189454D01*
X505935Y189491D01*
X506043Y189524D01*
X506153Y189554D01*
X506263Y189579D01*
X506374Y189601D01*
X506486Y189618D01*
X506599Y189632D01*
X506712Y189642D01*
X506825Y189648D01*
X506938Y189650D01*
X506289Y194842D02*
X510184Y194842D01*
X506289Y194842D02*
X506188Y194840D01*
X506088Y194834D01*
X505988Y194824D01*
X505888Y194811D01*
X505789Y194793D01*
X505690Y194772D01*
X505593Y194747D01*
X505496Y194718D01*
X505401Y194685D01*
X505307Y194649D01*
X505215Y194609D01*
X505124Y194566D01*
X505035Y194519D01*
X504948Y194469D01*
X504862Y194415D01*
X504779Y194358D01*
X504699Y194298D01*
X504620Y194235D01*
X504544Y194168D01*
X504471Y194099D01*
X504401Y194027D01*
X504333Y193953D01*
X504268Y193876D01*
X504207Y193796D01*
X504148Y193714D01*
X504093Y193630D01*
X504041Y193544D01*
X503992Y193456D01*
X503947Y193366D01*
X503905Y193274D01*
X503867Y193181D01*
X503833Y193086D01*
X503802Y192991D01*
X503775Y192894D01*
X503752Y192796D01*
X503732Y192697D01*
X503717Y192597D01*
X503705Y192497D01*
X503697Y192397D01*
X503693Y192296D01*
X503693Y192196D01*
X503697Y192095D01*
X503705Y191995D01*
X503717Y191895D01*
X503732Y191795D01*
X503752Y191696D01*
X503775Y191598D01*
X503802Y191501D01*
X503833Y191406D01*
X503867Y191311D01*
X503905Y191218D01*
X503947Y191126D01*
X503992Y191036D01*
X504041Y190948D01*
X504093Y190862D01*
X504148Y190778D01*
X504207Y190696D01*
X504268Y190616D01*
X504333Y190539D01*
X504401Y190465D01*
X504471Y190393D01*
X504544Y190324D01*
X504620Y190257D01*
X504699Y190194D01*
X504779Y190134D01*
X504862Y190077D01*
X504948Y190023D01*
X505035Y189973D01*
X505124Y189926D01*
X505215Y189883D01*
X505307Y189843D01*
X505401Y189807D01*
X505496Y189774D01*
X505593Y189745D01*
X505690Y189720D01*
X505789Y189699D01*
X505888Y189681D01*
X505988Y189668D01*
X506088Y189658D01*
X506188Y189652D01*
X506289Y189650D01*
X506289Y189649D02*
X508886Y189649D01*
X226946Y74992D02*
X226946Y63308D01*
X230192Y74992D02*
X223701Y74992D01*
X218974Y74992D02*
X218974Y63308D01*
X218974Y74992D02*
X215728Y74992D01*
X215615Y74990D01*
X215502Y74984D01*
X215389Y74974D01*
X215276Y74960D01*
X215164Y74943D01*
X215053Y74921D01*
X214943Y74896D01*
X214833Y74866D01*
X214725Y74833D01*
X214618Y74796D01*
X214512Y74756D01*
X214408Y74711D01*
X214305Y74663D01*
X214204Y74612D01*
X214105Y74557D01*
X214008Y74499D01*
X213913Y74437D01*
X213820Y74372D01*
X213730Y74304D01*
X213642Y74233D01*
X213556Y74158D01*
X213473Y74081D01*
X213393Y74001D01*
X213316Y73918D01*
X213241Y73832D01*
X213170Y73744D01*
X213102Y73654D01*
X213037Y73561D01*
X212975Y73466D01*
X212917Y73369D01*
X212862Y73270D01*
X212811Y73169D01*
X212763Y73066D01*
X212718Y72962D01*
X212678Y72856D01*
X212641Y72749D01*
X212608Y72641D01*
X212578Y72531D01*
X212553Y72421D01*
X212531Y72310D01*
X212514Y72198D01*
X212500Y72085D01*
X212490Y71972D01*
X212484Y71859D01*
X212482Y71746D01*
X212484Y71633D01*
X212490Y71520D01*
X212500Y71407D01*
X212514Y71294D01*
X212531Y71182D01*
X212553Y71071D01*
X212578Y70961D01*
X212608Y70851D01*
X212641Y70743D01*
X212678Y70636D01*
X212718Y70530D01*
X212763Y70426D01*
X212811Y70323D01*
X212862Y70222D01*
X212917Y70123D01*
X212975Y70026D01*
X213037Y69931D01*
X213102Y69838D01*
X213170Y69748D01*
X213241Y69660D01*
X213316Y69574D01*
X213393Y69491D01*
X213473Y69411D01*
X213556Y69334D01*
X213642Y69259D01*
X213730Y69188D01*
X213820Y69120D01*
X213913Y69055D01*
X214008Y68993D01*
X214105Y68935D01*
X214204Y68880D01*
X214305Y68829D01*
X214408Y68781D01*
X214512Y68736D01*
X214618Y68696D01*
X214725Y68659D01*
X214833Y68626D01*
X214943Y68596D01*
X215053Y68571D01*
X215164Y68549D01*
X215276Y68532D01*
X215389Y68518D01*
X215502Y68508D01*
X215615Y68502D01*
X215728Y68500D01*
X215728Y68501D02*
X218974Y68501D01*
X208094Y72396D02*
X204849Y74992D01*
X204849Y63308D01*
X208094Y63308D02*
X201603Y63308D01*
X190173Y72071D02*
X190175Y72178D01*
X190181Y72284D01*
X190191Y72390D01*
X190204Y72496D01*
X190222Y72602D01*
X190243Y72706D01*
X190268Y72810D01*
X190297Y72913D01*
X190329Y73014D01*
X190366Y73114D01*
X190406Y73213D01*
X190449Y73311D01*
X190496Y73407D01*
X190547Y73501D01*
X190601Y73593D01*
X190658Y73683D01*
X190718Y73771D01*
X190782Y73856D01*
X190849Y73939D01*
X190919Y74020D01*
X190991Y74098D01*
X191067Y74174D01*
X191145Y74246D01*
X191226Y74316D01*
X191309Y74383D01*
X191394Y74447D01*
X191482Y74507D01*
X191572Y74564D01*
X191664Y74618D01*
X191758Y74669D01*
X191854Y74716D01*
X191952Y74759D01*
X192051Y74799D01*
X192151Y74836D01*
X192252Y74868D01*
X192355Y74897D01*
X192459Y74922D01*
X192563Y74943D01*
X192669Y74961D01*
X192775Y74974D01*
X192881Y74984D01*
X192987Y74990D01*
X193094Y74992D01*
X193215Y74990D01*
X193336Y74984D01*
X193456Y74974D01*
X193577Y74961D01*
X193696Y74943D01*
X193816Y74922D01*
X193934Y74897D01*
X194051Y74868D01*
X194168Y74835D01*
X194283Y74799D01*
X194397Y74758D01*
X194510Y74715D01*
X194622Y74667D01*
X194731Y74616D01*
X194839Y74561D01*
X194946Y74503D01*
X195050Y74442D01*
X195152Y74377D01*
X195252Y74309D01*
X195350Y74238D01*
X195446Y74164D01*
X195539Y74087D01*
X195629Y74006D01*
X195717Y73923D01*
X195802Y73837D01*
X195885Y73748D01*
X195964Y73657D01*
X196041Y73563D01*
X196114Y73467D01*
X196184Y73369D01*
X196251Y73268D01*
X196315Y73165D01*
X196376Y73060D01*
X196433Y72953D01*
X196486Y72845D01*
X196536Y72735D01*
X196582Y72623D01*
X196625Y72510D01*
X196664Y72395D01*
X191147Y69799D02*
X191068Y69877D01*
X190992Y69957D01*
X190919Y70040D01*
X190849Y70126D01*
X190782Y70213D01*
X190718Y70304D01*
X190658Y70396D01*
X190600Y70490D01*
X190546Y70587D01*
X190496Y70685D01*
X190449Y70785D01*
X190405Y70886D01*
X190365Y70989D01*
X190329Y71094D01*
X190297Y71199D01*
X190268Y71306D01*
X190243Y71413D01*
X190221Y71522D01*
X190204Y71631D01*
X190190Y71740D01*
X190181Y71850D01*
X190175Y71961D01*
X190173Y72071D01*
X191147Y69799D02*
X196664Y63308D01*
X190173Y63308D01*
X117846Y61808D02*
X117846Y73492D01*
X114601Y73492D02*
X121092Y73492D01*
X109874Y73492D02*
X109874Y61808D01*
X109874Y73492D02*
X106628Y73492D01*
X106515Y73490D01*
X106402Y73484D01*
X106289Y73474D01*
X106176Y73460D01*
X106064Y73443D01*
X105953Y73421D01*
X105843Y73396D01*
X105733Y73366D01*
X105625Y73333D01*
X105518Y73296D01*
X105412Y73256D01*
X105308Y73211D01*
X105205Y73163D01*
X105104Y73112D01*
X105005Y73057D01*
X104908Y72999D01*
X104813Y72937D01*
X104720Y72872D01*
X104630Y72804D01*
X104542Y72733D01*
X104456Y72658D01*
X104373Y72581D01*
X104293Y72501D01*
X104216Y72418D01*
X104141Y72332D01*
X104070Y72244D01*
X104002Y72154D01*
X103937Y72061D01*
X103875Y71966D01*
X103817Y71869D01*
X103762Y71770D01*
X103711Y71669D01*
X103663Y71566D01*
X103618Y71462D01*
X103578Y71356D01*
X103541Y71249D01*
X103508Y71141D01*
X103478Y71031D01*
X103453Y70921D01*
X103431Y70810D01*
X103414Y70698D01*
X103400Y70585D01*
X103390Y70472D01*
X103384Y70359D01*
X103382Y70246D01*
X103384Y70133D01*
X103390Y70020D01*
X103400Y69907D01*
X103414Y69794D01*
X103431Y69682D01*
X103453Y69571D01*
X103478Y69461D01*
X103508Y69351D01*
X103541Y69243D01*
X103578Y69136D01*
X103618Y69030D01*
X103663Y68926D01*
X103711Y68823D01*
X103762Y68722D01*
X103817Y68623D01*
X103875Y68526D01*
X103937Y68431D01*
X104002Y68338D01*
X104070Y68248D01*
X104141Y68160D01*
X104216Y68074D01*
X104293Y67991D01*
X104373Y67911D01*
X104456Y67834D01*
X104542Y67759D01*
X104630Y67688D01*
X104720Y67620D01*
X104813Y67555D01*
X104908Y67493D01*
X105005Y67435D01*
X105104Y67380D01*
X105205Y67329D01*
X105308Y67281D01*
X105412Y67236D01*
X105518Y67196D01*
X105625Y67159D01*
X105733Y67126D01*
X105843Y67096D01*
X105953Y67071D01*
X106064Y67049D01*
X106176Y67032D01*
X106289Y67018D01*
X106402Y67008D01*
X106515Y67002D01*
X106628Y67000D01*
X106628Y67001D02*
X109874Y67001D01*
X98994Y70896D02*
X95749Y73492D01*
X95749Y61808D01*
X98994Y61808D02*
X92503Y61808D01*
X87564Y61808D02*
X84319Y61808D01*
X84206Y61810D01*
X84093Y61816D01*
X83980Y61826D01*
X83867Y61840D01*
X83755Y61857D01*
X83644Y61879D01*
X83534Y61904D01*
X83424Y61934D01*
X83316Y61967D01*
X83209Y62004D01*
X83103Y62044D01*
X82999Y62089D01*
X82896Y62137D01*
X82795Y62188D01*
X82696Y62243D01*
X82599Y62301D01*
X82504Y62363D01*
X82411Y62428D01*
X82321Y62496D01*
X82233Y62567D01*
X82147Y62642D01*
X82064Y62719D01*
X81984Y62799D01*
X81907Y62882D01*
X81832Y62968D01*
X81761Y63056D01*
X81693Y63146D01*
X81628Y63239D01*
X81566Y63334D01*
X81508Y63431D01*
X81453Y63530D01*
X81402Y63631D01*
X81354Y63734D01*
X81309Y63838D01*
X81269Y63944D01*
X81232Y64051D01*
X81199Y64159D01*
X81169Y64269D01*
X81144Y64379D01*
X81122Y64490D01*
X81105Y64602D01*
X81091Y64715D01*
X81081Y64828D01*
X81075Y64941D01*
X81073Y65054D01*
X81075Y65167D01*
X81081Y65280D01*
X81091Y65393D01*
X81105Y65506D01*
X81122Y65618D01*
X81144Y65729D01*
X81169Y65839D01*
X81199Y65949D01*
X81232Y66057D01*
X81269Y66164D01*
X81309Y66270D01*
X81354Y66374D01*
X81402Y66477D01*
X81453Y66578D01*
X81508Y66677D01*
X81566Y66774D01*
X81628Y66869D01*
X81693Y66962D01*
X81761Y67052D01*
X81832Y67140D01*
X81907Y67226D01*
X81984Y67309D01*
X82064Y67389D01*
X82147Y67466D01*
X82233Y67541D01*
X82321Y67612D01*
X82411Y67680D01*
X82504Y67745D01*
X82599Y67807D01*
X82696Y67865D01*
X82795Y67920D01*
X82896Y67971D01*
X82999Y68019D01*
X83103Y68064D01*
X83209Y68104D01*
X83316Y68141D01*
X83424Y68174D01*
X83534Y68204D01*
X83644Y68229D01*
X83755Y68251D01*
X83867Y68268D01*
X83980Y68282D01*
X84093Y68292D01*
X84206Y68298D01*
X84319Y68300D01*
X83669Y73492D02*
X87564Y73492D01*
X83669Y73492D02*
X83568Y73490D01*
X83468Y73484D01*
X83368Y73474D01*
X83268Y73461D01*
X83169Y73443D01*
X83070Y73422D01*
X82973Y73397D01*
X82876Y73368D01*
X82781Y73335D01*
X82687Y73299D01*
X82595Y73259D01*
X82504Y73216D01*
X82415Y73169D01*
X82328Y73119D01*
X82242Y73065D01*
X82159Y73008D01*
X82079Y72948D01*
X82000Y72885D01*
X81924Y72818D01*
X81851Y72749D01*
X81781Y72677D01*
X81713Y72603D01*
X81648Y72526D01*
X81587Y72446D01*
X81528Y72364D01*
X81473Y72280D01*
X81421Y72194D01*
X81372Y72106D01*
X81327Y72016D01*
X81285Y71924D01*
X81247Y71831D01*
X81213Y71736D01*
X81182Y71641D01*
X81155Y71544D01*
X81132Y71446D01*
X81112Y71347D01*
X81097Y71247D01*
X81085Y71147D01*
X81077Y71047D01*
X81073Y70946D01*
X81073Y70846D01*
X81077Y70745D01*
X81085Y70645D01*
X81097Y70545D01*
X81112Y70445D01*
X81132Y70346D01*
X81155Y70248D01*
X81182Y70151D01*
X81213Y70056D01*
X81247Y69961D01*
X81285Y69868D01*
X81327Y69776D01*
X81372Y69686D01*
X81421Y69598D01*
X81473Y69512D01*
X81528Y69428D01*
X81587Y69346D01*
X81648Y69266D01*
X81713Y69189D01*
X81781Y69115D01*
X81851Y69043D01*
X81924Y68974D01*
X82000Y68907D01*
X82079Y68844D01*
X82159Y68784D01*
X82242Y68727D01*
X82328Y68673D01*
X82415Y68623D01*
X82504Y68576D01*
X82595Y68533D01*
X82687Y68493D01*
X82781Y68457D01*
X82876Y68424D01*
X82973Y68395D01*
X83070Y68370D01*
X83169Y68349D01*
X83268Y68331D01*
X83368Y68318D01*
X83468Y68308D01*
X83568Y68302D01*
X83669Y68300D01*
X83669Y68299D02*
X86266Y68299D01*
X292946Y74092D02*
X292946Y62408D01*
X296192Y74092D02*
X289701Y74092D01*
X284974Y74092D02*
X284974Y62408D01*
X284974Y74092D02*
X281728Y74092D01*
X281615Y74090D01*
X281502Y74084D01*
X281389Y74074D01*
X281276Y74060D01*
X281164Y74043D01*
X281053Y74021D01*
X280943Y73996D01*
X280833Y73966D01*
X280725Y73933D01*
X280618Y73896D01*
X280512Y73856D01*
X280408Y73811D01*
X280305Y73763D01*
X280204Y73712D01*
X280105Y73657D01*
X280008Y73599D01*
X279913Y73537D01*
X279820Y73472D01*
X279730Y73404D01*
X279642Y73333D01*
X279556Y73258D01*
X279473Y73181D01*
X279393Y73101D01*
X279316Y73018D01*
X279241Y72932D01*
X279170Y72844D01*
X279102Y72754D01*
X279037Y72661D01*
X278975Y72566D01*
X278917Y72469D01*
X278862Y72370D01*
X278811Y72269D01*
X278763Y72166D01*
X278718Y72062D01*
X278678Y71956D01*
X278641Y71849D01*
X278608Y71741D01*
X278578Y71631D01*
X278553Y71521D01*
X278531Y71410D01*
X278514Y71298D01*
X278500Y71185D01*
X278490Y71072D01*
X278484Y70959D01*
X278482Y70846D01*
X278484Y70733D01*
X278490Y70620D01*
X278500Y70507D01*
X278514Y70394D01*
X278531Y70282D01*
X278553Y70171D01*
X278578Y70061D01*
X278608Y69951D01*
X278641Y69843D01*
X278678Y69736D01*
X278718Y69630D01*
X278763Y69526D01*
X278811Y69423D01*
X278862Y69322D01*
X278917Y69223D01*
X278975Y69126D01*
X279037Y69031D01*
X279102Y68938D01*
X279170Y68848D01*
X279241Y68760D01*
X279316Y68674D01*
X279393Y68591D01*
X279473Y68511D01*
X279556Y68434D01*
X279642Y68359D01*
X279730Y68288D01*
X279820Y68220D01*
X279913Y68155D01*
X280008Y68093D01*
X280105Y68035D01*
X280204Y67980D01*
X280305Y67929D01*
X280408Y67881D01*
X280512Y67836D01*
X280618Y67796D01*
X280725Y67759D01*
X280833Y67726D01*
X280943Y67696D01*
X281053Y67671D01*
X281164Y67649D01*
X281276Y67632D01*
X281389Y67618D01*
X281502Y67608D01*
X281615Y67602D01*
X281728Y67600D01*
X281728Y67601D02*
X284974Y67601D01*
X274094Y71496D02*
X270849Y74092D01*
X270849Y62408D01*
X274094Y62408D02*
X267603Y62408D01*
X262664Y65004D02*
X260068Y74092D01*
X262664Y65004D02*
X256173Y65004D01*
X258120Y67601D02*
X258120Y62408D01*
X361846Y61608D02*
X361846Y73292D01*
X358601Y73292D02*
X365092Y73292D01*
X353874Y73292D02*
X353874Y61608D01*
X353874Y73292D02*
X350628Y73292D01*
X350515Y73290D01*
X350402Y73284D01*
X350289Y73274D01*
X350176Y73260D01*
X350064Y73243D01*
X349953Y73221D01*
X349843Y73196D01*
X349733Y73166D01*
X349625Y73133D01*
X349518Y73096D01*
X349412Y73056D01*
X349308Y73011D01*
X349205Y72963D01*
X349104Y72912D01*
X349005Y72857D01*
X348908Y72799D01*
X348813Y72737D01*
X348720Y72672D01*
X348630Y72604D01*
X348542Y72533D01*
X348456Y72458D01*
X348373Y72381D01*
X348293Y72301D01*
X348216Y72218D01*
X348141Y72132D01*
X348070Y72044D01*
X348002Y71954D01*
X347937Y71861D01*
X347875Y71766D01*
X347817Y71669D01*
X347762Y71570D01*
X347711Y71469D01*
X347663Y71366D01*
X347618Y71262D01*
X347578Y71156D01*
X347541Y71049D01*
X347508Y70941D01*
X347478Y70831D01*
X347453Y70721D01*
X347431Y70610D01*
X347414Y70498D01*
X347400Y70385D01*
X347390Y70272D01*
X347384Y70159D01*
X347382Y70046D01*
X347384Y69933D01*
X347390Y69820D01*
X347400Y69707D01*
X347414Y69594D01*
X347431Y69482D01*
X347453Y69371D01*
X347478Y69261D01*
X347508Y69151D01*
X347541Y69043D01*
X347578Y68936D01*
X347618Y68830D01*
X347663Y68726D01*
X347711Y68623D01*
X347762Y68522D01*
X347817Y68423D01*
X347875Y68326D01*
X347937Y68231D01*
X348002Y68138D01*
X348070Y68048D01*
X348141Y67960D01*
X348216Y67874D01*
X348293Y67791D01*
X348373Y67711D01*
X348456Y67634D01*
X348542Y67559D01*
X348630Y67488D01*
X348720Y67420D01*
X348813Y67355D01*
X348908Y67293D01*
X349005Y67235D01*
X349104Y67180D01*
X349205Y67129D01*
X349308Y67081D01*
X349412Y67036D01*
X349518Y66996D01*
X349625Y66959D01*
X349733Y66926D01*
X349843Y66896D01*
X349953Y66871D01*
X350064Y66849D01*
X350176Y66832D01*
X350289Y66818D01*
X350402Y66808D01*
X350515Y66802D01*
X350628Y66800D01*
X350628Y66801D02*
X353874Y66801D01*
X342994Y70696D02*
X339749Y73292D01*
X339749Y61608D01*
X342994Y61608D02*
X336503Y61608D01*
X331564Y68099D02*
X327669Y68099D01*
X327570Y68097D01*
X327470Y68091D01*
X327371Y68082D01*
X327273Y68069D01*
X327175Y68052D01*
X327077Y68031D01*
X326981Y68006D01*
X326886Y67978D01*
X326792Y67946D01*
X326699Y67911D01*
X326607Y67872D01*
X326517Y67829D01*
X326429Y67784D01*
X326342Y67734D01*
X326258Y67682D01*
X326175Y67626D01*
X326095Y67568D01*
X326017Y67506D01*
X325942Y67441D01*
X325869Y67373D01*
X325799Y67303D01*
X325731Y67230D01*
X325666Y67155D01*
X325604Y67077D01*
X325546Y66997D01*
X325490Y66914D01*
X325438Y66830D01*
X325388Y66743D01*
X325343Y66655D01*
X325300Y66565D01*
X325261Y66473D01*
X325226Y66380D01*
X325194Y66286D01*
X325166Y66191D01*
X325141Y66095D01*
X325120Y65997D01*
X325103Y65899D01*
X325090Y65801D01*
X325081Y65702D01*
X325075Y65602D01*
X325073Y65503D01*
X325073Y64854D01*
X325075Y64741D01*
X325081Y64628D01*
X325091Y64515D01*
X325105Y64402D01*
X325122Y64290D01*
X325144Y64179D01*
X325169Y64069D01*
X325199Y63959D01*
X325232Y63851D01*
X325269Y63744D01*
X325309Y63638D01*
X325354Y63534D01*
X325402Y63431D01*
X325453Y63330D01*
X325508Y63231D01*
X325566Y63134D01*
X325628Y63039D01*
X325693Y62946D01*
X325761Y62856D01*
X325832Y62768D01*
X325907Y62682D01*
X325984Y62599D01*
X326064Y62519D01*
X326147Y62442D01*
X326233Y62367D01*
X326321Y62296D01*
X326411Y62228D01*
X326504Y62163D01*
X326599Y62101D01*
X326696Y62043D01*
X326795Y61988D01*
X326896Y61937D01*
X326999Y61889D01*
X327103Y61844D01*
X327209Y61804D01*
X327316Y61767D01*
X327424Y61734D01*
X327534Y61704D01*
X327644Y61679D01*
X327755Y61657D01*
X327867Y61640D01*
X327980Y61626D01*
X328093Y61616D01*
X328206Y61610D01*
X328319Y61608D01*
X328432Y61610D01*
X328545Y61616D01*
X328658Y61626D01*
X328771Y61640D01*
X328883Y61657D01*
X328994Y61679D01*
X329104Y61704D01*
X329214Y61734D01*
X329322Y61767D01*
X329429Y61804D01*
X329535Y61844D01*
X329639Y61889D01*
X329742Y61937D01*
X329843Y61988D01*
X329942Y62043D01*
X330039Y62101D01*
X330134Y62163D01*
X330227Y62228D01*
X330317Y62296D01*
X330405Y62367D01*
X330491Y62442D01*
X330574Y62519D01*
X330654Y62599D01*
X330731Y62682D01*
X330806Y62768D01*
X330877Y62856D01*
X330945Y62946D01*
X331010Y63039D01*
X331072Y63134D01*
X331130Y63231D01*
X331185Y63330D01*
X331236Y63431D01*
X331284Y63534D01*
X331329Y63638D01*
X331369Y63744D01*
X331406Y63851D01*
X331439Y63959D01*
X331469Y64069D01*
X331494Y64179D01*
X331516Y64290D01*
X331533Y64402D01*
X331547Y64515D01*
X331557Y64628D01*
X331563Y64741D01*
X331565Y64854D01*
X331564Y64854D02*
X331564Y68099D01*
X331562Y68242D01*
X331556Y68385D01*
X331546Y68528D01*
X331532Y68670D01*
X331515Y68812D01*
X331493Y68954D01*
X331468Y69095D01*
X331438Y69235D01*
X331405Y69374D01*
X331368Y69512D01*
X331327Y69649D01*
X331283Y69785D01*
X331234Y69920D01*
X331182Y70053D01*
X331127Y70185D01*
X331067Y70315D01*
X331004Y70444D01*
X330938Y70571D01*
X330868Y70696D01*
X330795Y70818D01*
X330718Y70939D01*
X330638Y71058D01*
X330555Y71174D01*
X330469Y71289D01*
X330380Y71400D01*
X330287Y71510D01*
X330192Y71616D01*
X330093Y71720D01*
X329992Y71821D01*
X329888Y71920D01*
X329782Y72015D01*
X329672Y72108D01*
X329561Y72197D01*
X329446Y72283D01*
X329330Y72366D01*
X329211Y72446D01*
X329090Y72523D01*
X328968Y72596D01*
X328843Y72666D01*
X328716Y72732D01*
X328587Y72795D01*
X328457Y72855D01*
X328325Y72910D01*
X328192Y72962D01*
X328057Y73011D01*
X327921Y73055D01*
X327784Y73096D01*
X327646Y73133D01*
X327507Y73166D01*
X327367Y73196D01*
X327226Y73221D01*
X327084Y73243D01*
X326942Y73260D01*
X326800Y73274D01*
X326657Y73284D01*
X326514Y73290D01*
X326371Y73292D01*
X427946Y73292D02*
X427946Y61608D01*
X431192Y73292D02*
X424701Y73292D01*
X419974Y73292D02*
X419974Y61608D01*
X419974Y73292D02*
X416728Y73292D01*
X416615Y73290D01*
X416502Y73284D01*
X416389Y73274D01*
X416276Y73260D01*
X416164Y73243D01*
X416053Y73221D01*
X415943Y73196D01*
X415833Y73166D01*
X415725Y73133D01*
X415618Y73096D01*
X415512Y73056D01*
X415408Y73011D01*
X415305Y72963D01*
X415204Y72912D01*
X415105Y72857D01*
X415008Y72799D01*
X414913Y72737D01*
X414820Y72672D01*
X414730Y72604D01*
X414642Y72533D01*
X414556Y72458D01*
X414473Y72381D01*
X414393Y72301D01*
X414316Y72218D01*
X414241Y72132D01*
X414170Y72044D01*
X414102Y71954D01*
X414037Y71861D01*
X413975Y71766D01*
X413917Y71669D01*
X413862Y71570D01*
X413811Y71469D01*
X413763Y71366D01*
X413718Y71262D01*
X413678Y71156D01*
X413641Y71049D01*
X413608Y70941D01*
X413578Y70831D01*
X413553Y70721D01*
X413531Y70610D01*
X413514Y70498D01*
X413500Y70385D01*
X413490Y70272D01*
X413484Y70159D01*
X413482Y70046D01*
X413484Y69933D01*
X413490Y69820D01*
X413500Y69707D01*
X413514Y69594D01*
X413531Y69482D01*
X413553Y69371D01*
X413578Y69261D01*
X413608Y69151D01*
X413641Y69043D01*
X413678Y68936D01*
X413718Y68830D01*
X413763Y68726D01*
X413811Y68623D01*
X413862Y68522D01*
X413917Y68423D01*
X413975Y68326D01*
X414037Y68231D01*
X414102Y68138D01*
X414170Y68048D01*
X414241Y67960D01*
X414316Y67874D01*
X414393Y67791D01*
X414473Y67711D01*
X414556Y67634D01*
X414642Y67559D01*
X414730Y67488D01*
X414820Y67420D01*
X414913Y67355D01*
X415008Y67293D01*
X415105Y67235D01*
X415204Y67180D01*
X415305Y67129D01*
X415408Y67081D01*
X415512Y67036D01*
X415618Y66996D01*
X415725Y66959D01*
X415833Y66926D01*
X415943Y66896D01*
X416053Y66871D01*
X416164Y66849D01*
X416276Y66832D01*
X416389Y66818D01*
X416502Y66808D01*
X416615Y66802D01*
X416728Y66800D01*
X416728Y66801D02*
X419974Y66801D01*
X409094Y70696D02*
X405849Y73292D01*
X405849Y61608D01*
X409094Y61608D02*
X402603Y61608D01*
X397664Y71994D02*
X397664Y73292D01*
X391173Y73292D01*
X394419Y61608D01*
X496746Y61608D02*
X496746Y73292D01*
X493501Y73292D02*
X499992Y73292D01*
X488774Y73292D02*
X488774Y61608D01*
X488774Y73292D02*
X485528Y73292D01*
X485415Y73290D01*
X485302Y73284D01*
X485189Y73274D01*
X485076Y73260D01*
X484964Y73243D01*
X484853Y73221D01*
X484743Y73196D01*
X484633Y73166D01*
X484525Y73133D01*
X484418Y73096D01*
X484312Y73056D01*
X484208Y73011D01*
X484105Y72963D01*
X484004Y72912D01*
X483905Y72857D01*
X483808Y72799D01*
X483713Y72737D01*
X483620Y72672D01*
X483530Y72604D01*
X483442Y72533D01*
X483356Y72458D01*
X483273Y72381D01*
X483193Y72301D01*
X483116Y72218D01*
X483041Y72132D01*
X482970Y72044D01*
X482902Y71954D01*
X482837Y71861D01*
X482775Y71766D01*
X482717Y71669D01*
X482662Y71570D01*
X482611Y71469D01*
X482563Y71366D01*
X482518Y71262D01*
X482478Y71156D01*
X482441Y71049D01*
X482408Y70941D01*
X482378Y70831D01*
X482353Y70721D01*
X482331Y70610D01*
X482314Y70498D01*
X482300Y70385D01*
X482290Y70272D01*
X482284Y70159D01*
X482282Y70046D01*
X482284Y69933D01*
X482290Y69820D01*
X482300Y69707D01*
X482314Y69594D01*
X482331Y69482D01*
X482353Y69371D01*
X482378Y69261D01*
X482408Y69151D01*
X482441Y69043D01*
X482478Y68936D01*
X482518Y68830D01*
X482563Y68726D01*
X482611Y68623D01*
X482662Y68522D01*
X482717Y68423D01*
X482775Y68326D01*
X482837Y68231D01*
X482902Y68138D01*
X482970Y68048D01*
X483041Y67960D01*
X483116Y67874D01*
X483193Y67791D01*
X483273Y67711D01*
X483356Y67634D01*
X483442Y67559D01*
X483530Y67488D01*
X483620Y67420D01*
X483713Y67355D01*
X483808Y67293D01*
X483905Y67235D01*
X484004Y67180D01*
X484105Y67129D01*
X484208Y67081D01*
X484312Y67036D01*
X484418Y66996D01*
X484525Y66959D01*
X484633Y66926D01*
X484743Y66896D01*
X484853Y66871D01*
X484964Y66849D01*
X485076Y66832D01*
X485189Y66818D01*
X485302Y66808D01*
X485415Y66802D01*
X485528Y66800D01*
X485528Y66801D02*
X488774Y66801D01*
X477894Y70696D02*
X474649Y73292D01*
X474649Y61608D01*
X477894Y61608D02*
X471403Y61608D01*
X466465Y64854D02*
X466463Y64967D01*
X466457Y65080D01*
X466447Y65193D01*
X466433Y65306D01*
X466416Y65418D01*
X466394Y65529D01*
X466369Y65639D01*
X466339Y65749D01*
X466306Y65857D01*
X466269Y65964D01*
X466229Y66070D01*
X466184Y66174D01*
X466136Y66277D01*
X466085Y66378D01*
X466030Y66477D01*
X465972Y66574D01*
X465910Y66669D01*
X465845Y66762D01*
X465777Y66852D01*
X465706Y66940D01*
X465631Y67026D01*
X465554Y67109D01*
X465474Y67189D01*
X465391Y67266D01*
X465305Y67341D01*
X465217Y67412D01*
X465127Y67480D01*
X465034Y67545D01*
X464939Y67607D01*
X464842Y67665D01*
X464743Y67720D01*
X464642Y67771D01*
X464539Y67819D01*
X464435Y67864D01*
X464329Y67904D01*
X464222Y67941D01*
X464114Y67974D01*
X464004Y68004D01*
X463894Y68029D01*
X463783Y68051D01*
X463671Y68068D01*
X463558Y68082D01*
X463445Y68092D01*
X463332Y68098D01*
X463219Y68100D01*
X463106Y68098D01*
X462993Y68092D01*
X462880Y68082D01*
X462767Y68068D01*
X462655Y68051D01*
X462544Y68029D01*
X462434Y68004D01*
X462324Y67974D01*
X462216Y67941D01*
X462109Y67904D01*
X462003Y67864D01*
X461899Y67819D01*
X461796Y67771D01*
X461695Y67720D01*
X461596Y67665D01*
X461499Y67607D01*
X461404Y67545D01*
X461311Y67480D01*
X461221Y67412D01*
X461133Y67341D01*
X461047Y67266D01*
X460964Y67189D01*
X460884Y67109D01*
X460807Y67026D01*
X460732Y66940D01*
X460661Y66852D01*
X460593Y66762D01*
X460528Y66669D01*
X460466Y66574D01*
X460408Y66477D01*
X460353Y66378D01*
X460302Y66277D01*
X460254Y66174D01*
X460209Y66070D01*
X460169Y65964D01*
X460132Y65857D01*
X460099Y65749D01*
X460069Y65639D01*
X460044Y65529D01*
X460022Y65418D01*
X460005Y65306D01*
X459991Y65193D01*
X459981Y65080D01*
X459975Y64967D01*
X459973Y64854D01*
X459975Y64741D01*
X459981Y64628D01*
X459991Y64515D01*
X460005Y64402D01*
X460022Y64290D01*
X460044Y64179D01*
X460069Y64069D01*
X460099Y63959D01*
X460132Y63851D01*
X460169Y63744D01*
X460209Y63638D01*
X460254Y63534D01*
X460302Y63431D01*
X460353Y63330D01*
X460408Y63231D01*
X460466Y63134D01*
X460528Y63039D01*
X460593Y62946D01*
X460661Y62856D01*
X460732Y62768D01*
X460807Y62682D01*
X460884Y62599D01*
X460964Y62519D01*
X461047Y62442D01*
X461133Y62367D01*
X461221Y62296D01*
X461311Y62228D01*
X461404Y62163D01*
X461499Y62101D01*
X461596Y62043D01*
X461695Y61988D01*
X461796Y61937D01*
X461899Y61889D01*
X462003Y61844D01*
X462109Y61804D01*
X462216Y61767D01*
X462324Y61734D01*
X462434Y61704D01*
X462544Y61679D01*
X462655Y61657D01*
X462767Y61640D01*
X462880Y61626D01*
X462993Y61616D01*
X463106Y61610D01*
X463219Y61608D01*
X463332Y61610D01*
X463445Y61616D01*
X463558Y61626D01*
X463671Y61640D01*
X463783Y61657D01*
X463894Y61679D01*
X464004Y61704D01*
X464114Y61734D01*
X464222Y61767D01*
X464329Y61804D01*
X464435Y61844D01*
X464539Y61889D01*
X464642Y61937D01*
X464743Y61988D01*
X464842Y62043D01*
X464939Y62101D01*
X465034Y62163D01*
X465127Y62228D01*
X465217Y62296D01*
X465305Y62367D01*
X465391Y62442D01*
X465474Y62519D01*
X465554Y62599D01*
X465631Y62682D01*
X465706Y62768D01*
X465777Y62856D01*
X465845Y62946D01*
X465910Y63039D01*
X465972Y63134D01*
X466030Y63231D01*
X466085Y63330D01*
X466136Y63431D01*
X466184Y63534D01*
X466229Y63638D01*
X466269Y63744D01*
X466306Y63851D01*
X466339Y63959D01*
X466369Y64069D01*
X466394Y64179D01*
X466416Y64290D01*
X466433Y64402D01*
X466447Y64515D01*
X466457Y64628D01*
X466463Y64741D01*
X466465Y64854D01*
X465815Y70696D02*
X465813Y70797D01*
X465807Y70897D01*
X465797Y70997D01*
X465784Y71097D01*
X465766Y71196D01*
X465745Y71295D01*
X465720Y71392D01*
X465691Y71489D01*
X465658Y71584D01*
X465622Y71678D01*
X465582Y71770D01*
X465539Y71861D01*
X465492Y71950D01*
X465442Y72037D01*
X465388Y72123D01*
X465331Y72206D01*
X465271Y72286D01*
X465208Y72365D01*
X465141Y72441D01*
X465072Y72514D01*
X465000Y72584D01*
X464926Y72652D01*
X464849Y72717D01*
X464769Y72778D01*
X464687Y72837D01*
X464603Y72892D01*
X464517Y72944D01*
X464429Y72993D01*
X464339Y73038D01*
X464247Y73080D01*
X464154Y73118D01*
X464059Y73152D01*
X463964Y73183D01*
X463867Y73210D01*
X463769Y73233D01*
X463670Y73253D01*
X463570Y73268D01*
X463470Y73280D01*
X463370Y73288D01*
X463269Y73292D01*
X463169Y73292D01*
X463068Y73288D01*
X462968Y73280D01*
X462868Y73268D01*
X462768Y73253D01*
X462669Y73233D01*
X462571Y73210D01*
X462474Y73183D01*
X462379Y73152D01*
X462284Y73118D01*
X462191Y73080D01*
X462099Y73038D01*
X462009Y72993D01*
X461921Y72944D01*
X461835Y72892D01*
X461751Y72837D01*
X461669Y72778D01*
X461589Y72717D01*
X461512Y72652D01*
X461438Y72584D01*
X461366Y72514D01*
X461297Y72441D01*
X461230Y72365D01*
X461167Y72286D01*
X461107Y72206D01*
X461050Y72123D01*
X460996Y72037D01*
X460946Y71950D01*
X460899Y71861D01*
X460856Y71770D01*
X460816Y71678D01*
X460780Y71584D01*
X460747Y71489D01*
X460718Y71392D01*
X460693Y71295D01*
X460672Y71196D01*
X460654Y71097D01*
X460641Y70997D01*
X460631Y70897D01*
X460625Y70797D01*
X460623Y70696D01*
X460625Y70595D01*
X460631Y70495D01*
X460641Y70395D01*
X460654Y70295D01*
X460672Y70196D01*
X460693Y70097D01*
X460718Y70000D01*
X460747Y69903D01*
X460780Y69808D01*
X460816Y69714D01*
X460856Y69622D01*
X460899Y69531D01*
X460946Y69442D01*
X460996Y69355D01*
X461050Y69269D01*
X461107Y69186D01*
X461167Y69106D01*
X461230Y69027D01*
X461297Y68951D01*
X461366Y68878D01*
X461438Y68808D01*
X461512Y68740D01*
X461589Y68675D01*
X461669Y68614D01*
X461751Y68555D01*
X461835Y68500D01*
X461921Y68448D01*
X462009Y68399D01*
X462099Y68354D01*
X462191Y68312D01*
X462284Y68274D01*
X462379Y68240D01*
X462474Y68209D01*
X462571Y68182D01*
X462669Y68159D01*
X462768Y68139D01*
X462868Y68124D01*
X462968Y68112D01*
X463068Y68104D01*
X463169Y68100D01*
X463269Y68100D01*
X463370Y68104D01*
X463470Y68112D01*
X463570Y68124D01*
X463670Y68139D01*
X463769Y68159D01*
X463867Y68182D01*
X463964Y68209D01*
X464059Y68240D01*
X464154Y68274D01*
X464247Y68312D01*
X464339Y68354D01*
X464429Y68399D01*
X464517Y68448D01*
X464603Y68500D01*
X464687Y68555D01*
X464769Y68614D01*
X464849Y68675D01*
X464926Y68740D01*
X465000Y68808D01*
X465072Y68878D01*
X465141Y68951D01*
X465208Y69027D01*
X465271Y69106D01*
X465331Y69186D01*
X465388Y69269D01*
X465442Y69355D01*
X465492Y69442D01*
X465539Y69531D01*
X465582Y69622D01*
X465622Y69714D01*
X465658Y69808D01*
X465691Y69903D01*
X465720Y70000D01*
X465745Y70097D01*
X465766Y70196D01*
X465784Y70295D01*
X465797Y70395D01*
X465807Y70495D01*
X465813Y70595D01*
X465815Y70696D01*
X565046Y73492D02*
X565046Y61808D01*
X568292Y73492D02*
X561801Y73492D01*
X557074Y73492D02*
X557074Y61808D01*
X557074Y73492D02*
X553828Y73492D01*
X553715Y73490D01*
X553602Y73484D01*
X553489Y73474D01*
X553376Y73460D01*
X553264Y73443D01*
X553153Y73421D01*
X553043Y73396D01*
X552933Y73366D01*
X552825Y73333D01*
X552718Y73296D01*
X552612Y73256D01*
X552508Y73211D01*
X552405Y73163D01*
X552304Y73112D01*
X552205Y73057D01*
X552108Y72999D01*
X552013Y72937D01*
X551920Y72872D01*
X551830Y72804D01*
X551742Y72733D01*
X551656Y72658D01*
X551573Y72581D01*
X551493Y72501D01*
X551416Y72418D01*
X551341Y72332D01*
X551270Y72244D01*
X551202Y72154D01*
X551137Y72061D01*
X551075Y71966D01*
X551017Y71869D01*
X550962Y71770D01*
X550911Y71669D01*
X550863Y71566D01*
X550818Y71462D01*
X550778Y71356D01*
X550741Y71249D01*
X550708Y71141D01*
X550678Y71031D01*
X550653Y70921D01*
X550631Y70810D01*
X550614Y70698D01*
X550600Y70585D01*
X550590Y70472D01*
X550584Y70359D01*
X550582Y70246D01*
X550584Y70133D01*
X550590Y70020D01*
X550600Y69907D01*
X550614Y69794D01*
X550631Y69682D01*
X550653Y69571D01*
X550678Y69461D01*
X550708Y69351D01*
X550741Y69243D01*
X550778Y69136D01*
X550818Y69030D01*
X550863Y68926D01*
X550911Y68823D01*
X550962Y68722D01*
X551017Y68623D01*
X551075Y68526D01*
X551137Y68431D01*
X551202Y68338D01*
X551270Y68248D01*
X551341Y68160D01*
X551416Y68074D01*
X551493Y67991D01*
X551573Y67911D01*
X551656Y67834D01*
X551742Y67759D01*
X551830Y67688D01*
X551920Y67620D01*
X552013Y67555D01*
X552108Y67493D01*
X552205Y67435D01*
X552304Y67380D01*
X552405Y67329D01*
X552508Y67281D01*
X552612Y67236D01*
X552718Y67196D01*
X552825Y67159D01*
X552933Y67126D01*
X553043Y67096D01*
X553153Y67071D01*
X553264Y67049D01*
X553376Y67032D01*
X553489Y67018D01*
X553602Y67008D01*
X553715Y67002D01*
X553828Y67000D01*
X553828Y67001D02*
X557074Y67001D01*
X542624Y73492D02*
X542517Y73490D01*
X542411Y73484D01*
X542305Y73474D01*
X542199Y73461D01*
X542093Y73443D01*
X541989Y73422D01*
X541885Y73397D01*
X541782Y73368D01*
X541681Y73336D01*
X541581Y73299D01*
X541482Y73259D01*
X541384Y73216D01*
X541288Y73169D01*
X541194Y73118D01*
X541102Y73064D01*
X541012Y73007D01*
X540924Y72947D01*
X540839Y72883D01*
X540756Y72816D01*
X540675Y72746D01*
X540597Y72674D01*
X540521Y72598D01*
X540449Y72520D01*
X540379Y72439D01*
X540312Y72356D01*
X540248Y72271D01*
X540188Y72183D01*
X540131Y72093D01*
X540077Y72001D01*
X540026Y71907D01*
X539979Y71811D01*
X539936Y71713D01*
X539896Y71614D01*
X539859Y71514D01*
X539827Y71413D01*
X539798Y71310D01*
X539773Y71206D01*
X539752Y71102D01*
X539734Y70996D01*
X539721Y70890D01*
X539711Y70784D01*
X539705Y70678D01*
X539703Y70571D01*
X542624Y73492D02*
X542745Y73490D01*
X542866Y73484D01*
X542986Y73474D01*
X543107Y73461D01*
X543226Y73443D01*
X543346Y73422D01*
X543464Y73397D01*
X543581Y73368D01*
X543698Y73335D01*
X543813Y73299D01*
X543927Y73258D01*
X544040Y73215D01*
X544152Y73167D01*
X544261Y73116D01*
X544369Y73061D01*
X544476Y73003D01*
X544580Y72942D01*
X544682Y72877D01*
X544782Y72809D01*
X544880Y72738D01*
X544976Y72664D01*
X545069Y72587D01*
X545159Y72506D01*
X545247Y72423D01*
X545332Y72337D01*
X545415Y72248D01*
X545494Y72157D01*
X545571Y72063D01*
X545644Y71967D01*
X545714Y71869D01*
X545781Y71768D01*
X545845Y71665D01*
X545906Y71560D01*
X545963Y71453D01*
X546016Y71345D01*
X546066Y71235D01*
X546112Y71123D01*
X546155Y71010D01*
X546194Y70895D01*
X540677Y68299D02*
X540598Y68377D01*
X540522Y68457D01*
X540449Y68540D01*
X540379Y68626D01*
X540312Y68713D01*
X540248Y68804D01*
X540188Y68896D01*
X540130Y68990D01*
X540076Y69087D01*
X540026Y69185D01*
X539979Y69285D01*
X539935Y69386D01*
X539895Y69489D01*
X539859Y69594D01*
X539827Y69699D01*
X539798Y69806D01*
X539773Y69913D01*
X539751Y70022D01*
X539734Y70131D01*
X539720Y70240D01*
X539711Y70350D01*
X539705Y70461D01*
X539703Y70571D01*
X540677Y68299D02*
X546194Y61808D01*
X539703Y61808D01*
X534765Y67650D02*
X534762Y67880D01*
X534754Y68110D01*
X534740Y68339D01*
X534721Y68568D01*
X534696Y68797D01*
X534666Y69025D01*
X534631Y69252D01*
X534590Y69478D01*
X534544Y69703D01*
X534492Y69927D01*
X534435Y70150D01*
X534373Y70371D01*
X534305Y70591D01*
X534232Y70809D01*
X534154Y71025D01*
X534071Y71239D01*
X533983Y71452D01*
X533890Y71662D01*
X533791Y71869D01*
X533758Y71959D01*
X533722Y72048D01*
X533682Y72136D01*
X533638Y72221D01*
X533591Y72305D01*
X533541Y72387D01*
X533487Y72467D01*
X533431Y72544D01*
X533371Y72620D01*
X533308Y72693D01*
X533243Y72763D01*
X533174Y72831D01*
X533103Y72895D01*
X533030Y72957D01*
X532954Y73016D01*
X532876Y73072D01*
X532795Y73125D01*
X532713Y73174D01*
X532629Y73220D01*
X532542Y73263D01*
X532455Y73302D01*
X532365Y73338D01*
X532275Y73370D01*
X532183Y73398D01*
X532090Y73423D01*
X531996Y73444D01*
X531902Y73461D01*
X531807Y73475D01*
X531711Y73484D01*
X531615Y73490D01*
X531519Y73492D01*
X531423Y73490D01*
X531327Y73484D01*
X531231Y73475D01*
X531136Y73461D01*
X531042Y73444D01*
X530948Y73423D01*
X530855Y73398D01*
X530763Y73370D01*
X530673Y73338D01*
X530583Y73302D01*
X530496Y73263D01*
X530409Y73220D01*
X530325Y73174D01*
X530243Y73125D01*
X530162Y73072D01*
X530084Y73016D01*
X530008Y72957D01*
X529935Y72895D01*
X529864Y72831D01*
X529795Y72763D01*
X529730Y72693D01*
X529667Y72620D01*
X529607Y72545D01*
X529551Y72467D01*
X529497Y72387D01*
X529447Y72305D01*
X529400Y72221D01*
X529357Y72136D01*
X529316Y72048D01*
X529280Y71959D01*
X529247Y71869D01*
X529148Y71661D01*
X529055Y71451D01*
X528967Y71239D01*
X528884Y71025D01*
X528806Y70808D01*
X528733Y70590D01*
X528665Y70371D01*
X528603Y70149D01*
X528546Y69927D01*
X528494Y69703D01*
X528448Y69478D01*
X528407Y69252D01*
X528372Y69024D01*
X528342Y68797D01*
X528317Y68568D01*
X528298Y68339D01*
X528284Y68110D01*
X528276Y67880D01*
X528273Y67650D01*
X534764Y67650D02*
X534761Y67420D01*
X534753Y67190D01*
X534739Y66961D01*
X534720Y66732D01*
X534695Y66503D01*
X534665Y66275D01*
X534630Y66048D01*
X534589Y65822D01*
X534543Y65597D01*
X534491Y65373D01*
X534434Y65150D01*
X534372Y64929D01*
X534304Y64709D01*
X534231Y64491D01*
X534153Y64275D01*
X534070Y64061D01*
X533982Y63849D01*
X533889Y63638D01*
X533790Y63431D01*
X533791Y63431D02*
X533758Y63341D01*
X533722Y63252D01*
X533681Y63164D01*
X533638Y63079D01*
X533591Y62995D01*
X533541Y62913D01*
X533487Y62833D01*
X533431Y62756D01*
X533371Y62680D01*
X533308Y62607D01*
X533243Y62537D01*
X533174Y62469D01*
X533103Y62405D01*
X533030Y62343D01*
X532954Y62284D01*
X532876Y62228D01*
X532795Y62175D01*
X532713Y62126D01*
X532629Y62080D01*
X532542Y62037D01*
X532455Y61998D01*
X532365Y61962D01*
X532275Y61930D01*
X532183Y61902D01*
X532090Y61877D01*
X531996Y61856D01*
X531902Y61839D01*
X531807Y61825D01*
X531711Y61816D01*
X531615Y61810D01*
X531519Y61808D01*
X529247Y63431D02*
X529148Y63638D01*
X529055Y63849D01*
X528967Y64061D01*
X528884Y64275D01*
X528806Y64491D01*
X528733Y64709D01*
X528665Y64929D01*
X528603Y65150D01*
X528546Y65373D01*
X528494Y65597D01*
X528448Y65822D01*
X528407Y66048D01*
X528372Y66275D01*
X528342Y66503D01*
X528317Y66732D01*
X528298Y66961D01*
X528284Y67190D01*
X528276Y67420D01*
X528273Y67650D01*
X529247Y63431D02*
X529280Y63341D01*
X529316Y63252D01*
X529357Y63164D01*
X529400Y63079D01*
X529447Y62995D01*
X529497Y62913D01*
X529551Y62833D01*
X529607Y62755D01*
X529667Y62680D01*
X529730Y62607D01*
X529795Y62537D01*
X529864Y62469D01*
X529935Y62405D01*
X530008Y62343D01*
X530084Y62284D01*
X530162Y62228D01*
X530243Y62175D01*
X530325Y62126D01*
X530409Y62080D01*
X530496Y62037D01*
X530583Y61998D01*
X530673Y61962D01*
X530763Y61930D01*
X530855Y61902D01*
X530948Y61877D01*
X531042Y61856D01*
X531136Y61839D01*
X531231Y61825D01*
X531327Y61816D01*
X531423Y61810D01*
X531519Y61808D01*
X534115Y64404D02*
X528922Y70896D01*
X633846Y71392D02*
X633846Y59708D01*
X637092Y71392D02*
X630601Y71392D01*
X625874Y71392D02*
X625874Y59708D01*
X625874Y71392D02*
X622628Y71392D01*
X622515Y71390D01*
X622402Y71384D01*
X622289Y71374D01*
X622176Y71360D01*
X622064Y71343D01*
X621953Y71321D01*
X621843Y71296D01*
X621733Y71266D01*
X621625Y71233D01*
X621518Y71196D01*
X621412Y71156D01*
X621308Y71111D01*
X621205Y71063D01*
X621104Y71012D01*
X621005Y70957D01*
X620908Y70899D01*
X620813Y70837D01*
X620720Y70772D01*
X620630Y70704D01*
X620542Y70633D01*
X620456Y70558D01*
X620373Y70481D01*
X620293Y70401D01*
X620216Y70318D01*
X620141Y70232D01*
X620070Y70144D01*
X620002Y70054D01*
X619937Y69961D01*
X619875Y69866D01*
X619817Y69769D01*
X619762Y69670D01*
X619711Y69569D01*
X619663Y69466D01*
X619618Y69362D01*
X619578Y69256D01*
X619541Y69149D01*
X619508Y69041D01*
X619478Y68931D01*
X619453Y68821D01*
X619431Y68710D01*
X619414Y68598D01*
X619400Y68485D01*
X619390Y68372D01*
X619384Y68259D01*
X619382Y68146D01*
X619384Y68033D01*
X619390Y67920D01*
X619400Y67807D01*
X619414Y67694D01*
X619431Y67582D01*
X619453Y67471D01*
X619478Y67361D01*
X619508Y67251D01*
X619541Y67143D01*
X619578Y67036D01*
X619618Y66930D01*
X619663Y66826D01*
X619711Y66723D01*
X619762Y66622D01*
X619817Y66523D01*
X619875Y66426D01*
X619937Y66331D01*
X620002Y66238D01*
X620070Y66148D01*
X620141Y66060D01*
X620216Y65974D01*
X620293Y65891D01*
X620373Y65811D01*
X620456Y65734D01*
X620542Y65659D01*
X620630Y65588D01*
X620720Y65520D01*
X620813Y65455D01*
X620908Y65393D01*
X621005Y65335D01*
X621104Y65280D01*
X621205Y65229D01*
X621308Y65181D01*
X621412Y65136D01*
X621518Y65096D01*
X621625Y65059D01*
X621733Y65026D01*
X621843Y64996D01*
X621953Y64971D01*
X622064Y64949D01*
X622176Y64932D01*
X622289Y64918D01*
X622402Y64908D01*
X622515Y64902D01*
X622628Y64900D01*
X622628Y64901D02*
X625874Y64901D01*
X611424Y71392D02*
X611317Y71390D01*
X611211Y71384D01*
X611105Y71374D01*
X610999Y71361D01*
X610893Y71343D01*
X610789Y71322D01*
X610685Y71297D01*
X610582Y71268D01*
X610481Y71236D01*
X610381Y71199D01*
X610282Y71159D01*
X610184Y71116D01*
X610088Y71069D01*
X609994Y71018D01*
X609902Y70964D01*
X609812Y70907D01*
X609724Y70847D01*
X609639Y70783D01*
X609556Y70716D01*
X609475Y70646D01*
X609397Y70574D01*
X609321Y70498D01*
X609249Y70420D01*
X609179Y70339D01*
X609112Y70256D01*
X609048Y70171D01*
X608988Y70083D01*
X608931Y69993D01*
X608877Y69901D01*
X608826Y69807D01*
X608779Y69711D01*
X608736Y69613D01*
X608696Y69514D01*
X608659Y69414D01*
X608627Y69313D01*
X608598Y69210D01*
X608573Y69106D01*
X608552Y69002D01*
X608534Y68896D01*
X608521Y68790D01*
X608511Y68684D01*
X608505Y68578D01*
X608503Y68471D01*
X611424Y71392D02*
X611545Y71390D01*
X611666Y71384D01*
X611786Y71374D01*
X611907Y71361D01*
X612026Y71343D01*
X612146Y71322D01*
X612264Y71297D01*
X612381Y71268D01*
X612498Y71235D01*
X612613Y71199D01*
X612727Y71158D01*
X612840Y71115D01*
X612952Y71067D01*
X613061Y71016D01*
X613169Y70961D01*
X613276Y70903D01*
X613380Y70842D01*
X613482Y70777D01*
X613582Y70709D01*
X613680Y70638D01*
X613776Y70564D01*
X613869Y70487D01*
X613959Y70406D01*
X614047Y70323D01*
X614132Y70237D01*
X614215Y70148D01*
X614294Y70057D01*
X614371Y69963D01*
X614444Y69867D01*
X614514Y69769D01*
X614581Y69668D01*
X614645Y69565D01*
X614706Y69460D01*
X614763Y69353D01*
X614816Y69245D01*
X614866Y69135D01*
X614912Y69023D01*
X614955Y68910D01*
X614994Y68795D01*
X609477Y66199D02*
X609398Y66277D01*
X609322Y66357D01*
X609249Y66440D01*
X609179Y66526D01*
X609112Y66613D01*
X609048Y66704D01*
X608988Y66796D01*
X608930Y66890D01*
X608876Y66987D01*
X608826Y67085D01*
X608779Y67185D01*
X608735Y67286D01*
X608695Y67389D01*
X608659Y67494D01*
X608627Y67599D01*
X608598Y67706D01*
X608573Y67813D01*
X608551Y67922D01*
X608534Y68031D01*
X608520Y68140D01*
X608511Y68250D01*
X608505Y68361D01*
X608503Y68471D01*
X609477Y66199D02*
X614994Y59708D01*
X608503Y59708D01*
X603564Y68796D02*
X600319Y71392D01*
X600319Y59708D01*
X603564Y59708D02*
X597073Y59708D01*
X745946Y62408D02*
X745946Y74092D01*
X742701Y74092D02*
X749192Y74092D01*
X737974Y74092D02*
X737974Y62408D01*
X737974Y74092D02*
X734728Y74092D01*
X734615Y74090D01*
X734502Y74084D01*
X734389Y74074D01*
X734276Y74060D01*
X734164Y74043D01*
X734053Y74021D01*
X733943Y73996D01*
X733833Y73966D01*
X733725Y73933D01*
X733618Y73896D01*
X733512Y73856D01*
X733408Y73811D01*
X733305Y73763D01*
X733204Y73712D01*
X733105Y73657D01*
X733008Y73599D01*
X732913Y73537D01*
X732820Y73472D01*
X732730Y73404D01*
X732642Y73333D01*
X732556Y73258D01*
X732473Y73181D01*
X732393Y73101D01*
X732316Y73018D01*
X732241Y72932D01*
X732170Y72844D01*
X732102Y72754D01*
X732037Y72661D01*
X731975Y72566D01*
X731917Y72469D01*
X731862Y72370D01*
X731811Y72269D01*
X731763Y72166D01*
X731718Y72062D01*
X731678Y71956D01*
X731641Y71849D01*
X731608Y71741D01*
X731578Y71631D01*
X731553Y71521D01*
X731531Y71410D01*
X731514Y71298D01*
X731500Y71185D01*
X731490Y71072D01*
X731484Y70959D01*
X731482Y70846D01*
X731484Y70733D01*
X731490Y70620D01*
X731500Y70507D01*
X731514Y70394D01*
X731531Y70282D01*
X731553Y70171D01*
X731578Y70061D01*
X731608Y69951D01*
X731641Y69843D01*
X731678Y69736D01*
X731718Y69630D01*
X731763Y69526D01*
X731811Y69423D01*
X731862Y69322D01*
X731917Y69223D01*
X731975Y69126D01*
X732037Y69031D01*
X732102Y68938D01*
X732170Y68848D01*
X732241Y68760D01*
X732316Y68674D01*
X732393Y68591D01*
X732473Y68511D01*
X732556Y68434D01*
X732642Y68359D01*
X732730Y68288D01*
X732820Y68220D01*
X732913Y68155D01*
X733008Y68093D01*
X733105Y68035D01*
X733204Y67980D01*
X733305Y67929D01*
X733408Y67881D01*
X733512Y67836D01*
X733618Y67796D01*
X733725Y67759D01*
X733833Y67726D01*
X733943Y67696D01*
X734053Y67671D01*
X734164Y67649D01*
X734276Y67632D01*
X734389Y67618D01*
X734502Y67608D01*
X734615Y67602D01*
X734728Y67600D01*
X734728Y67601D02*
X737974Y67601D01*
X723524Y74092D02*
X723417Y74090D01*
X723311Y74084D01*
X723205Y74074D01*
X723099Y74061D01*
X722993Y74043D01*
X722889Y74022D01*
X722785Y73997D01*
X722682Y73968D01*
X722581Y73936D01*
X722481Y73899D01*
X722382Y73859D01*
X722284Y73816D01*
X722188Y73769D01*
X722094Y73718D01*
X722002Y73664D01*
X721912Y73607D01*
X721824Y73547D01*
X721739Y73483D01*
X721656Y73416D01*
X721575Y73346D01*
X721497Y73274D01*
X721421Y73198D01*
X721349Y73120D01*
X721279Y73039D01*
X721212Y72956D01*
X721148Y72871D01*
X721088Y72783D01*
X721031Y72693D01*
X720977Y72601D01*
X720926Y72507D01*
X720879Y72411D01*
X720836Y72313D01*
X720796Y72214D01*
X720759Y72114D01*
X720727Y72013D01*
X720698Y71910D01*
X720673Y71806D01*
X720652Y71702D01*
X720634Y71596D01*
X720621Y71490D01*
X720611Y71384D01*
X720605Y71278D01*
X720603Y71171D01*
X723524Y74092D02*
X723645Y74090D01*
X723766Y74084D01*
X723886Y74074D01*
X724007Y74061D01*
X724126Y74043D01*
X724246Y74022D01*
X724364Y73997D01*
X724481Y73968D01*
X724598Y73935D01*
X724713Y73899D01*
X724827Y73858D01*
X724940Y73815D01*
X725052Y73767D01*
X725161Y73716D01*
X725269Y73661D01*
X725376Y73603D01*
X725480Y73542D01*
X725582Y73477D01*
X725682Y73409D01*
X725780Y73338D01*
X725876Y73264D01*
X725969Y73187D01*
X726059Y73106D01*
X726147Y73023D01*
X726232Y72937D01*
X726315Y72848D01*
X726394Y72757D01*
X726471Y72663D01*
X726544Y72567D01*
X726614Y72469D01*
X726681Y72368D01*
X726745Y72265D01*
X726806Y72160D01*
X726863Y72053D01*
X726916Y71945D01*
X726966Y71835D01*
X727012Y71723D01*
X727055Y71610D01*
X727094Y71495D01*
X721577Y68899D02*
X721498Y68977D01*
X721422Y69057D01*
X721349Y69140D01*
X721279Y69226D01*
X721212Y69313D01*
X721148Y69404D01*
X721088Y69496D01*
X721030Y69590D01*
X720976Y69687D01*
X720926Y69785D01*
X720879Y69885D01*
X720835Y69986D01*
X720795Y70089D01*
X720759Y70194D01*
X720727Y70299D01*
X720698Y70406D01*
X720673Y70513D01*
X720651Y70622D01*
X720634Y70731D01*
X720620Y70840D01*
X720611Y70950D01*
X720605Y71061D01*
X720603Y71171D01*
X721577Y68899D02*
X727094Y62408D01*
X720603Y62408D01*
X709173Y71171D02*
X709175Y71278D01*
X709181Y71384D01*
X709191Y71490D01*
X709204Y71596D01*
X709222Y71702D01*
X709243Y71806D01*
X709268Y71910D01*
X709297Y72013D01*
X709329Y72114D01*
X709366Y72214D01*
X709406Y72313D01*
X709449Y72411D01*
X709496Y72507D01*
X709547Y72601D01*
X709601Y72693D01*
X709658Y72783D01*
X709718Y72871D01*
X709782Y72956D01*
X709849Y73039D01*
X709919Y73120D01*
X709991Y73198D01*
X710067Y73274D01*
X710145Y73346D01*
X710226Y73416D01*
X710309Y73483D01*
X710394Y73547D01*
X710482Y73607D01*
X710572Y73664D01*
X710664Y73718D01*
X710758Y73769D01*
X710854Y73816D01*
X710952Y73859D01*
X711051Y73899D01*
X711151Y73936D01*
X711252Y73968D01*
X711355Y73997D01*
X711459Y74022D01*
X711563Y74043D01*
X711669Y74061D01*
X711775Y74074D01*
X711881Y74084D01*
X711987Y74090D01*
X712094Y74092D01*
X712215Y74090D01*
X712336Y74084D01*
X712456Y74074D01*
X712577Y74061D01*
X712696Y74043D01*
X712816Y74022D01*
X712934Y73997D01*
X713051Y73968D01*
X713168Y73935D01*
X713283Y73899D01*
X713397Y73858D01*
X713510Y73815D01*
X713622Y73767D01*
X713731Y73716D01*
X713839Y73661D01*
X713946Y73603D01*
X714050Y73542D01*
X714152Y73477D01*
X714252Y73409D01*
X714350Y73338D01*
X714446Y73264D01*
X714539Y73187D01*
X714629Y73106D01*
X714717Y73023D01*
X714802Y72937D01*
X714885Y72848D01*
X714964Y72757D01*
X715041Y72663D01*
X715114Y72567D01*
X715184Y72469D01*
X715251Y72368D01*
X715315Y72265D01*
X715376Y72160D01*
X715433Y72053D01*
X715486Y71945D01*
X715536Y71835D01*
X715582Y71723D01*
X715625Y71610D01*
X715664Y71495D01*
X710147Y68899D02*
X710068Y68977D01*
X709992Y69057D01*
X709919Y69140D01*
X709849Y69226D01*
X709782Y69313D01*
X709718Y69404D01*
X709658Y69496D01*
X709600Y69590D01*
X709546Y69687D01*
X709496Y69785D01*
X709449Y69885D01*
X709405Y69986D01*
X709365Y70089D01*
X709329Y70194D01*
X709297Y70299D01*
X709268Y70406D01*
X709243Y70513D01*
X709221Y70622D01*
X709204Y70731D01*
X709190Y70840D01*
X709181Y70950D01*
X709175Y71061D01*
X709173Y71171D01*
X710147Y68899D02*
X715664Y62408D01*
X709173Y62408D01*
M02*
