<?xml version="1.0" standalone="no"?>
 <!DOCTYPE svg PUBLIC "-//W3C//DTD SVG 1.1//EN" 
 "http://www.w3.org/Graphics/SVG/1.1/DTD/svg11.dtd"> 
<svg
  xmlns:svg="http://www.w3.org/2000/svg"
  xmlns="http://www.w3.org/2000/svg"
  xmlns:xlink="http://www.w3.org/1999/xlink"
  version="1.1"
  width="297.0022mm" height="210.0072mm" viewBox="0.0000 0.0000 297.0022 210.0072">
<title>SVG Image created as lego_elevator-B_Paste.svg date 2024/10/10 22:20:21 </title>
  <desc>Image generated by PCBNEW </desc>
<g style="fill:#000000; fill-opacity:1.0000;stroke:#000000; stroke-opacity:1.0000;
stroke-linecap:round; stroke-linejoin:round;"
 transform="translate(0 0) scale(1 1)">
<path style="fill:#00C2C2; fill-opacity:0.9000; stroke:none;fill-rule:evenodd;"
d="M 111.7880,76.6500
111.7690,76.7457
111.7148,76.8268
111.6337,76.8810
111.5380,76.9000
111.0130,76.9000
110.9173,76.8810
110.8362,76.8268
110.7820,76.7457
110.7630,76.6500
110.7630,75.7500
110.7820,75.6543
110.8362,75.5732
110.9173,75.5190
111.0130,75.5000
111.5380,75.5000
111.6337,75.5190
111.7148,75.5732
111.7690,75.6543
111.7880,75.7500
Z" /> 
<path style="fill:#00C2C2; fill-opacity:0.9000; stroke:none;fill-rule:evenodd;"
d="M 109.9630,76.6500
109.9440,76.7457
109.8898,76.8268
109.8087,76.8810
109.7130,76.9000
109.1880,76.9000
109.0923,76.8810
109.0112,76.8268
108.9570,76.7457
108.9380,76.6500
108.9380,75.7500
108.9570,75.6543
109.0112,75.5732
109.0923,75.5190
109.1880,75.5000
109.7130,75.5000
109.8087,75.5190
109.8898,75.5732
109.9440,75.6543
109.9630,75.7500
Z" /> 
<path style="fill:#00C2C2; fill-opacity:0.9000; stroke:none;fill-rule:evenodd;"
d="M 57.6912,81.2018
57.6376,81.1911
57.5922,81.1608
57.5619,81.1154
57.5512,81.0618
57.5512,80.7818
57.5619,80.7282
57.5922,80.6828
57.6376,80.6525
57.6912,80.6418
58.0312,80.6418
58.0848,80.6525
58.1302,80.6828
58.1605,80.7282
58.1712,80.7818
58.1712,81.0618
58.1605,81.1154
58.1302,81.1608
58.0848,81.1911
58.0312,81.2018
Z" /> 
<path style="fill:#00C2C2; fill-opacity:0.9000; stroke:none;fill-rule:evenodd;"
d="M 57.6912,80.2418
57.6376,80.2311
57.5922,80.2008
57.5619,80.1554
57.5512,80.1018
57.5512,79.8218
57.5619,79.7682
57.5922,79.7228
57.6376,79.6925
57.6912,79.6818
58.0312,79.6818
58.0848,79.6925
58.1302,79.7228
58.1605,79.7682
58.1712,79.8218
58.1712,80.1018
58.1605,80.1554
58.1302,80.2008
58.0848,80.2311
58.0312,80.2418
Z" /> 
<path style="fill:#00C2C2; fill-opacity:0.9000; stroke:none;fill-rule:evenodd;"
d="M 86.6720,65.5740
86.7237,65.5843
86.7675,65.6135
86.7967,65.6573
86.8070,65.7090
86.8070,65.9790
86.7967,66.0307
86.7675,66.0745
86.7237,66.1037
86.6720,66.1140
86.3020,66.1140
86.2503,66.1037
86.2065,66.0745
86.1773,66.0307
86.1670,65.9790
86.1670,65.7090
86.1773,65.6573
86.2065,65.6135
86.2503,65.5843
86.3020,65.5740
Z" /> 
<path style="fill:#00C2C2; fill-opacity:0.9000; stroke:none;fill-rule:evenodd;"
d="M 86.6720,66.5940
86.7237,66.6043
86.7675,66.6335
86.7967,66.6773
86.8070,66.7290
86.8070,66.9990
86.7967,67.0507
86.7675,67.0945
86.7237,67.1237
86.6720,67.1340
86.3020,67.1340
86.2503,67.1237
86.2065,67.0945
86.1773,67.0507
86.1670,66.9990
86.1670,66.7290
86.1773,66.6773
86.2065,66.6335
86.2503,66.6043
86.3020,66.5940
Z" /> 
<path style="fill:#00C2C2; fill-opacity:0.9000; stroke:none;fill-rule:evenodd;"
d="M 111.7880,65.7280
111.7690,65.8237
111.7148,65.9048
111.6337,65.9590
111.5380,65.9780
111.0130,65.9780
110.9173,65.9590
110.8362,65.9048
110.7820,65.8237
110.7630,65.7280
110.7630,64.8280
110.7820,64.7323
110.8362,64.6512
110.9173,64.5970
111.0130,64.5780
111.5380,64.5780
111.6337,64.5970
111.7148,64.6512
111.7690,64.7323
111.7880,64.8280
Z" /> 
<path style="fill:#00C2C2; fill-opacity:0.9000; stroke:none;fill-rule:evenodd;"
d="M 109.9630,65.7280
109.9440,65.8237
109.8898,65.9048
109.8087,65.9590
109.7130,65.9780
109.1880,65.9780
109.0923,65.9590
109.0112,65.9048
108.9570,65.8237
108.9380,65.7280
108.9380,64.8280
108.9570,64.7323
109.0112,64.6512
109.0923,64.5970
109.1880,64.5780
109.7130,64.5780
109.8087,64.5970
109.8898,64.6512
109.9440,64.7323
109.9630,64.8280
Z" /> 
<path style="fill:#00C2C2; fill-opacity:0.9000; stroke:none;fill-rule:evenodd;"
d="M 60.8050,19.8700
60.8240,19.7743
60.8782,19.6932
60.9593,19.6390
61.0550,19.6200
61.5800,19.6200
61.6757,19.6390
61.7568,19.6932
61.8110,19.7743
61.8300,19.8700
61.8300,20.7700
61.8110,20.8657
61.7568,20.9468
61.6757,21.0010
61.5800,21.0200
61.0550,21.0200
60.9593,21.0010
60.8782,20.9468
60.8240,20.8657
60.8050,20.7700
Z" /> 
<path style="fill:#00C2C2; fill-opacity:0.9000; stroke:none;fill-rule:evenodd;"
d="M 62.6300,19.8700
62.6490,19.7743
62.7032,19.6932
62.7843,19.6390
62.8800,19.6200
63.4050,19.6200
63.5007,19.6390
63.5818,19.6932
63.6360,19.7743
63.6550,19.8700
63.6550,20.7700
63.6360,20.8657
63.5818,20.9468
63.5007,21.0010
63.4050,21.0200
62.8800,21.0200
62.7843,21.0010
62.7032,20.9468
62.6490,20.8657
62.6300,20.7700
Z" /> 
<path style="fill:#00C2C2; fill-opacity:0.9000; stroke:none;fill-rule:evenodd;"
d="M 104.9706,48.3520
105.0663,48.3710
105.1474,48.4252
105.2016,48.5063
105.2206,48.6020
105.2206,49.1020
105.2016,49.1977
105.1474,49.2788
105.0663,49.3330
104.9706,49.3520
104.0206,49.3520
103.9249,49.3330
103.8438,49.2788
103.7896,49.1977
103.7706,49.1020
103.7706,48.6020
103.7896,48.5063
103.8438,48.4252
103.9249,48.3710
104.0206,48.3520
Z" /> 
<path style="fill:#00C2C2; fill-opacity:0.9000; stroke:none;fill-rule:evenodd;"
d="M 104.9706,50.2520
105.0663,50.2710
105.1474,50.3252
105.2016,50.4063
105.2206,50.5020
105.2206,51.0020
105.2016,51.0977
105.1474,51.1788
105.0663,51.2330
104.9706,51.2520
104.0206,51.2520
103.9249,51.2330
103.8438,51.1788
103.7896,51.0977
103.7706,51.0020
103.7706,50.5020
103.7896,50.4063
103.8438,50.3252
103.9249,50.2710
104.0206,50.2520
Z" /> 
<path style="fill:#00C2C2; fill-opacity:0.9000; stroke:none;fill-rule:evenodd;"
d="M 87.1240,66.6540
87.1347,66.6004
87.1650,66.5550
87.2104,66.5247
87.2640,66.5140
87.5440,66.5140
87.5976,66.5247
87.6430,66.5550
87.6733,66.6004
87.6840,66.6540
87.6840,66.9940
87.6733,67.0476
87.6430,67.0930
87.5976,67.1233
87.5440,67.1340
87.2640,67.1340
87.2104,67.1233
87.1650,67.0930
87.1347,67.0476
87.1240,66.9940
Z" /> 
<path style="fill:#00C2C2; fill-opacity:0.9000; stroke:none;fill-rule:evenodd;"
d="M 88.0840,66.6540
88.0947,66.6004
88.1250,66.5550
88.1704,66.5247
88.2240,66.5140
88.5040,66.5140
88.5576,66.5247
88.6030,66.5550
88.6333,66.6004
88.6440,66.6540
88.6440,66.9940
88.6333,67.0476
88.6030,67.0930
88.5576,67.1233
88.5040,67.1340
88.2240,67.1340
88.1704,67.1233
88.1250,67.0930
88.0947,67.0476
88.0840,66.9940
Z" /> 
<path style="fill:#00C2C2; fill-opacity:0.9000; stroke:none;fill-rule:evenodd;"
d="M 58.0214,49.4264
57.9678,49.4157
57.9224,49.3854
57.8921,49.3400
57.8814,49.2864
57.8814,49.0064
57.8921,48.9528
57.9224,48.9074
57.9678,48.8771
58.0214,48.8664
58.3614,48.8664
58.4150,48.8771
58.4604,48.9074
58.4907,48.9528
58.5014,49.0064
58.5014,49.2864
58.4907,49.3400
58.4604,49.3854
58.4150,49.4157
58.3614,49.4264
Z" /> 
<path style="fill:#00C2C2; fill-opacity:0.9000; stroke:none;fill-rule:evenodd;"
d="M 58.0214,48.4664
57.9678,48.4557
57.9224,48.4254
57.8921,48.3800
57.8814,48.3264
57.8814,48.0464
57.8921,47.9928
57.9224,47.9474
57.9678,47.9171
58.0214,47.9064
58.3614,47.9064
58.4150,47.9171
58.4604,47.9474
58.4907,47.9928
58.5014,48.0464
58.5014,48.3264
58.4907,48.3800
58.4604,48.4254
58.4150,48.4557
58.3614,48.4664
Z" /> 
<path style="fill:#00C2C2; fill-opacity:0.9000; stroke:none;fill-rule:evenodd;"
d="M 104.7674,65.1668
104.8631,65.1858
104.9442,65.2400
104.9984,65.3211
105.0174,65.4168
105.0174,65.9168
104.9984,66.0125
104.9442,66.0936
104.8631,66.1478
104.7674,66.1668
103.8174,66.1668
103.7217,66.1478
103.6406,66.0936
103.5864,66.0125
103.5674,65.9168
103.5674,65.4168
103.5864,65.3211
103.6406,65.2400
103.7217,65.1858
103.8174,65.1668
Z" /> 
<path style="fill:#00C2C2; fill-opacity:0.9000; stroke:none;fill-rule:evenodd;"
d="M 104.7674,67.0668
104.8631,67.0858
104.9442,67.1400
104.9984,67.2211
105.0174,67.3168
105.0174,67.8168
104.9984,67.9125
104.9442,67.9936
104.8631,68.0478
104.7674,68.0668
103.8174,68.0668
103.7217,68.0478
103.6406,67.9936
103.5864,67.9125
103.5674,67.8168
103.5674,67.3168
103.5864,67.2211
103.6406,67.1400
103.7217,67.0858
103.8174,67.0668
Z" /> 
<path style="fill:#00C2C2; fill-opacity:0.9000; stroke:none;fill-rule:evenodd;"
d="M 58.0312,84.5052
58.0848,84.5159
58.1302,84.5462
58.1605,84.5916
58.1712,84.6452
58.1712,84.9252
58.1605,84.9788
58.1302,85.0242
58.0848,85.0545
58.0312,85.0652
57.6912,85.0652
57.6376,85.0545
57.5922,85.0242
57.5619,84.9788
57.5512,84.9252
57.5512,84.6452
57.5619,84.5916
57.5922,84.5462
57.6376,84.5159
57.6912,84.5052
Z" /> 
<path style="fill:#00C2C2; fill-opacity:0.9000; stroke:none;fill-rule:evenodd;"
d="M 58.0312,85.4652
58.0848,85.4759
58.1302,85.5062
58.1605,85.5516
58.1712,85.6052
58.1712,85.8852
58.1605,85.9388
58.1302,85.9842
58.0848,86.0145
58.0312,86.0252
57.6912,86.0252
57.6376,86.0145
57.5922,85.9842
57.5619,85.9388
57.5512,85.8852
57.5512,85.6052
57.5619,85.5516
57.5922,85.5062
57.6376,85.4759
57.6912,85.4652
Z" /> 
<path style="fill:#00C2C2; fill-opacity:0.9000; stroke:none;fill-rule:evenodd;"
d="M 111.7880,59.7590
111.7690,59.8547
111.7148,59.9358
111.6337,59.9900
111.5380,60.0090
111.0130,60.0090
110.9173,59.9900
110.8362,59.9358
110.7820,59.8547
110.7630,59.7590
110.7630,58.8590
110.7820,58.7633
110.8362,58.6822
110.9173,58.6280
111.0130,58.6090
111.5380,58.6090
111.6337,58.6280
111.7148,58.6822
111.7690,58.7633
111.7880,58.8590
Z" /> 
<path style="fill:#00C2C2; fill-opacity:0.9000; stroke:none;fill-rule:evenodd;"
d="M 109.9630,59.7590
109.9440,59.8547
109.8898,59.9358
109.8087,59.9900
109.7130,60.0090
109.1880,60.0090
109.0923,59.9900
109.0112,59.9358
108.9570,59.8547
108.9380,59.7590
108.9380,58.8590
108.9570,58.7633
109.0112,58.6822
109.0923,58.6280
109.1880,58.6090
109.7130,58.6090
109.8087,58.6280
109.8898,58.6822
109.9440,58.7633
109.9630,58.8590
Z" /> 
<path style="fill:#00C2C2; fill-opacity:0.9000; stroke:none;fill-rule:evenodd;"
d="M 103.7412,76.4234
103.6455,76.4044
103.5644,76.3502
103.5102,76.2691
103.4912,76.1734
103.4912,75.6734
103.5102,75.5777
103.5644,75.4966
103.6455,75.4424
103.7412,75.4234
104.6912,75.4234
104.7869,75.4424
104.8680,75.4966
104.9222,75.5777
104.9412,75.6734
104.9412,76.1734
104.9222,76.2691
104.8680,76.3502
104.7869,76.4044
104.6912,76.4234
Z" /> 
<path style="fill:#00C2C2; fill-opacity:0.9000; stroke:none;fill-rule:evenodd;"
d="M 103.7412,74.5234
103.6455,74.5044
103.5644,74.4502
103.5102,74.3691
103.4912,74.2734
103.4912,73.7734
103.5102,73.6777
103.5644,73.5966
103.6455,73.5424
103.7412,73.5234
104.6912,73.5234
104.7869,73.5424
104.8680,73.5966
104.9222,73.6777
104.9412,73.7734
104.9412,74.2734
104.9222,74.3691
104.8680,74.4502
104.7869,74.5044
104.6912,74.5234
Z" /> 
<path style="fill:#00C2C2; fill-opacity:0.9000; stroke:none;fill-rule:evenodd;"
d="M 87.1240,65.7140
87.1347,65.6604
87.1650,65.6150
87.2104,65.5847
87.2640,65.5740
87.5440,65.5740
87.5976,65.5847
87.6430,65.6150
87.6733,65.6604
87.6840,65.7140
87.6840,66.0540
87.6733,66.1076
87.6430,66.1530
87.5976,66.1833
87.5440,66.1940
87.2640,66.1940
87.2104,66.1833
87.1650,66.1530
87.1347,66.1076
87.1240,66.0540
Z" /> 
<path style="fill:#00C2C2; fill-opacity:0.9000; stroke:none;fill-rule:evenodd;"
d="M 88.0840,65.7140
88.0947,65.6604
88.1250,65.6150
88.1704,65.5847
88.2240,65.5740
88.5040,65.5740
88.5576,65.5847
88.6030,65.6150
88.6333,65.6604
88.6440,65.7140
88.6440,66.0540
88.6333,66.1076
88.6030,66.1530
88.5576,66.1833
88.5040,66.1940
88.2240,66.1940
88.1704,66.1833
88.1250,66.1530
88.0947,66.1076
88.0840,66.0540
Z" /> 
<path style="fill:#00C2C2; fill-opacity:0.9000; stroke:none;fill-rule:evenodd;"
d="M 111.6845,48.9640
111.6655,49.0597
111.6113,49.1408
111.5302,49.1950
111.4345,49.2140
110.9095,49.2140
110.8138,49.1950
110.7327,49.1408
110.6785,49.0597
110.6595,48.9640
110.6595,48.0640
110.6785,47.9683
110.7327,47.8872
110.8138,47.8330
110.9095,47.8140
111.4345,47.8140
111.5302,47.8330
111.6113,47.8872
111.6655,47.9683
111.6845,48.0640
Z" /> 
<path style="fill:#00C2C2; fill-opacity:0.9000; stroke:none;fill-rule:evenodd;"
d="M 109.8595,48.9640
109.8405,49.0597
109.7863,49.1408
109.7052,49.1950
109.6095,49.2140
109.0845,49.2140
108.9888,49.1950
108.9077,49.1408
108.8535,49.0597
108.8345,48.9640
108.8345,48.0640
108.8535,47.9683
108.9077,47.8872
108.9888,47.8330
109.0845,47.8140
109.6095,47.8140
109.7052,47.8330
109.7863,47.8872
109.8405,47.9683
109.8595,48.0640
Z" /> 
<path style="fill:#00C2C2; fill-opacity:0.9000; stroke:none;fill-rule:evenodd;"
d="M 58.1328,52.7806
58.1864,52.7913
58.2318,52.8216
58.2621,52.8670
58.2728,52.9206
58.2728,53.2006
58.2621,53.2542
58.2318,53.2996
58.1864,53.3299
58.1328,53.3406
57.7928,53.3406
57.7392,53.3299
57.6938,53.2996
57.6635,53.2542
57.6528,53.2006
57.6528,52.9206
57.6635,52.8670
57.6938,52.8216
57.7392,52.7913
57.7928,52.7806
Z" /> 
<path style="fill:#00C2C2; fill-opacity:0.9000; stroke:none;fill-rule:evenodd;"
d="M 58.1328,53.7406
58.1864,53.7513
58.2318,53.7816
58.2621,53.8270
58.2728,53.8806
58.2728,54.1606
58.2621,54.2142
58.2318,54.2596
58.1864,54.2899
58.1328,54.3006
57.7928,54.3006
57.7392,54.2899
57.6938,54.2596
57.6635,54.2142
57.6528,54.1606
57.6528,53.8806
57.6635,53.8270
57.6938,53.7816
57.7392,53.7513
57.7928,53.7406
Z" /> 
<path style="fill:#00C2C2; fill-opacity:0.9000; stroke:none;fill-rule:evenodd;"
d="M 103.8174,59.6340
103.7217,59.6150
103.6406,59.5608
103.5864,59.4797
103.5674,59.3840
103.5674,58.8840
103.5864,58.7883
103.6406,58.7072
103.7217,58.6530
103.8174,58.6340
104.7674,58.6340
104.8631,58.6530
104.9442,58.7072
104.9984,58.7883
105.0174,58.8840
105.0174,59.3840
104.9984,59.4797
104.9442,59.5608
104.8631,59.6150
104.7674,59.6340
Z" /> 
<path style="fill:#00C2C2; fill-opacity:0.9000; stroke:none;fill-rule:evenodd;"
d="M 103.8174,57.7340
103.7217,57.7150
103.6406,57.6608
103.5864,57.5797
103.5674,57.4840
103.5674,56.9840
103.5864,56.8883
103.6406,56.8072
103.7217,56.7530
103.8174,56.7340
104.7674,56.7340
104.8631,56.7530
104.9442,56.8072
104.9984,56.8883
105.0174,56.9840
105.0174,57.4840
104.9984,57.5797
104.9442,57.6608
104.8631,57.7150
104.7674,57.7340
Z" /> 
</g> 
</svg>
