G04 #@! TF.GenerationSoftware,KiCad,Pcbnew,7.0.10*
G04 #@! TF.CreationDate,2024-04-18T14:34:59-07:00*
G04 #@! TF.ProjectId,lego_elevator,6c65676f-5f65-46c6-9576-61746f722e6b,rev?*
G04 #@! TF.SameCoordinates,Original*
G04 #@! TF.FileFunction,Legend,Bot*
G04 #@! TF.FilePolarity,Positive*
%FSLAX46Y46*%
G04 Gerber Fmt 4.6, Leading zero omitted, Abs format (unit mm)*
G04 Created by KiCad (PCBNEW 7.0.10) date 2024-04-18 14:34:59*
%MOMM*%
%LPD*%
G01*
G04 APERTURE LIST*
G04 Aperture macros list*
%AMRoundRect*
0 Rectangle with rounded corners*
0 $1 Rounding radius*
0 $2 $3 $4 $5 $6 $7 $8 $9 X,Y pos of 4 corners*
0 Add a 4 corners polygon primitive as box body*
4,1,4,$2,$3,$4,$5,$6,$7,$8,$9,$2,$3,0*
0 Add four circle primitives for the rounded corners*
1,1,$1+$1,$2,$3*
1,1,$1+$1,$4,$5*
1,1,$1+$1,$6,$7*
1,1,$1+$1,$8,$9*
0 Add four rect primitives between the rounded corners*
20,1,$1+$1,$2,$3,$4,$5,0*
20,1,$1+$1,$4,$5,$6,$7,0*
20,1,$1+$1,$6,$7,$8,$9,0*
20,1,$1+$1,$8,$9,$2,$3,0*%
G04 Aperture macros list end*
%ADD10C,0.150000*%
%ADD11C,0.080000*%
%ADD12C,0.100000*%
%ADD13C,0.120000*%
%ADD14R,2.500000X2.500000*%
%ADD15C,2.500000*%
%ADD16R,1.700000X1.700000*%
%ADD17O,1.700000X1.700000*%
%ADD18RoundRect,0.250000X0.750000X-0.600000X0.750000X0.600000X-0.750000X0.600000X-0.750000X-0.600000X0*%
%ADD19O,2.000000X1.700000*%
%ADD20RoundRect,0.250000X-0.750000X0.600000X-0.750000X-0.600000X0.750000X-0.600000X0.750000X0.600000X0*%
%ADD21C,1.200000*%
%ADD22RoundRect,0.250000X-0.600000X-0.725000X0.600000X-0.725000X0.600000X0.725000X-0.600000X0.725000X0*%
%ADD23O,1.700000X1.950000*%
%ADD24RoundRect,0.250000X-0.600000X-0.750000X0.600000X-0.750000X0.600000X0.750000X-0.600000X0.750000X0*%
%ADD25O,1.700000X2.000000*%
%ADD26C,2.000000*%
%ADD27RoundRect,0.250000X0.262500X0.450000X-0.262500X0.450000X-0.262500X-0.450000X0.262500X-0.450000X0*%
%ADD28RoundRect,0.140000X0.170000X-0.140000X0.170000X0.140000X-0.170000X0.140000X-0.170000X-0.140000X0*%
%ADD29RoundRect,0.135000X-0.185000X0.135000X-0.185000X-0.135000X0.185000X-0.135000X0.185000X0.135000X0*%
%ADD30RoundRect,0.250000X-0.262500X-0.450000X0.262500X-0.450000X0.262500X0.450000X-0.262500X0.450000X0*%
%ADD31RoundRect,0.250000X-0.475000X0.250000X-0.475000X-0.250000X0.475000X-0.250000X0.475000X0.250000X0*%
%ADD32RoundRect,0.140000X-0.140000X-0.170000X0.140000X-0.170000X0.140000X0.170000X-0.140000X0.170000X0*%
%ADD33RoundRect,0.140000X-0.170000X0.140000X-0.170000X-0.140000X0.170000X-0.140000X0.170000X0.140000X0*%
%ADD34RoundRect,0.250000X0.475000X-0.250000X0.475000X0.250000X-0.475000X0.250000X-0.475000X-0.250000X0*%
G04 APERTURE END LIST*
D10*
X110264411Y-42414819D02*
X110835839Y-42414819D01*
X110550125Y-42414819D02*
X110550125Y-41414819D01*
X110550125Y-41414819D02*
X110645363Y-41557676D01*
X110645363Y-41557676D02*
X110740601Y-41652914D01*
X110740601Y-41652914D02*
X110835839Y-41700533D01*
X109835839Y-42319580D02*
X109788220Y-42367200D01*
X109788220Y-42367200D02*
X109835839Y-42414819D01*
X109835839Y-42414819D02*
X109883458Y-42367200D01*
X109883458Y-42367200D02*
X109835839Y-42319580D01*
X109835839Y-42319580D02*
X109835839Y-42414819D01*
X109216792Y-41843390D02*
X109312030Y-41795771D01*
X109312030Y-41795771D02*
X109359649Y-41748152D01*
X109359649Y-41748152D02*
X109407268Y-41652914D01*
X109407268Y-41652914D02*
X109407268Y-41605295D01*
X109407268Y-41605295D02*
X109359649Y-41510057D01*
X109359649Y-41510057D02*
X109312030Y-41462438D01*
X109312030Y-41462438D02*
X109216792Y-41414819D01*
X109216792Y-41414819D02*
X109026316Y-41414819D01*
X109026316Y-41414819D02*
X108931078Y-41462438D01*
X108931078Y-41462438D02*
X108883459Y-41510057D01*
X108883459Y-41510057D02*
X108835840Y-41605295D01*
X108835840Y-41605295D02*
X108835840Y-41652914D01*
X108835840Y-41652914D02*
X108883459Y-41748152D01*
X108883459Y-41748152D02*
X108931078Y-41795771D01*
X108931078Y-41795771D02*
X109026316Y-41843390D01*
X109026316Y-41843390D02*
X109216792Y-41843390D01*
X109216792Y-41843390D02*
X109312030Y-41891009D01*
X109312030Y-41891009D02*
X109359649Y-41938628D01*
X109359649Y-41938628D02*
X109407268Y-42033866D01*
X109407268Y-42033866D02*
X109407268Y-42224342D01*
X109407268Y-42224342D02*
X109359649Y-42319580D01*
X109359649Y-42319580D02*
X109312030Y-42367200D01*
X109312030Y-42367200D02*
X109216792Y-42414819D01*
X109216792Y-42414819D02*
X109026316Y-42414819D01*
X109026316Y-42414819D02*
X108931078Y-42367200D01*
X108931078Y-42367200D02*
X108883459Y-42319580D01*
X108883459Y-42319580D02*
X108835840Y-42224342D01*
X108835840Y-42224342D02*
X108835840Y-42033866D01*
X108835840Y-42033866D02*
X108883459Y-41938628D01*
X108883459Y-41938628D02*
X108931078Y-41891009D01*
X108931078Y-41891009D02*
X109026316Y-41843390D01*
X108550125Y-41414819D02*
X108216792Y-42414819D01*
X108216792Y-42414819D02*
X107883459Y-41414819D01*
X108232411Y-84324819D02*
X108803839Y-84324819D01*
X108518125Y-84324819D02*
X108518125Y-83324819D01*
X108518125Y-83324819D02*
X108613363Y-83467676D01*
X108613363Y-83467676D02*
X108708601Y-83562914D01*
X108708601Y-83562914D02*
X108803839Y-83610533D01*
X107803839Y-84229580D02*
X107756220Y-84277200D01*
X107756220Y-84277200D02*
X107803839Y-84324819D01*
X107803839Y-84324819D02*
X107851458Y-84277200D01*
X107851458Y-84277200D02*
X107803839Y-84229580D01*
X107803839Y-84229580D02*
X107803839Y-84324819D01*
X107184792Y-83753390D02*
X107280030Y-83705771D01*
X107280030Y-83705771D02*
X107327649Y-83658152D01*
X107327649Y-83658152D02*
X107375268Y-83562914D01*
X107375268Y-83562914D02*
X107375268Y-83515295D01*
X107375268Y-83515295D02*
X107327649Y-83420057D01*
X107327649Y-83420057D02*
X107280030Y-83372438D01*
X107280030Y-83372438D02*
X107184792Y-83324819D01*
X107184792Y-83324819D02*
X106994316Y-83324819D01*
X106994316Y-83324819D02*
X106899078Y-83372438D01*
X106899078Y-83372438D02*
X106851459Y-83420057D01*
X106851459Y-83420057D02*
X106803840Y-83515295D01*
X106803840Y-83515295D02*
X106803840Y-83562914D01*
X106803840Y-83562914D02*
X106851459Y-83658152D01*
X106851459Y-83658152D02*
X106899078Y-83705771D01*
X106899078Y-83705771D02*
X106994316Y-83753390D01*
X106994316Y-83753390D02*
X107184792Y-83753390D01*
X107184792Y-83753390D02*
X107280030Y-83801009D01*
X107280030Y-83801009D02*
X107327649Y-83848628D01*
X107327649Y-83848628D02*
X107375268Y-83943866D01*
X107375268Y-83943866D02*
X107375268Y-84134342D01*
X107375268Y-84134342D02*
X107327649Y-84229580D01*
X107327649Y-84229580D02*
X107280030Y-84277200D01*
X107280030Y-84277200D02*
X107184792Y-84324819D01*
X107184792Y-84324819D02*
X106994316Y-84324819D01*
X106994316Y-84324819D02*
X106899078Y-84277200D01*
X106899078Y-84277200D02*
X106851459Y-84229580D01*
X106851459Y-84229580D02*
X106803840Y-84134342D01*
X106803840Y-84134342D02*
X106803840Y-83943866D01*
X106803840Y-83943866D02*
X106851459Y-83848628D01*
X106851459Y-83848628D02*
X106899078Y-83801009D01*
X106899078Y-83801009D02*
X106994316Y-83753390D01*
X106518125Y-83324819D02*
X106184792Y-84324819D01*
X106184792Y-84324819D02*
X105851459Y-83324819D01*
X77879411Y-76069819D02*
X78450839Y-76069819D01*
X78165125Y-76069819D02*
X78165125Y-75069819D01*
X78165125Y-75069819D02*
X78260363Y-75212676D01*
X78260363Y-75212676D02*
X78355601Y-75307914D01*
X78355601Y-75307914D02*
X78450839Y-75355533D01*
X77450839Y-75974580D02*
X77403220Y-76022200D01*
X77403220Y-76022200D02*
X77450839Y-76069819D01*
X77450839Y-76069819D02*
X77498458Y-76022200D01*
X77498458Y-76022200D02*
X77450839Y-75974580D01*
X77450839Y-75974580D02*
X77450839Y-76069819D01*
X76831792Y-75498390D02*
X76927030Y-75450771D01*
X76927030Y-75450771D02*
X76974649Y-75403152D01*
X76974649Y-75403152D02*
X77022268Y-75307914D01*
X77022268Y-75307914D02*
X77022268Y-75260295D01*
X77022268Y-75260295D02*
X76974649Y-75165057D01*
X76974649Y-75165057D02*
X76927030Y-75117438D01*
X76927030Y-75117438D02*
X76831792Y-75069819D01*
X76831792Y-75069819D02*
X76641316Y-75069819D01*
X76641316Y-75069819D02*
X76546078Y-75117438D01*
X76546078Y-75117438D02*
X76498459Y-75165057D01*
X76498459Y-75165057D02*
X76450840Y-75260295D01*
X76450840Y-75260295D02*
X76450840Y-75307914D01*
X76450840Y-75307914D02*
X76498459Y-75403152D01*
X76498459Y-75403152D02*
X76546078Y-75450771D01*
X76546078Y-75450771D02*
X76641316Y-75498390D01*
X76641316Y-75498390D02*
X76831792Y-75498390D01*
X76831792Y-75498390D02*
X76927030Y-75546009D01*
X76927030Y-75546009D02*
X76974649Y-75593628D01*
X76974649Y-75593628D02*
X77022268Y-75688866D01*
X77022268Y-75688866D02*
X77022268Y-75879342D01*
X77022268Y-75879342D02*
X76974649Y-75974580D01*
X76974649Y-75974580D02*
X76927030Y-76022200D01*
X76927030Y-76022200D02*
X76831792Y-76069819D01*
X76831792Y-76069819D02*
X76641316Y-76069819D01*
X76641316Y-76069819D02*
X76546078Y-76022200D01*
X76546078Y-76022200D02*
X76498459Y-75974580D01*
X76498459Y-75974580D02*
X76450840Y-75879342D01*
X76450840Y-75879342D02*
X76450840Y-75688866D01*
X76450840Y-75688866D02*
X76498459Y-75593628D01*
X76498459Y-75593628D02*
X76546078Y-75546009D01*
X76546078Y-75546009D02*
X76641316Y-75498390D01*
X76165125Y-75069819D02*
X75831792Y-76069819D01*
X75831792Y-76069819D02*
X75498459Y-75069819D01*
X67163744Y-18173819D02*
X67068506Y-18173819D01*
X67068506Y-18173819D02*
X66973268Y-18221438D01*
X66973268Y-18221438D02*
X66925649Y-18269057D01*
X66925649Y-18269057D02*
X66878030Y-18364295D01*
X66878030Y-18364295D02*
X66830411Y-18554771D01*
X66830411Y-18554771D02*
X66830411Y-18792866D01*
X66830411Y-18792866D02*
X66878030Y-18983342D01*
X66878030Y-18983342D02*
X66925649Y-19078580D01*
X66925649Y-19078580D02*
X66973268Y-19126200D01*
X66973268Y-19126200D02*
X67068506Y-19173819D01*
X67068506Y-19173819D02*
X67163744Y-19173819D01*
X67163744Y-19173819D02*
X67258982Y-19126200D01*
X67258982Y-19126200D02*
X67306601Y-19078580D01*
X67306601Y-19078580D02*
X67354220Y-18983342D01*
X67354220Y-18983342D02*
X67401839Y-18792866D01*
X67401839Y-18792866D02*
X67401839Y-18554771D01*
X67401839Y-18554771D02*
X67354220Y-18364295D01*
X67354220Y-18364295D02*
X67306601Y-18269057D01*
X67306601Y-18269057D02*
X67258982Y-18221438D01*
X67258982Y-18221438D02*
X67163744Y-18173819D01*
X65735172Y-18507152D02*
X65497077Y-19173819D01*
X65497077Y-19173819D02*
X65258982Y-18507152D01*
X64449458Y-19173819D02*
X64449458Y-18173819D01*
X64449458Y-19126200D02*
X64544696Y-19173819D01*
X64544696Y-19173819D02*
X64735172Y-19173819D01*
X64735172Y-19173819D02*
X64830410Y-19126200D01*
X64830410Y-19126200D02*
X64878029Y-19078580D01*
X64878029Y-19078580D02*
X64925648Y-18983342D01*
X64925648Y-18983342D02*
X64925648Y-18697628D01*
X64925648Y-18697628D02*
X64878029Y-18602390D01*
X64878029Y-18602390D02*
X64830410Y-18554771D01*
X64830410Y-18554771D02*
X64735172Y-18507152D01*
X64735172Y-18507152D02*
X64544696Y-18507152D01*
X64544696Y-18507152D02*
X64449458Y-18554771D01*
X63544696Y-19173819D02*
X63544696Y-18173819D01*
X63544696Y-19126200D02*
X63639934Y-19173819D01*
X63639934Y-19173819D02*
X63830410Y-19173819D01*
X63830410Y-19173819D02*
X63925648Y-19126200D01*
X63925648Y-19126200D02*
X63973267Y-19078580D01*
X63973267Y-19078580D02*
X64020886Y-18983342D01*
X64020886Y-18983342D02*
X64020886Y-18697628D01*
X64020886Y-18697628D02*
X63973267Y-18602390D01*
X63973267Y-18602390D02*
X63925648Y-18554771D01*
X63925648Y-18554771D02*
X63830410Y-18507152D01*
X63830410Y-18507152D02*
X63639934Y-18507152D01*
X63639934Y-18507152D02*
X63544696Y-18554771D01*
X63068505Y-19173819D02*
X63068505Y-18173819D01*
X62639934Y-19173819D02*
X62639934Y-18650009D01*
X62639934Y-18650009D02*
X62687553Y-18554771D01*
X62687553Y-18554771D02*
X62782791Y-18507152D01*
X62782791Y-18507152D02*
X62925648Y-18507152D01*
X62925648Y-18507152D02*
X63020886Y-18554771D01*
X63020886Y-18554771D02*
X63068505Y-18602390D01*
X62163743Y-18792866D02*
X61401839Y-18792866D01*
X60925648Y-18507152D02*
X60163744Y-18792866D01*
X60163744Y-18792866D02*
X60925648Y-19078580D01*
X59782791Y-18507152D02*
X59544696Y-19173819D01*
X59544696Y-19173819D02*
X59306601Y-18507152D01*
X58925648Y-19173819D02*
X58925648Y-18173819D01*
X58925648Y-18554771D02*
X58830410Y-18507152D01*
X58830410Y-18507152D02*
X58639934Y-18507152D01*
X58639934Y-18507152D02*
X58544696Y-18554771D01*
X58544696Y-18554771D02*
X58497077Y-18602390D01*
X58497077Y-18602390D02*
X58449458Y-18697628D01*
X58449458Y-18697628D02*
X58449458Y-18983342D01*
X58449458Y-18983342D02*
X58497077Y-19078580D01*
X58497077Y-19078580D02*
X58544696Y-19126200D01*
X58544696Y-19126200D02*
X58639934Y-19173819D01*
X58639934Y-19173819D02*
X58830410Y-19173819D01*
X58830410Y-19173819D02*
X58925648Y-19126200D01*
X57592315Y-19173819D02*
X57592315Y-18650009D01*
X57592315Y-18650009D02*
X57639934Y-18554771D01*
X57639934Y-18554771D02*
X57735172Y-18507152D01*
X57735172Y-18507152D02*
X57925648Y-18507152D01*
X57925648Y-18507152D02*
X58020886Y-18554771D01*
X57592315Y-19126200D02*
X57687553Y-19173819D01*
X57687553Y-19173819D02*
X57925648Y-19173819D01*
X57925648Y-19173819D02*
X58020886Y-19126200D01*
X58020886Y-19126200D02*
X58068505Y-19030961D01*
X58068505Y-19030961D02*
X58068505Y-18935723D01*
X58068505Y-18935723D02*
X58020886Y-18840485D01*
X58020886Y-18840485D02*
X57925648Y-18792866D01*
X57925648Y-18792866D02*
X57687553Y-18792866D01*
X57687553Y-18792866D02*
X57592315Y-18745247D01*
X57258981Y-18507152D02*
X56878029Y-18507152D01*
X57116124Y-18173819D02*
X57116124Y-19030961D01*
X57116124Y-19030961D02*
X57068505Y-19126200D01*
X57068505Y-19126200D02*
X56973267Y-19173819D01*
X56973267Y-19173819D02*
X56878029Y-19173819D01*
X117916077Y-99199819D02*
X117582744Y-100199819D01*
X117582744Y-100199819D02*
X117249411Y-99199819D01*
X116439887Y-100199819D02*
X116916077Y-100199819D01*
X116916077Y-100199819D02*
X116916077Y-99199819D01*
X116154172Y-99914104D02*
X115677982Y-99914104D01*
X116249410Y-100199819D02*
X115916077Y-99199819D01*
X115916077Y-99199819D02*
X115582744Y-100199819D01*
X115249410Y-100199819D02*
X115249410Y-99199819D01*
X115249410Y-99199819D02*
X115011315Y-99199819D01*
X115011315Y-99199819D02*
X114868458Y-99247438D01*
X114868458Y-99247438D02*
X114773220Y-99342676D01*
X114773220Y-99342676D02*
X114725601Y-99437914D01*
X114725601Y-99437914D02*
X114677982Y-99628390D01*
X114677982Y-99628390D02*
X114677982Y-99771247D01*
X114677982Y-99771247D02*
X114725601Y-99961723D01*
X114725601Y-99961723D02*
X114773220Y-100056961D01*
X114773220Y-100056961D02*
X114868458Y-100152200D01*
X114868458Y-100152200D02*
X115011315Y-100199819D01*
X115011315Y-100199819D02*
X115249410Y-100199819D01*
X114297029Y-99914104D02*
X113820839Y-99914104D01*
X114392267Y-100199819D02*
X114058934Y-99199819D01*
X114058934Y-99199819D02*
X113725601Y-100199819D01*
X113344648Y-100152200D02*
X113344648Y-100199819D01*
X113344648Y-100199819D02*
X113392267Y-100295057D01*
X113392267Y-100295057D02*
X113439886Y-100342676D01*
X112154172Y-100199819D02*
X112154172Y-99199819D01*
X112154172Y-99199819D02*
X111820839Y-99914104D01*
X111820839Y-99914104D02*
X111487506Y-99199819D01*
X111487506Y-99199819D02*
X111487506Y-100199819D01*
X111058934Y-99914104D02*
X110582744Y-99914104D01*
X111154172Y-100199819D02*
X110820839Y-99199819D01*
X110820839Y-99199819D02*
X110487506Y-100199819D01*
X110297029Y-99199819D02*
X109725601Y-99199819D01*
X110011315Y-100199819D02*
X110011315Y-99199819D01*
X109392267Y-100199819D02*
X109392267Y-99199819D01*
X109392267Y-99676009D02*
X108820839Y-99676009D01*
X108820839Y-100199819D02*
X108820839Y-99199819D01*
X107582743Y-100199819D02*
X107582743Y-99199819D01*
X107154172Y-100152200D02*
X107011315Y-100199819D01*
X107011315Y-100199819D02*
X106773220Y-100199819D01*
X106773220Y-100199819D02*
X106677982Y-100152200D01*
X106677982Y-100152200D02*
X106630363Y-100104580D01*
X106630363Y-100104580D02*
X106582744Y-100009342D01*
X106582744Y-100009342D02*
X106582744Y-99914104D01*
X106582744Y-99914104D02*
X106630363Y-99818866D01*
X106630363Y-99818866D02*
X106677982Y-99771247D01*
X106677982Y-99771247D02*
X106773220Y-99723628D01*
X106773220Y-99723628D02*
X106963696Y-99676009D01*
X106963696Y-99676009D02*
X107058934Y-99628390D01*
X107058934Y-99628390D02*
X107106553Y-99580771D01*
X107106553Y-99580771D02*
X107154172Y-99485533D01*
X107154172Y-99485533D02*
X107154172Y-99390295D01*
X107154172Y-99390295D02*
X107106553Y-99295057D01*
X107106553Y-99295057D02*
X107058934Y-99247438D01*
X107058934Y-99247438D02*
X106963696Y-99199819D01*
X106963696Y-99199819D02*
X106725601Y-99199819D01*
X106725601Y-99199819D02*
X106582744Y-99247438D01*
X105058934Y-99676009D02*
X105392267Y-99676009D01*
X105392267Y-100199819D02*
X105392267Y-99199819D01*
X105392267Y-99199819D02*
X104916077Y-99199819D01*
X104535124Y-99199819D02*
X104535124Y-100009342D01*
X104535124Y-100009342D02*
X104487505Y-100104580D01*
X104487505Y-100104580D02*
X104439886Y-100152200D01*
X104439886Y-100152200D02*
X104344648Y-100199819D01*
X104344648Y-100199819D02*
X104154172Y-100199819D01*
X104154172Y-100199819D02*
X104058934Y-100152200D01*
X104058934Y-100152200D02*
X104011315Y-100104580D01*
X104011315Y-100104580D02*
X103963696Y-100009342D01*
X103963696Y-100009342D02*
X103963696Y-99199819D01*
X103487505Y-100199819D02*
X103487505Y-99199819D01*
X103487505Y-99199819D02*
X102916077Y-100199819D01*
X102916077Y-100199819D02*
X102916077Y-99199819D01*
X102439886Y-100104580D02*
X102392267Y-100152200D01*
X102392267Y-100152200D02*
X102439886Y-100199819D01*
X102439886Y-100199819D02*
X102487505Y-100152200D01*
X102487505Y-100152200D02*
X102439886Y-100104580D01*
X102439886Y-100104580D02*
X102439886Y-100199819D01*
X102439886Y-99818866D02*
X102487505Y-99247438D01*
X102487505Y-99247438D02*
X102439886Y-99199819D01*
X102439886Y-99199819D02*
X102392267Y-99247438D01*
X102392267Y-99247438D02*
X102439886Y-99818866D01*
X102439886Y-99818866D02*
X102439886Y-99199819D01*
X101963696Y-100104580D02*
X101916077Y-100152200D01*
X101916077Y-100152200D02*
X101963696Y-100199819D01*
X101963696Y-100199819D02*
X102011315Y-100152200D01*
X102011315Y-100152200D02*
X101963696Y-100104580D01*
X101963696Y-100104580D02*
X101963696Y-100199819D01*
X101963696Y-99818866D02*
X102011315Y-99247438D01*
X102011315Y-99247438D02*
X101963696Y-99199819D01*
X101963696Y-99199819D02*
X101916077Y-99247438D01*
X101916077Y-99247438D02*
X101963696Y-99818866D01*
X101963696Y-99818866D02*
X101963696Y-99199819D01*
X101487506Y-100104580D02*
X101439887Y-100152200D01*
X101439887Y-100152200D02*
X101487506Y-100199819D01*
X101487506Y-100199819D02*
X101535125Y-100152200D01*
X101535125Y-100152200D02*
X101487506Y-100104580D01*
X101487506Y-100104580D02*
X101487506Y-100199819D01*
X101487506Y-99818866D02*
X101535125Y-99247438D01*
X101535125Y-99247438D02*
X101487506Y-99199819D01*
X101487506Y-99199819D02*
X101439887Y-99247438D01*
X101439887Y-99247438D02*
X101487506Y-99818866D01*
X101487506Y-99818866D02*
X101487506Y-99199819D01*
X110529666Y-75004819D02*
X110862999Y-74528628D01*
X111101094Y-75004819D02*
X111101094Y-74004819D01*
X111101094Y-74004819D02*
X110720142Y-74004819D01*
X110720142Y-74004819D02*
X110624904Y-74052438D01*
X110624904Y-74052438D02*
X110577285Y-74100057D01*
X110577285Y-74100057D02*
X110529666Y-74195295D01*
X110529666Y-74195295D02*
X110529666Y-74338152D01*
X110529666Y-74338152D02*
X110577285Y-74433390D01*
X110577285Y-74433390D02*
X110624904Y-74481009D01*
X110624904Y-74481009D02*
X110720142Y-74528628D01*
X110720142Y-74528628D02*
X111101094Y-74528628D01*
X109672523Y-74338152D02*
X109672523Y-75004819D01*
X109910618Y-73957200D02*
X110148713Y-74671485D01*
X110148713Y-74671485D02*
X109529666Y-74671485D01*
D11*
X59217744Y-79927514D02*
X59255840Y-79889418D01*
X59255840Y-79889418D02*
X59293935Y-79775133D01*
X59293935Y-79775133D02*
X59293935Y-79698942D01*
X59293935Y-79698942D02*
X59255840Y-79584656D01*
X59255840Y-79584656D02*
X59179649Y-79508466D01*
X59179649Y-79508466D02*
X59103459Y-79470371D01*
X59103459Y-79470371D02*
X58951078Y-79432275D01*
X58951078Y-79432275D02*
X58836792Y-79432275D01*
X58836792Y-79432275D02*
X58684411Y-79470371D01*
X58684411Y-79470371D02*
X58608220Y-79508466D01*
X58608220Y-79508466D02*
X58532030Y-79584656D01*
X58532030Y-79584656D02*
X58493935Y-79698942D01*
X58493935Y-79698942D02*
X58493935Y-79775133D01*
X58493935Y-79775133D02*
X58532030Y-79889418D01*
X58532030Y-79889418D02*
X58570125Y-79927514D01*
X58570125Y-80232275D02*
X58532030Y-80270371D01*
X58532030Y-80270371D02*
X58493935Y-80346561D01*
X58493935Y-80346561D02*
X58493935Y-80537037D01*
X58493935Y-80537037D02*
X58532030Y-80613228D01*
X58532030Y-80613228D02*
X58570125Y-80651323D01*
X58570125Y-80651323D02*
X58646316Y-80689418D01*
X58646316Y-80689418D02*
X58722506Y-80689418D01*
X58722506Y-80689418D02*
X58836792Y-80651323D01*
X58836792Y-80651323D02*
X59293935Y-80194180D01*
X59293935Y-80194180D02*
X59293935Y-80689418D01*
X58493935Y-81184657D02*
X58493935Y-81260847D01*
X58493935Y-81260847D02*
X58532030Y-81337038D01*
X58532030Y-81337038D02*
X58570125Y-81375133D01*
X58570125Y-81375133D02*
X58646316Y-81413228D01*
X58646316Y-81413228D02*
X58798697Y-81451323D01*
X58798697Y-81451323D02*
X58989173Y-81451323D01*
X58989173Y-81451323D02*
X59141554Y-81413228D01*
X59141554Y-81413228D02*
X59217744Y-81375133D01*
X59217744Y-81375133D02*
X59255840Y-81337038D01*
X59255840Y-81337038D02*
X59293935Y-81260847D01*
X59293935Y-81260847D02*
X59293935Y-81184657D01*
X59293935Y-81184657D02*
X59255840Y-81108466D01*
X59255840Y-81108466D02*
X59217744Y-81070371D01*
X59217744Y-81070371D02*
X59141554Y-81032276D01*
X59141554Y-81032276D02*
X58989173Y-80994180D01*
X58989173Y-80994180D02*
X58798697Y-80994180D01*
X58798697Y-80994180D02*
X58646316Y-81032276D01*
X58646316Y-81032276D02*
X58570125Y-81070371D01*
X58570125Y-81070371D02*
X58532030Y-81108466D01*
X58532030Y-81108466D02*
X58493935Y-81184657D01*
X85328935Y-65017714D02*
X84947982Y-64751047D01*
X85328935Y-64560571D02*
X84528935Y-64560571D01*
X84528935Y-64560571D02*
X84528935Y-64865333D01*
X84528935Y-64865333D02*
X84567030Y-64941523D01*
X84567030Y-64941523D02*
X84605125Y-64979618D01*
X84605125Y-64979618D02*
X84681316Y-65017714D01*
X84681316Y-65017714D02*
X84795601Y-65017714D01*
X84795601Y-65017714D02*
X84871792Y-64979618D01*
X84871792Y-64979618D02*
X84909887Y-64941523D01*
X84909887Y-64941523D02*
X84947982Y-64865333D01*
X84947982Y-64865333D02*
X84947982Y-64560571D01*
X85328935Y-65779618D02*
X85328935Y-65322475D01*
X85328935Y-65551047D02*
X84528935Y-65551047D01*
X84528935Y-65551047D02*
X84643220Y-65474856D01*
X84643220Y-65474856D02*
X84719411Y-65398666D01*
X84719411Y-65398666D02*
X84757506Y-65322475D01*
X84605125Y-66084380D02*
X84567030Y-66122476D01*
X84567030Y-66122476D02*
X84528935Y-66198666D01*
X84528935Y-66198666D02*
X84528935Y-66389142D01*
X84528935Y-66389142D02*
X84567030Y-66465333D01*
X84567030Y-66465333D02*
X84605125Y-66503428D01*
X84605125Y-66503428D02*
X84681316Y-66541523D01*
X84681316Y-66541523D02*
X84757506Y-66541523D01*
X84757506Y-66541523D02*
X84871792Y-66503428D01*
X84871792Y-66503428D02*
X85328935Y-66046285D01*
X85328935Y-66046285D02*
X85328935Y-66541523D01*
D10*
X110529666Y-64082819D02*
X110862999Y-63606628D01*
X111101094Y-64082819D02*
X111101094Y-63082819D01*
X111101094Y-63082819D02*
X110720142Y-63082819D01*
X110720142Y-63082819D02*
X110624904Y-63130438D01*
X110624904Y-63130438D02*
X110577285Y-63178057D01*
X110577285Y-63178057D02*
X110529666Y-63273295D01*
X110529666Y-63273295D02*
X110529666Y-63416152D01*
X110529666Y-63416152D02*
X110577285Y-63511390D01*
X110577285Y-63511390D02*
X110624904Y-63559009D01*
X110624904Y-63559009D02*
X110720142Y-63606628D01*
X110720142Y-63606628D02*
X111101094Y-63606628D01*
X110196332Y-63082819D02*
X109577285Y-63082819D01*
X109577285Y-63082819D02*
X109910618Y-63463771D01*
X109910618Y-63463771D02*
X109767761Y-63463771D01*
X109767761Y-63463771D02*
X109672523Y-63511390D01*
X109672523Y-63511390D02*
X109624904Y-63559009D01*
X109624904Y-63559009D02*
X109577285Y-63654247D01*
X109577285Y-63654247D02*
X109577285Y-63892342D01*
X109577285Y-63892342D02*
X109624904Y-63987580D01*
X109624904Y-63987580D02*
X109672523Y-64035200D01*
X109672523Y-64035200D02*
X109767761Y-64082819D01*
X109767761Y-64082819D02*
X110053475Y-64082819D01*
X110053475Y-64082819D02*
X110148713Y-64035200D01*
X110148713Y-64035200D02*
X110196332Y-63987580D01*
X64991904Y-22424819D02*
X65325237Y-21948628D01*
X65563332Y-22424819D02*
X65563332Y-21424819D01*
X65563332Y-21424819D02*
X65182380Y-21424819D01*
X65182380Y-21424819D02*
X65087142Y-21472438D01*
X65087142Y-21472438D02*
X65039523Y-21520057D01*
X65039523Y-21520057D02*
X64991904Y-21615295D01*
X64991904Y-21615295D02*
X64991904Y-21758152D01*
X64991904Y-21758152D02*
X65039523Y-21853390D01*
X65039523Y-21853390D02*
X65087142Y-21901009D01*
X65087142Y-21901009D02*
X65182380Y-21948628D01*
X65182380Y-21948628D02*
X65563332Y-21948628D01*
X64039523Y-22424819D02*
X64610951Y-22424819D01*
X64325237Y-22424819D02*
X64325237Y-21424819D01*
X64325237Y-21424819D02*
X64420475Y-21567676D01*
X64420475Y-21567676D02*
X64515713Y-21662914D01*
X64515713Y-21662914D02*
X64610951Y-21710533D01*
X63706189Y-21424819D02*
X63087142Y-21424819D01*
X63087142Y-21424819D02*
X63420475Y-21805771D01*
X63420475Y-21805771D02*
X63277618Y-21805771D01*
X63277618Y-21805771D02*
X63182380Y-21853390D01*
X63182380Y-21853390D02*
X63134761Y-21901009D01*
X63134761Y-21901009D02*
X63087142Y-21996247D01*
X63087142Y-21996247D02*
X63087142Y-22234342D01*
X63087142Y-22234342D02*
X63134761Y-22329580D01*
X63134761Y-22329580D02*
X63182380Y-22377200D01*
X63182380Y-22377200D02*
X63277618Y-22424819D01*
X63277618Y-22424819D02*
X63563332Y-22424819D01*
X63563332Y-22424819D02*
X63658570Y-22377200D01*
X63658570Y-22377200D02*
X63706189Y-22329580D01*
X62896666Y-22520057D02*
X62134761Y-22520057D01*
X61896665Y-22424819D02*
X61896665Y-21424819D01*
X61896665Y-21424819D02*
X61658570Y-21424819D01*
X61658570Y-21424819D02*
X61515713Y-21472438D01*
X61515713Y-21472438D02*
X61420475Y-21567676D01*
X61420475Y-21567676D02*
X61372856Y-21662914D01*
X61372856Y-21662914D02*
X61325237Y-21853390D01*
X61325237Y-21853390D02*
X61325237Y-21996247D01*
X61325237Y-21996247D02*
X61372856Y-22186723D01*
X61372856Y-22186723D02*
X61420475Y-22281961D01*
X61420475Y-22281961D02*
X61515713Y-22377200D01*
X61515713Y-22377200D02*
X61658570Y-22424819D01*
X61658570Y-22424819D02*
X61896665Y-22424819D01*
X60896665Y-22424819D02*
X60896665Y-21424819D01*
X60896665Y-21424819D02*
X60325237Y-22424819D01*
X60325237Y-22424819D02*
X60325237Y-21424819D01*
X59849046Y-22424819D02*
X59849046Y-21424819D01*
X58849047Y-22424819D02*
X59420475Y-22424819D01*
X59134761Y-22424819D02*
X59134761Y-21424819D01*
X59134761Y-21424819D02*
X59229999Y-21567676D01*
X59229999Y-21567676D02*
X59325237Y-21662914D01*
X59325237Y-21662914D02*
X59420475Y-21710533D01*
D12*
X103920704Y-47110667D02*
X103958800Y-47072571D01*
X103958800Y-47072571D02*
X103996895Y-46958286D01*
X103996895Y-46958286D02*
X103996895Y-46882095D01*
X103996895Y-46882095D02*
X103958800Y-46767809D01*
X103958800Y-46767809D02*
X103882609Y-46691619D01*
X103882609Y-46691619D02*
X103806419Y-46653524D01*
X103806419Y-46653524D02*
X103654038Y-46615428D01*
X103654038Y-46615428D02*
X103539752Y-46615428D01*
X103539752Y-46615428D02*
X103387371Y-46653524D01*
X103387371Y-46653524D02*
X103311180Y-46691619D01*
X103311180Y-46691619D02*
X103234990Y-46767809D01*
X103234990Y-46767809D02*
X103196895Y-46882095D01*
X103196895Y-46882095D02*
X103196895Y-46958286D01*
X103196895Y-46958286D02*
X103234990Y-47072571D01*
X103234990Y-47072571D02*
X103273085Y-47110667D01*
X103273085Y-47415428D02*
X103234990Y-47453524D01*
X103234990Y-47453524D02*
X103196895Y-47529714D01*
X103196895Y-47529714D02*
X103196895Y-47720190D01*
X103196895Y-47720190D02*
X103234990Y-47796381D01*
X103234990Y-47796381D02*
X103273085Y-47834476D01*
X103273085Y-47834476D02*
X103349276Y-47872571D01*
X103349276Y-47872571D02*
X103425466Y-47872571D01*
X103425466Y-47872571D02*
X103539752Y-47834476D01*
X103539752Y-47834476D02*
X103996895Y-47377333D01*
X103996895Y-47377333D02*
X103996895Y-47872571D01*
D11*
X88398285Y-68107744D02*
X88436381Y-68145840D01*
X88436381Y-68145840D02*
X88550666Y-68183935D01*
X88550666Y-68183935D02*
X88626857Y-68183935D01*
X88626857Y-68183935D02*
X88741143Y-68145840D01*
X88741143Y-68145840D02*
X88817333Y-68069649D01*
X88817333Y-68069649D02*
X88855428Y-67993459D01*
X88855428Y-67993459D02*
X88893524Y-67841078D01*
X88893524Y-67841078D02*
X88893524Y-67726792D01*
X88893524Y-67726792D02*
X88855428Y-67574411D01*
X88855428Y-67574411D02*
X88817333Y-67498220D01*
X88817333Y-67498220D02*
X88741143Y-67422030D01*
X88741143Y-67422030D02*
X88626857Y-67383935D01*
X88626857Y-67383935D02*
X88550666Y-67383935D01*
X88550666Y-67383935D02*
X88436381Y-67422030D01*
X88436381Y-67422030D02*
X88398285Y-67460125D01*
X87636381Y-68183935D02*
X88093524Y-68183935D01*
X87864952Y-68183935D02*
X87864952Y-67383935D01*
X87864952Y-67383935D02*
X87941143Y-67498220D01*
X87941143Y-67498220D02*
X88017333Y-67574411D01*
X88017333Y-67574411D02*
X88093524Y-67612506D01*
X86912571Y-67383935D02*
X87293523Y-67383935D01*
X87293523Y-67383935D02*
X87331619Y-67764887D01*
X87331619Y-67764887D02*
X87293523Y-67726792D01*
X87293523Y-67726792D02*
X87217333Y-67688697D01*
X87217333Y-67688697D02*
X87026857Y-67688697D01*
X87026857Y-67688697D02*
X86950666Y-67726792D01*
X86950666Y-67726792D02*
X86912571Y-67764887D01*
X86912571Y-67764887D02*
X86874476Y-67841078D01*
X86874476Y-67841078D02*
X86874476Y-68031554D01*
X86874476Y-68031554D02*
X86912571Y-68107744D01*
X86912571Y-68107744D02*
X86950666Y-68145840D01*
X86950666Y-68145840D02*
X87026857Y-68183935D01*
X87026857Y-68183935D02*
X87217333Y-68183935D01*
X87217333Y-68183935D02*
X87293523Y-68145840D01*
X87293523Y-68145840D02*
X87331619Y-68107744D01*
X59471744Y-48126714D02*
X59509840Y-48088618D01*
X59509840Y-48088618D02*
X59547935Y-47974333D01*
X59547935Y-47974333D02*
X59547935Y-47898142D01*
X59547935Y-47898142D02*
X59509840Y-47783856D01*
X59509840Y-47783856D02*
X59433649Y-47707666D01*
X59433649Y-47707666D02*
X59357459Y-47669571D01*
X59357459Y-47669571D02*
X59205078Y-47631475D01*
X59205078Y-47631475D02*
X59090792Y-47631475D01*
X59090792Y-47631475D02*
X58938411Y-47669571D01*
X58938411Y-47669571D02*
X58862220Y-47707666D01*
X58862220Y-47707666D02*
X58786030Y-47783856D01*
X58786030Y-47783856D02*
X58747935Y-47898142D01*
X58747935Y-47898142D02*
X58747935Y-47974333D01*
X58747935Y-47974333D02*
X58786030Y-48088618D01*
X58786030Y-48088618D02*
X58824125Y-48126714D01*
X58824125Y-48431475D02*
X58786030Y-48469571D01*
X58786030Y-48469571D02*
X58747935Y-48545761D01*
X58747935Y-48545761D02*
X58747935Y-48736237D01*
X58747935Y-48736237D02*
X58786030Y-48812428D01*
X58786030Y-48812428D02*
X58824125Y-48850523D01*
X58824125Y-48850523D02*
X58900316Y-48888618D01*
X58900316Y-48888618D02*
X58976506Y-48888618D01*
X58976506Y-48888618D02*
X59090792Y-48850523D01*
X59090792Y-48850523D02*
X59547935Y-48393380D01*
X59547935Y-48393380D02*
X59547935Y-48888618D01*
X58747935Y-49155285D02*
X58747935Y-49650523D01*
X58747935Y-49650523D02*
X59052697Y-49383857D01*
X59052697Y-49383857D02*
X59052697Y-49498142D01*
X59052697Y-49498142D02*
X59090792Y-49574333D01*
X59090792Y-49574333D02*
X59128887Y-49612428D01*
X59128887Y-49612428D02*
X59205078Y-49650523D01*
X59205078Y-49650523D02*
X59395554Y-49650523D01*
X59395554Y-49650523D02*
X59471744Y-49612428D01*
X59471744Y-49612428D02*
X59509840Y-49574333D01*
X59509840Y-49574333D02*
X59547935Y-49498142D01*
X59547935Y-49498142D02*
X59547935Y-49269571D01*
X59547935Y-49269571D02*
X59509840Y-49193380D01*
X59509840Y-49193380D02*
X59471744Y-49155285D01*
D12*
X103920704Y-63112714D02*
X103958800Y-63074618D01*
X103958800Y-63074618D02*
X103996895Y-62960333D01*
X103996895Y-62960333D02*
X103996895Y-62884142D01*
X103996895Y-62884142D02*
X103958800Y-62769856D01*
X103958800Y-62769856D02*
X103882609Y-62693666D01*
X103882609Y-62693666D02*
X103806419Y-62655571D01*
X103806419Y-62655571D02*
X103654038Y-62617475D01*
X103654038Y-62617475D02*
X103539752Y-62617475D01*
X103539752Y-62617475D02*
X103387371Y-62655571D01*
X103387371Y-62655571D02*
X103311180Y-62693666D01*
X103311180Y-62693666D02*
X103234990Y-62769856D01*
X103234990Y-62769856D02*
X103196895Y-62884142D01*
X103196895Y-62884142D02*
X103196895Y-62960333D01*
X103196895Y-62960333D02*
X103234990Y-63074618D01*
X103234990Y-63074618D02*
X103273085Y-63112714D01*
X103996895Y-63874618D02*
X103996895Y-63417475D01*
X103996895Y-63646047D02*
X103196895Y-63646047D01*
X103196895Y-63646047D02*
X103311180Y-63569856D01*
X103311180Y-63569856D02*
X103387371Y-63493666D01*
X103387371Y-63493666D02*
X103425466Y-63417475D01*
X103196895Y-64141285D02*
X103196895Y-64636523D01*
X103196895Y-64636523D02*
X103501657Y-64369857D01*
X103501657Y-64369857D02*
X103501657Y-64484142D01*
X103501657Y-64484142D02*
X103539752Y-64560333D01*
X103539752Y-64560333D02*
X103577847Y-64598428D01*
X103577847Y-64598428D02*
X103654038Y-64636523D01*
X103654038Y-64636523D02*
X103844514Y-64636523D01*
X103844514Y-64636523D02*
X103920704Y-64598428D01*
X103920704Y-64598428D02*
X103958800Y-64560333D01*
X103958800Y-64560333D02*
X103996895Y-64484142D01*
X103996895Y-64484142D02*
X103996895Y-64255571D01*
X103996895Y-64255571D02*
X103958800Y-64179380D01*
X103958800Y-64179380D02*
X103920704Y-64141285D01*
D11*
X57264944Y-84778914D02*
X57303040Y-84740818D01*
X57303040Y-84740818D02*
X57341135Y-84626533D01*
X57341135Y-84626533D02*
X57341135Y-84550342D01*
X57341135Y-84550342D02*
X57303040Y-84436056D01*
X57303040Y-84436056D02*
X57226849Y-84359866D01*
X57226849Y-84359866D02*
X57150659Y-84321771D01*
X57150659Y-84321771D02*
X56998278Y-84283675D01*
X56998278Y-84283675D02*
X56883992Y-84283675D01*
X56883992Y-84283675D02*
X56731611Y-84321771D01*
X56731611Y-84321771D02*
X56655420Y-84359866D01*
X56655420Y-84359866D02*
X56579230Y-84436056D01*
X56579230Y-84436056D02*
X56541135Y-84550342D01*
X56541135Y-84550342D02*
X56541135Y-84626533D01*
X56541135Y-84626533D02*
X56579230Y-84740818D01*
X56579230Y-84740818D02*
X56617325Y-84778914D01*
X56617325Y-85083675D02*
X56579230Y-85121771D01*
X56579230Y-85121771D02*
X56541135Y-85197961D01*
X56541135Y-85197961D02*
X56541135Y-85388437D01*
X56541135Y-85388437D02*
X56579230Y-85464628D01*
X56579230Y-85464628D02*
X56617325Y-85502723D01*
X56617325Y-85502723D02*
X56693516Y-85540818D01*
X56693516Y-85540818D02*
X56769706Y-85540818D01*
X56769706Y-85540818D02*
X56883992Y-85502723D01*
X56883992Y-85502723D02*
X57341135Y-85045580D01*
X57341135Y-85045580D02*
X57341135Y-85540818D01*
X57341135Y-86302723D02*
X57341135Y-85845580D01*
X57341135Y-86074152D02*
X56541135Y-86074152D01*
X56541135Y-86074152D02*
X56655420Y-85997961D01*
X56655420Y-85997961D02*
X56731611Y-85921771D01*
X56731611Y-85921771D02*
X56769706Y-85845580D01*
D10*
X110529666Y-58113819D02*
X110862999Y-57637628D01*
X111101094Y-58113819D02*
X111101094Y-57113819D01*
X111101094Y-57113819D02*
X110720142Y-57113819D01*
X110720142Y-57113819D02*
X110624904Y-57161438D01*
X110624904Y-57161438D02*
X110577285Y-57209057D01*
X110577285Y-57209057D02*
X110529666Y-57304295D01*
X110529666Y-57304295D02*
X110529666Y-57447152D01*
X110529666Y-57447152D02*
X110577285Y-57542390D01*
X110577285Y-57542390D02*
X110624904Y-57590009D01*
X110624904Y-57590009D02*
X110720142Y-57637628D01*
X110720142Y-57637628D02*
X111101094Y-57637628D01*
X110148713Y-57209057D02*
X110101094Y-57161438D01*
X110101094Y-57161438D02*
X110005856Y-57113819D01*
X110005856Y-57113819D02*
X109767761Y-57113819D01*
X109767761Y-57113819D02*
X109672523Y-57161438D01*
X109672523Y-57161438D02*
X109624904Y-57209057D01*
X109624904Y-57209057D02*
X109577285Y-57304295D01*
X109577285Y-57304295D02*
X109577285Y-57399533D01*
X109577285Y-57399533D02*
X109624904Y-57542390D01*
X109624904Y-57542390D02*
X110196332Y-58113819D01*
X110196332Y-58113819D02*
X109577285Y-58113819D01*
D12*
X103920704Y-71494714D02*
X103958800Y-71456618D01*
X103958800Y-71456618D02*
X103996895Y-71342333D01*
X103996895Y-71342333D02*
X103996895Y-71266142D01*
X103996895Y-71266142D02*
X103958800Y-71151856D01*
X103958800Y-71151856D02*
X103882609Y-71075666D01*
X103882609Y-71075666D02*
X103806419Y-71037571D01*
X103806419Y-71037571D02*
X103654038Y-70999475D01*
X103654038Y-70999475D02*
X103539752Y-70999475D01*
X103539752Y-70999475D02*
X103387371Y-71037571D01*
X103387371Y-71037571D02*
X103311180Y-71075666D01*
X103311180Y-71075666D02*
X103234990Y-71151856D01*
X103234990Y-71151856D02*
X103196895Y-71266142D01*
X103196895Y-71266142D02*
X103196895Y-71342333D01*
X103196895Y-71342333D02*
X103234990Y-71456618D01*
X103234990Y-71456618D02*
X103273085Y-71494714D01*
X103996895Y-72256618D02*
X103996895Y-71799475D01*
X103996895Y-72028047D02*
X103196895Y-72028047D01*
X103196895Y-72028047D02*
X103311180Y-71951856D01*
X103311180Y-71951856D02*
X103387371Y-71875666D01*
X103387371Y-71875666D02*
X103425466Y-71799475D01*
X103463561Y-72942333D02*
X103996895Y-72942333D01*
X103158800Y-72751857D02*
X103730228Y-72561380D01*
X103730228Y-72561380D02*
X103730228Y-73056619D01*
D11*
X88271285Y-65313744D02*
X88309381Y-65351840D01*
X88309381Y-65351840D02*
X88423666Y-65389935D01*
X88423666Y-65389935D02*
X88499857Y-65389935D01*
X88499857Y-65389935D02*
X88614143Y-65351840D01*
X88614143Y-65351840D02*
X88690333Y-65275649D01*
X88690333Y-65275649D02*
X88728428Y-65199459D01*
X88728428Y-65199459D02*
X88766524Y-65047078D01*
X88766524Y-65047078D02*
X88766524Y-64932792D01*
X88766524Y-64932792D02*
X88728428Y-64780411D01*
X88728428Y-64780411D02*
X88690333Y-64704220D01*
X88690333Y-64704220D02*
X88614143Y-64628030D01*
X88614143Y-64628030D02*
X88499857Y-64589935D01*
X88499857Y-64589935D02*
X88423666Y-64589935D01*
X88423666Y-64589935D02*
X88309381Y-64628030D01*
X88309381Y-64628030D02*
X88271285Y-64666125D01*
X87509381Y-65389935D02*
X87966524Y-65389935D01*
X87737952Y-65389935D02*
X87737952Y-64589935D01*
X87737952Y-64589935D02*
X87814143Y-64704220D01*
X87814143Y-64704220D02*
X87890333Y-64780411D01*
X87890333Y-64780411D02*
X87966524Y-64818506D01*
X87052238Y-64932792D02*
X87128428Y-64894697D01*
X87128428Y-64894697D02*
X87166523Y-64856601D01*
X87166523Y-64856601D02*
X87204619Y-64780411D01*
X87204619Y-64780411D02*
X87204619Y-64742316D01*
X87204619Y-64742316D02*
X87166523Y-64666125D01*
X87166523Y-64666125D02*
X87128428Y-64628030D01*
X87128428Y-64628030D02*
X87052238Y-64589935D01*
X87052238Y-64589935D02*
X86899857Y-64589935D01*
X86899857Y-64589935D02*
X86823666Y-64628030D01*
X86823666Y-64628030D02*
X86785571Y-64666125D01*
X86785571Y-64666125D02*
X86747476Y-64742316D01*
X86747476Y-64742316D02*
X86747476Y-64780411D01*
X86747476Y-64780411D02*
X86785571Y-64856601D01*
X86785571Y-64856601D02*
X86823666Y-64894697D01*
X86823666Y-64894697D02*
X86899857Y-64932792D01*
X86899857Y-64932792D02*
X87052238Y-64932792D01*
X87052238Y-64932792D02*
X87128428Y-64970887D01*
X87128428Y-64970887D02*
X87166523Y-65008982D01*
X87166523Y-65008982D02*
X87204619Y-65085173D01*
X87204619Y-65085173D02*
X87204619Y-65237554D01*
X87204619Y-65237554D02*
X87166523Y-65313744D01*
X87166523Y-65313744D02*
X87128428Y-65351840D01*
X87128428Y-65351840D02*
X87052238Y-65389935D01*
X87052238Y-65389935D02*
X86899857Y-65389935D01*
X86899857Y-65389935D02*
X86823666Y-65351840D01*
X86823666Y-65351840D02*
X86785571Y-65313744D01*
X86785571Y-65313744D02*
X86747476Y-65237554D01*
X86747476Y-65237554D02*
X86747476Y-65085173D01*
X86747476Y-65085173D02*
X86785571Y-65008982D01*
X86785571Y-65008982D02*
X86823666Y-64970887D01*
X86823666Y-64970887D02*
X86899857Y-64932792D01*
D10*
X110426166Y-47318819D02*
X110759499Y-46842628D01*
X110997594Y-47318819D02*
X110997594Y-46318819D01*
X110997594Y-46318819D02*
X110616642Y-46318819D01*
X110616642Y-46318819D02*
X110521404Y-46366438D01*
X110521404Y-46366438D02*
X110473785Y-46414057D01*
X110473785Y-46414057D02*
X110426166Y-46509295D01*
X110426166Y-46509295D02*
X110426166Y-46652152D01*
X110426166Y-46652152D02*
X110473785Y-46747390D01*
X110473785Y-46747390D02*
X110521404Y-46795009D01*
X110521404Y-46795009D02*
X110616642Y-46842628D01*
X110616642Y-46842628D02*
X110997594Y-46842628D01*
X109473785Y-47318819D02*
X110045213Y-47318819D01*
X109759499Y-47318819D02*
X109759499Y-46318819D01*
X109759499Y-46318819D02*
X109854737Y-46461676D01*
X109854737Y-46461676D02*
X109949975Y-46556914D01*
X109949975Y-46556914D02*
X110045213Y-46604533D01*
D11*
X57403144Y-53028914D02*
X57441240Y-52990818D01*
X57441240Y-52990818D02*
X57479335Y-52876533D01*
X57479335Y-52876533D02*
X57479335Y-52800342D01*
X57479335Y-52800342D02*
X57441240Y-52686056D01*
X57441240Y-52686056D02*
X57365049Y-52609866D01*
X57365049Y-52609866D02*
X57288859Y-52571771D01*
X57288859Y-52571771D02*
X57136478Y-52533675D01*
X57136478Y-52533675D02*
X57022192Y-52533675D01*
X57022192Y-52533675D02*
X56869811Y-52571771D01*
X56869811Y-52571771D02*
X56793620Y-52609866D01*
X56793620Y-52609866D02*
X56717430Y-52686056D01*
X56717430Y-52686056D02*
X56679335Y-52800342D01*
X56679335Y-52800342D02*
X56679335Y-52876533D01*
X56679335Y-52876533D02*
X56717430Y-52990818D01*
X56717430Y-52990818D02*
X56755525Y-53028914D01*
X56755525Y-53333675D02*
X56717430Y-53371771D01*
X56717430Y-53371771D02*
X56679335Y-53447961D01*
X56679335Y-53447961D02*
X56679335Y-53638437D01*
X56679335Y-53638437D02*
X56717430Y-53714628D01*
X56717430Y-53714628D02*
X56755525Y-53752723D01*
X56755525Y-53752723D02*
X56831716Y-53790818D01*
X56831716Y-53790818D02*
X56907906Y-53790818D01*
X56907906Y-53790818D02*
X57022192Y-53752723D01*
X57022192Y-53752723D02*
X57479335Y-53295580D01*
X57479335Y-53295580D02*
X57479335Y-53790818D01*
X56755525Y-54095580D02*
X56717430Y-54133676D01*
X56717430Y-54133676D02*
X56679335Y-54209866D01*
X56679335Y-54209866D02*
X56679335Y-54400342D01*
X56679335Y-54400342D02*
X56717430Y-54476533D01*
X56717430Y-54476533D02*
X56755525Y-54514628D01*
X56755525Y-54514628D02*
X56831716Y-54552723D01*
X56831716Y-54552723D02*
X56907906Y-54552723D01*
X56907906Y-54552723D02*
X57022192Y-54514628D01*
X57022192Y-54514628D02*
X57479335Y-54057485D01*
X57479335Y-54057485D02*
X57479335Y-54552723D01*
D12*
X103920704Y-54730714D02*
X103958800Y-54692618D01*
X103958800Y-54692618D02*
X103996895Y-54578333D01*
X103996895Y-54578333D02*
X103996895Y-54502142D01*
X103996895Y-54502142D02*
X103958800Y-54387856D01*
X103958800Y-54387856D02*
X103882609Y-54311666D01*
X103882609Y-54311666D02*
X103806419Y-54273571D01*
X103806419Y-54273571D02*
X103654038Y-54235475D01*
X103654038Y-54235475D02*
X103539752Y-54235475D01*
X103539752Y-54235475D02*
X103387371Y-54273571D01*
X103387371Y-54273571D02*
X103311180Y-54311666D01*
X103311180Y-54311666D02*
X103234990Y-54387856D01*
X103234990Y-54387856D02*
X103196895Y-54502142D01*
X103196895Y-54502142D02*
X103196895Y-54578333D01*
X103196895Y-54578333D02*
X103234990Y-54692618D01*
X103234990Y-54692618D02*
X103273085Y-54730714D01*
X103996895Y-55492618D02*
X103996895Y-55035475D01*
X103996895Y-55264047D02*
X103196895Y-55264047D01*
X103196895Y-55264047D02*
X103311180Y-55187856D01*
X103311180Y-55187856D02*
X103387371Y-55111666D01*
X103387371Y-55111666D02*
X103425466Y-55035475D01*
X103273085Y-55797380D02*
X103234990Y-55835476D01*
X103234990Y-55835476D02*
X103196895Y-55911666D01*
X103196895Y-55911666D02*
X103196895Y-56102142D01*
X103196895Y-56102142D02*
X103234990Y-56178333D01*
X103234990Y-56178333D02*
X103273085Y-56216428D01*
X103273085Y-56216428D02*
X103349276Y-56254523D01*
X103349276Y-56254523D02*
X103425466Y-56254523D01*
X103425466Y-56254523D02*
X103539752Y-56216428D01*
X103539752Y-56216428D02*
X103996895Y-55759285D01*
X103996895Y-55759285D02*
X103996895Y-56254523D01*
G36*
X110996599Y-90670682D02*
G01*
X111028993Y-90701588D01*
X111083083Y-90765110D01*
X111133518Y-90843970D01*
X111187858Y-90949176D01*
X111213895Y-91002085D01*
X111258639Y-91088727D01*
X111299831Y-91163781D01*
X111331047Y-91215308D01*
X111338920Y-91227202D01*
X111394525Y-91320416D01*
X111451456Y-91429179D01*
X111504021Y-91541437D01*
X111546527Y-91645138D01*
X111573280Y-91728225D01*
X111595524Y-91814908D01*
X111628819Y-91934584D01*
X111662399Y-92045272D01*
X111693930Y-92139716D01*
X111721075Y-92210660D01*
X111741500Y-92250846D01*
X111754227Y-92272648D01*
X111781167Y-92330875D01*
X111814013Y-92410896D01*
X111849239Y-92503351D01*
X111883319Y-92598878D01*
X111912727Y-92688117D01*
X111933936Y-92761706D01*
X111935189Y-92766646D01*
X111973424Y-92932126D01*
X112005907Y-93100892D01*
X112031061Y-93262829D01*
X112047310Y-93407825D01*
X112051499Y-93493494D01*
X112053077Y-93525765D01*
X112052448Y-93562633D01*
X112046121Y-93668220D01*
X112034087Y-93789112D01*
X112017704Y-93916257D01*
X111998332Y-94040605D01*
X111977330Y-94153104D01*
X111956056Y-94244705D01*
X111935870Y-94306356D01*
X111921983Y-94344449D01*
X111900309Y-94419181D01*
X111877438Y-94511393D01*
X111856486Y-94609202D01*
X111855430Y-94614585D01*
X111820243Y-94791654D01*
X111790392Y-94935746D01*
X111764449Y-95052213D01*
X111740983Y-95146411D01*
X111718566Y-95223692D01*
X111695766Y-95289413D01*
X111671155Y-95348927D01*
X111643302Y-95407588D01*
X111629308Y-95435078D01*
X111584866Y-95516744D01*
X111541649Y-95589147D01*
X111507326Y-95639222D01*
X111487497Y-95666273D01*
X111443238Y-95736116D01*
X111404473Y-95807911D01*
X111377643Y-95856307D01*
X111330791Y-95930384D01*
X111272828Y-96015421D01*
X111210650Y-96100988D01*
X111210101Y-96101717D01*
X111102551Y-96248902D01*
X111019994Y-96371772D01*
X110960132Y-96473954D01*
X110920669Y-96559077D01*
X110917530Y-96566918D01*
X110892350Y-96617069D01*
X110868063Y-96649097D01*
X110857317Y-96664685D01*
X110836405Y-96714658D01*
X110812077Y-96788917D01*
X110786819Y-96879005D01*
X110763120Y-96976464D01*
X110743465Y-97072836D01*
X110738051Y-97101621D01*
X110725351Y-97162146D01*
X110715061Y-97202685D01*
X110703620Y-97249101D01*
X110688733Y-97350198D01*
X110676878Y-97487154D01*
X110672064Y-97534752D01*
X110657119Y-97622275D01*
X110637767Y-97696061D01*
X110626185Y-97739710D01*
X110615334Y-97810560D01*
X110609813Y-97887307D01*
X110609569Y-97961022D01*
X110614551Y-98022777D01*
X110624705Y-98063643D01*
X110639980Y-98074691D01*
X110641859Y-98073997D01*
X110663192Y-98076102D01*
X110658174Y-98106740D01*
X110626843Y-98165643D01*
X110600694Y-98227636D01*
X110587766Y-98322423D01*
X110587829Y-98337131D01*
X110591254Y-98387037D01*
X110602864Y-98409812D01*
X110626770Y-98415231D01*
X110636944Y-98416107D01*
X110662229Y-98435863D01*
X110661376Y-98476282D01*
X110633942Y-98530241D01*
X110630890Y-98534670D01*
X110614054Y-98570157D01*
X110625305Y-98590172D01*
X110637865Y-98613872D01*
X110635030Y-98658041D01*
X110617638Y-98705845D01*
X110589341Y-98741879D01*
X110585671Y-98743982D01*
X110559852Y-98750264D01*
X110511215Y-98755370D01*
X110437051Y-98759386D01*
X110334652Y-98762400D01*
X110201307Y-98764499D01*
X110034310Y-98765771D01*
X109830950Y-98766302D01*
X109103514Y-98766923D01*
X109093127Y-98722962D01*
X109083804Y-98672107D01*
X109075970Y-98611533D01*
X109075168Y-98604643D01*
X109063644Y-98559214D01*
X109046908Y-98536636D01*
X109029137Y-98525252D01*
X109028625Y-98504155D01*
X109056704Y-98493385D01*
X109059043Y-98493327D01*
X109072000Y-98488304D01*
X109079524Y-98470519D01*
X109082164Y-98433428D01*
X109080468Y-98370486D01*
X109074983Y-98275146D01*
X109073796Y-98256941D01*
X109064213Y-98148067D01*
X109050166Y-98060724D01*
X109028518Y-97979571D01*
X108996135Y-97889262D01*
X108983196Y-97855438D01*
X108954640Y-97777281D01*
X108932782Y-97712592D01*
X108921549Y-97672769D01*
X108910323Y-97628429D01*
X108886135Y-97551279D01*
X108853600Y-97457160D01*
X108816129Y-97355090D01*
X108777135Y-97254091D01*
X108740028Y-97163182D01*
X108708221Y-97091382D01*
X108685126Y-97047711D01*
X108658585Y-97003129D01*
X108620062Y-96928814D01*
X108584873Y-96851850D01*
X108558172Y-96790424D01*
X108523860Y-96715896D01*
X108495784Y-96659460D01*
X108488997Y-96646236D01*
X108466909Y-96593282D01*
X108458000Y-96554482D01*
X108457777Y-96543611D01*
X108452766Y-96526243D01*
X108435333Y-96523768D01*
X108397900Y-96536905D01*
X108332886Y-96566376D01*
X108265077Y-96592367D01*
X108172744Y-96615711D01*
X108080790Y-96628522D01*
X108001099Y-96629268D01*
X107945552Y-96616411D01*
X107939670Y-96613368D01*
X107866611Y-96570276D01*
X107791989Y-96518502D01*
X107727868Y-96466973D01*
X107686315Y-96424615D01*
X107673853Y-96402220D01*
X107655746Y-96336967D01*
X107647531Y-96257660D01*
X107650324Y-96180380D01*
X107665243Y-96121206D01*
X107672085Y-96105206D01*
X107668605Y-96091103D01*
X107635796Y-96096856D01*
X107633985Y-96097333D01*
X107589268Y-96105092D01*
X107520574Y-96113047D01*
X107442000Y-96119545D01*
X107295462Y-96129252D01*
X107471839Y-96092246D01*
X107576155Y-96068423D01*
X107689156Y-96035288D01*
X107778092Y-95998162D01*
X107851573Y-95953908D01*
X107856498Y-95950456D01*
X107899079Y-95924815D01*
X107927747Y-95914308D01*
X107936401Y-95912346D01*
X107975841Y-95897310D01*
X108036844Y-95870679D01*
X108110346Y-95836322D01*
X108145929Y-95819535D01*
X108216921Y-95788126D01*
X108272404Y-95766355D01*
X108302670Y-95758168D01*
X108316459Y-95756528D01*
X108351516Y-95739571D01*
X108355379Y-95736839D01*
X108390760Y-95723267D01*
X108451268Y-95706621D01*
X108526385Y-95689888D01*
X108534766Y-95688199D01*
X108623115Y-95669065D01*
X108707471Y-95648775D01*
X108770616Y-95631450D01*
X108780155Y-95628523D01*
X108818448Y-95617031D01*
X108874033Y-95600658D01*
X108949806Y-95578565D01*
X109048664Y-95549913D01*
X109173504Y-95513865D01*
X109327223Y-95469582D01*
X109512718Y-95416225D01*
X109732885Y-95352957D01*
X109757641Y-95353354D01*
X109767077Y-95382400D01*
X109772746Y-95406547D01*
X109799966Y-95434286D01*
X109810878Y-95439679D01*
X109818284Y-95460352D01*
X109788407Y-95487419D01*
X109722115Y-95520418D01*
X109620280Y-95558887D01*
X109483770Y-95602364D01*
X109465942Y-95607706D01*
X109351862Y-95642771D01*
X109238642Y-95678880D01*
X109138509Y-95712074D01*
X109063693Y-95738392D01*
X109038989Y-95747442D01*
X108942402Y-95780554D01*
X108833063Y-95814309D01*
X108702491Y-95851238D01*
X108542202Y-95893869D01*
X108508361Y-95901655D01*
X108429052Y-95915931D01*
X108348886Y-95926531D01*
X108289496Y-95934894D01*
X108196288Y-95953270D01*
X108108377Y-95975485D01*
X108043860Y-95994080D01*
X107951020Y-96020352D01*
X107871846Y-96042258D01*
X107777336Y-96077596D01*
X107716546Y-96125965D01*
X107686058Y-96192243D01*
X107681872Y-96281464D01*
X107692526Y-96352363D01*
X107724613Y-96427437D01*
X107782978Y-96489191D01*
X107873917Y-96546307D01*
X107915877Y-96567441D01*
X107972384Y-96588528D01*
X108029539Y-96595770D01*
X108106308Y-96592976D01*
X108175050Y-96585260D01*
X108256882Y-96562636D01*
X108340770Y-96519688D01*
X108378656Y-96497753D01*
X108420842Y-96476366D01*
X108466516Y-96457960D01*
X108521522Y-96440966D01*
X108591701Y-96423817D01*
X108682896Y-96404945D01*
X108800951Y-96382781D01*
X108951708Y-96355759D01*
X109119105Y-96313744D01*
X109283861Y-96249581D01*
X109313124Y-96235916D01*
X109391596Y-96200413D01*
X109459012Y-96171434D01*
X109503308Y-96154222D01*
X109523494Y-96145835D01*
X109578912Y-96117272D01*
X109650553Y-96076177D01*
X109728000Y-96028385D01*
X109766183Y-96004086D01*
X109850010Y-95951523D01*
X109926743Y-95904350D01*
X109983534Y-95870502D01*
X110010322Y-95853130D01*
X110075308Y-95798219D01*
X110125465Y-95739602D01*
X110143839Y-95713253D01*
X110174907Y-95675244D01*
X110194348Y-95660308D01*
X110195164Y-95660295D01*
X110231563Y-95643358D01*
X110270488Y-95603328D01*
X110301498Y-95553539D01*
X110314154Y-95507319D01*
X110314262Y-95502160D01*
X110323616Y-95442703D01*
X110343462Y-95380014D01*
X110346656Y-95372088D01*
X110365200Y-95312414D01*
X110372770Y-95262828D01*
X110367313Y-95223001D01*
X110343086Y-95150113D01*
X110305949Y-95072556D01*
X110263041Y-95004600D01*
X110221503Y-94960513D01*
X110198292Y-94945220D01*
X110134686Y-94908500D01*
X110052367Y-94865064D01*
X109958937Y-94818492D01*
X109861999Y-94772363D01*
X109769157Y-94730255D01*
X109688014Y-94695747D01*
X109626172Y-94672418D01*
X109591234Y-94663846D01*
X109569056Y-94666041D01*
X109509330Y-94680897D01*
X109444204Y-94705152D01*
X109399205Y-94723620D01*
X109314360Y-94754363D01*
X109231195Y-94780669D01*
X109158718Y-94803793D01*
X109063685Y-94838284D01*
X108975283Y-94874079D01*
X108911305Y-94898358D01*
X108813954Y-94929185D01*
X108703893Y-94959459D01*
X108594853Y-94985171D01*
X108499533Y-95006800D01*
X108388797Y-95034788D01*
X108288995Y-95062805D01*
X108213853Y-95087178D01*
X108208277Y-95089194D01*
X108117093Y-95117802D01*
X108010679Y-95145319D01*
X107910923Y-95166046D01*
X107884764Y-95170583D01*
X107805744Y-95184375D01*
X107741364Y-95195736D01*
X107703559Y-95202564D01*
X107702908Y-95202693D01*
X107665740Y-95217676D01*
X107609032Y-95248544D01*
X107544788Y-95288778D01*
X107540354Y-95291726D01*
X107479234Y-95329789D01*
X107429112Y-95356643D01*
X107400460Y-95366637D01*
X107391624Y-95361038D01*
X107412693Y-95344525D01*
X107419061Y-95340900D01*
X107474945Y-95300395D01*
X107526305Y-95250395D01*
X107563757Y-95201204D01*
X107577912Y-95163129D01*
X107561303Y-95080070D01*
X107512861Y-94977795D01*
X107434722Y-94864420D01*
X107386750Y-94796505D01*
X107330242Y-94702095D01*
X107286576Y-94613802D01*
X107283084Y-94605643D01*
X107251195Y-94540158D01*
X107220713Y-94491070D01*
X107197802Y-94468473D01*
X107181605Y-94459807D01*
X107169670Y-94438391D01*
X107164399Y-94427274D01*
X107130840Y-94408707D01*
X107075669Y-94391309D01*
X107009404Y-94378143D01*
X106942565Y-94372271D01*
X106917350Y-94371121D01*
X106795103Y-94351934D01*
X106656173Y-94312568D01*
X106511286Y-94257015D01*
X106371173Y-94189265D01*
X106246560Y-94113312D01*
X106237053Y-94107064D01*
X106178728Y-94075773D01*
X106113945Y-94048582D01*
X106091553Y-94040306D01*
X105994123Y-93998049D01*
X105887784Y-93944209D01*
X105783895Y-93885149D01*
X105693817Y-93827235D01*
X105628909Y-93776832D01*
X105604441Y-93753111D01*
X105506384Y-93629320D01*
X105423418Y-93477377D01*
X105357443Y-93304424D01*
X105310357Y-93117605D01*
X105284060Y-92924062D01*
X105283472Y-92892605D01*
X105338912Y-92892605D01*
X105348744Y-93056262D01*
X105374450Y-93202195D01*
X105418352Y-93342107D01*
X105482775Y-93487704D01*
X105489950Y-93502069D01*
X105552229Y-93614130D01*
X105616825Y-93701566D01*
X105692632Y-93772923D01*
X105788542Y-93836748D01*
X105913449Y-93901586D01*
X105989801Y-93938382D01*
X106077748Y-93981285D01*
X106151822Y-94017968D01*
X106201308Y-94043162D01*
X106225020Y-94055649D01*
X106290112Y-94089964D01*
X106371144Y-94132713D01*
X106455917Y-94177460D01*
X106477020Y-94188526D01*
X106563438Y-94230946D01*
X106633073Y-94257826D01*
X106699400Y-94273599D01*
X106775890Y-94282695D01*
X106856221Y-94291919D01*
X106938427Y-94305795D01*
X106999974Y-94320851D01*
X107013590Y-94325210D01*
X107081514Y-94345857D01*
X107139154Y-94361913D01*
X107199089Y-94372852D01*
X107266154Y-94378840D01*
X107296944Y-94378722D01*
X107332064Y-94375714D01*
X107377798Y-94368562D01*
X107440994Y-94356025D01*
X107528497Y-94336862D01*
X107647154Y-94309834D01*
X107735132Y-94284784D01*
X107853009Y-94228499D01*
X107941035Y-94151818D01*
X107946359Y-94145160D01*
X107976069Y-94100498D01*
X108013052Y-94036899D01*
X108052820Y-93963148D01*
X108090890Y-93888032D01*
X108122775Y-93820339D01*
X108143991Y-93768854D01*
X108150051Y-93742365D01*
X108146992Y-93730658D01*
X108128632Y-93643447D01*
X108110234Y-93531881D01*
X108093379Y-93408471D01*
X108079648Y-93285724D01*
X108070623Y-93176153D01*
X108067884Y-93092265D01*
X108068243Y-93046767D01*
X108065669Y-92967392D01*
X108055975Y-92901715D01*
X108037151Y-92837000D01*
X108135616Y-92837000D01*
X108136702Y-93120308D01*
X108136880Y-93149877D01*
X108138579Y-93258838D01*
X108141633Y-93358782D01*
X108145676Y-93439688D01*
X108150340Y-93491539D01*
X108175201Y-93632147D01*
X108203564Y-93742365D01*
X108211474Y-93773101D01*
X108254632Y-93890588D01*
X108302727Y-93979409D01*
X108353809Y-94034365D01*
X108356196Y-94036040D01*
X108406525Y-94072975D01*
X108460046Y-94114316D01*
X108494437Y-94137739D01*
X108525118Y-94148411D01*
X108534620Y-94137892D01*
X108516616Y-94107000D01*
X108501684Y-94076466D01*
X108511614Y-94060778D01*
X108540567Y-94071876D01*
X108554972Y-94080067D01*
X108601968Y-94098734D01*
X108663011Y-94117604D01*
X108724164Y-94128650D01*
X108825801Y-94137449D01*
X108964701Y-94142902D01*
X109141703Y-94145059D01*
X109522846Y-94146077D01*
X109732130Y-94074676D01*
X109802907Y-94049399D01*
X109887843Y-94016070D01*
X109956241Y-93985874D01*
X109997750Y-93963159D01*
X110045054Y-93923383D01*
X110118926Y-93842646D01*
X110190167Y-93745697D01*
X110249204Y-93644660D01*
X110262270Y-93618415D01*
X110280803Y-93576444D01*
X110290704Y-93538363D01*
X110293023Y-93493494D01*
X110288811Y-93431158D01*
X110279119Y-93340675D01*
X110274205Y-93300627D01*
X110257129Y-93189247D01*
X110236209Y-93079028D01*
X110214895Y-92988866D01*
X110197107Y-92927475D01*
X110156476Y-92802119D01*
X110110123Y-92673873D01*
X110061332Y-92550832D01*
X110013384Y-92441092D01*
X109969562Y-92352747D01*
X109933146Y-92293894D01*
X109855314Y-92206949D01*
X109733846Y-92117510D01*
X109596560Y-92063705D01*
X109444039Y-92045831D01*
X109386682Y-92047646D01*
X109298177Y-92054665D01*
X109203201Y-92065678D01*
X109110842Y-92079311D01*
X109030187Y-92094184D01*
X108970326Y-92108921D01*
X108940347Y-92122146D01*
X108911865Y-92136349D01*
X108863787Y-92143385D01*
X108823438Y-92150908D01*
X108797263Y-92172580D01*
X108789212Y-92185746D01*
X108768260Y-92190775D01*
X108763283Y-92190316D01*
X108731480Y-92203299D01*
X108680061Y-92233631D01*
X108617422Y-92276539D01*
X108602060Y-92287637D01*
X108532388Y-92336311D01*
X108470136Y-92377418D01*
X108427230Y-92403026D01*
X108416210Y-92408963D01*
X108360918Y-92447482D01*
X108312119Y-92500532D01*
X108263856Y-92575729D01*
X108210173Y-92680692D01*
X108135616Y-92837000D01*
X108037151Y-92837000D01*
X108036086Y-92833339D01*
X108002928Y-92745865D01*
X107992407Y-92719679D01*
X107954004Y-92630355D01*
X107915987Y-92556593D01*
X107871501Y-92487448D01*
X107813692Y-92411975D01*
X107735703Y-92319231D01*
X107724942Y-92306676D01*
X107665759Y-92236165D01*
X107611088Y-92168926D01*
X107571569Y-92118002D01*
X107542325Y-92081638D01*
X107513588Y-92059530D01*
X107491457Y-92064724D01*
X107476873Y-92069617D01*
X107443492Y-92061062D01*
X107389811Y-92032850D01*
X107310688Y-91982645D01*
X107282064Y-91963733D01*
X107200725Y-91910439D01*
X107125269Y-91861567D01*
X107069005Y-91825756D01*
X107046055Y-91811165D01*
X106971843Y-91761848D01*
X106904693Y-91714698D01*
X106784664Y-91639640D01*
X106631013Y-91580033D01*
X106472436Y-91558671D01*
X106307018Y-91575105D01*
X106252134Y-91590295D01*
X106140130Y-91637709D01*
X106020909Y-91704762D01*
X105905383Y-91784328D01*
X105804465Y-91869283D01*
X105729065Y-91952500D01*
X105714754Y-91970680D01*
X105670804Y-92021835D01*
X105612595Y-92086069D01*
X105548813Y-92153687D01*
X105502130Y-92203744D01*
X105445202Y-92273935D01*
X105403872Y-92343001D01*
X105375415Y-92418971D01*
X105357103Y-92509876D01*
X105346209Y-92623747D01*
X105340007Y-92768616D01*
X105338912Y-92892605D01*
X105283472Y-92892605D01*
X105280452Y-92730938D01*
X105301432Y-92545376D01*
X105317498Y-92465544D01*
X105339115Y-92383169D01*
X105366666Y-92315315D01*
X105405679Y-92251549D01*
X105461680Y-92181435D01*
X105540195Y-92094539D01*
X105571903Y-92060382D01*
X105664385Y-91961386D01*
X105737122Y-91885138D01*
X105795168Y-91826874D01*
X105843577Y-91781829D01*
X105887399Y-91745237D01*
X105931690Y-91712332D01*
X105981500Y-91678350D01*
X106035932Y-91641599D01*
X106079810Y-91607974D01*
X106102903Y-91580027D01*
X106111875Y-91549076D01*
X106113385Y-91506437D01*
X106113752Y-91490519D01*
X106121425Y-91424494D01*
X106135916Y-91372850D01*
X106142451Y-91355236D01*
X106147269Y-91315206D01*
X106141201Y-91258717D01*
X106123601Y-91175432D01*
X106118155Y-91150726D01*
X106100414Y-91022931D01*
X106098381Y-90897147D01*
X106111668Y-90784795D01*
X106139887Y-90697293D01*
X106144632Y-90687679D01*
X106164104Y-90645545D01*
X106172000Y-90623635D01*
X106162828Y-90618883D01*
X106126557Y-90619696D01*
X106074309Y-90626934D01*
X106018646Y-90638319D01*
X105972125Y-90651570D01*
X105947308Y-90664409D01*
X105936285Y-90673190D01*
X105893262Y-90693522D01*
X105834681Y-90712374D01*
X105821667Y-90715706D01*
X105735109Y-90733367D01*
X105683324Y-90733785D01*
X105665879Y-90716601D01*
X105682024Y-90682130D01*
X105744973Y-90682130D01*
X105775577Y-90678688D01*
X105839846Y-90656174D01*
X105870439Y-90643363D01*
X105903616Y-90626324D01*
X105908231Y-90618285D01*
X105869480Y-90616176D01*
X105807520Y-90626581D01*
X105762856Y-90649814D01*
X105747571Y-90666464D01*
X105744973Y-90682130D01*
X105682024Y-90682130D01*
X105682339Y-90681457D01*
X105732270Y-90627997D01*
X105764115Y-90602477D01*
X105858229Y-90560209D01*
X105980439Y-90542587D01*
X106132067Y-90549350D01*
X106246152Y-90562257D01*
X106389807Y-90403868D01*
X106446535Y-90342742D01*
X106506920Y-90284481D01*
X106565713Y-90239456D01*
X106635495Y-90198309D01*
X106728846Y-90151682D01*
X106820102Y-90110665D01*
X106938014Y-90066252D01*
X107068609Y-90026939D01*
X107220657Y-89990147D01*
X107402923Y-89953295D01*
X107421793Y-89950196D01*
X107507602Y-89941729D01*
X107626885Y-89935976D01*
X107775413Y-89933092D01*
X107948954Y-89933232D01*
X108038594Y-89933781D01*
X108189751Y-89932917D01*
X108303531Y-89929395D01*
X108381008Y-89923172D01*
X108423261Y-89914204D01*
X108441751Y-89907143D01*
X108480224Y-89902476D01*
X108512610Y-89922144D01*
X108526402Y-89932555D01*
X108551305Y-89941545D01*
X108589946Y-89944017D01*
X108650636Y-89940278D01*
X108741688Y-89930637D01*
X108835852Y-89920442D01*
X108973785Y-89909392D01*
X109089730Y-89907526D01*
X109194042Y-89915914D01*
X109297078Y-89935628D01*
X109409195Y-89967741D01*
X109540748Y-90013323D01*
X109605194Y-90033406D01*
X109702414Y-90056667D01*
X109794748Y-90072364D01*
X109799273Y-90072936D01*
X109897695Y-90090923D01*
X110015365Y-90120383D01*
X110140740Y-90157651D01*
X110262276Y-90199062D01*
X110368428Y-90240950D01*
X110447653Y-90279651D01*
X110512086Y-90318818D01*
X110614248Y-90385636D01*
X110724057Y-90461552D01*
X110831236Y-90539246D01*
X110925509Y-90611396D01*
X110933770Y-90618285D01*
X110996599Y-90670682D01*
G37*
G36*
X105877984Y-96068216D02*
G01*
X105870420Y-96084975D01*
X105866285Y-96109752D01*
X105880346Y-96130986D01*
X105918436Y-96155163D01*
X105986385Y-96188767D01*
X106027660Y-96205079D01*
X106084980Y-96217710D01*
X106161048Y-96224395D01*
X106265961Y-96226494D01*
X106310068Y-96226892D01*
X106393855Y-96230266D01*
X106442990Y-96236865D01*
X106455308Y-96246462D01*
X106449967Y-96250150D01*
X106413332Y-96258229D01*
X106351241Y-96263808D01*
X106273424Y-96265849D01*
X106240005Y-96265682D01*
X106161281Y-96262624D01*
X106101425Y-96253210D01*
X106045358Y-96234199D01*
X105978005Y-96202349D01*
X105972572Y-96199593D01*
X105910834Y-96165900D01*
X105865433Y-96136923D01*
X105845857Y-96118672D01*
X105848842Y-96096670D01*
X105869969Y-96060056D01*
X105887583Y-96038550D01*
X105892518Y-96036925D01*
X105877984Y-96068216D01*
G37*
G36*
X107090308Y-96144056D02*
G01*
X107087603Y-96145036D01*
X107050486Y-96155778D01*
X106988830Y-96171581D01*
X106914462Y-96189397D01*
X106828852Y-96205603D01*
X106727687Y-96218310D01*
X106640923Y-96223059D01*
X106513923Y-96222740D01*
X106709308Y-96188520D01*
X106744735Y-96182427D01*
X106843363Y-96166585D01*
X106933629Y-96153583D01*
X107009496Y-96144124D01*
X107064924Y-96138913D01*
X107093874Y-96138656D01*
X107090308Y-96144056D01*
G37*
G36*
X106504154Y-96217154D02*
G01*
X106494385Y-96226923D01*
X106484616Y-96217154D01*
X106494385Y-96207385D01*
X106504154Y-96217154D01*
G37*
G36*
X107227077Y-96139000D02*
G01*
X107217308Y-96148769D01*
X107207539Y-96139000D01*
X107217308Y-96129231D01*
X107227077Y-96139000D01*
G37*
G36*
X107172125Y-96135422D02*
G01*
X107181169Y-96142455D01*
X107160321Y-96147227D01*
X107140504Y-96145845D01*
X107134677Y-96136965D01*
X107141589Y-96133093D01*
X107172125Y-96135422D01*
G37*
G36*
X107279180Y-96116205D02*
G01*
X107282237Y-96122082D01*
X107266154Y-96129231D01*
X107255811Y-96127821D01*
X107253129Y-96116205D01*
X107255992Y-96113867D01*
X107279180Y-96116205D01*
G37*
G36*
X105940031Y-95977808D02*
G01*
X105922148Y-95998648D01*
X105905839Y-96012000D01*
X105902410Y-96011679D01*
X105902278Y-95998949D01*
X105932654Y-95970431D01*
X105946811Y-95959516D01*
X105956929Y-95954665D01*
X105940031Y-95977808D01*
G37*
G36*
X106046866Y-95891750D02*
G01*
X106044270Y-95895728D01*
X106024965Y-95913722D01*
X106015693Y-95905692D01*
X106017439Y-95901297D01*
X106038250Y-95883134D01*
X106049169Y-95878380D01*
X106046866Y-95891750D01*
G37*
G36*
X106113385Y-95845923D02*
G01*
X106103616Y-95855692D01*
X106093846Y-95845923D01*
X106103616Y-95836154D01*
X106113385Y-95845923D01*
G37*
G36*
X106164097Y-95813597D02*
G01*
X106158066Y-95822276D01*
X106141540Y-95836154D01*
X106138808Y-95835964D01*
X106134505Y-95824654D01*
X106155481Y-95804981D01*
X106166400Y-95800227D01*
X106164097Y-95813597D01*
G37*
G36*
X106252646Y-95743346D02*
G01*
X106234764Y-95764186D01*
X106218454Y-95777539D01*
X106215026Y-95777218D01*
X106214894Y-95764488D01*
X106245270Y-95735969D01*
X106259426Y-95725055D01*
X106269544Y-95720203D01*
X106252646Y-95743346D01*
G37*
G36*
X106320405Y-95696366D02*
G01*
X106317809Y-95700343D01*
X106298504Y-95718338D01*
X106289231Y-95710307D01*
X106290978Y-95705912D01*
X106311788Y-95687750D01*
X106322707Y-95682996D01*
X106320405Y-95696366D01*
G37*
G36*
X106379020Y-95657289D02*
G01*
X106376424Y-95661266D01*
X106357119Y-95679261D01*
X106347846Y-95671230D01*
X106349593Y-95666835D01*
X106370404Y-95648673D01*
X106381323Y-95643919D01*
X106379020Y-95657289D01*
G37*
G36*
X106426000Y-95631000D02*
G01*
X106416231Y-95640769D01*
X106406462Y-95631000D01*
X106416231Y-95621231D01*
X106426000Y-95631000D01*
G37*
G36*
X106752908Y-95467504D02*
G01*
X106731786Y-95482156D01*
X106685622Y-95508712D01*
X106621385Y-95543077D01*
X106610991Y-95548465D01*
X106530054Y-95588824D01*
X106473771Y-95613795D01*
X106445277Y-95622121D01*
X106447708Y-95612549D01*
X106459978Y-95604369D01*
X106500348Y-95582527D01*
X106557955Y-95553522D01*
X106622396Y-95522355D01*
X106683272Y-95494027D01*
X106730183Y-95473538D01*
X106752728Y-95465890D01*
X106752908Y-95467504D01*
G37*
G36*
X106810257Y-95451898D02*
G01*
X106813313Y-95457774D01*
X106797231Y-95464923D01*
X106786888Y-95463513D01*
X106784205Y-95451898D01*
X106787069Y-95449559D01*
X106810257Y-95451898D01*
G37*
G36*
X106875385Y-95435616D02*
G01*
X106865616Y-95445385D01*
X106855846Y-95435616D01*
X106865616Y-95425846D01*
X106875385Y-95435616D01*
G37*
G36*
X106966564Y-95412821D02*
G01*
X106969621Y-95418697D01*
X106953539Y-95425846D01*
X106943195Y-95424436D01*
X106940513Y-95412821D01*
X106943377Y-95410482D01*
X106966564Y-95412821D01*
G37*
G36*
X107153808Y-95393368D02*
G01*
X107157122Y-95400152D01*
X107129385Y-95403223D01*
X107102507Y-95400499D01*
X107104962Y-95393368D01*
X107113806Y-95390787D01*
X107153808Y-95393368D01*
G37*
G36*
X107070770Y-95396539D02*
G01*
X107061000Y-95406308D01*
X107051231Y-95396539D01*
X107061000Y-95386769D01*
X107070770Y-95396539D01*
G37*
G36*
X107285693Y-95377000D02*
G01*
X107275923Y-95386769D01*
X107266154Y-95377000D01*
X107275923Y-95367231D01*
X107285693Y-95377000D01*
G37*
G36*
X107220564Y-95373744D02*
G01*
X107223621Y-95379621D01*
X107207539Y-95386769D01*
X107197195Y-95385359D01*
X107194513Y-95373744D01*
X107197377Y-95371405D01*
X107220564Y-95373744D01*
G37*
G36*
X113056279Y-94565200D02*
G01*
X113011435Y-94589211D01*
X112935766Y-94601347D01*
X112900828Y-94602229D01*
X112840034Y-94598270D01*
X112800572Y-94588386D01*
X112793148Y-94585525D01*
X112751933Y-94581994D01*
X112696837Y-94586644D01*
X112641094Y-94597174D01*
X112597941Y-94611279D01*
X112580616Y-94626657D01*
X112597492Y-94642881D01*
X112645206Y-94665969D01*
X112716330Y-94693312D01*
X112803418Y-94722651D01*
X112899028Y-94751724D01*
X112995715Y-94778271D01*
X113086035Y-94800032D01*
X113162545Y-94814747D01*
X113217801Y-94820154D01*
X113236249Y-94820642D01*
X113288190Y-94831306D01*
X113306510Y-94854261D01*
X113288885Y-94887310D01*
X113276483Y-94893699D01*
X113228008Y-94896574D01*
X113153611Y-94888031D01*
X113060211Y-94870061D01*
X112954729Y-94844655D01*
X112844085Y-94813805D01*
X112735199Y-94779501D01*
X112634990Y-94743734D01*
X112550380Y-94708496D01*
X112488287Y-94675777D01*
X112455631Y-94647569D01*
X112454203Y-94643102D01*
X112468025Y-94620286D01*
X112504075Y-94595037D01*
X112550213Y-94574508D01*
X112594299Y-94565855D01*
X112613301Y-94563816D01*
X112656730Y-94548289D01*
X112664922Y-94540460D01*
X112904571Y-94540460D01*
X112932308Y-94543530D01*
X112959186Y-94540807D01*
X112956731Y-94533676D01*
X112947887Y-94531095D01*
X112907885Y-94533676D01*
X112904571Y-94540460D01*
X112664922Y-94540460D01*
X112666191Y-94539247D01*
X112658489Y-94521900D01*
X112617653Y-94497457D01*
X112570811Y-94470277D01*
X112517989Y-94431985D01*
X112478751Y-94395631D01*
X112463385Y-94369734D01*
X112470589Y-94359094D01*
X112512967Y-94338186D01*
X112592349Y-94313275D01*
X112707616Y-94284749D01*
X112783746Y-94267602D01*
X112950468Y-94231679D01*
X113083855Y-94205891D01*
X113186975Y-94189924D01*
X113262893Y-94183464D01*
X113314677Y-94186195D01*
X113345393Y-94197804D01*
X113358107Y-94217974D01*
X113354793Y-94238147D01*
X113328314Y-94252100D01*
X113270515Y-94261855D01*
X113192986Y-94271660D01*
X113070225Y-94289645D01*
X112950560Y-94309811D01*
X112839928Y-94330920D01*
X112744268Y-94351738D01*
X112669518Y-94371027D01*
X112621616Y-94387552D01*
X112606501Y-94400077D01*
X112611531Y-94407442D01*
X112642550Y-94432932D01*
X112690805Y-94463059D01*
X112734190Y-94485202D01*
X112773838Y-94496228D01*
X112820721Y-94495262D01*
X112890261Y-94483918D01*
X112944894Y-94474521D01*
X112992442Y-94470537D01*
X113021987Y-94476958D01*
X113044945Y-94494572D01*
X113067566Y-94531986D01*
X113064568Y-94540807D01*
X113056279Y-94565200D01*
G37*
G36*
X113389457Y-93859967D02*
G01*
X113389657Y-93909274D01*
X113369258Y-93937341D01*
X113317851Y-93976248D01*
X113249118Y-94011549D01*
X113174794Y-94036306D01*
X113132113Y-94043460D01*
X113047599Y-94050501D01*
X112945791Y-94053819D01*
X112837933Y-94053502D01*
X112735275Y-94049642D01*
X112649061Y-94042327D01*
X112590540Y-94031647D01*
X112573805Y-94025939D01*
X112527750Y-94001752D01*
X112506407Y-93976287D01*
X112505814Y-93964213D01*
X112517353Y-93953004D01*
X112551365Y-93950433D01*
X112615959Y-93954920D01*
X112731646Y-93965410D01*
X112745417Y-93892007D01*
X112746929Y-93883633D01*
X112750723Y-93829355D01*
X112734722Y-93800831D01*
X112693392Y-93794215D01*
X112621196Y-93805657D01*
X112583282Y-93812955D01*
X112526798Y-93817376D01*
X112497396Y-93806903D01*
X112495074Y-93804194D01*
X112499240Y-93784085D01*
X112526241Y-93769234D01*
X112813179Y-93769234D01*
X112819013Y-93868196D01*
X112822462Y-93904307D01*
X112832212Y-93950985D01*
X112844385Y-93970787D01*
X112872488Y-93973479D01*
X112939624Y-93970137D01*
X113020395Y-93958150D01*
X113106068Y-93939769D01*
X113187907Y-93917248D01*
X113257179Y-93892837D01*
X113305147Y-93868790D01*
X113323077Y-93847358D01*
X113322902Y-93843353D01*
X113301263Y-93805683D01*
X113247445Y-93776660D01*
X113167147Y-93757686D01*
X113066069Y-93750166D01*
X112949912Y-93755502D01*
X112813179Y-93769234D01*
X112526241Y-93769234D01*
X112536192Y-93763761D01*
X112600428Y-93744360D01*
X112686450Y-93727021D01*
X112788757Y-93712880D01*
X112901851Y-93703075D01*
X113020231Y-93698744D01*
X113055244Y-93698508D01*
X113140662Y-93699968D01*
X113200508Y-93705861D01*
X113244912Y-93717646D01*
X113284000Y-93736786D01*
X113308872Y-93753337D01*
X113360380Y-93804479D01*
X113382850Y-93847358D01*
X113389457Y-93859967D01*
G37*
G36*
X113234082Y-93478349D02*
G01*
X113244923Y-93505810D01*
X113241842Y-93526852D01*
X113221233Y-93566029D01*
X113192955Y-93583348D01*
X113167107Y-93572103D01*
X113157000Y-93528987D01*
X113165675Y-93492992D01*
X113200962Y-93475526D01*
X113234082Y-93478349D01*
G37*
G36*
X112988388Y-93505731D02*
G01*
X113032068Y-93509411D01*
X113053568Y-93517461D01*
X113059308Y-93530616D01*
X113058427Y-93536523D01*
X113033140Y-93557650D01*
X112971385Y-93571642D01*
X112970707Y-93571733D01*
X112877557Y-93581293D01*
X112787944Y-93585605D01*
X112710675Y-93584763D01*
X112654561Y-93578860D01*
X112628410Y-93567990D01*
X112622180Y-93548583D01*
X112635956Y-93531487D01*
X112676482Y-93519619D01*
X112747853Y-93511879D01*
X112854161Y-93507163D01*
X112916105Y-93505687D01*
X112988388Y-93505731D01*
G37*
G36*
X113313247Y-92880962D02*
G01*
X113317738Y-92897901D01*
X113325698Y-92949115D01*
X113333740Y-93020854D01*
X113341106Y-93103226D01*
X113347034Y-93186340D01*
X113350766Y-93260306D01*
X113351542Y-93315234D01*
X113348601Y-93341233D01*
X113334417Y-93349460D01*
X113296811Y-93351002D01*
X113277588Y-93346060D01*
X113262695Y-93329770D01*
X113256150Y-93293519D01*
X113254693Y-93227769D01*
X113254693Y-93110539D01*
X113127693Y-93115562D01*
X113068247Y-93119777D01*
X112974621Y-93129716D01*
X112867485Y-93143537D01*
X112760262Y-93159631D01*
X112758205Y-93159965D01*
X112645069Y-93176878D01*
X112564688Y-93185300D01*
X112511838Y-93185576D01*
X112481292Y-93178050D01*
X112470036Y-93171149D01*
X112453360Y-93146900D01*
X112470730Y-93127985D01*
X112518269Y-93120443D01*
X112519052Y-93120441D01*
X112559437Y-93117324D01*
X112628560Y-93109124D01*
X112716935Y-93097057D01*
X112815077Y-93082342D01*
X112913779Y-93067081D01*
X113012752Y-93052139D01*
X113096011Y-93039933D01*
X113152116Y-93032164D01*
X113244923Y-93020221D01*
X113244923Y-92933495D01*
X113251027Y-92879570D01*
X113267880Y-92847872D01*
X113290343Y-92847011D01*
X113313247Y-92880962D01*
G37*
G36*
X112472609Y-92777321D02*
G01*
X112483605Y-92802889D01*
X112469491Y-92834151D01*
X112456108Y-92842031D01*
X112428065Y-92835415D01*
X112414539Y-92806332D01*
X112419664Y-92790953D01*
X112448731Y-92772335D01*
X112472609Y-92777321D01*
G37*
G36*
X112456872Y-92599282D02*
G01*
X112460894Y-92608495D01*
X112456643Y-92640773D01*
X112452533Y-92649030D01*
X112426571Y-92668550D01*
X112398423Y-92665892D01*
X112385231Y-92641002D01*
X112385239Y-92640352D01*
X112399776Y-92611592D01*
X112429757Y-92594348D01*
X112456872Y-92599282D01*
G37*
G36*
X112411040Y-92417819D02*
G01*
X112422358Y-92439085D01*
X112422836Y-92473656D01*
X112411452Y-92501420D01*
X112400716Y-92504877D01*
X112372134Y-92492315D01*
X112356835Y-92472752D01*
X112367844Y-92443639D01*
X112381297Y-92430236D01*
X112407162Y-92416923D01*
X112411040Y-92417819D01*
G37*
G36*
X112822151Y-91932778D02*
G01*
X112786412Y-91971637D01*
X112720752Y-91998247D01*
X112629291Y-92009823D01*
X112611268Y-92011327D01*
X112537615Y-92029585D01*
X112464659Y-92062224D01*
X112378009Y-92112253D01*
X112445120Y-92129777D01*
X112489578Y-92135336D01*
X112563602Y-92138250D01*
X112657580Y-92138738D01*
X112761990Y-92137043D01*
X112867309Y-92133406D01*
X112964016Y-92128070D01*
X113042587Y-92121278D01*
X113093500Y-92113272D01*
X113105424Y-92110506D01*
X113138289Y-92109970D01*
X113147231Y-92130185D01*
X113142041Y-92154998D01*
X113119434Y-92175151D01*
X113072157Y-92190234D01*
X112993025Y-92203669D01*
X112991409Y-92203892D01*
X112929872Y-92208937D01*
X112843351Y-92211722D01*
X112740998Y-92212423D01*
X112631961Y-92211213D01*
X112525390Y-92208265D01*
X112430433Y-92203754D01*
X112356241Y-92197852D01*
X112311962Y-92190735D01*
X112283029Y-92178223D01*
X112271218Y-92153730D01*
X112295313Y-92120206D01*
X112355923Y-92076063D01*
X112389737Y-92053490D01*
X112428680Y-92023247D01*
X112443846Y-92004979D01*
X112439940Y-91999808D01*
X112408828Y-91987316D01*
X112356805Y-91976419D01*
X112335310Y-91972624D01*
X112275586Y-91956584D01*
X112234949Y-91937909D01*
X112215303Y-91921845D01*
X112211931Y-91903224D01*
X112235651Y-91873207D01*
X112235744Y-91873104D01*
X112267636Y-91847846D01*
X112327159Y-91809112D01*
X112407062Y-91760932D01*
X112500095Y-91707337D01*
X112599010Y-91652357D01*
X112696554Y-91600023D01*
X112785480Y-91554364D01*
X112858535Y-91519410D01*
X112908472Y-91499193D01*
X112945968Y-91488372D01*
X112989361Y-91483346D01*
X113014956Y-91495295D01*
X113022295Y-91503756D01*
X113026218Y-91522014D01*
X113007633Y-91541167D01*
X112961671Y-91564991D01*
X112883462Y-91597261D01*
X112865201Y-91604740D01*
X112785857Y-91641075D01*
X112694232Y-91687292D01*
X112606679Y-91735239D01*
X112570480Y-91755831D01*
X112499220Y-91794919D01*
X112441820Y-91824526D01*
X112408174Y-91839458D01*
X112384115Y-91850088D01*
X112347272Y-91878268D01*
X112344917Y-91881312D01*
X112342476Y-91898020D01*
X112366617Y-91912339D01*
X112423389Y-91928241D01*
X112471481Y-91938596D01*
X112517388Y-91941135D01*
X112524240Y-91939339D01*
X112665044Y-91939339D01*
X112668539Y-91947402D01*
X112681766Y-91944995D01*
X112717385Y-91928462D01*
X112730649Y-91917584D01*
X112727154Y-91909522D01*
X112713927Y-91911928D01*
X112678308Y-91928462D01*
X112665044Y-91939339D01*
X112524240Y-91939339D01*
X112562095Y-91929417D01*
X112623256Y-91901037D01*
X112654746Y-91886058D01*
X112737401Y-91856505D01*
X112793381Y-91854338D01*
X112822143Y-91879616D01*
X112823846Y-91884452D01*
X112822684Y-91917584D01*
X112822151Y-91932778D01*
G37*
G36*
X112825549Y-90929524D02*
G01*
X112832670Y-90953343D01*
X112802939Y-90981329D01*
X112735482Y-91014441D01*
X112707569Y-91026387D01*
X112663835Y-91049528D01*
X112646898Y-91070538D01*
X112649430Y-91096396D01*
X112655828Y-91119387D01*
X112669328Y-91176734D01*
X112683471Y-91244616D01*
X112692561Y-91289591D01*
X112703165Y-91337386D01*
X112709220Y-91358529D01*
X112720346Y-91356866D01*
X112758188Y-91342419D01*
X112812674Y-91317761D01*
X112841336Y-91304886D01*
X112903800Y-91286769D01*
X112940102Y-91295785D01*
X112951846Y-91332101D01*
X112948255Y-91338201D01*
X112915500Y-91358798D01*
X112853013Y-91387135D01*
X112766233Y-91421143D01*
X112660600Y-91458752D01*
X112541556Y-91497893D01*
X112414539Y-91536496D01*
X112394706Y-91542223D01*
X112271385Y-91574727D01*
X112182888Y-91591749D01*
X112129547Y-91593243D01*
X112111693Y-91579162D01*
X112118584Y-91559916D01*
X112143204Y-91540588D01*
X112190647Y-91519367D01*
X112266005Y-91493983D01*
X112374368Y-91462171D01*
X112424818Y-91447782D01*
X112518273Y-91419004D01*
X112580993Y-91393442D01*
X112617952Y-91366494D01*
X112634126Y-91333560D01*
X112634490Y-91290040D01*
X112624021Y-91231334D01*
X112612613Y-91183141D01*
X112596368Y-91130049D01*
X112582888Y-91102303D01*
X112564918Y-91100152D01*
X112513997Y-91109712D01*
X112436316Y-91131623D01*
X112337107Y-91164558D01*
X112230131Y-91200627D01*
X112129039Y-91230031D01*
X112060949Y-91242949D01*
X112024623Y-91239597D01*
X112018823Y-91220192D01*
X112029262Y-91203265D01*
X112059105Y-91181173D01*
X112112052Y-91156525D01*
X112193057Y-91127095D01*
X112307077Y-91090655D01*
X112336032Y-91081607D01*
X112444090Y-91046143D01*
X112554361Y-91007860D01*
X112646969Y-90973601D01*
X112673572Y-90963516D01*
X112741963Y-90940018D01*
X112793252Y-90925924D01*
X112817931Y-90923994D01*
X112825549Y-90929524D01*
G37*
G36*
X112756462Y-90646042D02*
G01*
X112747082Y-90682959D01*
X112705768Y-90740612D01*
X112636860Y-90802167D01*
X112546198Y-90863780D01*
X112439624Y-90921613D01*
X112322979Y-90971823D01*
X112202103Y-91010569D01*
X112145740Y-91025052D01*
X112077125Y-91040626D01*
X112031992Y-91046361D01*
X112001624Y-91043074D01*
X111977305Y-91031578D01*
X111967512Y-91024064D01*
X111961036Y-91000109D01*
X111989205Y-90978358D01*
X112048695Y-90962048D01*
X112114895Y-90948062D01*
X112150034Y-90929381D01*
X112159382Y-90898780D01*
X112149581Y-90848802D01*
X112146237Y-90837351D01*
X112128468Y-90790723D01*
X112112234Y-90766258D01*
X112096505Y-90767111D01*
X112055303Y-90783975D01*
X112001620Y-90814430D01*
X111974000Y-90831117D01*
X111918695Y-90856300D01*
X111889312Y-90854204D01*
X111881951Y-90845379D01*
X111878534Y-90828030D01*
X111903232Y-90808570D01*
X112007605Y-90737794D01*
X112050536Y-90713702D01*
X112173937Y-90713702D01*
X112206161Y-90803312D01*
X112218264Y-90833406D01*
X112241549Y-90876140D01*
X112260337Y-90892923D01*
X112262155Y-90892868D01*
X112303173Y-90881069D01*
X112365088Y-90852669D01*
X112437755Y-90813451D01*
X112511028Y-90769193D01*
X112574763Y-90725675D01*
X112618815Y-90688679D01*
X112644934Y-90661140D01*
X112669180Y-90629537D01*
X112670955Y-90608207D01*
X112653888Y-90586591D01*
X112643203Y-90576892D01*
X112617743Y-90564835D01*
X112579818Y-90565331D01*
X112516897Y-90577556D01*
X112462321Y-90592495D01*
X112375110Y-90622799D01*
X112293139Y-90657328D01*
X112173937Y-90713702D01*
X112050536Y-90713702D01*
X112126981Y-90670802D01*
X112252197Y-90611644D01*
X112374092Y-90564372D01*
X112483503Y-90533037D01*
X112571270Y-90521692D01*
X112623882Y-90527476D01*
X112691186Y-90553724D01*
X112738555Y-90595378D01*
X112743089Y-90608207D01*
X112756462Y-90646042D01*
G37*
G36*
X112415392Y-89898951D02*
G01*
X112453292Y-89942072D01*
X112471895Y-89976074D01*
X112499638Y-90034174D01*
X112531711Y-90105668D01*
X112563932Y-90180800D01*
X112592124Y-90249813D01*
X112612104Y-90302951D01*
X112619693Y-90330455D01*
X112619689Y-90330634D01*
X112602250Y-90341384D01*
X112561077Y-90345846D01*
X112544520Y-90345364D01*
X112511264Y-90335004D01*
X112502462Y-90305799D01*
X112497834Y-90279128D01*
X112480161Y-90226372D01*
X112456228Y-90171936D01*
X112433559Y-90134518D01*
X112415283Y-90140425D01*
X112369306Y-90160913D01*
X112302605Y-90192515D01*
X112222154Y-90231760D01*
X112134924Y-90275177D01*
X112047890Y-90319295D01*
X111968024Y-90360644D01*
X111902301Y-90395752D01*
X111857693Y-90421149D01*
X111809340Y-90445299D01*
X111756414Y-90460707D01*
X111716904Y-90461089D01*
X111701385Y-90444842D01*
X111701404Y-90444642D01*
X111718737Y-90430047D01*
X111764112Y-90401196D01*
X111831064Y-90361635D01*
X111913128Y-90314914D01*
X112003839Y-90264580D01*
X112096731Y-90214183D01*
X112185339Y-90167270D01*
X112263198Y-90127389D01*
X112323843Y-90098091D01*
X112360808Y-90082921D01*
X112385118Y-90073836D01*
X112401487Y-90055710D01*
X112396794Y-90022907D01*
X112371960Y-89965755D01*
X112365789Y-89952070D01*
X112351232Y-89908324D01*
X112351579Y-89884524D01*
X112377408Y-89878546D01*
X112415392Y-89898951D01*
G37*
G36*
X111568567Y-90025904D02*
G01*
X111577077Y-90037354D01*
X111584154Y-90073461D01*
X111583298Y-90082898D01*
X111565258Y-90107600D01*
X111536128Y-90107175D01*
X111512309Y-90080105D01*
X111515041Y-90048297D01*
X111538695Y-90025245D01*
X111568567Y-90025904D01*
G37*
G36*
X112123124Y-89459034D02*
G01*
X112164955Y-89479496D01*
X112246174Y-89538419D01*
X112294608Y-89611045D01*
X112306978Y-89692596D01*
X112281789Y-89779231D01*
X112276031Y-89789683D01*
X112244033Y-89819865D01*
X112190898Y-89828077D01*
X112151497Y-89823914D01*
X112120647Y-89807208D01*
X112121630Y-89783906D01*
X112157763Y-89760748D01*
X112193924Y-89739491D01*
X112229293Y-89700387D01*
X112233739Y-89691545D01*
X112239556Y-89655821D01*
X112215827Y-89619056D01*
X112212400Y-89615300D01*
X112151576Y-89566347D01*
X112093415Y-89554838D01*
X112037014Y-89581176D01*
X111981467Y-89645769D01*
X111925870Y-89749022D01*
X111923512Y-89754153D01*
X111882574Y-89834115D01*
X111837573Y-89909025D01*
X111797831Y-89963281D01*
X111769617Y-89993064D01*
X111726000Y-90023916D01*
X111683815Y-90029363D01*
X111661943Y-90024062D01*
X111636083Y-90002056D01*
X111638759Y-89975819D01*
X111672077Y-89958127D01*
X111683357Y-89955764D01*
X111712736Y-89944680D01*
X111738913Y-89922787D01*
X111766633Y-89883848D01*
X111800637Y-89821628D01*
X111845668Y-89729890D01*
X111859755Y-89700839D01*
X111901703Y-89620238D01*
X111937438Y-89564857D01*
X111973222Y-89526030D01*
X112015317Y-89495092D01*
X112058982Y-89468378D01*
X112093041Y-89454781D01*
X112123124Y-89459034D01*
G37*
G36*
X106433740Y-92785911D02*
G01*
X106471034Y-92813545D01*
X106525191Y-92834369D01*
X106547231Y-92839973D01*
X106617584Y-92878761D01*
X106662860Y-92938119D01*
X106680335Y-93009085D01*
X106667290Y-93082694D01*
X106621003Y-93149981D01*
X106612739Y-93157567D01*
X106555440Y-93199722D01*
X106498888Y-93228400D01*
X106488613Y-93231583D01*
X106408159Y-93235012D01*
X106326598Y-93206007D01*
X106255039Y-93148220D01*
X106243573Y-93133274D01*
X106214845Y-93061554D01*
X106208321Y-92975332D01*
X106223760Y-92888367D01*
X106260918Y-92814421D01*
X106273990Y-92798561D01*
X106328649Y-92757104D01*
X106383175Y-92752677D01*
X106433740Y-92785911D01*
G37*
G36*
X109079334Y-92931589D02*
G01*
X109152130Y-92992794D01*
X109199948Y-93043121D01*
X109226422Y-93082590D01*
X109237379Y-93125126D01*
X109239539Y-93185543D01*
X109237716Y-93225396D01*
X109216215Y-93312419D01*
X109172063Y-93371488D01*
X109107224Y-93399432D01*
X109091669Y-93401468D01*
X109030433Y-93406889D01*
X108961803Y-93410457D01*
X108920137Y-93410291D01*
X108876950Y-93400635D01*
X108849764Y-93373392D01*
X108832712Y-93321411D01*
X108819923Y-93237539D01*
X108818974Y-93229471D01*
X108818306Y-93123662D01*
X108845085Y-93037143D01*
X108902514Y-92959116D01*
X108958819Y-92915648D01*
X109016418Y-92906079D01*
X109079334Y-92931589D01*
G37*
D13*
X110590064Y-76935000D02*
X110135936Y-76935000D01*
X110590064Y-75465000D02*
X110135936Y-75465000D01*
X57501200Y-80549636D02*
X57501200Y-80333964D01*
X58221200Y-80549636D02*
X58221200Y-80333964D01*
X86867000Y-66200359D02*
X86867000Y-66507641D01*
X86107000Y-66200359D02*
X86107000Y-66507641D01*
X110590064Y-66013000D02*
X110135936Y-66013000D01*
X110590064Y-64543000D02*
X110135936Y-64543000D01*
X62002936Y-19585000D02*
X62457064Y-19585000D01*
X62002936Y-21055000D02*
X62457064Y-21055000D01*
X105230600Y-49540748D02*
X105230600Y-50063252D01*
X103760600Y-49540748D02*
X103760600Y-50063252D01*
X87776164Y-66464000D02*
X87991836Y-66464000D01*
X87776164Y-67184000D02*
X87991836Y-67184000D01*
X57831400Y-48774236D02*
X57831400Y-48558564D01*
X58551400Y-48774236D02*
X58551400Y-48558564D01*
X105027400Y-66355548D02*
X105027400Y-66878052D01*
X103557400Y-66355548D02*
X103557400Y-66878052D01*
X58221200Y-85157364D02*
X58221200Y-85373036D01*
X57501200Y-85157364D02*
X57501200Y-85373036D01*
X110590064Y-60044000D02*
X110135936Y-60044000D01*
X110590064Y-58574000D02*
X110135936Y-58574000D01*
X103481200Y-75234652D02*
X103481200Y-74712148D01*
X104951200Y-75234652D02*
X104951200Y-74712148D01*
X87776164Y-65524000D02*
X87991836Y-65524000D01*
X87776164Y-66244000D02*
X87991836Y-66244000D01*
X110486564Y-49249000D02*
X110032436Y-49249000D01*
X110486564Y-47779000D02*
X110032436Y-47779000D01*
X58322800Y-53432764D02*
X58322800Y-53648436D01*
X57602800Y-53432764D02*
X57602800Y-53648436D01*
X103557400Y-58445252D02*
X103557400Y-57922748D01*
X105027400Y-58445252D02*
X105027400Y-57922748D01*
%LPC*%
D14*
X44450000Y-54610000D03*
D15*
X44450000Y-59610000D03*
D16*
X96007000Y-56261000D03*
D17*
X93467000Y-56261000D03*
X90927000Y-56261000D03*
X88387000Y-56261000D03*
X85847000Y-56261000D03*
D18*
X106680000Y-76287000D03*
D19*
X106680000Y-73787000D03*
D16*
X72390000Y-72004000D03*
D17*
X72390000Y-69464000D03*
X72390000Y-66924000D03*
X72390000Y-64384000D03*
X72390000Y-61844000D03*
D18*
X106680000Y-59399000D03*
D19*
X106680000Y-56899000D03*
D18*
X106680000Y-67801000D03*
D19*
X106680000Y-65301000D03*
D20*
X53975000Y-54610000D03*
D19*
X53975000Y-57110000D03*
D20*
X53975000Y-86360000D03*
D19*
X53975000Y-88860000D03*
D21*
X88899800Y-101182800D03*
D22*
X90499800Y-99182800D03*
D23*
X92999800Y-99182800D03*
X95499800Y-99182800D03*
D16*
X68702000Y-31242000D03*
D17*
X71242000Y-31242000D03*
D24*
X54884000Y-34527000D03*
D25*
X57384000Y-34527000D03*
D15*
X42371000Y-27051000D03*
D14*
X47371000Y-27051000D03*
D26*
X70942200Y-87272000D03*
X70942200Y-80772000D03*
X75442200Y-87272000D03*
X75442200Y-80772000D03*
D17*
X101600000Y-73713800D03*
D16*
X101600000Y-76253800D03*
X101600000Y-51000000D03*
D17*
X101600000Y-48460000D03*
D14*
X83526000Y-27051000D03*
D15*
X78526000Y-27051000D03*
D17*
X101600000Y-56859000D03*
D16*
X101600000Y-59399000D03*
X71374000Y-98801000D03*
D17*
X71374000Y-101341000D03*
D16*
X50419000Y-98806000D03*
D17*
X50419000Y-101346000D03*
D26*
X99140400Y-80772000D03*
X99140400Y-87272000D03*
X94640400Y-80772000D03*
X94640400Y-87272000D03*
D24*
X69890000Y-25400000D03*
D25*
X72390000Y-25400000D03*
D16*
X34163000Y-27940000D03*
D17*
X34163000Y-30480000D03*
D16*
X107950000Y-104140000D03*
D17*
X110490000Y-104140000D03*
D24*
X76240000Y-99187000D03*
D25*
X78740000Y-99187000D03*
D16*
X98679000Y-24351000D03*
D17*
X96139000Y-24351000D03*
D16*
X51430000Y-94234000D03*
D17*
X53970000Y-94234000D03*
D16*
X73670000Y-49535000D03*
D17*
X73670000Y-46995000D03*
X76210000Y-49535000D03*
X76210000Y-46995000D03*
X78750000Y-49535000D03*
X78750000Y-46995000D03*
X81290000Y-49535000D03*
X81290000Y-46995000D03*
D15*
X58380000Y-27051000D03*
D14*
X53380000Y-27051000D03*
D16*
X49911000Y-33528000D03*
D17*
X47371000Y-33528000D03*
X34163000Y-97790000D03*
D16*
X34163000Y-95250000D03*
D14*
X44450000Y-86360000D03*
D15*
X44450000Y-91360000D03*
D16*
X90419800Y-94483800D03*
D17*
X92959800Y-94483800D03*
X95499800Y-94483800D03*
D16*
X87630000Y-35433000D03*
D17*
X90170000Y-35433000D03*
X92710000Y-35433000D03*
D18*
X106680000Y-50927000D03*
D19*
X106680000Y-48427000D03*
D24*
X42966000Y-99314000D03*
D25*
X45466000Y-99314000D03*
D16*
X101600000Y-67801000D03*
D17*
X101600000Y-65261000D03*
D16*
X114300000Y-27940000D03*
D17*
X116840000Y-27940000D03*
D16*
X102489000Y-24351000D03*
D17*
X105029000Y-24351000D03*
D16*
X51430000Y-62484000D03*
D17*
X53970000Y-62484000D03*
D26*
X86690200Y-87272000D03*
X86690200Y-80772000D03*
X91190200Y-87272000D03*
X91190200Y-80772000D03*
X83301400Y-80772000D03*
X83301400Y-87272000D03*
X78801400Y-80772000D03*
X78801400Y-87272000D03*
D27*
X111275500Y-76200000D03*
X109450500Y-76200000D03*
D28*
X57861200Y-80921800D03*
X57861200Y-79961800D03*
D29*
X86487000Y-65844000D03*
X86487000Y-66864000D03*
D27*
X111275500Y-65278000D03*
X109450500Y-65278000D03*
D30*
X61317500Y-20320000D03*
X63142500Y-20320000D03*
D31*
X104495600Y-48852000D03*
X104495600Y-50752000D03*
D32*
X87404000Y-66824000D03*
X88364000Y-66824000D03*
D28*
X58191400Y-49146400D03*
X58191400Y-48186400D03*
D31*
X104292400Y-65666800D03*
X104292400Y-67566800D03*
D33*
X57861200Y-84785200D03*
X57861200Y-85745200D03*
D27*
X111275500Y-59309000D03*
X109450500Y-59309000D03*
D34*
X104216200Y-75923400D03*
X104216200Y-74023400D03*
D32*
X87404000Y-65884000D03*
X88364000Y-65884000D03*
D27*
X111172000Y-48514000D03*
X109347000Y-48514000D03*
D33*
X57962800Y-53060600D03*
X57962800Y-54020600D03*
D34*
X104292400Y-59134000D03*
X104292400Y-57234000D03*
%LPD*%
M02*
