<?xml version="1.0" standalone="no"?>
 <!DOCTYPE svg PUBLIC "-//W3C//DTD SVG 1.1//EN" 
 "http://www.w3.org/Graphics/SVG/1.1/DTD/svg11.dtd"> 
<svg
  xmlns:svg="http://www.w3.org/2000/svg"
  xmlns="http://www.w3.org/2000/svg"
  xmlns:xlink="http://www.w3.org/1999/xlink"
  version="1.1"
  width="297.0022mm" height="210.0072mm" viewBox="0.0000 0.0000 297.0022 210.0072">
<title>SVG Image created as lego_elevator-B_Mask.svg date 2024/10/10 22:20:21 </title>
  <desc>Image generated by PCBNEW </desc>
<g style="fill:#000000; fill-opacity:1.0000;stroke:#000000; stroke-opacity:1.0000;
stroke-linecap:round; stroke-linejoin:round;"
 transform="translate(0 0) scale(1 1)">
<path style="fill:#02FFEE; fill-opacity:0.4000; stroke:none;fill-rule:evenodd;"
d="M 95.1570,55.4110
96.8570,55.4110
96.8570,57.1110
95.1570,57.1110
Z" /> 
</g>
<g style="fill:#02FFEE; fill-opacity:0.4000; stroke:none;">
<circle cx="93.4670" cy="56.2610" r="0.8500" /> 
<circle cx="90.9270" cy="56.2610" r="0.8500" /> 
<circle cx="88.3870" cy="56.2610" r="0.8500" /> 
<circle cx="85.8470" cy="56.2610" r="0.8500" /> 
<path style="fill:#02FFEE; fill-opacity:0.4000; stroke:none;fill-rule:evenodd;"
d="M 105.9300,77.1370
105.8343,77.1180
105.7532,77.0638
105.6990,76.9827
105.6800,76.8870
105.6800,75.6870
105.6990,75.5913
105.7532,75.5102
105.8343,75.4560
105.9300,75.4370
107.4300,75.4370
107.5257,75.4560
107.6068,75.5102
107.6610,75.5913
107.6800,75.6870
107.6800,76.8870
107.6610,76.9827
107.6068,77.0638
107.5257,77.1180
107.4300,77.1370
Z" /> 
</g>
<g style="fill:none; 
stroke:#02FFEE; stroke-width:1.7000; stroke-opacity:1; 
stroke-linecap:round; stroke-linejoin:round;">
<path d="M106.5300 73.7870
L106.8300 73.7870
" />
<path style="fill:#02FFEE; fill-opacity:0.4000; stroke:none;fill-rule:evenodd;"
d="M 43.2000,53.3600
45.7000,53.3600
45.7000,55.8600
43.2000,55.8600
Z" /> 
</g>
<g style="fill:#02FFEE; fill-opacity:0.4000; stroke:none;">
<circle cx="44.4500" cy="59.6100" r="1.2500" /> 
<path style="fill:#02FFEE; fill-opacity:0.4000; stroke:none;fill-rule:evenodd;"
d="M 73.2400,71.1540
73.2400,72.8540
71.5400,72.8540
71.5400,71.1540
Z" /> 
</g>
<g style="fill:#02FFEE; fill-opacity:0.4000; stroke:none;">
<circle cx="72.3900" cy="69.4640" r="0.8500" /> 
<circle cx="72.3900" cy="66.9240" r="0.8500" /> 
<circle cx="72.3900" cy="64.3840" r="0.8500" /> 
<circle cx="72.3900" cy="61.8440" r="0.8500" /> 
<path style="fill:#02FFEE; fill-opacity:0.4000; stroke:none;fill-rule:evenodd;"
d="M 105.9300,60.2490
105.8343,60.2300
105.7532,60.1758
105.6990,60.0947
105.6800,59.9990
105.6800,58.7990
105.6990,58.7033
105.7532,58.6222
105.8343,58.5680
105.9300,58.5490
107.4300,58.5490
107.5257,58.5680
107.6068,58.6222
107.6610,58.7033
107.6800,58.7990
107.6800,59.9990
107.6610,60.0947
107.6068,60.1758
107.5257,60.2300
107.4300,60.2490
Z" /> 
</g>
<g style="fill:none; 
stroke:#02FFEE; stroke-width:1.7000; stroke-opacity:1; 
stroke-linecap:round; stroke-linejoin:round;">
<path d="M106.5300 56.8990
L106.8300 56.8990
" />
<path style="fill:#02FFEE; fill-opacity:0.4000; stroke:none;fill-rule:evenodd;"
d="M 105.9300,68.6510
105.8343,68.6320
105.7532,68.5778
105.6990,68.4967
105.6800,68.4010
105.6800,67.2010
105.6990,67.1053
105.7532,67.0242
105.8343,66.9700
105.9300,66.9510
107.4300,66.9510
107.5257,66.9700
107.6068,67.0242
107.6610,67.1053
107.6800,67.2010
107.6800,68.4010
107.6610,68.4967
107.6068,68.5778
107.5257,68.6320
107.4300,68.6510
Z" /> 
</g>
<g style="fill:none; 
stroke:#02FFEE; stroke-width:1.7000; stroke-opacity:1; 
stroke-linecap:round; stroke-linejoin:round;">
<path d="M106.5300 65.3010
L106.8300 65.3010
" />
<path style="fill:#02FFEE; fill-opacity:0.4000; stroke:none;fill-rule:evenodd;"
d="M 54.7250,53.7600
54.8207,53.7790
54.9018,53.8332
54.9560,53.9143
54.9750,54.0100
54.9750,55.2100
54.9560,55.3057
54.9018,55.3868
54.8207,55.4410
54.7250,55.4600
53.2250,55.4600
53.1293,55.4410
53.0482,55.3868
52.9940,55.3057
52.9750,55.2100
52.9750,54.0100
52.9940,53.9143
53.0482,53.8332
53.1293,53.7790
53.2250,53.7600
Z" /> 
</g>
<g style="fill:none; 
stroke:#02FFEE; stroke-width:1.7000; stroke-opacity:1; 
stroke-linecap:round; stroke-linejoin:round;">
<path d="M54.1250 57.1100
L53.8250 57.1100
" />
<path style="fill:#02FFEE; fill-opacity:0.4000; stroke:none;fill-rule:evenodd;"
d="M 54.7250,85.5100
54.8207,85.5290
54.9018,85.5832
54.9560,85.6643
54.9750,85.7600
54.9750,86.9600
54.9560,87.0557
54.9018,87.1368
54.8207,87.1910
54.7250,87.2100
53.2250,87.2100
53.1293,87.1910
53.0482,87.1368
52.9940,87.0557
52.9750,86.9600
52.9750,85.7600
52.9940,85.6643
53.0482,85.5832
53.1293,85.5290
53.2250,85.5100
Z" /> 
</g>
<g style="fill:none; 
stroke:#02FFEE; stroke-width:1.7000; stroke-opacity:1; 
stroke-linecap:round; stroke-linejoin:round;">
<path d="M54.1250 88.8600
L53.8250 88.8600
" />
</g>
<g style="fill:#02FFEE; fill-opacity:0.4000; stroke:none;">
<circle cx="88.8998" cy="101.1828" r="0.6000" /> 
<path style="fill:#02FFEE; fill-opacity:0.4000; stroke:none;fill-rule:evenodd;"
d="M 89.6498,98.4578
89.6688,98.3621
89.7230,98.2810
89.8041,98.2268
89.8998,98.2078
91.0998,98.2078
91.1955,98.2268
91.2766,98.2810
91.3308,98.3621
91.3498,98.4578
91.3498,99.9078
91.3308,100.0035
91.2766,100.0846
91.1955,100.1388
91.0998,100.1578
89.8998,100.1578
89.8041,100.1388
89.7230,100.0846
89.6688,100.0035
89.6498,99.9078
Z" /> 
</g>
<g style="fill:none; 
stroke:#02FFEE; stroke-width:1.7000; stroke-opacity:1; 
stroke-linecap:round; stroke-linejoin:round;">
<path d="M92.9998 99.0578
L92.9998 99.3078
" />
<path d="M95.4998 99.0578
L95.4998 99.3078
" />
<path style="fill:#02FFEE; fill-opacity:0.4000; stroke:none;fill-rule:evenodd;"
d="M 69.5520,32.0920
67.8520,32.0920
67.8520,30.3920
69.5520,30.3920
Z" /> 
</g>
<g style="fill:#02FFEE; fill-opacity:0.4000; stroke:none;">
<circle cx="71.2420" cy="31.2420" r="0.8500" /> 
<path style="fill:#02FFEE; fill-opacity:0.4000; stroke:none;fill-rule:evenodd;"
d="M 54.0340,33.7770
54.0530,33.6813
54.1072,33.6002
54.1883,33.5460
54.2840,33.5270
55.4840,33.5270
55.5797,33.5460
55.6608,33.6002
55.7150,33.6813
55.7340,33.7770
55.7340,35.2770
55.7150,35.3727
55.6608,35.4538
55.5797,35.5080
55.4840,35.5270
54.2840,35.5270
54.1883,35.5080
54.1072,35.4538
54.0530,35.3727
54.0340,35.2770
Z" /> 
</g>
<g style="fill:none; 
stroke:#02FFEE; stroke-width:1.7000; stroke-opacity:1; 
stroke-linecap:round; stroke-linejoin:round;">
<path d="M57.3840 34.3770
L57.3840 34.6770
" />
<path style="fill:#02FFEE; fill-opacity:0.4000; stroke:none;fill-rule:evenodd;"
d="M 48.6210,25.8010
48.6210,28.3010
46.1210,28.3010
46.1210,25.8010
Z" /> 
</g>
<g style="fill:#02FFEE; fill-opacity:0.4000; stroke:none;">
<circle cx="42.3710" cy="27.0510" r="1.2500" /> 
</g>
<g style="fill:#02FFEE; fill-opacity:0.4000; stroke:none;">
<circle cx="70.9422" cy="87.2720" r="1.0000" /> 
</g>
<g style="fill:#02FFEE; fill-opacity:0.4000; stroke:none;">
<circle cx="70.9422" cy="80.7720" r="1.0000" /> 
</g>
<g style="fill:#02FFEE; fill-opacity:0.4000; stroke:none;">
<circle cx="75.4422" cy="87.2720" r="1.0000" /> 
</g>
<g style="fill:#02FFEE; fill-opacity:0.4000; stroke:none;">
<circle cx="75.4422" cy="80.7720" r="1.0000" /> 
<path style="fill:#02FFEE; fill-opacity:0.4000; stroke:none;fill-rule:evenodd;"
d="M 102.4500,75.4038
102.4500,77.1038
100.7500,77.1038
100.7500,75.4038
Z" /> 
</g>
<g style="fill:#02FFEE; fill-opacity:0.4000; stroke:none;">
<circle cx="101.6000" cy="73.7138" r="0.8500" /> 
<path style="fill:#02FFEE; fill-opacity:0.4000; stroke:none;fill-rule:evenodd;"
d="M 102.4500,50.1500
102.4500,51.8500
100.7500,51.8500
100.7500,50.1500
Z" /> 
<circle cx="101.6000" cy="48.4600" r="0.8500" /> 
<path style="fill:#02FFEE; fill-opacity:0.4000; stroke:none;fill-rule:evenodd;"
d="M 84.7760,25.8010
84.7760,28.3010
82.2760,28.3010
82.2760,25.8010
Z" /> 
<circle cx="78.5260" cy="27.0510" r="1.2500" /> 
<path style="fill:#02FFEE; fill-opacity:0.4000; stroke:none;fill-rule:evenodd;"
d="M 102.4500,58.5490
102.4500,60.2490
100.7500,60.2490
100.7500,58.5490
Z" /> 
</g>
<g style="fill:#02FFEE; fill-opacity:0.4000; stroke:none;">
<circle cx="101.6000" cy="56.8590" r="0.8500" /> 
<path style="fill:#02FFEE; fill-opacity:0.4000; stroke:none;fill-rule:evenodd;"
d="M 70.5240,99.6510
70.5240,97.9510
72.2240,97.9510
72.2240,99.6510
Z" /> 
<circle cx="71.3740" cy="101.3410" r="0.8500" /> 
<path style="fill:#02FFEE; fill-opacity:0.4000; stroke:none;fill-rule:evenodd;"
d="M 49.5690,99.6560
49.5690,97.9560
51.2690,97.9560
51.2690,99.6560
Z" /> 
<circle cx="50.4190" cy="101.3460" r="0.8500" /> 
<circle cx="99.1404" cy="80.7720" r="1.0000" /> 
</g>
<g style="fill:#02FFEE; fill-opacity:0.4000; stroke:none;">
<circle cx="99.1404" cy="87.2720" r="1.0000" /> 
</g>
<g style="fill:#02FFEE; fill-opacity:0.4000; stroke:none;">
<circle cx="94.6404" cy="80.7720" r="1.0000" /> 
</g>
<g style="fill:#02FFEE; fill-opacity:0.4000; stroke:none;">
<circle cx="94.6404" cy="87.2720" r="1.0000" /> 
<path style="fill:#02FFEE; fill-opacity:0.4000; stroke:none;fill-rule:evenodd;"
d="M 69.0400,24.6500
69.0590,24.5543
69.1132,24.4732
69.1943,24.4190
69.2900,24.4000
70.4900,24.4000
70.5857,24.4190
70.6668,24.4732
70.7210,24.5543
70.7400,24.6500
70.7400,26.1500
70.7210,26.2457
70.6668,26.3268
70.5857,26.3810
70.4900,26.4000
69.2900,26.4000
69.1943,26.3810
69.1132,26.3268
69.0590,26.2457
69.0400,26.1500
Z" /> 
</g>
<g style="fill:none; 
stroke:#02FFEE; stroke-width:1.7000; stroke-opacity:1; 
stroke-linecap:round; stroke-linejoin:round;">
<path d="M72.3900 25.2500
L72.3900 25.5500
" />
<path style="fill:#02FFEE; fill-opacity:0.4000; stroke:none;fill-rule:evenodd;"
d="M 33.3130,28.7900
33.3130,27.0900
35.0130,27.0900
35.0130,28.7900
Z" /> 
</g>
<g style="fill:#02FFEE; fill-opacity:0.4000; stroke:none;">
<circle cx="34.1630" cy="30.4800" r="0.8500" /> 
<path style="fill:#02FFEE; fill-opacity:0.4000; stroke:none;fill-rule:evenodd;"
d="M 108.8000,104.9900
107.1000,104.9900
107.1000,103.2900
108.8000,103.2900
Z" /> 
<circle cx="110.4900" cy="104.1400" r="0.8500" /> 
<path style="fill:#02FFEE; fill-opacity:0.4000; stroke:none;fill-rule:evenodd;"
d="M 75.3900,98.4370
75.4090,98.3413
75.4632,98.2602
75.5443,98.2060
75.6400,98.1870
76.8400,98.1870
76.9357,98.2060
77.0168,98.2602
77.0710,98.3413
77.0900,98.4370
77.0900,99.9370
77.0710,100.0327
77.0168,100.1138
76.9357,100.1680
76.8400,100.1870
75.6400,100.1870
75.5443,100.1680
75.4632,100.1138
75.4090,100.0327
75.3900,99.9370
Z" /> 
</g>
<g style="fill:none; 
stroke:#02FFEE; stroke-width:1.7000; stroke-opacity:1; 
stroke-linecap:round; stroke-linejoin:round;">
<path d="M78.7400 99.0370
L78.7400 99.3370
" />
<path style="fill:#02FFEE; fill-opacity:0.4000; stroke:none;fill-rule:evenodd;"
d="M 97.8290,23.5010
99.5290,23.5010
99.5290,25.2010
97.8290,25.2010
Z" /> 
</g>
<g style="fill:#02FFEE; fill-opacity:0.4000; stroke:none;">
<circle cx="96.1390" cy="24.3510" r="0.8500" /> 
<path style="fill:#02FFEE; fill-opacity:0.4000; stroke:none;fill-rule:evenodd;"
d="M 52.2800,95.0840
50.5800,95.0840
50.5800,93.3840
52.2800,93.3840
Z" /> 
<circle cx="53.9700" cy="94.2340" r="0.8500" /> 
<path style="fill:#02FFEE; fill-opacity:0.4000; stroke:none;fill-rule:evenodd;"
d="M 74.5200,50.3850
72.8200,50.3850
72.8200,48.6850
74.5200,48.6850
Z" /> 
<circle cx="73.6700" cy="46.9950" r="0.8500" /> 
<circle cx="76.2100" cy="49.5350" r="0.8500" /> 
<circle cx="76.2100" cy="46.9950" r="0.8500" /> 
<circle cx="78.7500" cy="49.5350" r="0.8500" /> 
<circle cx="78.7500" cy="46.9950" r="0.8500" /> 
<circle cx="81.2900" cy="49.5350" r="0.8500" /> 
<circle cx="81.2900" cy="46.9950" r="0.8500" /> 
<path style="fill:#02FFEE; fill-opacity:0.4000; stroke:none;fill-rule:evenodd;"
d="M 52.1300,28.3010
52.1300,25.8010
54.6300,25.8010
54.6300,28.3010
Z" /> 
<circle cx="58.3800" cy="27.0510" r="1.2500" /> 
<path style="fill:#02FFEE; fill-opacity:0.4000; stroke:none;fill-rule:evenodd;"
d="M 49.0610,32.6780
50.7610,32.6780
50.7610,34.3780
49.0610,34.3780
Z" /> 
</g>
<g style="fill:#02FFEE; fill-opacity:0.4000; stroke:none;">
<circle cx="47.3710" cy="33.5280" r="0.8500" /> 
<path style="fill:#02FFEE; fill-opacity:0.4000; stroke:none;fill-rule:evenodd;"
d="M 33.3130,96.1000
33.3130,94.4000
35.0130,94.4000
35.0130,96.1000
Z" /> 
<circle cx="34.1630" cy="97.7900" r="0.8500" /> 
<path style="fill:#02FFEE; fill-opacity:0.4000; stroke:none;fill-rule:evenodd;"
d="M 43.2000,85.1100
45.7000,85.1100
45.7000,87.6100
43.2000,87.6100
Z" /> 
<circle cx="44.4500" cy="91.3600" r="1.2500" /> 
<path style="fill:#02FFEE; fill-opacity:0.4000; stroke:none;fill-rule:evenodd;"
d="M 91.2698,95.3338
89.5698,95.3338
89.5698,93.6338
91.2698,93.6338
Z" /> 
</g>
<g style="fill:#02FFEE; fill-opacity:0.4000; stroke:none;">
<circle cx="92.9598" cy="94.4838" r="0.8500" /> 
<circle cx="95.4998" cy="94.4838" r="0.8500" /> 
<path style="fill:#02FFEE; fill-opacity:0.4000; stroke:none;fill-rule:evenodd;"
d="M 88.4800,36.2830
86.7800,36.2830
86.7800,34.5830
88.4800,34.5830
Z" /> 
<circle cx="90.1700" cy="35.4330" r="0.8500" /> 
<circle cx="92.7100" cy="35.4330" r="0.8500" /> 
<path style="fill:#02FFEE; fill-opacity:0.4000; stroke:none;fill-rule:evenodd;"
d="M 105.9300,51.7770
105.8343,51.7580
105.7532,51.7038
105.6990,51.6227
105.6800,51.5270
105.6800,50.3270
105.6990,50.2313
105.7532,50.1502
105.8343,50.0960
105.9300,50.0770
107.4300,50.0770
107.5257,50.0960
107.6068,50.1502
107.6610,50.2313
107.6800,50.3270
107.6800,51.5270
107.6610,51.6227
107.6068,51.7038
107.5257,51.7580
107.4300,51.7770
Z" /> 
</g>
<g style="fill:none; 
stroke:#02FFEE; stroke-width:1.7000; stroke-opacity:1; 
stroke-linecap:round; stroke-linejoin:round;">
<path d="M106.5300 48.4270
L106.8300 48.4270
" />
<path style="fill:#02FFEE; fill-opacity:0.4000; stroke:none;fill-rule:evenodd;"
d="M 42.1160,98.5640
42.1350,98.4683
42.1892,98.3872
42.2703,98.3330
42.3660,98.3140
43.5660,98.3140
43.6617,98.3330
43.7428,98.3872
43.7970,98.4683
43.8160,98.5640
43.8160,100.0640
43.7970,100.1597
43.7428,100.2408
43.6617,100.2950
43.5660,100.3140
42.3660,100.3140
42.2703,100.2950
42.1892,100.2408
42.1350,100.1597
42.1160,100.0640
Z" /> 
</g>
<g style="fill:none; 
stroke:#02FFEE; stroke-width:1.7000; stroke-opacity:1; 
stroke-linecap:round; stroke-linejoin:round;">
<path d="M45.4660 99.1640
L45.4660 99.4640
" />
<path style="fill:#02FFEE; fill-opacity:0.4000; stroke:none;fill-rule:evenodd;"
d="M 102.4500,66.9510
102.4500,68.6510
100.7500,68.6510
100.7500,66.9510
Z" /> 
</g>
<g style="fill:#02FFEE; fill-opacity:0.4000; stroke:none;">
<circle cx="101.6000" cy="65.2610" r="0.8500" /> 
<path style="fill:#02FFEE; fill-opacity:0.4000; stroke:none;fill-rule:evenodd;"
d="M 115.1500,28.7900
113.4500,28.7900
113.4500,27.0900
115.1500,27.0900
Z" /> 
<circle cx="116.8400" cy="27.9400" r="0.8500" /> 
<path style="fill:#02FFEE; fill-opacity:0.4000; stroke:none;fill-rule:evenodd;"
d="M 103.3390,25.2010
101.6390,25.2010
101.6390,23.5010
103.3390,23.5010
Z" /> 
<circle cx="105.0290" cy="24.3510" r="0.8500" /> 
<path style="fill:#02FFEE; fill-opacity:0.4000; stroke:none;fill-rule:evenodd;"
d="M 52.2800,63.3340
50.5800,63.3340
50.5800,61.6340
52.2800,61.6340
Z" /> 
<circle cx="53.9700" cy="62.4840" r="0.8500" /> 
<circle cx="86.6902" cy="87.2720" r="1.0000" /> 
</g>
<g style="fill:#02FFEE; fill-opacity:0.4000; stroke:none;">
<circle cx="86.6902" cy="80.7720" r="1.0000" /> 
</g>
<g style="fill:#02FFEE; fill-opacity:0.4000; stroke:none;">
<circle cx="91.1902" cy="87.2720" r="1.0000" /> 
</g>
<g style="fill:#02FFEE; fill-opacity:0.4000; stroke:none;">
<circle cx="91.1902" cy="80.7720" r="1.0000" /> 
</g>
<g style="fill:#02FFEE; fill-opacity:0.4000; stroke:none;">
<circle cx="83.3014" cy="80.7720" r="1.0000" /> 
</g>
<g style="fill:#02FFEE; fill-opacity:0.4000; stroke:none;">
<circle cx="83.3014" cy="87.2720" r="1.0000" /> 
</g>
<g style="fill:#02FFEE; fill-opacity:0.4000; stroke:none;">
<circle cx="78.8014" cy="80.7720" r="1.0000" /> 
</g>
<g style="fill:#02FFEE; fill-opacity:0.4000; stroke:none;">
<circle cx="78.8014" cy="87.2720" r="1.0000" /> 
<path style="fill:#02FFEE; fill-opacity:0.4000; stroke:none;fill-rule:evenodd;"
d="M 111.7880,76.6500
111.7690,76.7457
111.7148,76.8268
111.6337,76.8810
111.5380,76.9000
111.0130,76.9000
110.9173,76.8810
110.8362,76.8268
110.7820,76.7457
110.7630,76.6500
110.7630,75.7500
110.7820,75.6543
110.8362,75.5732
110.9173,75.5190
111.0130,75.5000
111.5380,75.5000
111.6337,75.5190
111.7148,75.5732
111.7690,75.6543
111.7880,75.7500
Z" /> 
<path style="fill:#02FFEE; fill-opacity:0.4000; stroke:none;fill-rule:evenodd;"
d="M 109.9630,76.6500
109.9440,76.7457
109.8898,76.8268
109.8087,76.8810
109.7130,76.9000
109.1880,76.9000
109.0923,76.8810
109.0112,76.8268
108.9570,76.7457
108.9380,76.6500
108.9380,75.7500
108.9570,75.6543
109.0112,75.5732
109.0923,75.5190
109.1880,75.5000
109.7130,75.5000
109.8087,75.5190
109.8898,75.5732
109.9440,75.6543
109.9630,75.7500
Z" /> 
<path style="fill:#02FFEE; fill-opacity:0.4000; stroke:none;fill-rule:evenodd;"
d="M 57.6912,81.2018
57.6376,81.1911
57.5922,81.1608
57.5619,81.1154
57.5512,81.0618
57.5512,80.7818
57.5619,80.7282
57.5922,80.6828
57.6376,80.6525
57.6912,80.6418
58.0312,80.6418
58.0848,80.6525
58.1302,80.6828
58.1605,80.7282
58.1712,80.7818
58.1712,81.0618
58.1605,81.1154
58.1302,81.1608
58.0848,81.1911
58.0312,81.2018
Z" /> 
<path style="fill:#02FFEE; fill-opacity:0.4000; stroke:none;fill-rule:evenodd;"
d="M 57.6912,80.2418
57.6376,80.2311
57.5922,80.2008
57.5619,80.1554
57.5512,80.1018
57.5512,79.8218
57.5619,79.7682
57.5922,79.7228
57.6376,79.6925
57.6912,79.6818
58.0312,79.6818
58.0848,79.6925
58.1302,79.7228
58.1605,79.7682
58.1712,79.8218
58.1712,80.1018
58.1605,80.1554
58.1302,80.2008
58.0848,80.2311
58.0312,80.2418
Z" /> 
<path style="fill:#02FFEE; fill-opacity:0.4000; stroke:none;fill-rule:evenodd;"
d="M 86.6720,65.5740
86.7237,65.5843
86.7675,65.6135
86.7967,65.6573
86.8070,65.7090
86.8070,65.9790
86.7967,66.0307
86.7675,66.0745
86.7237,66.1037
86.6720,66.1140
86.3020,66.1140
86.2503,66.1037
86.2065,66.0745
86.1773,66.0307
86.1670,65.9790
86.1670,65.7090
86.1773,65.6573
86.2065,65.6135
86.2503,65.5843
86.3020,65.5740
Z" /> 
<path style="fill:#02FFEE; fill-opacity:0.4000; stroke:none;fill-rule:evenodd;"
d="M 86.6720,66.5940
86.7237,66.6043
86.7675,66.6335
86.7967,66.6773
86.8070,66.7290
86.8070,66.9990
86.7967,67.0507
86.7675,67.0945
86.7237,67.1237
86.6720,67.1340
86.3020,67.1340
86.2503,67.1237
86.2065,67.0945
86.1773,67.0507
86.1670,66.9990
86.1670,66.7290
86.1773,66.6773
86.2065,66.6335
86.2503,66.6043
86.3020,66.5940
Z" /> 
<path style="fill:#02FFEE; fill-opacity:0.4000; stroke:none;fill-rule:evenodd;"
d="M 111.7880,65.7280
111.7690,65.8237
111.7148,65.9048
111.6337,65.9590
111.5380,65.9780
111.0130,65.9780
110.9173,65.9590
110.8362,65.9048
110.7820,65.8237
110.7630,65.7280
110.7630,64.8280
110.7820,64.7323
110.8362,64.6512
110.9173,64.5970
111.0130,64.5780
111.5380,64.5780
111.6337,64.5970
111.7148,64.6512
111.7690,64.7323
111.7880,64.8280
Z" /> 
<path style="fill:#02FFEE; fill-opacity:0.4000; stroke:none;fill-rule:evenodd;"
d="M 109.9630,65.7280
109.9440,65.8237
109.8898,65.9048
109.8087,65.9590
109.7130,65.9780
109.1880,65.9780
109.0923,65.9590
109.0112,65.9048
108.9570,65.8237
108.9380,65.7280
108.9380,64.8280
108.9570,64.7323
109.0112,64.6512
109.0923,64.5970
109.1880,64.5780
109.7130,64.5780
109.8087,64.5970
109.8898,64.6512
109.9440,64.7323
109.9630,64.8280
Z" /> 
<path style="fill:#02FFEE; fill-opacity:0.4000; stroke:none;fill-rule:evenodd;"
d="M 60.8050,19.8700
60.8240,19.7743
60.8782,19.6932
60.9593,19.6390
61.0550,19.6200
61.5800,19.6200
61.6757,19.6390
61.7568,19.6932
61.8110,19.7743
61.8300,19.8700
61.8300,20.7700
61.8110,20.8657
61.7568,20.9468
61.6757,21.0010
61.5800,21.0200
61.0550,21.0200
60.9593,21.0010
60.8782,20.9468
60.8240,20.8657
60.8050,20.7700
Z" /> 
<path style="fill:#02FFEE; fill-opacity:0.4000; stroke:none;fill-rule:evenodd;"
d="M 62.6300,19.8700
62.6490,19.7743
62.7032,19.6932
62.7843,19.6390
62.8800,19.6200
63.4050,19.6200
63.5007,19.6390
63.5818,19.6932
63.6360,19.7743
63.6550,19.8700
63.6550,20.7700
63.6360,20.8657
63.5818,20.9468
63.5007,21.0010
63.4050,21.0200
62.8800,21.0200
62.7843,21.0010
62.7032,20.9468
62.6490,20.8657
62.6300,20.7700
Z" /> 
<path style="fill:#02FFEE; fill-opacity:0.4000; stroke:none;fill-rule:evenodd;"
d="M 104.9706,48.3520
105.0663,48.3710
105.1474,48.4252
105.2016,48.5063
105.2206,48.6020
105.2206,49.1020
105.2016,49.1977
105.1474,49.2788
105.0663,49.3330
104.9706,49.3520
104.0206,49.3520
103.9249,49.3330
103.8438,49.2788
103.7896,49.1977
103.7706,49.1020
103.7706,48.6020
103.7896,48.5063
103.8438,48.4252
103.9249,48.3710
104.0206,48.3520
Z" /> 
<path style="fill:#02FFEE; fill-opacity:0.4000; stroke:none;fill-rule:evenodd;"
d="M 104.9706,50.2520
105.0663,50.2710
105.1474,50.3252
105.2016,50.4063
105.2206,50.5020
105.2206,51.0020
105.2016,51.0977
105.1474,51.1788
105.0663,51.2330
104.9706,51.2520
104.0206,51.2520
103.9249,51.2330
103.8438,51.1788
103.7896,51.0977
103.7706,51.0020
103.7706,50.5020
103.7896,50.4063
103.8438,50.3252
103.9249,50.2710
104.0206,50.2520
Z" /> 
<path style="fill:#02FFEE; fill-opacity:0.4000; stroke:none;fill-rule:evenodd;"
d="M 87.1240,66.6540
87.1347,66.6004
87.1650,66.5550
87.2104,66.5247
87.2640,66.5140
87.5440,66.5140
87.5976,66.5247
87.6430,66.5550
87.6733,66.6004
87.6840,66.6540
87.6840,66.9940
87.6733,67.0476
87.6430,67.0930
87.5976,67.1233
87.5440,67.1340
87.2640,67.1340
87.2104,67.1233
87.1650,67.0930
87.1347,67.0476
87.1240,66.9940
Z" /> 
<path style="fill:#02FFEE; fill-opacity:0.4000; stroke:none;fill-rule:evenodd;"
d="M 88.0840,66.6540
88.0947,66.6004
88.1250,66.5550
88.1704,66.5247
88.2240,66.5140
88.5040,66.5140
88.5576,66.5247
88.6030,66.5550
88.6333,66.6004
88.6440,66.6540
88.6440,66.9940
88.6333,67.0476
88.6030,67.0930
88.5576,67.1233
88.5040,67.1340
88.2240,67.1340
88.1704,67.1233
88.1250,67.0930
88.0947,67.0476
88.0840,66.9940
Z" /> 
<path style="fill:#02FFEE; fill-opacity:0.4000; stroke:none;fill-rule:evenodd;"
d="M 58.0214,49.4264
57.9678,49.4157
57.9224,49.3854
57.8921,49.3400
57.8814,49.2864
57.8814,49.0064
57.8921,48.9528
57.9224,48.9074
57.9678,48.8771
58.0214,48.8664
58.3614,48.8664
58.4150,48.8771
58.4604,48.9074
58.4907,48.9528
58.5014,49.0064
58.5014,49.2864
58.4907,49.3400
58.4604,49.3854
58.4150,49.4157
58.3614,49.4264
Z" /> 
<path style="fill:#02FFEE; fill-opacity:0.4000; stroke:none;fill-rule:evenodd;"
d="M 58.0214,48.4664
57.9678,48.4557
57.9224,48.4254
57.8921,48.3800
57.8814,48.3264
57.8814,48.0464
57.8921,47.9928
57.9224,47.9474
57.9678,47.9171
58.0214,47.9064
58.3614,47.9064
58.4150,47.9171
58.4604,47.9474
58.4907,47.9928
58.5014,48.0464
58.5014,48.3264
58.4907,48.3800
58.4604,48.4254
58.4150,48.4557
58.3614,48.4664
Z" /> 
<path style="fill:#02FFEE; fill-opacity:0.4000; stroke:none;fill-rule:evenodd;"
d="M 104.7674,65.1668
104.8631,65.1858
104.9442,65.2400
104.9984,65.3211
105.0174,65.4168
105.0174,65.9168
104.9984,66.0125
104.9442,66.0936
104.8631,66.1478
104.7674,66.1668
103.8174,66.1668
103.7217,66.1478
103.6406,66.0936
103.5864,66.0125
103.5674,65.9168
103.5674,65.4168
103.5864,65.3211
103.6406,65.2400
103.7217,65.1858
103.8174,65.1668
Z" /> 
<path style="fill:#02FFEE; fill-opacity:0.4000; stroke:none;fill-rule:evenodd;"
d="M 104.7674,67.0668
104.8631,67.0858
104.9442,67.1400
104.9984,67.2211
105.0174,67.3168
105.0174,67.8168
104.9984,67.9125
104.9442,67.9936
104.8631,68.0478
104.7674,68.0668
103.8174,68.0668
103.7217,68.0478
103.6406,67.9936
103.5864,67.9125
103.5674,67.8168
103.5674,67.3168
103.5864,67.2211
103.6406,67.1400
103.7217,67.0858
103.8174,67.0668
Z" /> 
<path style="fill:#02FFEE; fill-opacity:0.4000; stroke:none;fill-rule:evenodd;"
d="M 58.0312,84.5052
58.0848,84.5159
58.1302,84.5462
58.1605,84.5916
58.1712,84.6452
58.1712,84.9252
58.1605,84.9788
58.1302,85.0242
58.0848,85.0545
58.0312,85.0652
57.6912,85.0652
57.6376,85.0545
57.5922,85.0242
57.5619,84.9788
57.5512,84.9252
57.5512,84.6452
57.5619,84.5916
57.5922,84.5462
57.6376,84.5159
57.6912,84.5052
Z" /> 
<path style="fill:#02FFEE; fill-opacity:0.4000; stroke:none;fill-rule:evenodd;"
d="M 58.0312,85.4652
58.0848,85.4759
58.1302,85.5062
58.1605,85.5516
58.1712,85.6052
58.1712,85.8852
58.1605,85.9388
58.1302,85.9842
58.0848,86.0145
58.0312,86.0252
57.6912,86.0252
57.6376,86.0145
57.5922,85.9842
57.5619,85.9388
57.5512,85.8852
57.5512,85.6052
57.5619,85.5516
57.5922,85.5062
57.6376,85.4759
57.6912,85.4652
Z" /> 
<path style="fill:#02FFEE; fill-opacity:0.4000; stroke:none;fill-rule:evenodd;"
d="M 111.7880,59.7590
111.7690,59.8547
111.7148,59.9358
111.6337,59.9900
111.5380,60.0090
111.0130,60.0090
110.9173,59.9900
110.8362,59.9358
110.7820,59.8547
110.7630,59.7590
110.7630,58.8590
110.7820,58.7633
110.8362,58.6822
110.9173,58.6280
111.0130,58.6090
111.5380,58.6090
111.6337,58.6280
111.7148,58.6822
111.7690,58.7633
111.7880,58.8590
Z" /> 
<path style="fill:#02FFEE; fill-opacity:0.4000; stroke:none;fill-rule:evenodd;"
d="M 109.9630,59.7590
109.9440,59.8547
109.8898,59.9358
109.8087,59.9900
109.7130,60.0090
109.1880,60.0090
109.0923,59.9900
109.0112,59.9358
108.9570,59.8547
108.9380,59.7590
108.9380,58.8590
108.9570,58.7633
109.0112,58.6822
109.0923,58.6280
109.1880,58.6090
109.7130,58.6090
109.8087,58.6280
109.8898,58.6822
109.9440,58.7633
109.9630,58.8590
Z" /> 
<path style="fill:#02FFEE; fill-opacity:0.4000; stroke:none;fill-rule:evenodd;"
d="M 103.7412,76.4234
103.6455,76.4044
103.5644,76.3502
103.5102,76.2691
103.4912,76.1734
103.4912,75.6734
103.5102,75.5777
103.5644,75.4966
103.6455,75.4424
103.7412,75.4234
104.6912,75.4234
104.7869,75.4424
104.8680,75.4966
104.9222,75.5777
104.9412,75.6734
104.9412,76.1734
104.9222,76.2691
104.8680,76.3502
104.7869,76.4044
104.6912,76.4234
Z" /> 
<path style="fill:#02FFEE; fill-opacity:0.4000; stroke:none;fill-rule:evenodd;"
d="M 103.7412,74.5234
103.6455,74.5044
103.5644,74.4502
103.5102,74.3691
103.4912,74.2734
103.4912,73.7734
103.5102,73.6777
103.5644,73.5966
103.6455,73.5424
103.7412,73.5234
104.6912,73.5234
104.7869,73.5424
104.8680,73.5966
104.9222,73.6777
104.9412,73.7734
104.9412,74.2734
104.9222,74.3691
104.8680,74.4502
104.7869,74.5044
104.6912,74.5234
Z" /> 
<path style="fill:#02FFEE; fill-opacity:0.4000; stroke:none;fill-rule:evenodd;"
d="M 87.1240,65.7140
87.1347,65.6604
87.1650,65.6150
87.2104,65.5847
87.2640,65.5740
87.5440,65.5740
87.5976,65.5847
87.6430,65.6150
87.6733,65.6604
87.6840,65.7140
87.6840,66.0540
87.6733,66.1076
87.6430,66.1530
87.5976,66.1833
87.5440,66.1940
87.2640,66.1940
87.2104,66.1833
87.1650,66.1530
87.1347,66.1076
87.1240,66.0540
Z" /> 
<path style="fill:#02FFEE; fill-opacity:0.4000; stroke:none;fill-rule:evenodd;"
d="M 88.0840,65.7140
88.0947,65.6604
88.1250,65.6150
88.1704,65.5847
88.2240,65.5740
88.5040,65.5740
88.5576,65.5847
88.6030,65.6150
88.6333,65.6604
88.6440,65.7140
88.6440,66.0540
88.6333,66.1076
88.6030,66.1530
88.5576,66.1833
88.5040,66.1940
88.2240,66.1940
88.1704,66.1833
88.1250,66.1530
88.0947,66.1076
88.0840,66.0540
Z" /> 
<path style="fill:#02FFEE; fill-opacity:0.4000; stroke:none;fill-rule:evenodd;"
d="M 111.6845,48.9640
111.6655,49.0597
111.6113,49.1408
111.5302,49.1950
111.4345,49.2140
110.9095,49.2140
110.8138,49.1950
110.7327,49.1408
110.6785,49.0597
110.6595,48.9640
110.6595,48.0640
110.6785,47.9683
110.7327,47.8872
110.8138,47.8330
110.9095,47.8140
111.4345,47.8140
111.5302,47.8330
111.6113,47.8872
111.6655,47.9683
111.6845,48.0640
Z" /> 
<path style="fill:#02FFEE; fill-opacity:0.4000; stroke:none;fill-rule:evenodd;"
d="M 109.8595,48.9640
109.8405,49.0597
109.7863,49.1408
109.7052,49.1950
109.6095,49.2140
109.0845,49.2140
108.9888,49.1950
108.9077,49.1408
108.8535,49.0597
108.8345,48.9640
108.8345,48.0640
108.8535,47.9683
108.9077,47.8872
108.9888,47.8330
109.0845,47.8140
109.6095,47.8140
109.7052,47.8330
109.7863,47.8872
109.8405,47.9683
109.8595,48.0640
Z" /> 
<path style="fill:#02FFEE; fill-opacity:0.4000; stroke:none;fill-rule:evenodd;"
d="M 58.1328,52.7806
58.1864,52.7913
58.2318,52.8216
58.2621,52.8670
58.2728,52.9206
58.2728,53.2006
58.2621,53.2542
58.2318,53.2996
58.1864,53.3299
58.1328,53.3406
57.7928,53.3406
57.7392,53.3299
57.6938,53.2996
57.6635,53.2542
57.6528,53.2006
57.6528,52.9206
57.6635,52.8670
57.6938,52.8216
57.7392,52.7913
57.7928,52.7806
Z" /> 
<path style="fill:#02FFEE; fill-opacity:0.4000; stroke:none;fill-rule:evenodd;"
d="M 58.1328,53.7406
58.1864,53.7513
58.2318,53.7816
58.2621,53.8270
58.2728,53.8806
58.2728,54.1606
58.2621,54.2142
58.2318,54.2596
58.1864,54.2899
58.1328,54.3006
57.7928,54.3006
57.7392,54.2899
57.6938,54.2596
57.6635,54.2142
57.6528,54.1606
57.6528,53.8806
57.6635,53.8270
57.6938,53.7816
57.7392,53.7513
57.7928,53.7406
Z" /> 
<path style="fill:#02FFEE; fill-opacity:0.4000; stroke:none;fill-rule:evenodd;"
d="M 103.8174,59.6340
103.7217,59.6150
103.6406,59.5608
103.5864,59.4797
103.5674,59.3840
103.5674,58.8840
103.5864,58.7883
103.6406,58.7072
103.7217,58.6530
103.8174,58.6340
104.7674,58.6340
104.8631,58.6530
104.9442,58.7072
104.9984,58.7883
105.0174,58.8840
105.0174,59.3840
104.9984,59.4797
104.9442,59.5608
104.8631,59.6150
104.7674,59.6340
Z" /> 
<path style="fill:#02FFEE; fill-opacity:0.4000; stroke:none;fill-rule:evenodd;"
d="M 103.8174,57.7340
103.7217,57.7150
103.6406,57.6608
103.5864,57.5797
103.5674,57.4840
103.5674,56.9840
103.5864,56.8883
103.6406,56.8072
103.7217,56.7530
103.8174,56.7340
104.7674,56.7340
104.8631,56.7530
104.9442,56.8072
104.9984,56.8883
105.0174,56.9840
105.0174,57.4840
104.9984,57.5797
104.9442,57.6608
104.8631,57.7150
104.7674,57.7340
Z" /> 
</g> 
</svg>
