C1	44.70	18.28	270.00	0.1u	C0402
C2	40.55	27.83	90.00	0.1u	C0402
C4	64.00	25.24	90.00		SMC_C
C5	59.63	27.83	90.00	15p	C0402
C6	42.63	27.83	90.00	15p	C0402
C7	61.30	27.78	90.00	0.1u	C0402
C8	66.55	27.88	90.00	0.1u	C0402
IC1	51.26	17.65	270.00	PIC18F1220SO	SO-18W
IC2	72.20	19.95	270.00	7806DT	TO252
Q1	51.23	26.86	0.00		HC49UP
Q2	74.94	14.09	0.00	BSS123	SOT23
Q3	62.65	16.66	0.00	BSS123	SOT23
R1	43.09	18.92	180.00	10K	R0402
R10	35.49	9.20	90.00	10K	R0402
R11	42.16	9.16	90.00	10K	R0402
R12	48.89	9.16	90.00	10K	R0402
R13	42.59	22.73	180.00	2K	R0402
R14	55.88	9.15	90.00	10K	R0402
R15	62.62	9.16	90.00	10K	R0402
R16	73.71	9.20	90.00	10K	R0402
R3	72.72	13.88	270.00	10K	R0402
R4	62.67	14.25	180.00	10K	R0402
R5	31.15	17.64	180.00	2K	R0402
R6	21.98	9.15	90.00	10K	R0402
R7	11.26	9.21	90.00	10K	R0402
R8	28.71	9.21	90.00	10K	R0402
R9	42.59	21.44	180.00	2K	R0402
