Change Component Designator: Old Designator=C1 New Designator=C4
Change Component Designator: Old Designator=C4 New Designator=C5
Change Component Designator: Old Designator=C5 New Designator=C6
Change Component Designator: Old Designator=D1 New Designator=D2
Change Component Designator: Old Designator=D1 New Designator=D3
Change Component Designator: Old Designator=D1 New Designator=D4
Change Component Designator: Old Designator=D2 New Designator=D1
Change Component Designator: Old Designator=J? New Designator=J1
Change Component Designator: Old Designator=P1 New Designator=P7
Change Component Designator: Old Designator=P3 New Designator=P8
Change Component Designator: Old Designator=P3 New Designator=P12
Change Component Designator: Old Designator=P3 New Designator=P13
Change Component Designator: Old Designator=P17 New Designator=P19
Change Component Designator: Old Designator=P36 New Designator=P1
Change Component Designator: Old Designator=P36 New Designator=P2
Change Component Designator: Old Designator=P36 New Designator=P5
Change Component Designator: Old Designator=P36 New Designator=P9
Change Component Designator: Old Designator=P36 New Designator=P11
Change Component Designator: Old Designator=P36 New Designator=P14
Change Component Designator: Old Designator=P36 New Designator=P15
Change Component Designator: Old Designator=P36 New Designator=P16
Change Component Designator: Old Designator=P? New Designator=P3
Change Component Designator: Old Designator=P? New Designator=P4
Change Component Designator: Old Designator=P? New Designator=P6
Change Component Designator: Old Designator=P? New Designator=P10
Change Component Designator: Old Designator=P? New Designator=P17
Change Component Designator: Old Designator=P? New Designator=P18
Change Component Designator: Old Designator=Q1 New Designator=Q2
Change Component Designator: Old Designator=R3 New Designator=R8
Change Component Designator: Old Designator=R3 New Designator=R9
Change Component Designator: Old Designator=R10 New Designator=R1
Change Component Designator: Old Designator=R10 New Designator=R2
Change Component Designator: Old Designator=R10 New Designator=R3
Change Component Designator: Old Designator=R10 New Designator=R4
Change Component Designator: Old Designator=R10 New Designator=R5
Change Component Designator: Old Designator=R10 New Designator=R6
Change Component Designator: Old Designator=R10 New Designator=R11
Change Component Designator: Old Designator=R10 New Designator=R12
Change Component Designator: Old Designator=R10 New Designator=R13
Change Component Designator: Old Designator=R10 New Designator=R14
Change Component Designator: Old Designator=R? New Designator=R7
Change Component Designator: Old Designator=Sw1 New Designator=Sw2
Change Component Designator: Old Designator=Sw1 New Designator=Sw3
Change Component Designator: Old Designator=U1 New Designator=U3
Change Component Designator: Old Designator=U2 New Designator=U1
Change Component Designator: Old Designator=U? New Designator=U2
Change Component Part ID : Designator=U2 Old Part ID =1 New Part ID =2
Change Component Designator: Old Designator=U? New Designator=U2
Change Component Part ID : Designator=U2 Old Part ID =2 New Part ID =1
