<?xml version="1.0" encoding="utf-8"?>
<!DOCTYPE eagle SYSTEM "eagle.dtd">
<eagle version="9.1.0">
<drawing>
<settings>
<setting alwaysvectorfont="no"/>
<setting verticaltext="up"/>
</settings>
<grid distance="50" unitdist="mil" unit="mm" style="dots" multiple="1" display="yes" altdistance="5" altunitdist="mil" altunit="mm"/>
<layers>
<layer number="1" name="Top" color="4" fill="1" visible="yes" active="yes"/>
<layer number="16" name="Bottom" color="1" fill="1" visible="no" active="yes"/>
<layer number="17" name="Pads" color="2" fill="1" visible="yes" active="yes"/>
<layer number="18" name="Vias" color="2" fill="1" visible="yes" active="yes"/>
<layer number="19" name="Unrouted" color="6" fill="1" visible="yes" active="yes"/>
<layer number="20" name="Dimension" color="24" fill="1" visible="no" active="yes"/>
<layer number="21" name="tPlace" color="7" fill="1" visible="no" active="yes"/>
<layer number="22" name="bPlace" color="7" fill="1" visible="no" active="yes"/>
<layer number="23" name="tOrigins" color="15" fill="1" visible="no" active="yes"/>
<layer number="24" name="bOrigins" color="15" fill="1" visible="no" active="yes"/>
<layer number="25" name="tNames" color="7" fill="1" visible="no" active="yes"/>
<layer number="26" name="bNames" color="7" fill="1" visible="no" active="yes"/>
<layer number="27" name="tValues" color="7" fill="1" visible="no" active="yes"/>
<layer number="28" name="bValues" color="7" fill="1" visible="no" active="yes"/>
<layer number="29" name="tStop" color="7" fill="3" visible="no" active="yes"/>
<layer number="30" name="bStop" color="7" fill="6" visible="no" active="yes"/>
<layer number="31" name="tCream" color="7" fill="4" visible="no" active="yes"/>
<layer number="32" name="bCream" color="7" fill="5" visible="no" active="yes"/>
<layer number="33" name="tFinish" color="6" fill="3" visible="no" active="yes"/>
<layer number="34" name="bFinish" color="6" fill="6" visible="no" active="yes"/>
<layer number="35" name="tGlue" color="7" fill="4" visible="no" active="yes"/>
<layer number="36" name="bGlue" color="7" fill="5" visible="no" active="yes"/>
<layer number="37" name="tTest" color="7" fill="1" visible="no" active="yes"/>
<layer number="38" name="bTest" color="7" fill="1" visible="no" active="yes"/>
<layer number="39" name="tKeepout" color="4" fill="11" visible="no" active="yes"/>
<layer number="40" name="bKeepout" color="1" fill="11" visible="no" active="yes"/>
<layer number="41" name="tRestrict" color="4" fill="10" visible="no" active="yes"/>
<layer number="42" name="bRestrict" color="1" fill="10" visible="no" active="yes"/>
<layer number="43" name="vRestrict" color="2" fill="10" visible="no" active="yes"/>
<layer number="44" name="Drills" color="7" fill="1" visible="no" active="yes"/>
<layer number="45" name="Holes" color="7" fill="1" visible="yes" active="yes"/>
<layer number="46" name="Milling" color="3" fill="1" visible="no" active="yes"/>
<layer number="47" name="Measures" color="7" fill="1" visible="no" active="yes"/>
<layer number="48" name="Document" color="7" fill="1" visible="no" active="yes"/>
<layer number="49" name="Reference" color="7" fill="1" visible="no" active="yes"/>
<layer number="51" name="tDocu" color="7" fill="1" visible="no" active="yes"/>
<layer number="52" name="bDocu" color="7" fill="1" visible="no" active="yes"/>
<layer number="88" name="SimResults" color="9" fill="1" visible="no" active="no"/>
<layer number="89" name="SimProbes" color="9" fill="1" visible="no" active="no"/>
<layer number="90" name="Modules" color="5" fill="1" visible="no" active="no"/>
<layer number="91" name="Nets" color="2" fill="1" visible="no" active="no"/>
<layer number="92" name="Busses" color="1" fill="1" visible="no" active="no"/>
<layer number="93" name="Pins" color="2" fill="1" visible="no" active="no"/>
<layer number="94" name="Symbols" color="4" fill="1" visible="no" active="no"/>
<layer number="95" name="Names" color="7" fill="1" visible="no" active="no"/>
<layer number="96" name="Values" color="7" fill="1" visible="no" active="no"/>
<layer number="97" name="Info" color="7" fill="1" visible="no" active="no"/>
<layer number="98" name="Guide" color="6" fill="1" visible="no" active="no"/>
<layer number="99" name="SpiceOrder" color="7" fill="1" visible="no" active="no"/>
</layers>
<board>
<plain>
<wire x1="25.4" y1="18.923" x2="62.281" y2="18.923" width="0" layer="20"/>
<wire x1="62.281" y1="18.923" x2="62.281" y2="49.52" width="0" layer="20"/>
<wire x1="62.281" y1="49.52" x2="25.4" y2="49.52" width="0" layer="20"/>
<wire x1="25.4" y1="49.52" x2="25.4" y2="18.923" width="0" layer="20"/>
<rectangle x1="39.116" y1="38.862" x2="40.513" y2="42.672" layer="1"/>
<rectangle x1="41.402" y1="36.068" x2="44.323" y2="39.878" layer="1"/>
<rectangle x1="41.402" y1="34.163" x2="49.784" y2="36.957" layer="1"/>
<rectangle x1="39.116" y1="40.513" x2="53.34" y2="43.942" layer="1"/>
<rectangle x1="41.91" y1="25.4" x2="54.61" y2="31.75" layer="1"/>
<rectangle x1="30.353" y1="39.624" x2="34.544" y2="41.275" layer="1"/>
<rectangle x1="32.512" y1="39.116" x2="34.544" y2="40.005" layer="1"/>
<rectangle x1="54.102" y1="25.4" x2="55.118" y2="36.83" layer="1"/>
<rectangle x1="52.07" y1="31.496" x2="54.229" y2="36.83" layer="1"/>
<rectangle x1="53.34" y1="40.513" x2="55.372" y2="43.942" layer="1"/>
<rectangle x1="39.37" y1="30.48" x2="40.64" y2="33.02" layer="1"/>
<rectangle x1="39.37" y1="29.21" x2="40.64" y2="30.48" layer="1"/>
<rectangle x1="37.973" y1="28.702" x2="40.64" y2="29.21" layer="1"/>
<rectangle x1="38.608" y1="29.083" x2="39.624" y2="29.972" layer="1"/>
<rectangle x1="31.242" y1="41.783" x2="33.274" y2="43.18" layer="1"/>
</plain>
<libraries>
<library name="rcl" urn="urn:adsk.eagle:library:334">
<description>&lt;b&gt;Resistors, Capacitors, Inductors&lt;/b&gt;&lt;p&gt;
Based on the previous libraries:
&lt;ul&gt;
&lt;li&gt;r.lbr
&lt;li&gt;cap.lbr 
&lt;li&gt;cap-fe.lbr
&lt;li&gt;captant.lbr
&lt;li&gt;polcap.lbr
&lt;li&gt;ipc-smd.lbr
&lt;/ul&gt;
All SMD packages are defined according to the IPC specifications and  CECC&lt;p&gt;
&lt;author&gt;Created by librarian@cadsoft.de&lt;/author&gt;&lt;p&gt;
&lt;p&gt;
for Electrolyt Capacitors see also :&lt;p&gt;
www.bccomponents.com &lt;p&gt;
www.panasonic.com&lt;p&gt;
www.kemet.com&lt;p&gt;
http://www.secc.co.jp/pdf/os_e/2004/e_os_all.pdf &lt;b&gt;(SANYO)&lt;/b&gt;
&lt;p&gt;
for trimmer refence see : &lt;u&gt;www.electrospec-inc.com/cross_references/trimpotcrossref.asp&lt;/u&gt;&lt;p&gt;

&lt;table border=0 cellspacing=0 cellpadding=0 width="100%" cellpaddding=0&gt;
&lt;tr valign="top"&gt;

&lt;! &lt;td width="10"&gt;&amp;nbsp;&lt;/td&gt;
&lt;td width="90%"&gt;

&lt;b&gt;&lt;font color="#0000FF" size="4"&gt;TRIM-POT CROSS REFERENCE&lt;/font&gt;&lt;/b&gt;
&lt;P&gt;
&lt;TABLE BORDER=0 CELLSPACING=1 CELLPADDING=2&gt;
  &lt;TR&gt;
    &lt;TD COLSPAN=8&gt;
      &lt;FONT SIZE=3 FACE=ARIAL&gt;&lt;B&gt;RECTANGULAR MULTI-TURN&lt;/B&gt;&lt;/FONT&gt;
    &lt;/TD&gt;
  &lt;/TR&gt;
  &lt;TR&gt;
    &lt;TD ALIGN=CENTER&gt;
      &lt;B&gt;
      &lt;FONT SIZE=3 FACE=ARIAL color="#FF0000"&gt;BOURNS&lt;/FONT&gt;
      &lt;/B&gt;
    &lt;/TD&gt;
    &lt;TD ALIGN=CENTER&gt;
      &lt;B&gt;
      &lt;FONT SIZE=3 FACE=ARIAL color="#FF0000"&gt;BI&amp;nbsp;TECH&lt;/FONT&gt;
      &lt;/B&gt;
    &lt;/TD&gt;
    &lt;TD ALIGN=CENTER&gt;
      &lt;B&gt;
      &lt;FONT SIZE=3 FACE=ARIAL color="#FF0000"&gt;DALE-VISHAY&lt;/FONT&gt;
      &lt;/B&gt;
    &lt;/TD&gt;
    &lt;TD ALIGN=CENTER&gt;
      &lt;B&gt;
      &lt;FONT SIZE=3 FACE=ARIAL color="#FF0000"&gt;PHILIPS/MEPCO&lt;/FONT&gt;
      &lt;/B&gt;
    &lt;/TD&gt;
    &lt;TD ALIGN=CENTER&gt;
      &lt;B&gt;
      &lt;FONT SIZE=3 FACE=ARIAL color="#FF0000"&gt;MURATA&lt;/FONT&gt;
      &lt;/B&gt;
    &lt;/TD&gt;
    &lt;TD ALIGN=CENTER&gt;
      &lt;B&gt;
      &lt;FONT SIZE=3 FACE=ARIAL color="#FF0000"&gt;PANASONIC&lt;/FONT&gt;
      &lt;/B&gt;
    &lt;/TD&gt;
    &lt;TD ALIGN=CENTER&gt;
      &lt;B&gt;
      &lt;FONT SIZE=3 FACE=ARIAL color="#FF0000"&gt;SPECTROL&lt;/FONT&gt;
      &lt;/B&gt;
    &lt;/TD&gt;
    &lt;TD ALIGN=CENTER&gt;
      &lt;B&gt;
      &lt;FONT SIZE=3 FACE=ARIAL color="#FF0000"&gt;MILSPEC&lt;/FONT&gt;
      &lt;/B&gt;
    &lt;/TD&gt;&lt;TD&gt;&amp;nbsp;&lt;/TD&gt;
  &lt;/TR&gt;
  &lt;TR&gt;
    &lt;TD BGCOLOR="#cccccc" ALIGN=CENTER&gt;&lt;FONT FACE=ARIAL SIZE=3 &gt;
      3005P&lt;BR&gt;
      3006P&lt;BR&gt;
      3006W&lt;BR&gt;
      3006Y&lt;BR&gt;
      3009P&lt;BR&gt;
      3009W&lt;BR&gt;
      3009Y&lt;BR&gt;
      3057J&lt;BR&gt;
      3057L&lt;BR&gt;
      3057P&lt;BR&gt;
      3057Y&lt;BR&gt;
      3059J&lt;BR&gt;
      3059L&lt;BR&gt;
      3059P&lt;BR&gt;
      3059Y&lt;BR&gt;&lt;/FONT&gt;
    &lt;/TD&gt;
    &lt;TD BGCOLOR="#cccccc" ALIGN=CENTER&gt;&lt;FONT FACE=ARIAL SIZE=3&gt;
      -&lt;BR&gt;
      89P&lt;BR&gt;
      89W&lt;BR&gt;
      89X&lt;BR&gt;
      89PH&lt;BR&gt;
      76P&lt;BR&gt;
      89XH&lt;BR&gt;
      78SLT&lt;BR&gt;
      78L&amp;nbsp;ALT&lt;BR&gt;
      56P&amp;nbsp;ALT&lt;BR&gt;
      78P&amp;nbsp;ALT&lt;BR&gt;
      T8S&lt;BR&gt;
      78L&lt;BR&gt;
      56P&lt;BR&gt;
      78P&lt;BR&gt;&lt;/FONT&gt;
    &lt;/TD&gt;
    &lt;TD BGCOLOR="#cccccc" ALIGN=CENTER&gt;&lt;FONT FACE=ARIAL SIZE=3&gt;
      -&lt;BR&gt;
      T18/784&lt;BR&gt;
      783&lt;BR&gt;
      781&lt;BR&gt;
      -&lt;BR&gt;
      -&lt;BR&gt;
      -&lt;BR&gt;
      2199&lt;BR&gt;
      1697/1897&lt;BR&gt;
      1680/1880&lt;BR&gt;
      2187&lt;BR&gt;
      -&lt;BR&gt;
      -&lt;BR&gt;
      -&lt;BR&gt;
      -&lt;BR&gt;&lt;/FONT&gt;
    &lt;/TD&gt;
    &lt;TD BGCOLOR="#cccccc" ALIGN=CENTER&gt;&lt;FONT FACE=ARIAL SIZE=3&gt;
      -&lt;BR&gt;
      8035EKP/CT20/RJ-20P&lt;BR&gt;
      -&lt;BR&gt;
      RJ-20X&lt;BR&gt;
      -&lt;BR&gt;
      -&lt;BR&gt;
      -&lt;BR&gt;
      1211L&lt;BR&gt;
      8012EKQ&amp;nbsp;ALT&lt;BR&gt;
      8012EKR&amp;nbsp;ALT&lt;BR&gt;
      1211P&lt;BR&gt;
      8012EKJ&lt;BR&gt;
      8012EKL&lt;BR&gt;
      8012EKQ&lt;BR&gt;
      8012EKR&lt;BR&gt;&lt;/FONT&gt;
    &lt;/TD&gt;
    &lt;TD BGCOLOR="#cccccc" ALIGN=CENTER&gt;&lt;FONT FACE=ARIAL SIZE=3&gt;
      -&lt;BR&gt;
      2101P&lt;BR&gt;
      2101W&lt;BR&gt;
      2101Y&lt;BR&gt;
      -&lt;BR&gt;
      -&lt;BR&gt;
      -&lt;BR&gt;
      -&lt;BR&gt;
      -&lt;BR&gt;
      -&lt;BR&gt;
      -&lt;BR&gt;
      -&lt;BR&gt;
      2102L&lt;BR&gt;
      2102S&lt;BR&gt;
      2102Y&lt;BR&gt;&lt;/FONT&gt;
    &lt;/TD&gt;
    &lt;TD BGCOLOR="#cccccc" ALIGN=CENTER&gt;&lt;FONT FACE=ARIAL SIZE=3&gt;
      -&lt;BR&gt;
      EVMCOG&lt;BR&gt;
      -&lt;BR&gt;
      -&lt;BR&gt;
      -&lt;BR&gt;
      -&lt;BR&gt;
      -&lt;BR&gt;
      -&lt;BR&gt;
      -&lt;BR&gt;
      -&lt;BR&gt;
      -&lt;BR&gt;
      -&lt;BR&gt;
      -&lt;BR&gt;
      -&lt;BR&gt;
      -&lt;BR&gt;&lt;/FONT&gt;
    &lt;/TD&gt;
    &lt;TD BGCOLOR="#cccccc" ALIGN=CENTER&gt;&lt;FONT FACE=ARIAL SIZE=3&gt;
      -&lt;BR&gt;
      43P&lt;BR&gt;
      43W&lt;BR&gt;
      43Y&lt;BR&gt;
      -&lt;BR&gt;
      -&lt;BR&gt;
      -&lt;BR&gt;
      -&lt;BR&gt;
      40L&lt;BR&gt;
      40P&lt;BR&gt;
      40Y&lt;BR&gt;
      70Y-T602&lt;BR&gt;
      70L&lt;BR&gt;
      70P&lt;BR&gt;
      70Y&lt;BR&gt;&lt;/FONT&gt;
    &lt;/TD&gt;
    &lt;TD BGCOLOR="#cccccc" ALIGN=CENTER&gt;&lt;FONT FACE=ARIAL SIZE=3&gt;
      -&lt;BR&gt;
      -&lt;BR&gt;
      -&lt;BR&gt;
      -&lt;BR&gt;
      -&lt;BR&gt;
      -&lt;BR&gt;
      -&lt;BR&gt;
      -&lt;BR&gt;
      RT/RTR12&lt;BR&gt;
      RT/RTR12&lt;BR&gt;
      RT/RTR12&lt;BR&gt;
      -&lt;BR&gt;
      RJ/RJR12&lt;BR&gt;
      RJ/RJR12&lt;BR&gt;
      RJ/RJR12&lt;BR&gt;&lt;/FONT&gt;
    &lt;/TD&gt;
  &lt;/TR&gt;
  &lt;TR&gt;
    &lt;TD COLSPAN=8&gt;&amp;nbsp;
    &lt;/TD&gt;
  &lt;/TR&gt;
  &lt;TR&gt;
    &lt;TD COLSPAN=8&gt;
      &lt;FONT SIZE=4 FACE=ARIAL&gt;&lt;B&gt;SQUARE MULTI-TURN&lt;/B&gt;&lt;/FONT&gt;
    &lt;/TD&gt;
  &lt;/TR&gt;
  &lt;TR&gt;
   &lt;TD ALIGN=CENTER&gt;
      &lt;FONT SIZE=3 FACE=ARIAL&gt;&lt;B&gt;BOURN&lt;/B&gt;&lt;/FONT&gt;
    &lt;/TD&gt;
    &lt;TD ALIGN=CENTER&gt;
      &lt;FONT SIZE=3 FACE=ARIAL&gt;&lt;B&gt;BI&amp;nbsp;TECH&lt;/B&gt;&lt;/FONT&gt;
    &lt;/TD&gt;
    &lt;TD ALIGN=CENTER&gt;
      &lt;FONT SIZE=3 FACE=ARIAL&gt;&lt;B&gt;DALE-VISHAY&lt;/B&gt;&lt;/FONT&gt;
    &lt;/TD&gt;
    &lt;TD ALIGN=CENTER&gt;
      &lt;FONT SIZE=3 FACE=ARIAL&gt;&lt;B&gt;PHILIPS/MEPCO&lt;/B&gt;&lt;/FONT&gt;
    &lt;/TD&gt;
    &lt;TD ALIGN=CENTER&gt;
      &lt;FONT SIZE=3 FACE=ARIAL&gt;&lt;B&gt;MURATA&lt;/B&gt;&lt;/FONT&gt;
    &lt;/TD&gt;
    &lt;TD ALIGN=CENTER&gt;
      &lt;FONT SIZE=3 FACE=ARIAL&gt;&lt;B&gt;PANASONIC&lt;/B&gt;&lt;/FONT&gt;
    &lt;/TD&gt;
    &lt;TD ALIGN=CENTER&gt;
      &lt;FONT SIZE=3 FACE=ARIAL&gt;&lt;B&gt;SPECTROL&lt;/B&gt;&lt;/FONT&gt;
    &lt;/TD&gt;
    &lt;TD ALIGN=CENTER&gt;
      &lt;FONT SIZE=3 FACE=ARIAL&gt;&lt;B&gt;MILSPEC&lt;/B&gt;&lt;/FONT&gt;
    &lt;/TD&gt;
  &lt;/TR&gt;
  &lt;TR&gt;
    &lt;TD BGCOLOR="#cccccc" ALIGN=CENTER&gt;&lt;FONT FACE=ARIAL SIZE=3&gt;
      3250L&lt;BR&gt;
      3250P&lt;BR&gt;
      3250W&lt;BR&gt;
      3250X&lt;BR&gt;
      3252P&lt;BR&gt;
      3252W&lt;BR&gt;
      3252X&lt;BR&gt;
      3260P&lt;BR&gt;
      3260W&lt;BR&gt;
      3260X&lt;BR&gt;
      3262P&lt;BR&gt;
      3262W&lt;BR&gt;
      3262X&lt;BR&gt;
      3266P&lt;BR&gt;
      3266W&lt;BR&gt;
      3266X&lt;BR&gt;
      3290H&lt;BR&gt;
      3290P&lt;BR&gt;
      3290W&lt;BR&gt;
      3292P&lt;BR&gt;
      3292W&lt;BR&gt;
      3292X&lt;BR&gt;
      3296P&lt;BR&gt;
      3296W&lt;BR&gt;
      3296X&lt;BR&gt;
      3296Y&lt;BR&gt;
      3296Z&lt;BR&gt;
      3299P&lt;BR&gt;
      3299W&lt;BR&gt;
      3299X&lt;BR&gt;
      3299Y&lt;BR&gt;
      3299Z&lt;BR&gt;&lt;/FONT&gt;
    &lt;/TD&gt;
    &lt;TD BGCOLOR="#cccccc" ALIGN=CENTER&gt;&lt;FONT FACE=ARIAL SIZE=3&gt;
      -&lt;BR&gt;
      66P&amp;nbsp;ALT&lt;BR&gt;
      66W&amp;nbsp;ALT&lt;BR&gt;
      66X&amp;nbsp;ALT&lt;BR&gt;
      66P&amp;nbsp;ALT&lt;BR&gt;
      66W&amp;nbsp;ALT&lt;BR&gt;
      66X&amp;nbsp;ALT&lt;BR&gt;
      -&lt;BR&gt;
      64W&amp;nbsp;ALT&lt;BR&gt;
      -&lt;BR&gt;
      64P&amp;nbsp;ALT&lt;BR&gt;
      64W&amp;nbsp;ALT&lt;BR&gt;
      64X&amp;nbsp;ALT&lt;BR&gt;
      64P&lt;BR&gt;
      64W&lt;BR&gt;
      64X&lt;BR&gt;
      66X&amp;nbsp;ALT&lt;BR&gt;
      66P&amp;nbsp;ALT&lt;BR&gt;
      66W&amp;nbsp;ALT&lt;BR&gt;
      66P&lt;BR&gt;
      66W&lt;BR&gt;
      66X&lt;BR&gt;
      67P&lt;BR&gt;
      67W&lt;BR&gt;
      67X&lt;BR&gt;
      67Y&lt;BR&gt;
      67Z&lt;BR&gt;
      68P&lt;BR&gt;
      68W&lt;BR&gt;
      68X&lt;BR&gt;
      67Y&amp;nbsp;ALT&lt;BR&gt;
      67Z&amp;nbsp;ALT&lt;BR&gt;&lt;/FONT&gt;
    &lt;/TD&gt;
    &lt;TD BGCOLOR="#cccccc" ALIGN=CENTER&gt;&lt;FONT FACE=ARIAL SIZE=3&gt;
      5050&lt;BR&gt;
      5091&lt;BR&gt;
      5080&lt;BR&gt;
      5087&lt;BR&gt;
      -&lt;BR&gt;
      -&lt;BR&gt;
      -&lt;BR&gt;
      -&lt;BR&gt;
      -&lt;BR&gt;
      -&lt;BR&gt;
      -&lt;BR&gt;
      T63YB&lt;BR&gt;
      T63XB&lt;BR&gt;
      -&lt;BR&gt;
      -&lt;BR&gt;
      -&lt;BR&gt;
      5887&lt;BR&gt;
      5891&lt;BR&gt;
      5880&lt;BR&gt;
      -&lt;BR&gt;
      -&lt;BR&gt;
      -&lt;BR&gt;
      T93Z&lt;BR&gt;
      T93YA&lt;BR&gt;
      T93XA&lt;BR&gt;
      T93YB&lt;BR&gt;
      T93XB&lt;BR&gt;
      -&lt;BR&gt;
      -&lt;BR&gt;
      -&lt;BR&gt;
      -&lt;BR&gt;
      -&lt;BR&gt;&lt;/FONT&gt;
    &lt;/TD&gt;
    &lt;TD BGCOLOR="#cccccc" ALIGN=CENTER&gt;&lt;FONT FACE=ARIAL SIZE=3&gt;
      -&lt;BR&gt;
      -&lt;BR&gt;
      -&lt;BR&gt;
      -&lt;BR&gt;
      -&lt;BR&gt;
      -&lt;BR&gt;
      -&lt;BR&gt;
      -&lt;BR&gt;
      -&lt;BR&gt;
      -&lt;BR&gt;
      8026EKP&lt;BR&gt;
      8026EKW&lt;BR&gt;
      8026EKM&lt;BR&gt;
      8026EKP&lt;BR&gt;
      8026EKB&lt;BR&gt;
      8026EKM&lt;BR&gt;
      1309X&lt;BR&gt;
      1309P&lt;BR&gt;
      1309W&lt;BR&gt;
      8024EKP&lt;BR&gt;
      8024EKW&lt;BR&gt;
      8024EKN&lt;BR&gt;
      RJ-9P/CT9P&lt;BR&gt;
      RJ-9W&lt;BR&gt;
      RJ-9X&lt;BR&gt;
      -&lt;BR&gt;
      -&lt;BR&gt;
      -&lt;BR&gt;
      -&lt;BR&gt;
      -&lt;BR&gt;
      -&lt;BR&gt;
      -&lt;BR&gt;&lt;/FONT&gt;
    &lt;/TD&gt;
    &lt;TD BGCOLOR="#cccccc" ALIGN=CENTER&gt;&lt;FONT FACE=ARIAL SIZE=3&gt;
      -&lt;BR&gt;
      -&lt;BR&gt;
      -&lt;BR&gt;
      -&lt;BR&gt;
      -&lt;BR&gt;
      -&lt;BR&gt;
      -&lt;BR&gt;
      -&lt;BR&gt;
      -&lt;BR&gt;
      -&lt;BR&gt;
      3103P&lt;BR&gt;
      3103Y&lt;BR&gt;
      3103Z&lt;BR&gt;
      3103P&lt;BR&gt;
      3103Y&lt;BR&gt;
      3103Z&lt;BR&gt;
      -&lt;BR&gt;
      -&lt;BR&gt;
      -&lt;BR&gt;
      -&lt;BR&gt;
      -&lt;BR&gt;
      -&lt;BR&gt;
      3105P/3106P&lt;BR&gt;
      3105W/3106W&lt;BR&gt;
      3105X/3106X&lt;BR&gt;
      3105Y/3106Y&lt;BR&gt;
      3105Z/3105Z&lt;BR&gt;
      3102P&lt;BR&gt;
      3102W&lt;BR&gt;
      3102X&lt;BR&gt;
      3102Y&lt;BR&gt;
      3102Z&lt;BR&gt;&lt;/FONT&gt;
    &lt;/TD&gt;
    &lt;TD BGCOLOR="#cccccc" ALIGN=CENTER&gt;&lt;FONT FACE=ARIAL SIZE=3&gt;
      -&lt;BR&gt;
      -&lt;BR&gt;
      -&lt;BR&gt;
      -&lt;BR&gt;
      -&lt;BR&gt;
      -&lt;BR&gt;
      -&lt;BR&gt;
      -&lt;BR&gt;
      -&lt;BR&gt;
      -&lt;BR&gt;
      -&lt;BR&gt;
      -&lt;BR&gt;
      -&lt;BR&gt;
      -&lt;BR&gt;
      -&lt;BR&gt;
      -&lt;BR&gt;
      -&lt;BR&gt;
      -&lt;BR&gt;
      -&lt;BR&gt;
      -&lt;BR&gt;
      -&lt;BR&gt;
      -&lt;BR&gt;
      EVMCBG&lt;BR&gt;
      EVMCCG&lt;BR&gt;
      -&lt;BR&gt;
      -&lt;BR&gt;
      -&lt;BR&gt;
      -&lt;BR&gt;
      -&lt;BR&gt;
      -&lt;BR&gt;
      -&lt;BR&gt;
      -&lt;BR&gt;&lt;/FONT&gt;
    &lt;/TD&gt;
    &lt;TD BGCOLOR="#cccccc" ALIGN=CENTER&gt;&lt;FONT FACE=ARIAL SIZE=3&gt;
      55-1-X&lt;BR&gt;
      55-4-X&lt;BR&gt;
      55-3-X&lt;BR&gt;
      55-2-X&lt;BR&gt;
      -&lt;BR&gt;
      -&lt;BR&gt;
      -&lt;BR&gt;
      -&lt;BR&gt;
      -&lt;BR&gt;
      -&lt;BR&gt;
      -&lt;BR&gt;
      -&lt;BR&gt;
      -&lt;BR&gt;
      -&lt;BR&gt;
      -&lt;BR&gt;
      -&lt;BR&gt;
      50-2-X&lt;BR&gt;
      50-4-X&lt;BR&gt;
      50-3-X&lt;BR&gt;
      -&lt;BR&gt;
      -&lt;BR&gt;
      -&lt;BR&gt;
      64P&lt;BR&gt;
      64W&lt;BR&gt;
      64X&lt;BR&gt;
      64Y&lt;BR&gt;
      64Z&lt;BR&gt;
      -&lt;BR&gt;
      -&lt;BR&gt;
      -&lt;BR&gt;
      -&lt;BR&gt;
      -&lt;BR&gt;&lt;/FONT&gt;
    &lt;/TD&gt;
    &lt;TD BGCOLOR="#cccccc" ALIGN=CENTER&gt;&lt;FONT FACE=ARIAL SIZE=3&gt;
      RT/RTR22&lt;BR&gt;
      RT/RTR22&lt;BR&gt;
      RT/RTR22&lt;BR&gt;
      RT/RTR22&lt;BR&gt;
      RJ/RJR22&lt;BR&gt;
      RJ/RJR22&lt;BR&gt;
      RJ/RJR22&lt;BR&gt;
      RT/RTR26&lt;BR&gt;
      RT/RTR26&lt;BR&gt;
      RT/RTR26&lt;BR&gt;
      RJ/RJR26&lt;BR&gt;
      RJ/RJR26&lt;BR&gt;
      RJ/RJR26&lt;BR&gt;
      RJ/RJR26&lt;BR&gt;
      RJ/RJR26&lt;BR&gt;
      RJ/RJR26&lt;BR&gt;
      RT/RTR24&lt;BR&gt;
      RT/RTR24&lt;BR&gt;
      RT/RTR24&lt;BR&gt;
      RJ/RJR24&lt;BR&gt;
      RJ/RJR24&lt;BR&gt;
      RJ/RJR24&lt;BR&gt;
      RJ/RJR24&lt;BR&gt;
      RJ/RJR24&lt;BR&gt;
      RJ/RJR24&lt;BR&gt;
      -&lt;BR&gt;
      -&lt;BR&gt;
      -&lt;BR&gt;
      -&lt;BR&gt;
      -&lt;BR&gt;
      -&lt;BR&gt;
      -&lt;BR&gt;&lt;/FONT&gt;
    &lt;/TD&gt;
  &lt;/TR&gt;
  &lt;TR&gt;
    &lt;TD COLSPAN=8&gt;&amp;nbsp;
    &lt;/TD&gt;
  &lt;/TR&gt;
  &lt;TR&gt;
    &lt;TD COLSPAN=8&gt;
      &lt;FONT SIZE=4 FACE=ARIAL&gt;&lt;B&gt;SINGLE TURN&lt;/B&gt;&lt;/FONT&gt;
    &lt;/TD&gt;
  &lt;/TR&gt;
  &lt;TR&gt;
    &lt;TD ALIGN=CENTER&gt;
      &lt;FONT SIZE=3 FACE=ARIAL&gt;&lt;B&gt;BOURN&lt;/B&gt;&lt;/FONT&gt;
    &lt;/TD&gt;
    &lt;TD ALIGN=CENTER&gt;
      &lt;FONT SIZE=3 FACE=ARIAL&gt;&lt;B&gt;BI&amp;nbsp;TECH&lt;/B&gt;&lt;/FONT&gt;
    &lt;/TD&gt;
    &lt;TD ALIGN=CENTER&gt;
      &lt;FONT SIZE=3 FACE=ARIAL&gt;&lt;B&gt;DALE-VISHAY&lt;/B&gt;&lt;/FONT&gt;
    &lt;/TD&gt;
    &lt;TD ALIGN=CENTER&gt;
      &lt;FONT SIZE=3 FACE=ARIAL&gt;&lt;B&gt;PHILIPS/MEPCO&lt;/B&gt;&lt;/FONT&gt;
    &lt;/TD&gt;
    &lt;TD ALIGN=CENTER&gt;
      &lt;FONT SIZE=3 FACE=ARIAL&gt;&lt;B&gt;MURATA&lt;/B&gt;&lt;/FONT&gt;
    &lt;/TD&gt;
    &lt;TD ALIGN=CENTER&gt;
      &lt;FONT SIZE=3 FACE=ARIAL&gt;&lt;B&gt;PANASONIC&lt;/B&gt;&lt;/FONT&gt;
    &lt;/TD&gt;
    &lt;TD ALIGN=CENTER&gt;
      &lt;FONT SIZE=3 FACE=ARIAL&gt;&lt;B&gt;SPECTROL&lt;/B&gt;&lt;/FONT&gt;
    &lt;/TD&gt;
    &lt;TD ALIGN=CENTER&gt;
      &lt;FONT SIZE=3 FACE=ARIAL&gt;&lt;B&gt;MILSPEC&lt;/B&gt;&lt;/FONT&gt;
    &lt;/TD&gt;
  &lt;/TR&gt;
  &lt;TR&gt;
    &lt;TD BGCOLOR="#cccccc" ALIGN=CENTER&gt;&lt;FONT FACE=ARIAL SIZE=3&gt;
      3323P&lt;BR&gt;
      3323S&lt;BR&gt;
      3323W&lt;BR&gt;
      3329H&lt;BR&gt;
      3329P&lt;BR&gt;
      3329W&lt;BR&gt;
      3339H&lt;BR&gt;
      3339P&lt;BR&gt;
      3339W&lt;BR&gt;
      3352E&lt;BR&gt;
      3352H&lt;BR&gt;
      3352K&lt;BR&gt;
      3352P&lt;BR&gt;
      3352T&lt;BR&gt;
      3352V&lt;BR&gt;
      3352W&lt;BR&gt;
      3362H&lt;BR&gt;
      3362M&lt;BR&gt;
      3362P&lt;BR&gt;
      3362R&lt;BR&gt;
      3362S&lt;BR&gt;
      3362U&lt;BR&gt;
      3362W&lt;BR&gt;
      3362X&lt;BR&gt;
      3386B&lt;BR&gt;
      3386C&lt;BR&gt;
      3386F&lt;BR&gt;
      3386H&lt;BR&gt;
      3386K&lt;BR&gt;
      3386M&lt;BR&gt;
      3386P&lt;BR&gt;
      3386S&lt;BR&gt;
      3386W&lt;BR&gt;
      3386X&lt;BR&gt;&lt;/FONT&gt;
    &lt;/TD&gt;
    &lt;TD BGCOLOR="#cccccc" ALIGN=CENTER&gt;&lt;FONT FACE=ARIAL SIZE=3&gt;
      25P&lt;BR&gt;
      25S&lt;BR&gt;
      25RX&lt;BR&gt;
      82P&lt;BR&gt;
      82M&lt;BR&gt;
      82PA&lt;BR&gt;
      -&lt;BR&gt;
      -&lt;BR&gt;
      -&lt;BR&gt;
      91E&lt;BR&gt;
      91X&lt;BR&gt;
      91T&lt;BR&gt;
      91B&lt;BR&gt;
      91A&lt;BR&gt;
      91V&lt;BR&gt;
      91W&lt;BR&gt;
      25W&lt;BR&gt;
      25V&lt;BR&gt;
      25P&lt;BR&gt;
      -&lt;BR&gt;
      25S&lt;BR&gt;
      25U&lt;BR&gt;
      25RX&lt;BR&gt;
      25X&lt;BR&gt;
      72XW&lt;BR&gt;
      72XL&lt;BR&gt;
      72PM&lt;BR&gt;
      72RX&lt;BR&gt;
      -&lt;BR&gt;
      72PX&lt;BR&gt;
      72P&lt;BR&gt;
      72RXW&lt;BR&gt;
      72RXL&lt;BR&gt;
      72X&lt;BR&gt;&lt;/FONT&gt;
    &lt;/TD&gt;
    &lt;TD BGCOLOR="#cccccc" ALIGN=CENTER&gt;&lt;FONT FACE=ARIAL SIZE=3&gt;
      -&lt;BR&gt;
      -&lt;BR&gt;
      -&lt;BR&gt;
      T7YB&lt;BR&gt;
      T7YA&lt;BR&gt;
      -&lt;BR&gt;
      -&lt;BR&gt;
      -&lt;BR&gt;
      -&lt;BR&gt;
      -&lt;BR&gt;
      -&lt;BR&gt;
      -&lt;BR&gt;
      -&lt;BR&gt;
      -&lt;BR&gt;
      -&lt;BR&gt;
      -&lt;BR&gt;
      -&lt;BR&gt;
      TXD&lt;BR&gt;
      TYA&lt;BR&gt;
      TYP&lt;BR&gt;
      -&lt;BR&gt;
      TYD&lt;BR&gt;
      TX&lt;BR&gt;
      -&lt;BR&gt;
      150SX&lt;BR&gt;
      100SX&lt;BR&gt;
      102T&lt;BR&gt;
      101S&lt;BR&gt;
      190T&lt;BR&gt;
      150TX&lt;BR&gt;
      101&lt;BR&gt;
      -&lt;BR&gt;
      -&lt;BR&gt;
      101SX&lt;BR&gt;&lt;/FONT&gt;
    &lt;/TD&gt;
    &lt;TD BGCOLOR="#cccccc" ALIGN=CENTER&gt;&lt;FONT FACE=ARIAL SIZE=3&gt;
      ET6P&lt;BR&gt;
      ET6S&lt;BR&gt;
      ET6X&lt;BR&gt;
      RJ-6W/8014EMW&lt;BR&gt;
      RJ-6P/8014EMP&lt;BR&gt;
      RJ-6X/8014EMX&lt;BR&gt;
      TM7W&lt;BR&gt;
      TM7P&lt;BR&gt;
      TM7X&lt;BR&gt;
      -&lt;BR&gt;
      8017SMS&lt;BR&gt;
      -&lt;BR&gt;
      8017SMB&lt;BR&gt;
      8017SMA&lt;BR&gt;
      -&lt;BR&gt;
      -&lt;BR&gt;
      CT-6W&lt;BR&gt;
      CT-6H&lt;BR&gt;
      CT-6P&lt;BR&gt;
      CT-6R&lt;BR&gt;
      -&lt;BR&gt;
      CT-6V&lt;BR&gt;
      CT-6X&lt;BR&gt;
      -&lt;BR&gt;
      -&lt;BR&gt;
      8038EKV&lt;BR&gt;
      -&lt;BR&gt;
      8038EKX&lt;BR&gt;
      -&lt;BR&gt;
      -&lt;BR&gt;
      8038EKP&lt;BR&gt;
      8038EKZ&lt;BR&gt;
      8038EKW&lt;BR&gt;
      -&lt;BR&gt;&lt;/FONT&gt;
    &lt;/TD&gt;
    &lt;TD BGCOLOR="#cccccc" ALIGN=CENTER&gt;&lt;FONT FACE=ARIAL SIZE=3&gt;
      -&lt;BR&gt;
      -&lt;BR&gt;
      -&lt;BR&gt;
      3321H&lt;BR&gt;
      3321P&lt;BR&gt;
      3321N&lt;BR&gt;
      1102H&lt;BR&gt;
      1102P&lt;BR&gt;
      1102T&lt;BR&gt;
      RVA0911V304A&lt;BR&gt;
      -&lt;BR&gt;
      RVA0911H413A&lt;BR&gt;
      RVG0707V100A&lt;BR&gt;
      RVA0607V(H)306A&lt;BR&gt;
      RVA1214H213A&lt;BR&gt;
      -&lt;BR&gt;
      -&lt;BR&gt;
      -&lt;BR&gt;
      -&lt;BR&gt;
      -&lt;BR&gt;
      -&lt;BR&gt;
      -&lt;BR&gt;
      -&lt;BR&gt;
      -&lt;BR&gt;
      3104B&lt;BR&gt;
      3104C&lt;BR&gt;
      3104F&lt;BR&gt;
      3104H&lt;BR&gt;
      -&lt;BR&gt;
      3104M&lt;BR&gt;
      3104P&lt;BR&gt;
      3104S&lt;BR&gt;
      3104W&lt;BR&gt;
      3104X&lt;BR&gt;&lt;/FONT&gt;
    &lt;/TD&gt;
    &lt;TD BGCOLOR="#cccccc" ALIGN=CENTER&gt;&lt;FONT FACE=ARIAL SIZE=3&gt;
      EVMQ0G&lt;BR&gt;
      EVMQIG&lt;BR&gt;
      EVMQ3G&lt;BR&gt;
      EVMS0G&lt;BR&gt;
      EVMQ0G&lt;BR&gt;
      EVMG0G&lt;BR&gt;
      -&lt;BR&gt;
      -&lt;BR&gt;
      -&lt;BR&gt;
      EVMK4GA00B&lt;BR&gt;
      EVM30GA00B&lt;BR&gt;
      EVMK0GA00B&lt;BR&gt;
      EVM38GA00B&lt;BR&gt;
      EVMB6&lt;BR&gt;
      EVLQ0&lt;BR&gt;
      -&lt;BR&gt;
      EVMMSG&lt;BR&gt;
      EVMMBG&lt;BR&gt;
      EVMMAG&lt;BR&gt;
      -&lt;BR&gt;
      -&lt;BR&gt;
      EVMMCS&lt;BR&gt;
      -&lt;BR&gt;
      -&lt;BR&gt;
      -&lt;BR&gt;
      -&lt;BR&gt;
      -&lt;BR&gt;
      EVMM1&lt;BR&gt;
      -&lt;BR&gt;
      -&lt;BR&gt;
      EVMM0&lt;BR&gt;
      -&lt;BR&gt;
      -&lt;BR&gt;
      EVMM3&lt;BR&gt;&lt;/FONT&gt;
    &lt;/TD&gt;
    &lt;TD BGCOLOR="#cccccc" ALIGN=CENTER&gt;&lt;FONT FACE=ARIAL SIZE=3&gt;
      -&lt;BR&gt;
      -&lt;BR&gt;
      -&lt;BR&gt;
      62-3-1&lt;BR&gt;
      62-1-2&lt;BR&gt;
      -&lt;BR&gt;
      -&lt;BR&gt;
      -&lt;BR&gt;
      -&lt;BR&gt;
      -&lt;BR&gt;
      -&lt;BR&gt;
      -&lt;BR&gt;
      -&lt;BR&gt;
      -&lt;BR&gt;
      -&lt;BR&gt;
      -&lt;BR&gt;
      67R&lt;BR&gt;
      -&lt;BR&gt;
      67P&lt;BR&gt;
      -&lt;BR&gt;
      -&lt;BR&gt;
      -&lt;BR&gt;
      -&lt;BR&gt;
      67X&lt;BR&gt;
      63V&lt;BR&gt;
      63S&lt;BR&gt;
      63M&lt;BR&gt;
      -&lt;BR&gt;
      -&lt;BR&gt;
      63H&lt;BR&gt;
      63P&lt;BR&gt;
      -&lt;BR&gt;
      -&lt;BR&gt;
      63X&lt;BR&gt;&lt;/FONT&gt;
    &lt;/TD&gt;
    &lt;TD BGCOLOR="#cccccc" ALIGN=CENTER&gt;&lt;FONT FACE=ARIAL SIZE=3&gt;
      -&lt;BR&gt;
      -&lt;BR&gt;
      -&lt;BR&gt;
      RJ/RJR50&lt;BR&gt;
      RJ/RJR50&lt;BR&gt;
      RJ/RJR50&lt;BR&gt;
      -&lt;BR&gt;
      -&lt;BR&gt;
      -&lt;BR&gt;
      -&lt;BR&gt;
      -&lt;BR&gt;
      -&lt;BR&gt;
      -&lt;BR&gt;
      -&lt;BR&gt;
      -&lt;BR&gt;
      -&lt;BR&gt;
      -&lt;BR&gt;
      -&lt;BR&gt;
      -&lt;BR&gt;
      -&lt;BR&gt;
      -&lt;BR&gt;
      -&lt;BR&gt;
      -&lt;BR&gt;
      -&lt;BR&gt;
      -&lt;BR&gt;
      -&lt;BR&gt;
      -&lt;BR&gt;
      -&lt;BR&gt;
      -&lt;BR&gt;
      -&lt;BR&gt;
      -&lt;BR&gt;
      -&lt;BR&gt;
      -&lt;BR&gt;
      -&lt;BR&gt;&lt;/FONT&gt;
    &lt;/TD&gt;
  &lt;/TR&gt;
&lt;/TABLE&gt;
&lt;P&gt;&amp;nbsp;&lt;P&gt;
&lt;TABLE BORDER=0 CELLSPACING=1 CELLPADDING=3&gt;
  &lt;TR&gt;
    &lt;TD COLSPAN=7&gt;
      &lt;FONT color="#0000FF" SIZE=4 FACE=ARIAL&gt;&lt;B&gt;SMD TRIM-POT CROSS REFERENCE&lt;/B&gt;&lt;/FONT&gt;
      &lt;P&gt;
      &lt;FONT SIZE=4 FACE=ARIAL&gt;&lt;B&gt;MULTI-TURN&lt;/B&gt;&lt;/FONT&gt;
    &lt;/TD&gt;
  &lt;/TR&gt;
  &lt;TR&gt;
    &lt;TD&gt;
      &lt;FONT SIZE=3 FACE=ARIAL&gt;&lt;B&gt;BOURNS&lt;/B&gt;&lt;/FONT&gt;
    &lt;/TD&gt;
    &lt;TD&gt;
      &lt;FONT SIZE=3 FACE=ARIAL&gt;&lt;B&gt;BI&amp;nbsp;TECH&lt;/B&gt;&lt;/FONT&gt;
    &lt;/TD&gt;
    &lt;TD&gt;
      &lt;FONT SIZE=3 FACE=ARIAL&gt;&lt;B&gt;DALE-VISHAY&lt;/B&gt;&lt;/FONT&gt;
    &lt;/TD&gt;
    &lt;TD&gt;
      &lt;FONT SIZE=3 FACE=ARIAL&gt;&lt;B&gt;PHILIPS/MEPCO&lt;/B&gt;&lt;/FONT&gt;
    &lt;/TD&gt;
    &lt;TD&gt;
      &lt;FONT SIZE=3 FACE=ARIAL&gt;&lt;B&gt;PANASONIC&lt;/B&gt;&lt;/FONT&gt;
    &lt;/TD&gt;
    &lt;TD&gt;
      &lt;FONT SIZE=3 FACE=ARIAL&gt;&lt;B&gt;TOCOS&lt;/B&gt;&lt;/FONT&gt;
    &lt;/TD&gt;
    &lt;TD&gt;
      &lt;FONT SIZE=3 FACE=ARIAL&gt;&lt;B&gt;AUX/KYOCERA&lt;/B&gt;&lt;/FONT&gt;
    &lt;/TD&gt;
  &lt;/TR&gt;
  &lt;TR&gt;
    &lt;TD BGCOLOR="#cccccc" ALIGN=CENTER&gt;&lt;FONT FACE=ARIAL SIZE=3&gt;
      3224G&lt;BR&gt;
      3224J&lt;BR&gt;
      3224W&lt;BR&gt;
      3269P&lt;BR&gt;
      3269W&lt;BR&gt;
      3269X&lt;BR&gt;&lt;/FONT&gt;
    &lt;/TD&gt;
    &lt;TD BGCOLOR="#cccccc" ALIGN=CENTER&gt;&lt;FONT FACE=ARIAL SIZE=3&gt;
      44G&lt;BR&gt;
      44J&lt;BR&gt;
      44W&lt;BR&gt;
      84P&lt;BR&gt;
      84W&lt;BR&gt;
      84X&lt;BR&gt;&lt;/FONT&gt;
    &lt;/TD&gt;
    &lt;TD BGCOLOR="#cccccc" ALIGN=CENTER&gt;&lt;FONT FACE=ARIAL SIZE=3&gt;
      -&lt;BR&gt;
      -&lt;BR&gt;
      -&lt;BR&gt;
      ST63Z&lt;BR&gt;
      ST63Y&lt;BR&gt;
      -&lt;BR&gt;&lt;/FONT&gt;
    &lt;/TD&gt;
    &lt;TD BGCOLOR="#cccccc" ALIGN=CENTER&gt;&lt;FONT FACE=ARIAL SIZE=3&gt;
      -&lt;BR&gt;
      -&lt;BR&gt;
      -&lt;BR&gt;
      ST5P&lt;BR&gt;
      ST5W&lt;BR&gt;
      ST5X&lt;BR&gt;&lt;/FONT&gt;
    &lt;/TD&gt;
    &lt;TD BGCOLOR="#cccccc" ALIGN=CENTER&gt;&lt;FONT FACE=ARIAL SIZE=3&gt;
      -&lt;BR&gt;
      -&lt;BR&gt;
      -&lt;BR&gt;
      -&lt;BR&gt;
      -&lt;BR&gt;
      -&lt;BR&gt;&lt;/FONT&gt;
    &lt;/TD&gt;
    &lt;TD BGCOLOR="#cccccc" ALIGN=CENTER&gt;&lt;FONT FACE=ARIAL SIZE=3&gt;
      -&lt;BR&gt;
      -&lt;BR&gt;
      -&lt;BR&gt;
      -&lt;BR&gt;
      -&lt;BR&gt;
      -&lt;BR&gt;&lt;/FONT&gt;
    &lt;/TD&gt;
    &lt;TD BGCOLOR="#cccccc" ALIGN=CENTER&gt;&lt;FONT FACE=ARIAL SIZE=3&gt;
      -&lt;BR&gt;
      -&lt;BR&gt;
      -&lt;BR&gt;
      -&lt;BR&gt;
      -&lt;BR&gt;
      -&lt;BR&gt;&lt;/FONT&gt;
    &lt;/TD&gt;
  &lt;/TR&gt;
  &lt;TR&gt;
    &lt;TD COLSPAN=7&gt;&amp;nbsp;
    &lt;/TD&gt;
  &lt;/TR&gt;
  &lt;TR&gt;
    &lt;TD COLSPAN=7&gt;
      &lt;FONT SIZE=4 FACE=ARIAL&gt;&lt;B&gt;SINGLE TURN&lt;/B&gt;&lt;/FONT&gt;
    &lt;/TD&gt;
  &lt;/TR&gt;
  &lt;TR&gt;
    &lt;TD&gt;
      &lt;FONT SIZE=3 FACE=ARIAL&gt;&lt;B&gt;BOURNS&lt;/B&gt;&lt;/FONT&gt;
    &lt;/TD&gt;
    &lt;TD&gt;
      &lt;FONT SIZE=3 FACE=ARIAL&gt;&lt;B&gt;BI&amp;nbsp;TECH&lt;/B&gt;&lt;/FONT&gt;
    &lt;/TD&gt;
    &lt;TD&gt;
      &lt;FONT SIZE=3 FACE=ARIAL&gt;&lt;B&gt;DALE-VISHAY&lt;/B&gt;&lt;/FONT&gt;
    &lt;/TD&gt;
    &lt;TD&gt;
      &lt;FONT SIZE=3 FACE=ARIAL&gt;&lt;B&gt;PHILIPS/MEPCO&lt;/B&gt;&lt;/FONT&gt;
    &lt;/TD&gt;
    &lt;TD&gt;
      &lt;FONT SIZE=3 FACE=ARIAL&gt;&lt;B&gt;PANASONIC&lt;/B&gt;&lt;/FONT&gt;
    &lt;/TD&gt;
    &lt;TD&gt;
      &lt;FONT SIZE=3 FACE=ARIAL&gt;&lt;B&gt;TOCOS&lt;/B&gt;&lt;/FONT&gt;
    &lt;/TD&gt;
    &lt;TD&gt;
      &lt;FONT SIZE=3 FACE=ARIAL&gt;&lt;B&gt;AUX/KYOCERA&lt;/B&gt;&lt;/FONT&gt;
    &lt;/TD&gt;
  &lt;/TR&gt;
  &lt;TR&gt;
    &lt;TD BGCOLOR="#cccccc" ALIGN=CENTER&gt;&lt;FONT FACE=ARIAL SIZE=3&gt;
      3314G&lt;BR&gt;
      3314J&lt;BR&gt;
      3364A/B&lt;BR&gt;
      3364C/D&lt;BR&gt;
      3364W/X&lt;BR&gt;
      3313G&lt;BR&gt;
      3313J&lt;BR&gt;&lt;/FONT&gt;
    &lt;/TD&gt;
    &lt;TD BGCOLOR="#cccccc" ALIGN=CENTER&gt;&lt;FONT FACE=ARIAL SIZE=3&gt;
      23B&lt;BR&gt;
      23A&lt;BR&gt;
      21X&lt;BR&gt;
      21W&lt;BR&gt;
      -&lt;BR&gt;
      22B&lt;BR&gt;
      22A&lt;BR&gt;&lt;/FONT&gt;
    &lt;/TD&gt;
    &lt;TD BGCOLOR="#cccccc" ALIGN=CENTER&gt;&lt;FONT FACE=ARIAL SIZE=3&gt;
      ST5YL/ST53YL&lt;BR&gt;
      ST5YJ/5T53YJ&lt;BR&gt;
      ST-23A&lt;BR&gt;
      ST-22B&lt;BR&gt;
      ST-22&lt;BR&gt;
      -&lt;BR&gt;
      -&lt;BR&gt;&lt;/FONT&gt;
    &lt;/TD&gt;
    &lt;TD BGCOLOR="#cccccc" ALIGN=CENTER&gt;&lt;FONT FACE=ARIAL SIZE=3&gt;
      ST-4B&lt;BR&gt;
      ST-4A&lt;BR&gt;
      -&lt;BR&gt;
      -&lt;BR&gt;
      -&lt;BR&gt;
      ST-3B&lt;BR&gt;
      ST-3A&lt;BR&gt;&lt;/FONT&gt;
    &lt;/TD&gt;
    &lt;TD BGCOLOR="#cccccc" ALIGN=CENTER&gt;&lt;FONT FACE=ARIAL SIZE=3&gt;
      -&lt;BR&gt;
      EVM-6YS&lt;BR&gt;
      EVM-1E&lt;BR&gt;
      EVM-1G&lt;BR&gt;
      EVM-1D&lt;BR&gt;
      -&lt;BR&gt;
      -&lt;BR&gt;&lt;/FONT&gt;
    &lt;/TD&gt;
    &lt;TD BGCOLOR="#cccccc" ALIGN=CENTER&gt;&lt;FONT FACE=ARIAL SIZE=3&gt;
      G4B&lt;BR&gt;
      G4A&lt;BR&gt;
      TR04-3S1&lt;BR&gt;
      TRG04-2S1&lt;BR&gt;
      -&lt;BR&gt;
      -&lt;BR&gt;
      -&lt;BR&gt;&lt;/FONT&gt;
    &lt;/TD&gt;
    &lt;TD BGCOLOR="#cccccc" ALIGN=CENTER&gt;&lt;FONT FACE=ARIAL SIZE=3&gt;
      -&lt;BR&gt;
      -&lt;BR&gt;
      DVR-43A&lt;BR&gt;
      CVR-42C&lt;BR&gt;
      CVR-42A/C&lt;BR&gt;
      -&lt;BR&gt;
      -&lt;BR&gt;&lt;/FONT&gt;
    &lt;/TD&gt;
  &lt;/TR&gt;
&lt;/TABLE&gt;
&lt;P&gt;
&lt;FONT SIZE=4 FACE=ARIAL&gt;&lt;B&gt;ALT =&amp;nbsp;ALTERNATE&lt;/B&gt;&lt;/FONT&gt;
&lt;P&gt;

&amp;nbsp;
&lt;P&gt;
&lt;/td&gt;
&lt;/tr&gt;
&lt;/table&gt;</description>
<packages>
<package name="C0805" urn="urn:adsk.eagle:footprint:23124/1" library_version="3">
<description>&lt;b&gt;CAPACITOR&lt;/b&gt;&lt;p&gt;</description>
<wire x1="-1.973" y1="0.983" x2="1.973" y2="0.983" width="0.0508" layer="39"/>
<wire x1="1.973" y1="-0.983" x2="-1.973" y2="-0.983" width="0.0508" layer="39"/>
<wire x1="-1.973" y1="-0.983" x2="-1.973" y2="0.983" width="0.0508" layer="39"/>
<wire x1="-0.381" y1="0.66" x2="0.381" y2="0.66" width="0.1016" layer="51"/>
<wire x1="-0.356" y1="-0.66" x2="0.381" y2="-0.66" width="0.1016" layer="51"/>
<wire x1="1.973" y1="0.983" x2="1.973" y2="-0.983" width="0.0508" layer="39"/>
<smd name="1" x="-0.95" y="0" dx="1.3" dy="1.5" layer="1"/>
<smd name="2" x="0.95" y="0" dx="1.3" dy="1.5" layer="1"/>
<text x="-1.27" y="1.27" size="1.27" layer="25">&gt;NAME</text>
<text x="-1.27" y="-2.54" size="1.27" layer="27">&gt;VALUE</text>
<rectangle x1="-1.0922" y1="-0.7239" x2="-0.3421" y2="0.7262" layer="51"/>
<rectangle x1="0.3556" y1="-0.7239" x2="1.1057" y2="0.7262" layer="51"/>
<rectangle x1="-0.1001" y1="-0.4001" x2="0.1001" y2="0.4001" layer="35"/>
</package>
<package name="SMC_B" urn="urn:adsk.eagle:footprint:22936/1" library_version="3">
<description>&lt;b&gt;Chip Capacitor &lt;/b&gt; Polar tantalum capacitors with solid electrolyte&lt;p&gt;
Siemens Matsushita Components B 45 194, B 45 197, B 45 198&lt;br&gt;
Source: www.farnell.com/datasheets/247.pdf</description>
<wire x1="-1.6" y1="1.35" x2="1.6" y2="1.35" width="0.1016" layer="51"/>
<wire x1="1.6" y1="1.35" x2="1.6" y2="-1.35" width="0.1016" layer="51"/>
<wire x1="1.6" y1="-1.35" x2="-1.6" y2="-1.35" width="0.1016" layer="51"/>
<wire x1="-1.6" y1="-1.35" x2="-1.6" y2="1.35" width="0.1016" layer="51"/>
<smd name="+" x="-1.5" y="0" dx="1.6" dy="2.4" layer="1"/>
<smd name="-" x="1.5" y="0" dx="1.6" dy="2.4" layer="1" rot="R180"/>
<text x="-1.905" y="1.905" size="1.016" layer="25">&gt;NAME</text>
<text x="-1.905" y="-2.54" size="1.016" layer="27">&gt;VALUE</text>
<rectangle x1="-1.75" y1="-1.1" x2="-1.55" y2="1.1" layer="51"/>
<rectangle x1="1.55" y1="-1.1" x2="1.75" y2="1.1" layer="51" rot="R180"/>
<rectangle x1="-1.6" y1="-1.35" x2="-0.95" y2="1.35" layer="51"/>
</package>
<package name="R0805" urn="urn:adsk.eagle:footprint:23045/1" library_version="3">
<description>&lt;b&gt;RESISTOR&lt;/b&gt;&lt;p&gt;</description>
<wire x1="-0.41" y1="0.635" x2="0.41" y2="0.635" width="0.1524" layer="51"/>
<wire x1="-0.41" y1="-0.635" x2="0.41" y2="-0.635" width="0.1524" layer="51"/>
<wire x1="-1.973" y1="0.983" x2="1.973" y2="0.983" width="0.0508" layer="39"/>
<wire x1="1.973" y1="0.983" x2="1.973" y2="-0.983" width="0.0508" layer="39"/>
<wire x1="1.973" y1="-0.983" x2="-1.973" y2="-0.983" width="0.0508" layer="39"/>
<wire x1="-1.973" y1="-0.983" x2="-1.973" y2="0.983" width="0.0508" layer="39"/>
<smd name="1" x="-0.95" y="0" dx="1.3" dy="1.5" layer="1"/>
<smd name="2" x="0.95" y="0" dx="1.3" dy="1.5" layer="1"/>
<text x="-0.635" y="1.27" size="1.27" layer="25">&gt;NAME</text>
<text x="-0.635" y="-2.54" size="1.27" layer="27">&gt;VALUE</text>
<rectangle x1="0.4064" y1="-0.6985" x2="1.0564" y2="0.7015" layer="51"/>
<rectangle x1="-1.0668" y1="-0.6985" x2="-0.4168" y2="0.7015" layer="51"/>
<rectangle x1="-0.1999" y1="-0.5001" x2="0.1999" y2="0.5001" layer="35"/>
</package>
</packages>
<packages3d>
<package3d name="C0805" urn="urn:adsk.eagle:package:23617/2" type="model" library_version="3">
<description>CAPACITOR</description>
<packageinstances>
<packageinstance name="C0805"/>
</packageinstances>
</package3d>
<package3d name="SMC_B" urn="urn:adsk.eagle:package:23436/1" type="box" library_version="3">
<description>Chip Capacitor  Polar tantalum capacitors with solid electrolyte
Siemens Matsushita Components B 45 194, B 45 197, B 45 198
Source: www.farnell.com/datasheets/247.pdf</description>
<packageinstances>
<packageinstance name="SMC_B"/>
</packageinstances>
</package3d>
<package3d name="R0805" urn="urn:adsk.eagle:package:23553/2" type="model" library_version="3">
<description>RESISTOR</description>
<packageinstances>
<packageinstance name="R0805"/>
</packageinstances>
</package3d>
</packages3d>
</library>
<library name="inductors" urn="urn:adsk.eagle:library:243">
<description>&lt;b&gt;Inductors and Filters&lt;/b&gt;&lt;p&gt;
Based on the previous library ind-a.lbr&lt;p&gt;
&lt;author&gt;Created by librarian@cadsoft.de&lt;/author&gt;</description>
<packages>
<package name="DR127" urn="urn:adsk.eagle:footprint:15034/1" library_version="2">
<description>&lt;b&gt;High Power Density, High Efficiency, Shielded Inductors&lt;/b&gt;&lt;p&gt;
Source: coiltronics_dr_series.pdf</description>
<wire x1="-6.5" y1="6.5" x2="6.525" y2="6.5" width="0.2032" layer="21"/>
<wire x1="6.525" y1="6.5" x2="6.525" y2="-6.5" width="0.2032" layer="21"/>
<wire x1="6.525" y1="-6.5" x2="-6.5" y2="-6.5" width="0.2032" layer="21"/>
<wire x1="-6.5" y1="-6.5" x2="-6.5" y2="6.5" width="0.2032" layer="21"/>
<wire x1="-4.5254" y1="3.783" x2="-3.8006" y2="4.5431" width="1.016" layer="21" curve="-202.065586" cap="flat"/>
<wire x1="-3.783" y1="-4.5254" x2="-4.5431" y2="-3.8006" width="1.016" layer="21" curve="-202.065586" cap="flat"/>
<wire x1="4.5254" y1="-3.783" x2="3.8006" y2="-4.5431" width="1.016" layer="21" curve="-202.065586" cap="flat"/>
<wire x1="3.783" y1="4.5254" x2="4.5431" y2="3.8006" width="1.016" layer="21" curve="-202.065586" cap="flat"/>
<wire x1="0" y1="5.9" x2="4.9" y2="3.275" width="0.2032" layer="21" curve="-56.209779"/>
<wire x1="0" y1="5.9" x2="-4.95" y2="3.225" width="0.2032" layer="21" curve="56.95663"/>
<wire x1="0" y1="-5.9" x2="-4.9" y2="-3.275" width="0.2032" layer="21" curve="-56.209779"/>
<wire x1="0" y1="-5.9" x2="4.95" y2="-3.225" width="0.2032" layer="21" curve="56.95663"/>
<circle x="0" y="0" radius="5.9" width="0.2032" layer="51"/>
<smd name="1" x="-4.975" y="0" dx="3.85" dy="5.5" layer="1"/>
<smd name="2" x="4.975" y="0" dx="3.85" dy="5.5" layer="1"/>
<text x="-2.5" y="3" size="1.27" layer="25">&gt;NAME</text>
<text x="-3" y="-4.5" size="1.27" layer="27">&gt;VALUE</text>
</package>
</packages>
<packages3d>
<package3d name="DR127" urn="urn:adsk.eagle:package:15117/1" type="box" library_version="2">
<description>High Power Density, High Efficiency, Shielded Inductors
Source: coiltronics_dr_series.pdf</description>
<packageinstances>
<packageinstance name="DR127"/>
</packageinstances>
</package3d>
</packages3d>
</library>
<library name="con-lstb" urn="urn:adsk.eagle:library:162">
<description>&lt;b&gt;Pin Headers&lt;/b&gt;&lt;p&gt;
Naming:&lt;p&gt;
MA = male&lt;p&gt;
# contacts - # rows&lt;p&gt;
W = angled&lt;p&gt;
&lt;author&gt;Created by librarian@cadsoft.de&lt;/author&gt;</description>
<packages>
<package name="MA03-1" urn="urn:adsk.eagle:footprint:8281/1" library_version="1">
<description>&lt;b&gt;PIN HEADER&lt;/b&gt;</description>
<wire x1="-3.175" y1="1.27" x2="-1.905" y2="1.27" width="0.1524" layer="21"/>
<wire x1="-1.905" y1="1.27" x2="-1.27" y2="0.635" width="0.1524" layer="21"/>
<wire x1="-1.27" y1="-0.635" x2="-1.905" y2="-1.27" width="0.1524" layer="21"/>
<wire x1="-1.27" y1="0.635" x2="-0.635" y2="1.27" width="0.1524" layer="21"/>
<wire x1="-0.635" y1="1.27" x2="0.635" y2="1.27" width="0.1524" layer="21"/>
<wire x1="0.635" y1="1.27" x2="1.27" y2="0.635" width="0.1524" layer="21"/>
<wire x1="1.27" y1="-0.635" x2="0.635" y2="-1.27" width="0.1524" layer="21"/>
<wire x1="0.635" y1="-1.27" x2="-0.635" y2="-1.27" width="0.1524" layer="21"/>
<wire x1="-0.635" y1="-1.27" x2="-1.27" y2="-0.635" width="0.1524" layer="21"/>
<wire x1="-3.81" y1="0.635" x2="-3.81" y2="-0.635" width="0.1524" layer="21"/>
<wire x1="-3.175" y1="1.27" x2="-3.81" y2="0.635" width="0.1524" layer="21"/>
<wire x1="-3.81" y1="-0.635" x2="-3.175" y2="-1.27" width="0.1524" layer="21"/>
<wire x1="-1.905" y1="-1.27" x2="-3.175" y2="-1.27" width="0.1524" layer="21"/>
<wire x1="1.27" y1="0.635" x2="1.905" y2="1.27" width="0.1524" layer="21"/>
<wire x1="1.905" y1="1.27" x2="3.175" y2="1.27" width="0.1524" layer="21"/>
<wire x1="3.175" y1="1.27" x2="3.81" y2="0.635" width="0.1524" layer="21"/>
<wire x1="3.81" y1="-0.635" x2="3.175" y2="-1.27" width="0.1524" layer="21"/>
<wire x1="3.175" y1="-1.27" x2="1.905" y2="-1.27" width="0.1524" layer="21"/>
<wire x1="1.905" y1="-1.27" x2="1.27" y2="-0.635" width="0.1524" layer="21"/>
<wire x1="3.81" y1="0.635" x2="3.81" y2="-0.635" width="0.1524" layer="21"/>
<pad name="1" x="-2.54" y="0" drill="1.016" shape="long" rot="R90"/>
<pad name="2" x="0" y="0" drill="1.016" shape="long" rot="R90"/>
<pad name="3" x="2.54" y="0" drill="1.016" shape="long" rot="R90"/>
<text x="-3.81" y="1.651" size="1.27" layer="25" ratio="10">&gt;NAME</text>
<text x="-5.08" y="-0.635" size="1.27" layer="21" ratio="10">1</text>
<text x="-3.81" y="-2.921" size="1.27" layer="27" ratio="10">&gt;VALUE</text>
<rectangle x1="-0.254" y1="-0.254" x2="0.254" y2="0.254" layer="51"/>
<rectangle x1="-2.794" y1="-0.254" x2="-2.286" y2="0.254" layer="51"/>
<rectangle x1="2.286" y1="-0.254" x2="2.794" y2="0.254" layer="51"/>
</package>
</packages>
<packages3d>
<package3d name="MA03-1" urn="urn:adsk.eagle:package:8339/1" type="box" library_version="1">
<description>PIN HEADER</description>
<packageinstances>
<packageinstance name="MA03-1"/>
</packageinstances>
</package3d>
</packages3d>
</library>
<library name="testpad" urn="urn:adsk.eagle:library:385">
<description>&lt;b&gt;Test Pins/Pads&lt;/b&gt;&lt;p&gt;
Cream on SMD OFF.&lt;br&gt;
new: Attribute TP_SIGNAL_NAME&lt;br&gt;
&lt;author&gt;Created by librarian@cadsoft.de&lt;/author&gt;</description>
<packages>
<package name="B2,54" urn="urn:adsk.eagle:footprint:27901/1" library_version="1">
<description>&lt;b&gt;TEST PAD&lt;/b&gt;</description>
<wire x1="-0.635" y1="0" x2="0.635" y2="0" width="0.0024" layer="37"/>
<wire x1="0" y1="-0.635" x2="0" y2="0.635" width="0.0024" layer="37"/>
<circle x="0" y="0" radius="0.635" width="0.254" layer="37"/>
<smd name="TP" x="0" y="0" dx="2.54" dy="2.54" layer="1" roundness="100" cream="no"/>
<text x="-1.27" y="1.651" size="1.27" layer="25" ratio="10">&gt;NAME</text>
<text x="-1.27" y="-1.397" size="0.0254" layer="27">&gt;VALUE</text>
<text x="-1.27" y="-3.175" size="1" layer="37">&gt;TP_SIGNAL_NAME</text>
</package>
</packages>
<packages3d>
<package3d name="B2,54" urn="urn:adsk.eagle:package:27948/1" type="box" library_version="1">
<description>TEST PAD</description>
<packageinstances>
<packageinstance name="B2,54"/>
</packageinstances>
</package3d>
</packages3d>
</library>
<library name="IC">
<packages>
<package name="TSSOP8" urn="urn:adsk.eagle:footprint:20626/1">
<description>&lt;b&gt;Thin Shrink Small Outline Package&lt;/b&gt;&lt;p&gt;
package type ST</description>
<wire x1="1.4" y1="-2.15" x2="1.4" y2="2.15" width="0.2032" layer="21"/>
<wire x1="1.4" y1="2.15" x2="-1.4" y2="2.15" width="0.2032" layer="21"/>
<wire x1="-1.4" y1="2.15" x2="-1.4" y2="-2.15" width="0.2032" layer="21"/>
<wire x1="-1.4" y1="-2.15" x2="1.4" y2="-2.15" width="0.2032" layer="21"/>
<circle x="-0.65" y="-1.625" radius="0.325" width="0" layer="21"/>
<smd name="1" x="-0.975" y="-2.925" dx="0.35" dy="1.2" layer="1"/>
<smd name="2" x="-0.325" y="-2.925" dx="0.35" dy="1.2" layer="1"/>
<smd name="3" x="0.325" y="-2.925" dx="0.35" dy="1.2" layer="1"/>
<smd name="4" x="0.975" y="-2.925" dx="0.35" dy="1.2" layer="1"/>
<smd name="5" x="0.975" y="2.925" dx="0.35" dy="1.2" layer="1"/>
<smd name="6" x="0.325" y="2.925" dx="0.35" dy="1.2" layer="1"/>
<smd name="7" x="-0.325" y="2.925" dx="0.35" dy="1.2" layer="1"/>
<smd name="8" x="-0.975" y="2.925" dx="0.35" dy="1.2" layer="1"/>
<text x="-1.625" y="-2.925" size="1.27" layer="25" rot="R90">&gt;NAME</text>
<text x="2.925" y="-3.25" size="1.27" layer="27" rot="R90">&gt;VALUE</text>
<rectangle x1="-1.1" y1="-3.2" x2="-0.85" y2="-2.2" layer="51"/>
<rectangle x1="-0.45" y1="-3.2" x2="-0.2" y2="-2.2" layer="51"/>
<rectangle x1="0.2" y1="-3.2" x2="0.45" y2="-2.2" layer="51"/>
<rectangle x1="0.85" y1="-3.2" x2="1.1" y2="-2.2" layer="51"/>
<rectangle x1="0.85" y1="2.2" x2="1.1" y2="3.2" layer="51"/>
<rectangle x1="0.2" y1="2.2" x2="0.45" y2="3.2" layer="51"/>
<rectangle x1="-0.45" y1="2.2" x2="-0.2" y2="3.2" layer="51"/>
<rectangle x1="-1.1" y1="2.2" x2="-0.85" y2="3.2" layer="51"/>
</package>
</packages>
<packages3d>
<package3d name="TSSOP8" urn="urn:adsk.eagle:package:20813/2" type="model">
<description>Thin Shrink Small Outline Package
package type ST</description>
<packageinstances>
<packageinstance name="TSSOP8"/>
</packageinstances>
</package3d>
</packages3d>
</library>
<library name="con-molex" urn="urn:adsk.eagle:library:165">
<description>&lt;b&gt;Molex Connectors&lt;/b&gt;&lt;p&gt;
&lt;author&gt;Created by librarian@cadsoft.de&lt;/author&gt;</description>
<packages>
<package name="22-23-2021" library_version="2">
<description>&lt;b&gt;KK® 254 Solid Header, Vertical, with Friction Lock, 2 Circuits, Tin (Sn) Plating&lt;/b&gt;&lt;p&gt;&lt;a href =http://www.molex.com/pdm_docs/sd/022232021_sd.pdf&gt;Datasheet &lt;/a&gt;</description>
<wire x1="-2.54" y1="3.175" x2="2.54" y2="3.175" width="0.254" layer="21"/>
<wire x1="2.54" y1="3.175" x2="2.54" y2="1.27" width="0.254" layer="21"/>
<wire x1="2.54" y1="1.27" x2="2.54" y2="-3.175" width="0.254" layer="21"/>
<wire x1="2.54" y1="-3.175" x2="-2.54" y2="-3.175" width="0.254" layer="21"/>
<wire x1="-2.54" y1="-3.175" x2="-2.54" y2="1.27" width="0.254" layer="21"/>
<wire x1="-2.54" y1="1.27" x2="-2.54" y2="3.175" width="0.254" layer="21"/>
<wire x1="-2.54" y1="1.27" x2="2.54" y2="1.27" width="0.254" layer="21"/>
<pad name="1" x="-1.27" y="0" drill="1" shape="long" rot="R90"/>
<pad name="2" x="1.27" y="0" drill="1" shape="long" rot="R90"/>
<text x="-2.54" y="3.81" size="1.016" layer="25" ratio="10">&gt;NAME</text>
<text x="-2.54" y="-5.08" size="1.016" layer="27" ratio="10">&gt;VALUE</text>
</package>
</packages>
</library>
</libraries>
<attributes>
</attributes>
<variantdefs>
</variantdefs>
<classes>
<class number="0" name="default" width="0" drill="0">
</class>
</classes>
<designrules name="default">
<description language="de">&lt;b&gt;EAGLE Design Rules&lt;/b&gt;
&lt;p&gt;
Die Standard-Design-Rules sind so gewählt, dass sie für 
die meisten Anwendungen passen. Sollte ihre Platine 
besondere Anforderungen haben, treffen Sie die erforderlichen
Einstellungen hier und speichern die Design Rules unter 
einem neuen Namen ab.</description>
<description language="en">&lt;b&gt;EAGLE Design Rules&lt;/b&gt;
&lt;p&gt;
The default Design Rules have been set to cover
a wide range of applications. Your particular design
may have different requirements, so please make the
necessary adjustments and save your customized
design rules under a new name.</description>
<param name="layerSetup" value="(1*16)"/>
<param name="mtCopper" value="0.035mm 0.035mm 0.035mm 0.035mm 0.035mm 0.035mm 0.035mm 0.035mm 0.035mm 0.035mm 0.035mm 0.035mm 0.035mm 0.035mm 0.035mm 0.035mm"/>
<param name="mtIsolate" value="1.5mm 0.15mm 0.2mm 0.15mm 0.2mm 0.15mm 0.2mm 0.15mm 0.2mm 0.15mm 0.2mm 0.15mm 0.2mm 0.15mm 0.2mm"/>
<param name="mdWireWire" value="6mil"/>
<param name="mdWirePad" value="6mil"/>
<param name="mdWireVia" value="6mil"/>
<param name="mdPadPad" value="6mil"/>
<param name="mdPadVia" value="6mil"/>
<param name="mdViaVia" value="6mil"/>
<param name="mdSmdPad" value="6mil"/>
<param name="mdSmdVia" value="6mil"/>
<param name="mdSmdSmd" value="6mil"/>
<param name="mdViaViaSameLayer" value="6mil"/>
<param name="mnLayersViaInSmd" value="2"/>
<param name="mdCopperDimension" value="40mil"/>
<param name="mdDrill" value="6mil"/>
<param name="mdSmdStop" value="0mil"/>
<param name="msWidth" value="6mil"/>
<param name="msDrill" value="0.35mm"/>
<param name="msMicroVia" value="9.99mm"/>
<param name="msBlindViaRatio" value="0.5"/>
<param name="rvPadTop" value="0.25"/>
<param name="rvPadInner" value="0.25"/>
<param name="rvPadBottom" value="0.25"/>
<param name="rvViaOuter" value="0.25"/>
<param name="rvViaInner" value="0.25"/>
<param name="rvMicroViaOuter" value="0.25"/>
<param name="rvMicroViaInner" value="0.25"/>
<param name="rlMinPadTop" value="10mil"/>
<param name="rlMaxPadTop" value="20mil"/>
<param name="rlMinPadInner" value="10mil"/>
<param name="rlMaxPadInner" value="20mil"/>
<param name="rlMinPadBottom" value="10mil"/>
<param name="rlMaxPadBottom" value="20mil"/>
<param name="rlMinViaOuter" value="8mil"/>
<param name="rlMaxViaOuter" value="20mil"/>
<param name="rlMinViaInner" value="8mil"/>
<param name="rlMaxViaInner" value="20mil"/>
<param name="rlMinMicroViaOuter" value="4mil"/>
<param name="rlMaxMicroViaOuter" value="20mil"/>
<param name="rlMinMicroViaInner" value="4mil"/>
<param name="rlMaxMicroViaInner" value="20mil"/>
<param name="psTop" value="-1"/>
<param name="psBottom" value="-1"/>
<param name="psFirst" value="-1"/>
<param name="psElongationLong" value="100"/>
<param name="psElongationOffset" value="100"/>
<param name="mvStopFrame" value="1"/>
<param name="mvCreamFrame" value="0"/>
<param name="mlMinStopFrame" value="4mil"/>
<param name="mlMaxStopFrame" value="4mil"/>
<param name="mlMinCreamFrame" value="0mil"/>
<param name="mlMaxCreamFrame" value="0mil"/>
<param name="mlViaStopLimit" value="0mil"/>
<param name="srRoundness" value="0"/>
<param name="srMinRoundness" value="0mil"/>
<param name="srMaxRoundness" value="0mil"/>
<param name="slThermalIsolate" value="10mil"/>
<param name="slThermalsForVias" value="0"/>
<param name="dpMaxLengthDifference" value="10mm"/>
<param name="dpGapFactor" value="2.5"/>
<param name="checkAngle" value="0"/>
<param name="checkFont" value="1"/>
<param name="checkRestrict" value="1"/>
<param name="checkStop" value="0"/>
<param name="checkValues" value="0"/>
<param name="checkNames" value="1"/>
<param name="checkWireStubs" value="1"/>
<param name="checkPolygonWidth" value="0"/>
<param name="useDiameter" value="13"/>
<param name="maxErrors" value="50"/>
</designrules>
<autorouter>
<pass name="Default">
<param name="RoutingGrid" value="50mil"/>
<param name="AutoGrid" value="1"/>
<param name="Efforts" value="0"/>
<param name="TopRouterVariant" value="1"/>
<param name="tpViaShape" value="round"/>
<param name="PrefDir.1" value="a"/>
<param name="PrefDir.2" value="0"/>
<param name="PrefDir.3" value="0"/>
<param name="PrefDir.4" value="0"/>
<param name="PrefDir.5" value="0"/>
<param name="PrefDir.6" value="0"/>
<param name="PrefDir.7" value="0"/>
<param name="PrefDir.8" value="0"/>
<param name="PrefDir.9" value="0"/>
<param name="PrefDir.10" value="0"/>
<param name="PrefDir.11" value="0"/>
<param name="PrefDir.12" value="0"/>
<param name="PrefDir.13" value="0"/>
<param name="PrefDir.14" value="0"/>
<param name="PrefDir.15" value="0"/>
<param name="PrefDir.16" value="a"/>
<param name="cfVia" value="8"/>
<param name="cfNonPref" value="5"/>
<param name="cfChangeDir" value="2"/>
<param name="cfOrthStep" value="2"/>
<param name="cfDiagStep" value="3"/>
<param name="cfExtdStep" value="0"/>
<param name="cfBonusStep" value="1"/>
<param name="cfMalusStep" value="1"/>
<param name="cfPadImpact" value="4"/>
<param name="cfSmdImpact" value="4"/>
<param name="cfBusImpact" value="0"/>
<param name="cfHugging" value="3"/>
<param name="cfAvoid" value="4"/>
<param name="cfPolygon" value="10"/>
<param name="cfBase.1" value="0"/>
<param name="cfBase.2" value="1"/>
<param name="cfBase.3" value="1"/>
<param name="cfBase.4" value="1"/>
<param name="cfBase.5" value="1"/>
<param name="cfBase.6" value="1"/>
<param name="cfBase.7" value="1"/>
<param name="cfBase.8" value="1"/>
<param name="cfBase.9" value="1"/>
<param name="cfBase.10" value="1"/>
<param name="cfBase.11" value="1"/>
<param name="cfBase.12" value="1"/>
<param name="cfBase.13" value="1"/>
<param name="cfBase.14" value="1"/>
<param name="cfBase.15" value="1"/>
<param name="cfBase.16" value="0"/>
<param name="mnVias" value="20"/>
<param name="mnSegments" value="9999"/>
<param name="mnExtdSteps" value="9999"/>
<param name="mnRipupLevel" value="10"/>
<param name="mnRipupSteps" value="100"/>
<param name="mnRipupTotal" value="100"/>
</pass>
<pass name="Follow-me" refer="Default" active="yes">
</pass>
<pass name="Busses" refer="Default" active="yes">
<param name="cfNonPref" value="4"/>
<param name="cfBusImpact" value="4"/>
<param name="cfHugging" value="0"/>
<param name="mnVias" value="0"/>
</pass>
<pass name="Route" refer="Default" active="yes">
</pass>
<pass name="Optimize1" refer="Default" active="yes">
<param name="cfVia" value="99"/>
<param name="cfExtdStep" value="10"/>
<param name="cfHugging" value="1"/>
<param name="mnExtdSteps" value="1"/>
<param name="mnRipupLevel" value="0"/>
</pass>
<pass name="Optimize2" refer="Optimize1" active="yes">
<param name="cfNonPref" value="0"/>
<param name="cfChangeDir" value="6"/>
<param name="cfExtdStep" value="0"/>
<param name="cfBonusStep" value="2"/>
<param name="cfMalusStep" value="2"/>
<param name="cfPadImpact" value="2"/>
<param name="cfSmdImpact" value="2"/>
<param name="cfHugging" value="0"/>
</pass>
<pass name="Optimize3" refer="Optimize2" active="yes">
<param name="cfChangeDir" value="8"/>
<param name="cfPadImpact" value="0"/>
<param name="cfSmdImpact" value="0"/>
</pass>
<pass name="Optimize4" refer="Optimize3" active="yes">
<param name="cfChangeDir" value="25"/>
</pass>
</autorouter>
<elements>
<element name="C1" library="rcl" library_urn="urn:adsk.eagle:library:334" package="C0805" package3d_urn="urn:adsk.eagle:package:23617/2" value="" x="35.179" y="35.052">
<attribute name="SPICEPREFIX" value="C" x="35.179" y="35.052" size="1.778" layer="27" display="off"/>
</element>
<element name="C2" library="rcl" library_urn="urn:adsk.eagle:library:334" package="SMC_B" package3d_urn="urn:adsk.eagle:package:23436/1" value="" x="55.88" y="29.21">
<attribute name="SPICEPREFIX" value="C" x="55.88" y="29.21" size="1.778" layer="27" display="off"/>
</element>
<element name="C3" library="rcl" library_urn="urn:adsk.eagle:library:334" package="SMC_B" package3d_urn="urn:adsk.eagle:package:23436/1" value="" x="42.672" y="44.577" rot="R90">
<attribute name="SPICEPREFIX" value="C" x="42.672" y="44.577" size="1.778" layer="27" rot="R90" display="off"/>
</element>
<element name="C4" library="rcl" library_urn="urn:adsk.eagle:library:334" package="C0805" package3d_urn="urn:adsk.eagle:package:23617/2" value="" x="38.735" y="41.021" rot="R180">
<attribute name="SPICEPREFIX" value="C" x="38.735" y="41.021" size="1.778" layer="27" rot="R180" display="off"/>
</element>
<element name="L1" library="inductors" library_urn="urn:adsk.eagle:library:243" package="DR127" package3d_urn="urn:adsk.eagle:package:15117/1" value="DR127" x="46.99" y="33.02" rot="R90">
<attribute name="SPICEPREFIX" value="L" x="46.99" y="33.02" size="1.778" layer="27" rot="R90" display="off"/>
</element>
<element name="R1" library="rcl" library_urn="urn:adsk.eagle:library:334" package="R0805" package3d_urn="urn:adsk.eagle:package:23553/2" value="" x="35.052" y="29.083" rot="R180">
<attribute name="SPICEPREFIX" value="R" x="35.052" y="29.083" size="1.778" layer="27" rot="R180" display="off"/>
</element>
<element name="R2" library="rcl" library_urn="urn:adsk.eagle:library:334" package="R0805" package3d_urn="urn:adsk.eagle:package:23553/2" value="" x="36.322" y="26.797" rot="R180">
<attribute name="SPICEPREFIX" value="R" x="36.322" y="26.797" size="1.778" layer="27" rot="R180" display="off"/>
</element>
<element name="R3" library="rcl" library_urn="urn:adsk.eagle:library:334" package="R0805" package3d_urn="urn:adsk.eagle:package:23553/2" value="" x="29.972" y="38.354" rot="R180">
<attribute name="SPICEPREFIX" value="R" x="29.972" y="38.354" size="1.778" layer="27" rot="R180" display="off"/>
</element>
<element name="R4" library="rcl" library_urn="urn:adsk.eagle:library:334" package="R0805" package3d_urn="urn:adsk.eagle:package:23553/2" value="" x="33.782" y="41.529" rot="R90">
<attribute name="SPICEPREFIX" value="R" x="33.782" y="41.529" size="1.778" layer="27" rot="R90" display="off"/>
</element>
<element name="R5" library="rcl" library_urn="urn:adsk.eagle:library:334" package="R0805" package3d_urn="urn:adsk.eagle:package:23553/2" value="" x="29.972" y="40.386">
<attribute name="SPICEPREFIX" value="R" x="29.972" y="40.386" size="1.778" layer="27" display="off"/>
</element>
<element name="SV1" library="con-lstb" library_urn="urn:adsk.eagle:library:162" package="MA03-1" package3d_urn="urn:adsk.eagle:package:8339/1" value="" x="36.83" y="31.75">
<attribute name="MF" value="" x="36.83" y="31.75" size="1.778" layer="27" display="off"/>
<attribute name="MPN" value="" x="36.83" y="31.75" size="1.778" layer="27" display="off"/>
<attribute name="OC_FARNELL" value="unknown" x="36.83" y="31.75" size="1.778" layer="27" display="off"/>
<attribute name="OC_NEWARK" value="unknown" x="36.83" y="31.75" size="1.778" layer="27" display="off"/>
</element>
<element name="SV2" library="con-lstb" library_urn="urn:adsk.eagle:library:162" package="MA03-1" package3d_urn="urn:adsk.eagle:package:8339/1" value="" x="31.242" y="45.466">
<attribute name="MF" value="" x="31.242" y="45.466" size="1.778" layer="27" display="off"/>
<attribute name="MPN" value="" x="31.242" y="45.466" size="1.778" layer="27" display="off"/>
<attribute name="OC_FARNELL" value="unknown" x="31.242" y="45.466" size="1.778" layer="27" display="off"/>
<attribute name="OC_NEWARK" value="unknown" x="31.242" y="45.466" size="1.778" layer="27" display="off"/>
</element>
<element name="TP1" library="testpad" library_urn="urn:adsk.eagle:library:385" package="B2,54" package3d_urn="urn:adsk.eagle:package:27948/1" value="TPB2,54" x="44.45" y="29.21">
<attribute name="TP_SIGNAL_NAME" value="" x="44.45" y="29.21" size="1.778" layer="27" display="off"/>
</element>
<element name="TP3" library="testpad" library_urn="urn:adsk.eagle:library:385" package="B2,54" package3d_urn="urn:adsk.eagle:package:27948/1" value="TPB2,54" x="49.53" y="41.91">
<attribute name="TP_SIGNAL_NAME" value="" x="49.53" y="41.91" size="1.778" layer="27" display="off"/>
</element>
<element name="U$1" library="IC" package="TSSOP8" package3d_urn="urn:adsk.eagle:package:20813/2" value="L6920DTSSOP8" x="36.83" y="38.1" rot="R270"/>
<element name="X1" library="con-molex" library_urn="urn:adsk.eagle:library:165" package="22-23-2021" value="22-23-2021" x="55.626" y="34.036" rot="R180">
<attribute name="MF" value="MOLEX" x="55.626" y="34.036" size="1.778" layer="27" rot="R180" display="off"/>
<attribute name="MPN" value="22-23-2021" x="55.626" y="34.036" size="1.778" layer="27" rot="R180" display="off"/>
<attribute name="OC_FARNELL" value="1462926" x="55.626" y="34.036" size="1.778" layer="27" rot="R180" display="off"/>
<attribute name="OC_NEWARK" value="25C3832" x="55.626" y="34.036" size="1.778" layer="27" rot="R180" display="off"/>
</element>
<element name="X2" library="con-molex" library_urn="urn:adsk.eagle:library:165" package="22-23-2021" value="22-23-2021" x="55.626" y="42.291">
<attribute name="MF" value="MOLEX" x="55.626" y="42.291" size="1.778" layer="27" display="off"/>
<attribute name="MPN" value="22-23-2021" x="55.626" y="42.291" size="1.778" layer="27" display="off"/>
<attribute name="OC_FARNELL" value="1462926" x="55.626" y="42.291" size="1.778" layer="27" display="off"/>
<attribute name="OC_NEWARK" value="25C3832" x="55.626" y="42.291" size="1.778" layer="27" display="off"/>
</element>
<element name="X3" library="con-molex" library_urn="urn:adsk.eagle:library:165" package="22-23-2021" value="22-23-2021" x="29.21" y="24.13" rot="R90">
<attribute name="MF" value="MOLEX" x="16.51" y="16.51" size="1.778" layer="27" rot="R90" display="off"/>
<attribute name="MPN" value="22-23-2021" x="16.51" y="16.51" size="1.778" layer="27" rot="R90" display="off"/>
<attribute name="OC_FARNELL" value="1462926" x="16.51" y="16.51" size="1.778" layer="27" rot="R90" display="off"/>
<attribute name="OC_NEWARK" value="25C3832" x="16.51" y="16.51" size="1.778" layer="27" rot="R90" display="off"/>
</element>
<element name="X4" library="con-molex" library_urn="urn:adsk.eagle:library:165" package="22-23-2021" value="22-23-2021" x="58.42" y="45.72" rot="R270">
<attribute name="MF" value="MOLEX" x="69.85" y="53.34" size="1.778" layer="27" rot="R270" display="off"/>
<attribute name="MPN" value="22-23-2021" x="69.85" y="53.34" size="1.778" layer="27" rot="R270" display="off"/>
<attribute name="OC_FARNELL" value="1462926" x="69.85" y="53.34" size="1.778" layer="27" rot="R270" display="off"/>
<attribute name="OC_NEWARK" value="25C3832" x="69.85" y="53.34" size="1.778" layer="27" rot="R270" display="off"/>
</element>
<element name="X5" library="con-molex" library_urn="urn:adsk.eagle:library:165" package="22-23-2021" value="22-23-2021" x="58.42" y="24.13" rot="R270">
<attribute name="MF" value="MOLEX" x="69.85" y="31.75" size="1.778" layer="27" rot="R270" display="off"/>
<attribute name="MPN" value="22-23-2021" x="69.85" y="31.75" size="1.778" layer="27" rot="R270" display="off"/>
<attribute name="OC_FARNELL" value="1462926" x="69.85" y="31.75" size="1.778" layer="27" rot="R270" display="off"/>
<attribute name="OC_NEWARK" value="25C3832" x="69.85" y="31.75" size="1.778" layer="27" rot="R270" display="off"/>
</element>
</elements>
<signals>
<signal name="0">
<contactref element="C1" pad="2"/>
<contactref element="U$1" pad="6"/>
<contactref element="C2" pad="-"/>
<contactref element="C3" pad="-"/>
<contactref element="C4" pad="2"/>
<contactref element="SV1" pad="1"/>
<contactref element="SV2" pad="1"/>
<contactref element="R5" pad="1"/>
<contactref element="R3" pad="2"/>
<contactref element="X1" pad="1"/>
<contactref element="X2" pad="2"/>
<wire x1="39.755" y1="37.775" x2="37.155" y2="37.775" width="0.3048" layer="1"/>
<wire x1="37.155" y1="37.775" x2="36.83" y2="38.1" width="0.3048" layer="1"/>
<wire x1="36.83" y1="38.1" x2="36.83" y2="40.64" width="0.508" layer="1"/>
<wire x1="36.83" y1="40.64" x2="37.211" y2="41.021" width="0.508" layer="1"/>
<wire x1="37.211" y1="41.021" x2="37.785" y2="41.021" width="0.508" layer="1"/>
<wire x1="36.129" y1="35.052" x2="36.83" y2="35.753" width="0.508" layer="1"/>
<wire x1="36.83" y1="35.753" x2="36.83" y2="38.1" width="0.508" layer="1"/>
<wire x1="37.785" y1="41.021" x2="37.785" y2="45.405" width="0.508" layer="1"/>
<wire x1="38.457" y1="46.077" x2="42.672" y2="46.077" width="0.508" layer="1"/>
<wire x1="37.785" y1="45.405" x2="38.457" y2="46.077" width="0.508" layer="1"/>
<wire x1="36.129" y1="35.052" x2="36.129" y2="33.97" width="0.4064" layer="1"/>
<wire x1="29.022" y1="40.386" x2="29.022" y2="38.354" width="0.4064" layer="1"/>
<wire x1="29.022" y1="40.386" x2="29.022" y2="45.146" width="0.6096" layer="1"/>
<wire x1="29.022" y1="45.146" x2="28.702" y2="45.466" width="0.6096" layer="1"/>
<contactref element="X3" pad="2"/>
<contactref element="X3" pad="1"/>
<contactref element="X4" pad="2"/>
<contactref element="X4" pad="1"/>
<contactref element="X5" pad="2"/>
<contactref element="X5" pad="1"/>
<wire x1="34.29" y1="31.75" x2="36.129" y2="33.589" width="0.4064" layer="1"/>
<wire x1="36.129" y1="33.589" x2="36.129" y2="33.8074" width="0.4064" layer="1"/>
<wire x1="42.672" y1="46.077" x2="42.672" y2="47.752" width="0.4064" layer="1"/>
<wire x1="42.672" y1="47.752" x2="43.18" y2="48.26" width="0.4064" layer="1"/>
<wire x1="43.18" y1="48.26" x2="46.99" y2="48.26" width="0.1524" layer="1"/>
<wire x1="46.99" y1="48.26" x2="49.53" y2="45.72" width="0.1524" layer="1"/>
<wire x1="49.53" y1="45.72" x2="57.15" y2="45.72" width="0.1524" layer="1"/>
<wire x1="57.15" y1="45.72" x2="58.42" y2="46.99" width="0.1524" layer="1"/>
<polygon width="0.1524" layer="1" spacing="0.8128" isolate="0.8128">
<vertex x="24.13" y="50.8"/>
<vertex x="63.5" y="50.8"/>
<vertex x="63.5" y="17.78"/>
<vertex x="24.13" y="17.78"/>
</polygon>
<wire x1="36.129" y1="33.97" x2="36.129" y2="33.8074" width="0" layer="19" extent="1-1"/>
</signal>
<signal name="N$1">
<contactref element="C1" pad="1"/>
<contactref element="U$1" pad="4"/>
<wire x1="33.905" y1="37.125" x2="34.229" y2="36.801" width="0.508" layer="1"/>
<wire x1="34.229" y1="36.801" x2="34.229" y2="35.052" width="0.508" layer="1"/>
</signal>
<signal name="VBAT">
<contactref element="C2" pad="+"/>
<contactref element="L1" pad="1"/>
<contactref element="R2" pad="1"/>
<contactref element="TP1" pad="TP"/>
<contactref element="X1" pad="2"/>
<wire x1="46.99" y1="28.045" x2="43.18" y2="28.045" width="0.8128" layer="1"/>
<wire x1="43.18" y1="28.045" x2="42.33" y2="28.045" width="0.8128" layer="1"/>
<wire x1="46.99" y1="28.045" x2="53.215" y2="28.045" width="0.8128" layer="1"/>
<wire x1="53.215" y1="28.045" x2="54.38" y2="29.21" width="0.8128" layer="1"/>
<wire x1="42.33" y1="28.045" x2="41.082" y2="26.797" width="0.8128" layer="1"/>
<wire x1="41.082" y1="26.797" x2="37.272" y2="26.797" width="0.8128" layer="1"/>
<wire x1="54.356" y1="34.036" x2="54.356" y2="29.234" width="0.6096" layer="1"/>
<wire x1="54.356" y1="29.234" x2="54.38" y2="29.21" width="0.6096" layer="1"/>
<wire x1="43.18" y1="28.045" x2="43.285" y2="28.045" width="0.6096" layer="1"/>
<wire x1="43.285" y1="28.045" x2="44.45" y2="29.21" width="0.6096" layer="1"/>
</signal>
<signal name="N$3">
<contactref element="L1" pad="2"/>
<contactref element="U$1" pad="7"/>
<wire x1="39.755" y1="38.425" x2="46.56" y2="38.425" width="0.4064" layer="1"/>
<wire x1="46.56" y1="38.425" x2="46.99" y2="37.995" width="0.4064" layer="1"/>
</signal>
<signal name="N$4">
<contactref element="U$1" pad="3"/>
<contactref element="R1" pad="2"/>
<wire x1="32.822" y1="37.775" x2="33.905" y2="37.775" width="0.4064" layer="1"/>
<wire x1="32.131" y1="37.084" x2="32.822" y2="37.775" width="0.4064" layer="1"/>
<wire x1="34.102" y1="29.083" x2="32.131" y2="31.054" width="0.4064" layer="1"/>
<wire x1="32.131" y1="31.054" x2="32.131" y2="37.084" width="0.4064" layer="1"/>
</signal>
<signal name="VOUT">
<contactref element="R1" pad="1"/>
<contactref element="U$1" pad="8"/>
<contactref element="C3" pad="+"/>
<contactref element="C4" pad="1"/>
<contactref element="SV1" pad="3"/>
<contactref element="SV2" pad="3"/>
<contactref element="R4" pad="2"/>
<contactref element="TP3" pad="TP"/>
<contactref element="X2" pad="1"/>
<wire x1="39.755" y1="39.075" x2="39.755" y2="40.951" width="0.508" layer="1"/>
<wire x1="39.755" y1="40.951" x2="39.685" y2="41.021" width="0.508" layer="1"/>
<wire x1="39.685" y1="41.021" x2="41.844" y2="43.18" width="0.508" layer="1"/>
<wire x1="42.569" y1="43.18" x2="42.672" y2="43.077" width="0.508" layer="1"/>
<wire x1="41.844" y1="43.18" x2="42.569" y2="43.18" width="0.508" layer="1"/>
<wire x1="42.672" y1="43.077" x2="49.633" y2="43.077" width="0.4064" layer="1"/>
<wire x1="50.8" y1="41.91" x2="50.8" y2="33.02" width="0.4064" layer="1"/>
<wire x1="49.633" y1="43.077" x2="50.165" y2="42.545" width="0.4064" layer="1"/>
<wire x1="50.165" y1="42.545" x2="50.8" y2="41.91" width="0.4064" layer="1"/>
<wire x1="39.37" y1="31.75" x2="39.37" y2="33.02" width="0.4064" layer="1"/>
<wire x1="39.37" y1="33.02" x2="50.8" y2="33.02" width="0.4064" layer="1"/>
<wire x1="36.002" y1="29.083" x2="37.973" y2="29.083" width="0.8128" layer="1"/>
<wire x1="37.973" y1="29.083" x2="39.37" y2="30.48" width="0.8128" layer="1"/>
<wire x1="39.37" y1="30.48" x2="39.37" y2="31.75" width="0.8128" layer="1"/>
<via x="31.877" y="42.545" extent="1-16" drill="0.8" diameter="1"/>
<wire x1="31.877" y1="42.545" x2="33.716" y2="42.545" width="0.4064" layer="1"/>
<wire x1="33.716" y1="42.545" x2="33.782" y2="42.479" width="0.4064" layer="1"/>
<via x="40.132" y="42.545" extent="1-16" drill="0.8" diameter="1"/>
<wire x1="31.877" y1="42.545" x2="40.132" y2="42.545" width="0.4064" layer="16"/>
<wire x1="40.132" y1="42.545" x2="40.132" y2="41.328" width="0.4064" layer="1"/>
<wire x1="40.132" y1="41.328" x2="39.755" y2="40.951" width="0.4064" layer="1"/>
<wire x1="33.782" y1="42.479" x2="33.782" y2="45.466" width="0.6096" layer="1"/>
<wire x1="54.356" y1="42.291" x2="50.419" y2="42.291" width="0.4064" layer="1"/>
<wire x1="50.419" y1="42.291" x2="50.165" y2="42.545" width="0.4064" layer="1"/>
<wire x1="50.165" y1="42.545" x2="49.53" y2="41.91" width="0" layer="19" extent="1-1"/>
</signal>
<signal name="N$2">
<contactref element="SV1" pad="2"/>
<contactref element="U$1" pad="5"/>
<wire x1="36.83" y1="31.75" x2="36.83" y2="32.004" width="0.4064" layer="1"/>
<wire x1="36.83" y1="32.004" x2="39.751" y2="34.925" width="0.4064" layer="1"/>
<wire x1="39.751" y1="34.925" x2="39.751" y2="37.121" width="0.4064" layer="1"/>
<wire x1="39.751" y1="37.121" x2="39.755" y2="37.125" width="0.4064" layer="1"/>
</signal>
<signal name="N$6">
<contactref element="U$1" pad="1"/>
<contactref element="SV2" pad="2"/>
<contactref element="R4" pad="1"/>
<contactref element="R5" pad="2"/>
<wire x1="33.905" y1="39.075" x2="32.68" y2="39.075" width="0.4064" layer="1"/>
<wire x1="32.258" y1="39.497" x2="32.258" y2="40.386" width="0.4064" layer="1"/>
<wire x1="32.258" y1="40.386" x2="30.922" y2="40.386" width="0.4064" layer="1"/>
<wire x1="32.68" y1="39.075" x2="32.258" y2="39.497" width="0.4064" layer="1"/>
<wire x1="33.782" y1="40.579" x2="33.782" y2="39.198" width="0.4064" layer="1"/>
<wire x1="33.782" y1="39.198" x2="33.905" y2="39.075" width="0.4064" layer="1"/>
<wire x1="30.922" y1="40.386" x2="30.922" y2="41.468" width="0.4064" layer="1"/>
<wire x1="30.922" y1="41.468" x2="30.48" y2="41.91" width="0.4064" layer="1"/>
<wire x1="30.48" y1="43.434" x2="31.242" y2="44.196" width="0.4064" layer="1"/>
<wire x1="31.242" y1="44.196" x2="31.242" y2="45.466" width="0.4064" layer="1"/>
<wire x1="30.48" y1="41.91" x2="30.48" y2="43.434" width="0.4064" layer="1"/>
</signal>
<signal name="N$8">
<contactref element="R2" pad="2"/>
<contactref element="R3" pad="1"/>
<contactref element="U$1" pad="2"/>
<wire x1="33.905" y1="38.425" x2="31.369" y2="38.425" width="0.4064" layer="1"/>
<wire x1="31.369" y1="38.425" x2="30.993" y2="38.425" width="0.4064" layer="1"/>
<wire x1="30.993" y1="38.425" x2="30.922" y2="38.354" width="0.4064" layer="1"/>
<wire x1="35.372" y1="26.797" x2="33.147" y2="26.797" width="0.4064" layer="1"/>
<wire x1="33.147" y1="26.797" x2="31.369" y2="28.575" width="0.4064" layer="1"/>
<wire x1="31.369" y1="28.575" x2="31.369" y2="38.425" width="0.4064" layer="1"/>
</signal>
</signals>
<mfgpreviewcolors>
<mfgpreviewcolor name="soldermaskcolor" color="0xC8008000"/>
<mfgpreviewcolor name="silkscreencolor" color="0xFFFEFEFE"/>
<mfgpreviewcolor name="backgroundcolor" color="0xFF282828"/>
<mfgpreviewcolor name="coppercolor" color="0xFFFFBF00"/>
<mfgpreviewcolor name="substratecolor" color="0xFF786E46"/>
</mfgpreviewcolors>
</board>
</drawing>
<compatibility>
<note version="8.2" severity="warning">
Since Version 8.2, EAGLE supports online libraries. The ids
of those online libraries will not be understood (or retained)
with this version.
</note>
<note version="8.3" severity="warning">
Since Version 8.3, EAGLE supports URNs for individual library
assets (packages, symbols, and devices). The URNs of those assets
will not be understood (or retained) with this version.
</note>
<note version="8.3" severity="warning">
Since Version 8.3, EAGLE supports the association of 3D packages
with devices in libraries, schematics, and board files. Those 3D
packages will not be understood (or retained) with this version.
</note>
</compatibility>
</eagle>
