G04 EAGLE Gerber X2 export*
%TF.Part,Single*%
%TF.FileFunction,Soldermask,Bot,1*%
%TF.FilePolarity,Negative*%
%TF.GenerationSoftware,Autodesk,EAGLE,9.1.0*%
%TF.CreationDate,2018-07-07T07:37:37Z*%
G75*
%MOMM*%
%FSLAX34Y34*%
%LPD*%
%AMOC8*
5,1,8,0,0,1.08239X$1,22.5*%
G01*
%ADD10C,1.727200*%
%ADD11C,1.711200*%
%ADD12C,1.409600*%


D10*
X342900Y309880D02*
X342900Y325120D01*
X368300Y325120D02*
X368300Y309880D01*
X393700Y309880D02*
X393700Y325120D01*
X287020Y447040D02*
X287020Y462280D01*
X312420Y462280D02*
X312420Y447040D01*
X337820Y447040D02*
X337820Y462280D01*
D11*
X568960Y347900D02*
X568960Y332820D01*
X543560Y332820D02*
X543560Y347900D01*
X543560Y415370D02*
X543560Y430450D01*
X568960Y430450D02*
X568960Y415370D01*
X299640Y228600D02*
X284560Y228600D01*
X284560Y254000D02*
X299640Y254000D01*
X576660Y469900D02*
X591740Y469900D01*
X591740Y444500D02*
X576660Y444500D01*
X576660Y254000D02*
X591740Y254000D01*
X591740Y228600D02*
X576660Y228600D01*
D12*
X318770Y425450D03*
X401320Y425450D03*
M02*
