%!PS-Adobe-3.0 EPSF-3.0
%%Title: EAGLE Drawing /Users/sarge/diymicro.ru/Projects/Timer555/PCB/Schematic.brd
%%Creator: EAGLE
%%Pages: 1
%%BoundingBox: 0 0 585 585
%%EndComments

% Coordinate transfer:

/EU { 254 div 0.072 mul } def
/inch { 72 mul } def

% Linestyle:

1 setlinecap
1 setlinejoin

% Drawing functions:

/l {  % draw a line
   /lw exch def
   /y2 exch def
   /x2 exch def
   /y1 exch def
   /x1 exch def
   newpath
   x1 EU y1 EU moveto
   x2 EU y2 EU lineto
   lw EU setlinewidth
   stroke
   } def

/h {  % draw a hole
   /d  exch def
   /y  exch def
   /x  exch def
   d 0 gt {
     newpath
     x EU y EU d 2 div EU 0 360 arc
     currentgray dup
     1 exch sub setgray
     fill
     setgray
     } if
   } def

/b {  % draw a bar
   /an exch def
   /y2 exch def
   /x2 exch def
   /y1 exch def
   /x1 exch def
   /w2 x2 x1 sub 2 div EU def
   /h2 y2 y1 sub 2 div EU def
   gsave
   x1 x2 add 2 div EU y1 y2 add 2 div EU translate
   an rotate
   newpath
   w2     h2     moveto
   w2 neg h2     lineto
   w2 neg h2 neg lineto
   w2     h2 neg lineto
   closepath
   fill
   grestore
   } def

/c {  % draw a circle
   /lw exch def
   /rd exch def
   /y  exch def
   /x  exch def
   newpath
   lw EU setlinewidth
   x EU y EU rd EU 0 360 arc
   stroke
   } def

/a {  % draw an arc
   /lc exch def
   /ae exch def
   /as exch def
   /lw exch def
   /rd exch def
   /y  exch def
   /x  exch def
   lw rd 2 mul gt {
     /rd rd lw 2 div add 2 div def
     /lw rd 2 mul def
     } if
   currentlinecap currentlinejoin
   lc setlinecap 0 setlinejoin
   newpath
   lw EU setlinewidth
   x EU y EU rd EU as ae arc
   stroke
   setlinejoin setlinecap
   } def

/p {  % draw a pie
   /d exch def
   /y exch def
   /x exch def
   newpath
   x EU y EU d 2 div EU 0 360 arc
   fill
   } def

/edge { 0.20710678119 mul } def

/o {  % draw an octagon
   /an exch def
   /dy exch def
   /dx exch def
   /y  exch def
   /x  exch def
   gsave
   x EU y EU translate
   an dx dy lt { 90 add /dx dy /dy dx def def } if rotate
   newpath
      0 dx 2 div sub EU                    0 dy edge  add EU moveto
      0 dx dy sub 2 div sub dy edge sub EU 0 dy 2 div add EU lineto
      0 dx dy sub 2 div add dy edge add EU 0 dy 2 div add EU lineto
      0 dx 2 div add EU                    0 dy edge  add EU lineto
      0 dx 2 div add EU                    0 dy edge  sub EU lineto
      0 dx dy sub 2 div add dy edge add EU 0 dy 2 div sub EU lineto
      0 dx dy sub 2 div sub dy edge sub EU 0 dy 2 div sub EU lineto
      0 dx 2 div sub EU                    0 dy edge  sub EU lineto
   closepath
   fill
   grestore
   } def

233350 855650 246050 874700 0.0 b
220650 849300 233350 874700 0.0 b
227000 849300 239700 855650 0.0 b
258750 855650 277800 874700 0.0 b
265100 849300 277800 855650 0.0 b
239700 830250 265100 842950 0.0 b
246050 836600 258750 849300 0.0 b
379400 595300 531800 620700 0.0 b
354000 595300 366700 620700 0.0 b
550850 601650 569900 646100 0.0 b
563550 601650 576250 646100 0.0 b
315900 798500 328600 811200 0.0 b
201600 557200 227000 582600 0.0 b
550850 601650 576250 658800 0.0 b
550850 646100 576250 671500 0.0 b
366700 595300 392100 620700 0.0 b
614350 836600 633400 862000 0.0 b
646100 817550 665150 862000 0.0 b
684200 804850 760400 842950 0.0 b
836600 804850 862000 842950 0.0 b
100000 430200 1014400 442900 0.0 b
100000 430200 112700 900100 0.0 b
684200 887400 1014400 900100 0.0 b
1001700 430200 1014400 900100 0.0 b
315900 887400 976300 900100 0.0 b
1001700 442900 1014400 887400 0.0 b
887400 442900 1001700 455600 0.0 b
976300 455600 1001700 633400 0.0 b
925500 455600 1001700 468300 0.0 b
925500 455600 1001700 506400 0.0 b
963600 481000 976300 595300 0.0 b
912800 506400 976300 557200 0.0 b
722300 874700 1001700 887400 0.0 b
989000 785800 1001700 887400 0.0 b
195100 857700 208100 872700 90.0 b
195100 876700 208100 891700 90.0 b
334800 438600 347800 453600 90.0 b
334800 457600 347800 472600 90.0 b
309400 438600 322400 453600 90.0 b
309400 457600 322400 472600 90.0 b
614200 438600 627200 453600 90.0 b
614200 457600 627200 472600 90.0 b
588800 438600 601800 453600 90.0 b
588800 457600 601800 472600 90.0 b
563400 438600 576400 453600 90.0 b
563400 457600 576400 472600 90.0 b
436400 438600 449400 453600 90.0 b
436400 457600 449400 472600 90.0 b
461800 438600 474800 453600 90.0 b
461800 457600 474800 472600 90.0 b
487200 438600 500200 453600 90.0 b
487200 457600 500200 472600 90.0 b
512600 438600 525600 453600 90.0 b
512600 457600 525600 472600 90.0 b
538000 438600 551000 453600 90.0 b
538000 457600 551000 472600 90.0 b
296700 857700 309700 872700 90.0 b
296700 876700 309700 891700 90.0 b
665000 438600 678000 453600 90.0 b
665000 457600 678000 472600 90.0 b
892600 426100 907600 455100 90.0 b
892600 456100 907600 485100 90.0 b
868200 438600 881200 453600 90.0 b
868200 457600 881200 472600 90.0 b
766600 438600 779600 453600 90.0 b
766600 457600 779600 472600 90.0 b
741200 438600 754200 453600 90.0 b
741200 457600 754200 472600 90.0 b
715800 438600 728800 453600 90.0 b
715800 457600 728800 472600 90.0 b
690400 438600 703400 453600 90.0 b
690400 457600 703400 472600 90.0 b
792000 438600 805000 453600 90.0 b
792000 457600 805000 472600 90.0 b
817400 438600 830400 453600 90.0 b
817400 457600 830400 472600 90.0 b
611050 638600 624050 653600 0.0 b
630050 638600 643050 653600 0.0 b
261800 778300 274800 793300 0.0 b
280800 778300 293800 793300 0.0 b
360200 565600 373200 580600 90.0 b
360200 584600 373200 599600 90.0 b
182400 438600 195400 453600 90.0 b
182400 457600 195400 472600 90.0 b
233200 438600 246200 453600 90.0 b
233200 457600 246200 472600 90.0 b
258600 438600 271600 453600 90.0 b
258600 457600 271600 472600 90.0 b
385600 438600 398600 453600 90.0 b
385600 457600 398600 472600 90.0 b
360200 438600 373200 453600 90.0 b
360200 457600 373200 472600 90.0 b
150800 811200 16764 p
252400 811200 16764 p
849300 823900 16764 p
747700 823900 16764 p
283896 747700 297104 747700 13208 l
283896 722300 297104 722300 13208 l
360096 722300 373304 722300 13208 l
360096 747700 373304 747700 13208 l
283896 696900 297104 696900 13208 l
283896 671500 297104 671500 13208 l
360096 696900 373304 696900 13208 l
360096 671500 373304 671500 13208 l
265100 862000 13208 13208 180.0 o
252400 842950 13208 13208 180.0 o
239700 862000 13208 13208 180.0 o
497764 661340 504368 681660 90.0 b
559232 661340 565836 681660 90.0 b
497764 674040 504368 694360 90.0 b
497764 686740 504368 707060 90.0 b
559232 674040 565836 694360 90.0 b
559232 686740 565836 707060 90.0 b
497764 699440 504368 719760 90.0 b
559232 699440 565836 719760 90.0 b
497764 712140 504368 732460 90.0 b
497764 724840 504368 745160 90.0 b
559232 712140 565836 732460 90.0 b
559232 724840 565836 745160 90.0 b
497764 737540 504368 757860 90.0 b
559232 737540 565836 757860 90.0 b
560248 789356 566852 809676 180.0 b
560248 850824 566852 871144 180.0 b
547548 789356 554152 809676 180.0 b
534848 789356 541452 809676 180.0 b
547548 850824 554152 871144 180.0 b
534848 850824 541452 871144 180.0 b
522148 789356 528752 809676 180.0 b
522148 850824 528752 871144 180.0 b
509448 789356 516052 809676 180.0 b
496748 789356 503352 809676 180.0 b
509448 850824 516052 871144 180.0 b
496748 850824 503352 871144 180.0 b
484048 789356 490652 809676 180.0 b
484048 850824 490652 871144 180.0 b
792150 789356 792150 769544 19812 l
732460 769036 732460 749224 19812 l
851840 769036 851840 749224 19812 l
851840 647116 851840 627304 19812 l
732460 647116 732460 627304 19812 l
627050 849300 13208 13208 0.0 o
652450 849300 13208 13208 0.0 o
622050 564600 632050 578600 0.0 b
631550 586600 641550 600600 0.0 b
612550 586600 622550 600600 0.0 b
528500 600000 541500 616000 0.0 b
547500 600000 560500 616000 0.0 b
611050 663500 624050 679500 0.0 b
630050 663500 643050 679500 0.0 b
611050 612700 624050 628700 0.0 b
630050 612700 643050 628700 0.0 b
315750 717500 328750 733500 90.0 b
315750 736500 328750 752500 90.0 b
436400 723800 449400 739800 270.0 b
436400 704800 449400 720800 270.0 b
645950 812700 658950 828700 270.0 b
645950 793700 658950 809700 270.0 b
379400 841680 379400 856920 15240 l
404800 841680 404800 856920 15240 l
430200 841680 430200 856920 15240 l
506400 614604 506400 601396 13208 l
481000 614604 481000 601396 13208 l
379400 538404 379400 525196 13208 l
404800 538404 404800 525196 13208 l
455600 614604 455600 601396 13208 l
430200 614604 430200 601396 13208 l
379400 614604 379400 601396 13208 l
404800 614604 404800 601396 13208 l
430200 538404 430200 525196 13208 l
455600 538404 455600 525196 13208 l
481000 538404 481000 525196 13208 l
506400 538404 506400 525196 13208 l
138100 531800 17780 p
178200 531800 17780 p
137700 601700 17780 p
177800 601700 17780 p
214300 531800 17780 p
254400 531800 17780 p
213900 601700 17780 p
254000 601700 17780 p
941947 772700 959854 772700 17907 l
941947 722700 959854 722700 17907 l
941947 671100 959854 671100 17907 l
941947 621100 959854 621100 17907 l
219460 773100 234540 773100 15080 l
219460 747700 234540 747700 15080 l
159754 722700 141847 722700 17907 l
159754 772700 141847 772700 17907 l
265100 862000 303200 862000 10160 l
379400 849300 322250 849300 10160 l
322250 849300 319100 849300 10160 l
319100 849300 317500 850900 10160 l
317500 850900 303200 865200 10160 l
315900 849300 317500 850900 6096 l
366700 747700 366700 785800 6096 l
554000 608000 557200 608000 6096 l
557200 608000 557200 614350 6096 l
557200 614350 563550 620700 6096 l
563550 620700 563550 658800 6096 l
563550 658800 563550 665150 6096 l
563550 665150 563550 670484 6096 l
563550 670484 562534 671500 6096 l
366700 747700 392100 747700 6096 l
455600 709600 455600 658800 6096 l
455600 658800 563550 658800 6096 l
322250 744500 322250 766750 6096 l
322250 766750 11064 11064 0.0 o
366700 785800 354000 798500 6096 l
354000 798500 328600 798500 6096 l
328600 798500 322250 804850 6096 l
322250 804850 322250 849300 6096 l
322250 804850 11064 11064 0.0 o
563550 860984 570916 860984 6096 l
570916 860984 588950 842950 6096 l
588950 842950 588950 684200 6096 l
588950 684200 569900 665150 6096 l
563550 665150 569900 665150 6096 l
455600 709600 442900 709600 6096 l
442900 709600 392100 709600 6096 l
392100 709600 392100 747700 6096 l
442900 712800 442900 709600 6096 l
501066 709600 481000 709600 6096 l
481000 709600 474650 715950 6096 l
474650 715950 446050 715950 6096 l
446050 715950 442900 712800 6096 l
303200 865200 303200 862000 6096 l
150800 722700 176600 722700 10160 l
176600 722700 201600 747700 10160 l
201600 747700 227000 747700 10160 l
150800 722700 113100 722700 10160 l
113100 722700 112700 722300 10160 l
112700 722300 106350 722300 10160 l
106350 722300 106350 893750 10160 l
106350 893750 201600 893750 10160 l
201600 893750 252400 893750 10160 l
252400 893750 290500 893750 10160 l
290500 893750 303200 893750 10160 l
303200 893750 315900 893750 10160 l
252400 842950 252400 893750 4064 l
201600 884200 201600 893750 4064 l
303200 884200 303200 893750 10160 l
501066 747700 501066 798500 4064 l
501066 798500 500050 799516 4064 l
500050 799516 487350 799516 4064 l
213900 601700 213900 582200 6096 l
213900 582200 204800 573100 6096 l
201600 569900 150800 569900 6096 l
150800 569900 138100 582600 6096 l
138100 582600 138100 601300 6096 l
138100 601300 137700 601700 6096 l
137700 601700 106400 601700 6096 l
106400 601700 106350 601650 6096 l
106350 601650 106350 722300 6096 l
290500 747700 265100 747700 6096 l
265100 747700 227000 747700 6096 l
268300 785800 268300 750900 6096 l
268300 750900 265100 747700 6096 l
265100 446100 315900 446100 6096 l
392100 446100 442900 446100 6096 l
620700 446100 671500 446100 6096 l
823900 446100 874700 446100 6096 l
894600 446100 900100 440600 6096 l
894600 446100 874700 446100 6096 l
188900 446100 239700 446100 6096 l
239700 446100 265100 446100 6096 l
315900 446100 341300 446100 6096 l
341300 446100 366700 446100 6096 l
392100 446100 366700 446100 6096 l
442900 446100 468300 446100 6096 l
468300 446100 493700 446100 6096 l
493700 446100 519100 446100 6096 l
544500 446100 519100 446100 6096 l
544500 446100 569900 446100 6096 l
569900 446100 595300 446100 6096 l
595300 446100 620700 446100 6096 l
671500 446100 696900 446100 6096 l
696900 446100 722300 446100 6096 l
722300 446100 747700 446100 6096 l
747700 446100 773100 446100 6096 l
773100 446100 798500 446100 6096 l
798500 446100 823900 446100 6096 l
823900 446100 871500 446100 6096 l
871500 446100 874700 442900 6096 l
239700 446100 109500 446100 6096 l
109500 446100 106350 449250 6096 l
106350 449250 106350 531800 6096 l
106350 531800 106350 601650 6096 l
138100 531800 106350 531800 6096 l
214300 531800 214300 557200 6096 l
214300 557200 201600 569900 6096 l
430200 823900 468300 798500 6096 l
468300 798500 499034 798500 6096 l
499034 798500 500050 799516 6096 l
430200 849300 430200 823900 6096 l
430200 823900 366700 823900 6096 l
366700 823900 360350 830250 6096 l
360350 830250 334950 830250 6096 l
334950 830250 11064 11064 0.0 o
309550 830250 258750 830250 6096 l
258750 830250 258750 836600 6096 l
309550 830250 11064 11064 0.0 o
252400 842950 258750 836600 6096 l
366700 573100 204800 573100 6096 l
204800 573100 201600 569900 6096 l
636550 593600 636550 620700 10160 l
636550 620700 636550 646100 10160 l
636550 593600 636550 642950 6096 l
636550 642950 633400 646100 6096 l
633400 646100 658800 646100 6096 l
658800 646100 658800 709600 6096 l
658800 709600 646100 722300 6096 l
646100 722300 601650 722300 6096 l
601650 722300 601650 893750 6096 l
601650 893750 290500 893750 6096 l
601650 893750 976300 893750 6096 l
1008050 893750 1008050 455600 6096 l
1008050 455600 1008050 442900 6096 l
1008050 442900 900100 442900 6096 l
138100 862000 38160 p
138100 474650 38160 p
976300 862000 38160 p
976300 474650 38160 p
963453 790797 938347 790797 6096 l
938347 790797 931695 788042 6096 l
931695 788042 926604 782951 6096 l
926604 782951 923849 776300 6096 l
923849 776300 923849 769100 6096 l
923849 769100 926604 762449 6096 l
926604 762449 931695 757358 6096 l
931695 757358 938347 754603 6096 l
938347 754603 963453 754603 6096 l
963453 754603 966903 756031 6096 l
966903 756031 968426 754508 6096 l
968426 754508 968426 738738 6096 l
968426 738738 963453 740797 6096 l
963453 740797 938347 740797 6096 l
938347 740797 931695 738042 6096 l
931695 738042 926604 732951 6096 l
926604 732951 923849 726300 6096 l
923849 726300 923849 719100 6096 l
923849 719100 926604 712449 6096 l
926604 712449 927929 711124 6096 l
927929 711124 918692 711124 6096 l
918692 711124 914324 715492 6096 l
914324 715492 914324 839429 6096 l
914324 839429 912159 844657 6096 l
912159 844657 908157 848659 6096 l
908157 848659 891260 865556 6096 l
891260 865556 979856 865556 6096 l
979856 865556 979856 783981 6096 l
979856 783981 980331 782835 6096 l
980331 782835 978007 785159 6096 l
978007 785159 972779 787324 6096 l
972779 787324 970823 787324 6096 l
970823 787324 970105 788042 6096 l
970105 788042 963453 790797 6096 l
636348 633012 636348 645898 6096 l
636348 645898 636752 645898 6096 l
636752 645898 636752 620902 6096 l
636752 620902 636348 620902 6096 l
636348 620902 636348 633012 6096 l
867990 657907 862631 663266 6096 l
862631 663266 855629 666166 6096 l
855629 666166 848051 666166 6096 l
848051 666166 841049 663266 6096 l
841049 663266 835690 657907 6096 l
835690 657907 832790 650905 6096 l
832790 650905 832790 623515 6096 l
832790 623515 835690 616513 6096 l
835690 616513 841049 611154 6096 l
841049 611154 844985 609524 6096 l
844985 609524 753592 609524 6096 l
753592 609524 747606 615509 6096 l
747606 615509 748610 616513 6096 l
748610 616513 751510 623515 6096 l
751510 623515 751510 650905 6096 l
751510 650905 748610 657907 6096 l
748610 657907 743251 663266 6096 l
743251 663266 736249 666166 6096 l
736249 666166 728671 666166 6096 l
728671 666166 721669 663266 6096 l
721669 663266 716310 657907 6096 l
716310 657907 713410 650905 6096 l
713410 650905 713410 623515 6096 l
713410 623515 716310 616513 6096 l
716310 616513 718236 614587 6096 l
718236 614587 718236 607711 6096 l
718236 607711 720401 602483 6096 l
720401 602483 735641 587243 6096 l
735641 587243 739643 583241 6096 l
739643 583241 744871 581076 6096 l
744871 581076 941029 581076 6096 l
941029 581076 946257 583241 6096 l
946257 583241 954456 591440 6096 l
954456 591440 954456 566344 6096 l
954456 566344 910981 566344 6096 l
910981 566344 907620 564952 6096 l
907620 564952 905048 562380 6096 l
905048 562380 903656 559019 6096 l
903656 559019 903656 504581 6096 l
903656 504581 905048 501220 6096 l
905048 501220 907620 498648 6096 l
907620 498648 910981 497256 6096 l
910981 497256 916356 497256 6096 l
916356 497256 916356 487244 6096 l
916356 487244 885310 487244 6096 l
885310 487244 885036 487906 6096 l
885036 487906 872336 500606 6096 l
872336 500606 868906 504036 6096 l
868906 504036 864425 505892 6096 l
864425 505892 663850 505892 6096 l
663850 505892 631036 538706 6096 l
631036 538706 627606 542136 6096 l
627606 542136 623125 543992 6096 l
623125 543992 521131 543992 6096 l
521131 543992 519750 547325 6096 l
519750 547325 515321 551754 6096 l
515321 551754 509532 554152 6096 l
509532 554152 503268 554152 6096 l
503268 554152 497479 551754 6096 l
497479 551754 493700 547975 6096 l
493700 547975 489921 551754 6096 l
489921 551754 484132 554152 6096 l
484132 554152 477868 554152 6096 l
477868 554152 472079 551754 6096 l
472079 551754 468300 547975 6096 l
468300 547975 464521 551754 6096 l
464521 551754 458732 554152 6096 l
458732 554152 452468 554152 6096 l
452468 554152 446679 551754 6096 l
446679 551754 442900 547975 6096 l
442900 547975 439121 551754 6096 l
439121 551754 433332 554152 6096 l
433332 554152 427068 554152 6096 l
427068 554152 421279 551754 6096 l
421279 551754 417500 547975 6096 l
417500 547975 413721 551754 6096 l
413721 551754 407932 554152 6096 l
407932 554152 401668 554152 6096 l
401668 554152 395879 551754 6096 l
395879 551754 392100 547975 6096 l
392100 547975 388321 551754 6096 l
388321 551754 382532 554152 6096 l
382532 554152 376268 554152 6096 l
376268 554152 370479 551754 6096 l
370479 551754 366050 547325 6096 l
366050 547325 364669 543992 6096 l
364669 543992 338875 543992 6096 l
338875 543992 334394 542136 6096 l
334394 542136 330964 538706 6096 l
330964 538706 310850 518592 6096 l
310850 518592 266696 518592 6096 l
266696 518592 269688 521585 6096 l
269688 521585 272434 528213 6096 l
272434 528213 272434 535387 6096 l
272434 535387 269688 542015 6096 l
269688 542015 264615 547088 6096 l
264615 547088 257987 549834 6096 l
257987 549834 250813 549834 6096 l
250813 549834 244185 547088 6096 l
244185 547088 239112 542015 6096 l
239112 542015 236366 535387 6096 l
236366 535387 236366 528213 6096 l
236366 528213 239112 521585 6096 l
239112 521585 242104 518592 6096 l
242104 518592 220268 518592 6096 l
220268 518592 221888 519417 6096 l
221888 519417 223732 520757 6096 l
223732 520757 225343 522368 6096 l
225343 522368 226683 524212 6096 l
226683 524212 227717 526242 6096 l
227717 526242 228421 528410 6096 l
228421 528410 228778 530661 6096 l
228778 530661 228778 531800 6096 l
228778 531800 214300 531800 6096 l
214300 531800 214300 531800 6096 l
214300 531800 228778 531800 6096 l
228778 531800 228778 532939 6096 l
228778 532939 228421 535190 6096 l
228421 535190 227717 537358 6096 l
227717 537358 226683 539388 6096 l
226683 539388 225343 541232 6096 l
225343 541232 223732 542843 6096 l
223732 542843 221888 544183 6096 l
221888 544183 219858 545217 6096 l
219858 545217 217690 545921 6096 l
217690 545921 215439 546278 6096 l
215439 546278 214300 546278 6096 l
214300 546278 214300 531800 6096 l
214300 531800 214300 531800 6096 l
214300 531800 214300 546278 6096 l
214300 546278 213161 546278 6096 l
213161 546278 210910 545921 6096 l
210910 545921 208742 545217 6096 l
208742 545217 206712 544183 6096 l
206712 544183 204868 542843 6096 l
204868 542843 203257 541232 6096 l
203257 541232 201917 539388 6096 l
201917 539388 200883 537358 6096 l
200883 537358 200179 535190 6096 l
200179 535190 199822 532939 6096 l
199822 532939 199822 531800 6096 l
199822 531800 214300 531800 6096 l
214300 531800 214300 531800 6096 l
214300 531800 199822 531800 6096 l
199822 531800 199822 530661 6096 l
199822 530661 200179 528410 6096 l
200179 528410 200883 526242 6096 l
200883 526242 201917 524212 6096 l
201917 524212 203257 522368 6096 l
203257 522368 204868 520757 6096 l
204868 520757 206712 519417 6096 l
206712 519417 208742 518383 6096 l
208742 518383 210215 517904 6096 l
210215 517904 207394 516736 6096 l
207394 516736 203964 513306 6096 l
203964 513306 178564 487906 6096 l
178564 487906 176708 483425 6096 l
176708 483425 176708 479554 6096 l
176708 479554 176220 479352 6096 l
176220 479352 173648 476780 6096 l
173648 476780 172256 473419 6096 l
172256 473419 172256 456781 6096 l
172256 456781 173648 453420 6096 l
173648 453420 175024 452044 6096 l
175024 452044 121844 452044 6096 l
121844 452044 121844 886792 6096 l
121844 886792 188512 886792 6096 l
188512 886792 188512 884402 6096 l
188512 884402 201398 884402 6096 l
201398 884402 201398 883998 6096 l
201398 883998 188512 883998 6096 l
188512 883998 188512 879044 6096 l
188512 879044 186348 876880 6096 l
186348 876880 184956 873519 6096 l
184956 873519 184956 856881 6096 l
184956 856881 186348 853520 6096 l
186348 853520 187376 852492 6096 l
187376 852492 187376 808371 6096 l
187376 808371 189541 803143 6096 l
189541 803143 193543 799141 6096 l
193543 799141 198771 796976 6096 l
198771 796976 241838 796976 6096 l
241838 796976 242472 796342 6096 l
242472 796342 248914 793674 6096 l
248914 793674 255886 793674 6096 l
255886 793674 256212 793809 6096 l
256212 793809 256212 786002 6096 l
256212 786002 268098 786002 6096 l
268098 786002 268098 785598 6096 l
268098 785598 256212 785598 6096 l
256212 785598 256212 777564 6096 l
256212 777564 256593 776143 6096 l
256593 776143 257328 774869 6096 l
257328 774869 258369 773828 6096 l
258369 773828 259643 773093 6096 l
259643 773093 261064 772712 6096 l
261064 772712 268098 772712 6096 l
268098 772712 268098 785598 6096 l
268098 785598 268502 785598 6096 l
268502 785598 268502 772712 6096 l
268502 772712 273456 772712 6096 l
273456 772712 275620 770548 6096 l
275620 770548 278981 769156 6096 l
278981 769156 295619 769156 6096 l
295619 769156 298980 770548 6096 l
298980 770548 301552 773120 6096 l
301552 773120 301754 773608 6096 l
301754 773608 308353 773608 6096 l
308353 773608 307574 772829 6096 l
307574 772829 307574 760671 6096 l
307574 760671 309369 758876 6096 l
309369 758876 309070 758752 6096 l
309070 758752 306498 756180 6096 l
306498 756180 306313 755733 6096 l
306313 755733 305047 757000 6096 l
305047 757000 303494 758128 6096 l
303494 758128 301784 758999 6096 l
301784 758999 299959 759592 6096 l
299959 759592 298064 759892 6096 l
298064 759892 290500 759892 6096 l
290500 759892 290500 747700 6096 l
290500 747700 290500 747700 6096 l
290500 747700 290500 759892 6096 l
290500 759892 282936 759892 6096 l
282936 759892 281041 759592 6096 l
281041 759592 279216 758999 6096 l
279216 758999 277506 758128 6096 l
277506 758128 275953 757000 6096 l
275953 757000 274596 755643 6096 l
274596 755643 273468 754090 6096 l
273468 754090 272597 752380 6096 l
272597 752380 272004 750555 6096 l
272004 750555 271704 748660 6096 l
271704 748660 271704 747700 6096 l
271704 747700 290500 747700 6096 l
290500 747700 290500 747700 6096 l
290500 747700 271704 747700 6096 l
271704 747700 271704 746740 6096 l
271704 746740 272004 744845 6096 l
272004 744845 272597 743020 6096 l
272597 743020 273468 741310 6096 l
273468 741310 274596 739757 6096 l
274596 739757 275953 738400 6096 l
275953 738400 277506 737272 6096 l
277506 737272 278127 736956 6096 l
278127 736956 274975 735650 6096 l
274975 735650 273817 734492 6096 l
273817 734492 211875 734492 6096 l
211875 734492 207394 732636 6096 l
207394 732636 203964 729206 6096 l
203964 729206 167464 692706 6096 l
167464 692706 165608 688225 6096 l
165608 688225 165608 615012 6096 l
165608 615012 162512 611915 6096 l
162512 611915 159766 605287 6096 l
159766 605287 159766 598113 6096 l
159766 598113 162512 591485 6096 l
162512 591485 167585 586412 6096 l
167585 586412 174213 583666 6096 l
174213 583666 181387 583666 6096 l
181387 583666 188015 586412 6096 l
188015 586412 193088 591485 6096 l
193088 591485 195834 598113 6096 l
195834 598113 195834 605287 6096 l
195834 605287 193088 611915 6096 l
193088 611915 189992 615012 6096 l
189992 615012 189992 680750 6096 l
189992 680750 219350 710108 6096 l
219350 710108 273817 710108 6096 l
273817 710108 274325 709600 6096 l
274325 709600 270546 705821 6096 l
270546 705821 268148 700032 6096 l
268148 700032 268148 693768 6096 l
268148 693768 270546 687979 6096 l
270546 687979 274325 684200 6096 l
274325 684200 273817 683692 6096 l
273817 683692 262675 683692 6096 l
262675 683692 258194 681836 6096 l
258194 681836 245494 669136 6096 l
245494 669136 242064 665706 6096 l
242064 665706 240208 661225 6096 l
240208 661225 240208 613412 6096 l
240208 613412 238712 611915 6096 l
238712 611915 235966 605287 6096 l
235966 605287 235966 598113 6096 l
235966 598113 238712 591485 6096 l
238712 591485 243785 586412 6096 l
243785 586412 250413 583666 6096 l
250413 583666 257587 583666 6096 l
257587 583666 264215 586412 6096 l
264215 586412 269288 591485 6096 l
269288 591485 272034 598113 6096 l
272034 598113 272034 605287 6096 l
272034 605287 269288 611915 6096 l
269288 611915 264592 616612 6096 l
264592 616612 264592 653750 6096 l
264592 653750 270150 659308 6096 l
270150 659308 273817 659308 6096 l
273817 659308 274975 658150 6096 l
274975 658150 278308 656769 6096 l
278308 656769 278308 656375 6096 l
278308 656375 280164 651894 6096 l
280164 651894 305564 626494 6096 l
305564 626494 308994 623064 6096 l
308994 623064 313475 621208 6096 l
313475 621208 344856 621208 6096 l
344856 621208 344856 593481 6096 l
344856 593481 346248 590120 6096 l
346248 590120 348820 587548 6096 l
348820 587548 350056 587036 6096 l
350056 587036 350056 583781 6096 l
350056 583781 351448 580420 6096 l
351448 580420 353612 578256 6096 l
353612 578256 353612 573302 6096 l
353612 573302 366498 573302 6096 l
366498 573302 366498 572898 6096 l
366498 572898 353612 572898 6096 l
353612 572898 353612 565864 6096 l
353612 565864 353993 564443 6096 l
353993 564443 354728 563169 6096 l
354728 563169 355769 562128 6096 l
355769 562128 357043 561393 6096 l
357043 561393 358464 561012 6096 l
358464 561012 366498 561012 6096 l
366498 561012 366498 572898 6096 l
366498 572898 366902 572898 6096 l
366902 572898 366902 561012 6096 l
366902 561012 374936 561012 6096 l
374936 561012 376357 561393 6096 l
376357 561393 377631 562128 6096 l
377631 562128 378672 563169 6096 l
378672 563169 379407 564443 6096 l
379407 564443 379788 565864 6096 l
379788 565864 379788 572898 6096 l
379788 572898 366902 572898 6096 l
366902 572898 366902 573302 6096 l
366902 573302 379788 573302 6096 l
379788 573302 379788 578256 6096 l
379788 578256 381952 580420 6096 l
381952 580420 383344 583781 6096 l
383344 583781 383344 585984 6096 l
383344 585984 383759 586156 6096 l
383759 586156 400441 586156 6096 l
400441 586156 401668 585648 6096 l
401668 585648 407932 585648 6096 l
407932 585648 409159 586156 6096 l
409159 586156 425841 586156 6096 l
425841 586156 427068 585648 6096 l
427068 585648 433332 585648 6096 l
433332 585648 434559 586156 6096 l
434559 586156 451241 586156 6096 l
451241 586156 452468 585648 6096 l
452468 585648 458732 585648 6096 l
458732 585648 459959 586156 6096 l
459959 586156 476641 586156 6096 l
476641 586156 477868 585648 6096 l
477868 585648 484132 585648 6096 l
484132 585648 485359 586156 6096 l
485359 586156 502041 586156 6096 l
502041 586156 503268 585648 6096 l
503268 585648 509532 585648 6096 l
509532 585648 510759 586156 6096 l
510759 586156 533619 586156 6096 l
533619 586156 536980 587548 6096 l
536980 587548 539552 590120 6096 l
539552 590120 539857 590856 6096 l
539857 590856 543319 590856 6096 l
543319 590856 544500 591345 6096 l
544500 591345 545681 590856 6096 l
545681 590856 562319 590856 6096 l
562319 590856 565680 592248 6096 l
565680 592248 565938 592506 6096 l
565938 592506 578069 592506 6096 l
578069 592506 581430 593898 6096 l
581430 593898 584002 596470 6096 l
584002 596470 585394 599831 6096 l
585394 599831 585394 663402 6096 l
585394 663402 599286 677294 6096 l
599286 677294 601142 681775 6096 l
601142 681775 601142 759203 6096 l
601142 759203 608271 752074 6096 l
608271 752074 620429 752074 6096 l
620429 752074 629026 760671 6096 l
629026 760671 629026 772829 6096 l
629026 772829 626542 775313 6096 l
626542 775313 626542 827456 6096 l
626542 827456 635219 827456 6096 l
635219 827456 635306 827492 6096 l
635306 827492 635306 812381 6096 l
635306 812381 635795 811200 6096 l
635795 811200 635306 810019 6096 l
635306 810019 635306 793381 6096 l
635306 793381 636698 790020 6096 l
636698 790020 639270 787448 6096 l
639270 787448 640258 787039 6096 l
640258 787039 640258 738925 6096 l
640258 738925 642114 734444 6096 l
642114 734444 645544 731014 6096 l
645544 731014 659308 717250 6096 l
659308 717250 659308 587650 6096 l
659308 587650 655450 583792 6096 l
655450 583792 646381 583792 6096 l
646381 583792 646757 584443 6096 l
646757 584443 647138 585864 6096 l
647138 585864 647138 593600 6096 l
647138 593600 636550 593600 6096 l
636550 593600 636550 593600 6096 l
636550 593600 647138 593600 6096 l
647138 593600 647138 601336 6096 l
647138 601336 646757 602757 6096 l
646757 602757 646022 604031 6096 l
646022 604031 644981 605072 6096 l
644981 605072 643707 605807 6096 l
643707 605807 642286 606188 6096 l
642286 606188 636550 606188 6096 l
636550 606188 636550 593600 6096 l
636550 593600 636550 593600 6096 l
636550 593600 636550 606188 6096 l
636550 606188 631774 606188 6096 l
631774 606188 631774 607112 6096 l
631774 607112 636348 607112 6096 l
636348 607112 636348 620498 6096 l
636348 620498 636752 620498 6096 l
636752 620498 636752 607112 6096 l
636752 607112 643786 607112 6096 l
643786 607112 645207 607493 6096 l
645207 607493 646481 608228 6096 l
646481 608228 647522 609269 6096 l
647522 609269 648257 610543 6096 l
648257 610543 648638 611964 6096 l
648638 611964 648638 620498 6096 l
648638 620498 636752 620498 6096 l
636752 620498 636752 620902 6096 l
636752 620902 648638 620902 6096 l
648638 620902 648638 629436 6096 l
648638 629436 648257 630857 6096 l
648257 630857 647522 632131 6096 l
647522 632131 646481 633172 6096 l
646481 633172 645652 633650 6096 l
645652 633650 646481 634128 6096 l
646481 634128 647522 635169 6096 l
647522 635169 648257 636443 6096 l
648257 636443 648638 637864 6096 l
648638 637864 648638 645898 6096 l
648638 645898 636752 645898 6096 l
636752 645898 636752 646302 6096 l
636752 646302 648638 646302 6096 l
648638 646302 648638 654336 6096 l
648638 654336 648257 655757 6096 l
648257 655757 648250 655769 6096 l
648250 655769 650802 658320 6096 l
650802 658320 652194 661681 6096 l
652194 661681 652194 681319 6096 l
652194 681319 650802 684680 6096 l
650802 684680 649543 685938 6096 l
649543 685938 654426 690821 6096 l
654426 690821 654426 702979 6096 l
654426 702979 645829 711576 6096 l
645829 711576 633671 711576 6096 l
633671 711576 625074 702979 6096 l
625074 702979 625074 697854 6096 l
625074 697854 624358 696125 6096 l
624358 696125 624358 688644 6096 l
624358 688644 609231 688644 6096 l
609231 688644 605870 687252 6096 l
605870 687252 603298 684680 6096 l
603298 684680 601906 681319 6096 l
601906 681319 601906 661681 6096 l
601906 661681 603203 658550 6096 l
603203 658550 601906 655419 6096 l
601906 655419 601906 636781 6096 l
601906 636781 603203 633650 6096 l
603203 633650 601906 630519 6096 l
601906 630519 601906 610881 6096 l
601906 610881 603298 607520 6096 l
603298 607520 603326 607492 6096 l
603326 607492 603326 590771 6096 l
603326 590771 603406 590578 6096 l
603406 590578 603406 584781 6096 l
603406 584781 604798 581420 6096 l
604798 581420 607370 578848 6096 l
607370 578848 610731 577456 6096 l
610731 577456 612906 577456 6096 l
612906 577456 612906 562781 6096 l
612906 562781 614298 559420 6096 l
614298 559420 616870 556848 6096 l
616870 556848 620231 555456 6096 l
620231 555456 633869 555456 6096 l
633869 555456 637230 556848 6096 l
637230 556848 639790 559408 6096 l
639790 559408 662925 559408 6096 l
662925 559408 667406 561264 6096 l
667406 561264 678406 572264 6096 l
678406 572264 681836 575694 6096 l
681836 575694 683692 580175 6096 l
683692 580175 683692 710108 6096 l
683692 710108 826325 710108 6096 l
826325 710108 830806 711964 6096 l
830806 711964 834236 715394 6096 l
834236 715394 849016 730174 6096 l
849016 730174 855629 730174 6096 l
855629 730174 862631 733074 6096 l
862631 733074 867990 738433 6096 l
867990 738433 870890 745435 6096 l
870890 745435 870890 772825 6096 l
870890 772825 867990 779827 6096 l
867990 779827 862631 785186 6096 l
862631 785186 861492 785658 6096 l
861492 785658 861492 795706 6096 l
861492 795706 863819 795706 6096 l
863819 795706 867180 797098 6096 l
867180 797098 869752 799670 6096 l
869752 799670 871144 803031 6096 l
871144 803031 871144 844769 6096 l
871144 844769 870669 845915 6096 l
870669 845915 885876 830708 6096 l
885876 830708 885876 706771 6096 l
885876 706771 888041 701543 6096 l
888041 701543 900741 688843 6096 l
900741 688843 904743 684841 6096 l
904743 684841 909971 682676 6096 l
909971 682676 927929 682676 6096 l
927929 682676 926604 681351 6096 l
926604 681351 923849 674700 6096 l
923849 674700 923849 667500 6096 l
923849 667500 926604 660849 6096 l
926604 660849 927129 660324 6096 l
927129 660324 909971 660324 6096 l
909971 660324 904743 658159 6096 l
904743 658159 900741 654157 6096 l
900741 654157 898018 651434 6096 l
898018 651434 870671 651434 6096 l
870671 651434 867990 657907 6096 l
137700 616178 137700 601700 6096 l
137700 601700 137700 601700 6096 l
137700 601700 137700 616178 6096 l
137700 616178 136561 616178 6096 l
136561 616178 134310 615821 6096 l
134310 615821 132142 615117 6096 l
132142 615117 130112 614083 6096 l
130112 614083 128268 612743 6096 l
128268 612743 126657 611132 6096 l
126657 611132 125317 609288 6096 l
125317 609288 124283 607258 6096 l
124283 607258 123579 605090 6096 l
123579 605090 123222 602839 6096 l
123222 602839 123222 601700 6096 l
123222 601700 137700 601700 6096 l
137700 601700 137700 601700 6096 l
137700 601700 123222 601700 6096 l
123222 601700 123222 600561 6096 l
123222 600561 123579 598310 6096 l
123579 598310 124283 596142 6096 l
124283 596142 125317 594112 6096 l
125317 594112 126657 592268 6096 l
126657 592268 128268 590657 6096 l
128268 590657 130112 589317 6096 l
130112 589317 132142 588283 6096 l
132142 588283 134310 587579 6096 l
134310 587579 136561 587222 6096 l
136561 587222 137700 587222 6096 l
137700 587222 137700 601700 6096 l
137700 601700 137700 601700 6096 l
137700 601700 137700 587222 6096 l
137700 587222 138839 587222 6096 l
138839 587222 141090 587579 6096 l
141090 587579 143258 588283 6096 l
143258 588283 145288 589317 6096 l
145288 589317 147132 590657 6096 l
147132 590657 148743 592268 6096 l
148743 592268 150083 594112 6096 l
150083 594112 151117 596142 6096 l
151117 596142 151821 598310 6096 l
151821 598310 152178 600561 6096 l
152178 600561 152178 601700 6096 l
152178 601700 137700 601700 6096 l
137700 601700 137700 601700 6096 l
137700 601700 152178 601700 6096 l
152178 601700 152178 602839 6096 l
152178 602839 151821 605090 6096 l
151821 605090 151117 607258 6096 l
151117 607258 150083 609288 6096 l
150083 609288 148743 611132 6096 l
148743 611132 147132 612743 6096 l
147132 612743 145288 614083 6096 l
145288 614083 143258 615117 6096 l
143258 615117 141090 615821 6096 l
141090 615821 138839 616178 6096 l
138839 616178 137700 616178 6096 l
196234 528213 196234 535387 6096 l
196234 535387 193488 542015 6096 l
193488 542015 188415 547088 6096 l
188415 547088 181787 549834 6096 l
181787 549834 174613 549834 6096 l
174613 549834 167985 547088 6096 l
167985 547088 162912 542015 6096 l
162912 542015 160166 535387 6096 l
160166 535387 160166 528213 6096 l
160166 528213 162912 521585 6096 l
162912 521585 167985 516512 6096 l
167985 516512 174613 513766 6096 l
174613 513766 181787 513766 6096 l
181787 513766 188415 516512 6096 l
188415 516512 193488 521585 6096 l
193488 521585 196234 528213 6096 l
138100 546278 138100 531800 6096 l
138100 531800 138100 531800 6096 l
138100 531800 138100 546278 6096 l
138100 546278 136961 546278 6096 l
136961 546278 134710 545921 6096 l
134710 545921 132542 545217 6096 l
132542 545217 130512 544183 6096 l
130512 544183 128668 542843 6096 l
128668 542843 127057 541232 6096 l
127057 541232 125717 539388 6096 l
125717 539388 124683 537358 6096 l
124683 537358 123979 535190 6096 l
123979 535190 123622 532939 6096 l
123622 532939 123622 531800 6096 l
123622 531800 138100 531800 6096 l
138100 531800 138100 531800 6096 l
138100 531800 123622 531800 6096 l
123622 531800 123622 530661 6096 l
123622 530661 123979 528410 6096 l
123979 528410 124683 526242 6096 l
124683 526242 125717 524212 6096 l
125717 524212 127057 522368 6096 l
127057 522368 128668 520757 6096 l
128668 520757 130512 519417 6096 l
130512 519417 132542 518383 6096 l
132542 518383 134710 517679 6096 l
134710 517679 136961 517322 6096 l
136961 517322 138100 517322 6096 l
138100 517322 138100 531800 6096 l
138100 531800 138100 531800 6096 l
138100 531800 138100 517322 6096 l
138100 517322 139239 517322 6096 l
139239 517322 141490 517679 6096 l
141490 517679 143658 518383 6096 l
143658 518383 145688 519417 6096 l
145688 519417 147532 520757 6096 l
147532 520757 149143 522368 6096 l
149143 522368 150483 524212 6096 l
150483 524212 151517 526242 6096 l
151517 526242 152221 528410 6096 l
152221 528410 152578 530661 6096 l
152578 530661 152578 531800 6096 l
152578 531800 138100 531800 6096 l
138100 531800 138100 531800 6096 l
138100 531800 152578 531800 6096 l
152578 531800 152578 532939 6096 l
152578 532939 152221 535190 6096 l
152221 535190 151517 537358 6096 l
151517 537358 150483 539388 6096 l
150483 539388 149143 541232 6096 l
149143 541232 147532 542843 6096 l
147532 542843 145688 544183 6096 l
145688 544183 143658 545217 6096 l
143658 545217 141490 545921 6096 l
141490 545921 139239 546278 6096 l
139239 546278 138100 546278 6096 l
168326 807714 168326 814686 6096 l
168326 814686 165658 821128 6096 l
165658 821128 160728 826058 6096 l
160728 826058 154286 828726 6096 l
154286 828726 147314 828726 6096 l
147314 828726 140872 826058 6096 l
140872 826058 135942 821128 6096 l
135942 821128 133274 814686 6096 l
133274 814686 133274 807714 6096 l
133274 807714 135942 801272 6096 l
135942 801272 136576 800638 6096 l
136576 800638 136576 790105 6096 l
136576 790105 131595 788042 6096 l
131595 788042 126504 782951 6096 l
126504 782951 123749 776300 6096 l
123749 776300 123749 769100 6096 l
123749 769100 126504 762449 6096 l
126504 762449 131595 757358 6096 l
131595 757358 138247 754603 6096 l
138247 754603 163353 754603 6096 l
163353 754603 170005 757358 6096 l
170005 757358 171523 758876 6096 l
171523 758876 210202 758876 6096 l
210202 758876 211671 758268 6096 l
211671 758268 210908 757713 6096 l
210908 757713 209447 756252 6096 l
209447 756252 208232 754581 6096 l
208232 754581 207294 752739 6096 l
207294 752739 206655 750774 6096 l
206655 750774 206332 748733 6096 l
206332 748733 206332 747700 6096 l
206332 747700 227000 747700 6096 l
227000 747700 227000 747700 6096 l
227000 747700 206332 747700 6096 l
206332 747700 206332 746667 6096 l
206332 746667 206655 744626 6096 l
206655 744626 207294 742661 6096 l
207294 742661 208232 740819 6096 l
208232 740819 209447 739148 6096 l
209447 739148 210908 737687 6096 l
210908 737687 212579 736472 6096 l
212579 736472 214421 735534 6096 l
214421 735534 216386 734895 6096 l
216386 734895 218427 734572 6096 l
218427 734572 227000 734572 6096 l
227000 734572 227000 747700 6096 l
227000 747700 227000 747700 6096 l
227000 747700 227000 734572 6096 l
227000 734572 235573 734572 6096 l
235573 734572 237614 734895 6096 l
237614 734895 239579 735534 6096 l
239579 735534 241421 736472 6096 l
241421 736472 243092 737687 6096 l
243092 737687 244553 739148 6096 l
244553 739148 245768 740819 6096 l
245768 740819 246706 742661 6096 l
246706 742661 247345 744626 6096 l
247345 744626 247668 746667 6096 l
247668 746667 247668 747700 6096 l
247668 747700 227000 747700 6096 l
227000 747700 227000 747700 6096 l
227000 747700 247668 747700 6096 l
247668 747700 247668 748733 6096 l
247668 748733 247345 750774 6096 l
247345 750774 246706 752739 6096 l
246706 752739 245768 754581 6096 l
245768 754581 244553 756252 6096 l
244553 756252 243092 757713 6096 l
243092 757713 242329 758268 6096 l
242329 758268 243991 758956 6096 l
243991 758956 248684 763649 6096 l
248684 763649 251224 769781 6096 l
251224 769781 251224 776419 6096 l
251224 776419 248684 782551 6096 l
248684 782551 243991 787244 6096 l
243991 787244 237859 789784 6096 l
237859 789784 216141 789784 6096 l
216141 789784 210202 787324 6096 l
210202 787324 170723 787324 6096 l
170723 787324 170005 788042 6096 l
170005 788042 165024 790105 6096 l
165024 790105 165024 800638 6096 l
165024 800638 165658 801272 6096 l
165658 801272 168326 807714 6096 l
213900 616178 213900 601700 6096 l
213900 601700 213900 601700 6096 l
213900 601700 213900 616178 6096 l
213900 616178 212761 616178 6096 l
212761 616178 210510 615821 6096 l
210510 615821 208342 615117 6096 l
208342 615117 206312 614083 6096 l
206312 614083 204468 612743 6096 l
204468 612743 202857 611132 6096 l
202857 611132 201517 609288 6096 l
201517 609288 200483 607258 6096 l
200483 607258 199779 605090 6096 l
199779 605090 199422 602839 6096 l
199422 602839 199422 601700 6096 l
199422 601700 213900 601700 6096 l
213900 601700 213900 601700 6096 l
213900 601700 199422 601700 6096 l
199422 601700 199422 600561 6096 l
199422 600561 199779 598310 6096 l
199779 598310 200483 596142 6096 l
200483 596142 201517 594112 6096 l
201517 594112 202857 592268 6096 l
202857 592268 203381 591744 6096 l
203381 591744 199781 591744 6096 l
199781 591744 196420 590352 6096 l
196420 590352 193848 587780 6096 l
193848 587780 192456 584419 6096 l
192456 584419 192456 555381 6096 l
192456 555381 193848 552020 6096 l
193848 552020 196420 549448 6096 l
196420 549448 199781 548056 6096 l
199781 548056 228819 548056 6096 l
228819 548056 232180 549448 6096 l
232180 549448 234752 552020 6096 l
234752 552020 236144 555381 6096 l
236144 555381 236144 584419 6096 l
236144 584419 234752 587780 6096 l
234752 587780 232180 590352 6096 l
232180 590352 228819 591744 6096 l
228819 591744 224419 591744 6096 l
224419 591744 224943 592268 6096 l
224943 592268 226283 594112 6096 l
226283 594112 227317 596142 6096 l
227317 596142 228021 598310 6096 l
228021 598310 228378 600561 6096 l
228378 600561 228378 601700 6096 l
228378 601700 213900 601700 6096 l
213900 601700 213900 601700 6096 l
213900 601700 228378 601700 6096 l
228378 601700 228378 602839 6096 l
228378 602839 228021 605090 6096 l
228021 605090 227317 607258 6096 l
227317 607258 226283 609288 6096 l
226283 609288 224943 611132 6096 l
224943 611132 223332 612743 6096 l
223332 612743 221488 614083 6096 l
221488 614083 219458 615117 6096 l
219458 615117 217290 615821 6096 l
217290 615821 215039 616178 6096 l
215039 616178 213900 616178 6096 l
127305 723844 127305 722700 6096 l
127305 722700 150800 722700 6096 l
150800 722700 150800 722700 6096 l
150800 722700 127305 722700 6096 l
127305 722700 127305 721556 6096 l
127305 721556 127663 719295 6096 l
127663 719295 128370 717118 6096 l
128370 717118 129410 715079 6096 l
129410 715079 130755 713227 6096 l
130755 713227 132373 711608 6096 l
132373 711608 134225 710263 6096 l
134225 710263 136264 709224 6096 l
136264 709224 138441 708517 6096 l
138441 708517 140702 708159 6096 l
140702 708159 150800 708159 6096 l
150800 708159 150800 722700 6096 l
150800 722700 150800 722700 6096 l
150800 722700 150800 708159 6096 l
150800 708159 160898 708159 6096 l
160898 708159 163159 708517 6096 l
163159 708517 165336 709224 6096 l
165336 709224 167375 710263 6096 l
167375 710263 169227 711608 6096 l
169227 711608 170845 713227 6096 l
170845 713227 172190 715079 6096 l
172190 715079 173230 717118 6096 l
173230 717118 173937 719295 6096 l
173937 719295 174295 721556 6096 l
174295 721556 174295 722700 6096 l
174295 722700 150800 722700 6096 l
150800 722700 150800 722700 6096 l
150800 722700 174295 722700 6096 l
174295 722700 174295 723844 6096 l
174295 723844 173937 726105 6096 l
173937 726105 173230 728282 6096 l
173230 728282 172190 730321 6096 l
172190 730321 170845 732173 6096 l
170845 732173 169227 733792 6096 l
169227 733792 167375 735137 6096 l
167375 735137 165336 736176 6096 l
165336 736176 163159 736883 6096 l
163159 736883 160898 737241 6096 l
160898 737241 150800 737241 6096 l
150800 737241 150800 722700 6096 l
150800 722700 150800 722700 6096 l
150800 722700 150800 737241 6096 l
150800 737241 140702 737241 6096 l
140702 737241 138441 736883 6096 l
138441 736883 136264 736176 6096 l
136264 736176 134225 735137 6096 l
134225 735137 132373 733792 6096 l
132373 733792 130755 732173 6096 l
130755 732173 129410 730321 6096 l
129410 730321 128370 728282 6096 l
128370 728282 127663 726105 6096 l
127663 726105 127305 723844 6096 l
487350 783768 487350 799516 6096 l
487350 799516 487350 799516 6096 l
487350 799516 487350 783768 6096 l
487350 783768 491388 783768 6096 l
491388 783768 492809 784149 6096 l
492809 784149 493700 784663 6096 l
493700 784663 494591 784149 6096 l
494591 784149 496012 783768 6096 l
496012 783768 500050 783768 6096 l
500050 783768 500050 799516 6096 l
500050 799516 500050 799516 6096 l
500050 799516 500050 783768 6096 l
500050 783768 502104 783768 6096 l
502104 783768 504268 781604 6096 l
504268 781604 507629 780212 6096 l
507629 780212 514274 780212 6096 l
514274 780212 514274 755695 6096 l
514274 755695 513383 756209 6096 l
513383 756209 511962 756590 6096 l
511962 756590 501066 756590 6096 l
501066 756590 501066 747700 6096 l
501066 747700 501066 747700 6096 l
501066 747700 501066 756590 6096 l
501066 756590 497945 756590 6096 l
497945 756590 502026 760671 6096 l
502026 760671 502026 772829 6096 l
502026 772829 493429 781426 6096 l
493429 781426 481271 781426 6096 l
481271 781426 478787 778942 6096 l
478787 778942 409850 778942 6096 l
409850 778942 360906 827886 6096 l
360906 827886 356425 829742 6096 l
356425 829742 356213 829742 6096 l
356213 829742 353729 832226 6096 l
353729 832226 341571 832226 6096 l
341571 832226 334442 825097 6096 l
334442 825097 334442 835076 6096 l
334442 835076 363990 835076 6096 l
363990 835076 365188 832184 6096 l
365188 832184 369904 827468 6096 l
369904 827468 376065 824916 6096 l
376065 824916 382735 824916 6096 l
382735 824916 388896 827468 6096 l
388896 827468 392100 830672 6096 l
392100 830672 395304 827468 6096 l
395304 827468 401465 824916 6096 l
401465 824916 408135 824916 6096 l
408135 824916 414296 827468 6096 l
414296 827468 419012 832184 6096 l
419012 832184 419651 833728 6096 l
419651 833728 420126 833076 6096 l
420126 833076 421596 831606 6096 l
421596 831606 423277 830384 6096 l
423277 830384 425130 829440 6096 l
425130 829440 427107 828797 6096 l
427107 828797 429160 828472 6096 l
429160 828472 430200 828472 6096 l
430200 828472 430200 849300 6096 l
430200 849300 430200 849300 6096 l
430200 849300 430200 828472 6096 l
430200 828472 431240 828472 6096 l
431240 828472 433293 828797 6096 l
433293 828797 435270 829440 6096 l
435270 829440 437123 830384 6096 l
437123 830384 438804 831606 6096 l
438804 831606 440274 833076 6096 l
440274 833076 441496 834757 6096 l
441496 834757 442440 836610 6096 l
442440 836610 443083 838587 6096 l
443083 838587 443408 840640 6096 l
443408 840640 443408 849300 6096 l
443408 849300 430200 849300 6096 l
430200 849300 430200 849300 6096 l
430200 849300 443408 849300 6096 l
443408 849300 443408 857960 6096 l
443408 857960 443083 860013 6096 l
443083 860013 442440 861990 6096 l
442440 861990 442176 862508 6096 l
442176 862508 456108 862508 6096 l
456108 862508 456108 840525 6096 l
456108 840525 457964 836044 6096 l
457964 836044 461394 832614 6096 l
461394 832614 474094 819914 6096 l
474094 819914 478575 818058 6096 l
478575 818058 500558 818058 6096 l
500558 818058 500558 815264 6096 l
500558 815264 500050 815264 6096 l
500050 815264 500050 799516 6096 l
500050 799516 500050 799516 6096 l
500050 799516 500050 815264 6096 l
500050 815264 496012 815264 6096 l
496012 815264 494591 814883 6096 l
494591 814883 493700 814369 6096 l
493700 814369 492809 814883 6096 l
492809 814883 491388 815264 6096 l
491388 815264 487350 815264 6096 l
487350 815264 487350 799516 6096 l
487350 799516 487350 799516 6096 l
487350 799516 487350 815264 6096 l
487350 815264 483312 815264 6096 l
483312 815264 481891 814883 6096 l
481891 814883 480617 814148 6096 l
480617 814148 479576 813107 6096 l
479576 813107 478841 811833 6096 l
478841 811833 478460 810412 6096 l
478460 810412 478460 799516 6096 l
478460 799516 487350 799516 6096 l
487350 799516 487350 799516 6096 l
487350 799516 478460 799516 6096 l
478460 799516 478460 788620 6096 l
478460 788620 478841 787199 6096 l
478841 787199 479576 785925 6096 l
479576 785925 480617 784884 6096 l
480617 784884 481891 784149 6096 l
481891 784149 483312 783768 6096 l
483312 783768 487350 783768 6096 l
496240 799516 500050 799516 6096 l
500050 799516 500050 799516 6096 l
500050 799516 487350 799516 6096 l
487350 799516 487350 799516 6096 l
487350 799516 496240 799516 6096 l
633194 645898 633194 646302 6096 l
633194 646302 636348 646302 6096 l
636348 646302 636348 645898 6096 l
636348 645898 633194 645898 6096 l
485318 751738 485318 747700 6096 l
485318 747700 501066 747700 6096 l
501066 747700 501066 747700 6096 l
501066 747700 485318 747700 6096 l
485318 747700 485318 745646 6096 l
485318 745646 483154 743482 6096 l
483154 743482 482061 740842 6096 l
482061 740842 472121 740842 6096 l
472121 740842 459152 742273 6096 l
459152 742273 458652 743480 6096 l
458652 743480 456080 746052 6096 l
456080 746052 452719 747444 6096 l
452719 747444 433081 747444 6096 l
433081 747444 429720 746052 6096 l
429720 746052 428462 744793 6096 l
428462 744793 423579 749676 6096 l
423579 749676 411421 749676 6096 l
411421 749676 404292 742547 6096 l
404292 742547 404292 750125 6096 l
404292 750125 402456 754558 6096 l
402456 754558 478787 754558 6096 l
478787 754558 481271 752074 6096 l
481271 752074 485408 752074 6096 l
485408 752074 485318 751738 6096 l
271174 823392 272852 825070 6096 l
272852 825070 274244 828431 6096 l
274244 828431 274244 840156 6096 l
274244 840156 279619 840156 6096 l
279619 840156 282980 841548 6096 l
282980 841548 285552 844120 6096 l
285552 844120 286944 847481 6096 l
286944 847481 286944 847776 6096 l
286944 847776 300508 847776 6096 l
300508 847776 305333 842951 6096 l
305333 842951 305564 842394 6096 l
305564 842394 308994 838964 6096 l
308994 838964 309551 838733 6096 l
309551 838733 310058 838226 6096 l
310058 838226 310058 825097 6096 l
310058 825097 302929 832226 6096 l
302929 832226 290771 832226 6096 l
290771 832226 282174 823629 6096 l
282174 823629 282174 823392 6096 l
282174 823392 271174 823392 6096 l
251230 882452 247869 883844 6096 l
247869 883844 218831 883844 6096 l
218831 883844 215470 882452 6096 l
215470 882452 214688 881670 6096 l
214688 881670 214688 883998 6096 l
214688 883998 201802 883998 6096 l
201802 883998 201802 884402 6096 l
201802 884402 214688 884402 6096 l
214688 884402 214688 886792 6096 l
214688 886792 290112 886792 6096 l
290112 886792 290112 884402 6096 l
290112 884402 302998 884402 6096 l
302998 884402 302998 883998 6096 l
302998 883998 290112 883998 6096 l
290112 883998 290112 879044 6096 l
290112 879044 287948 876880 6096 l
287948 876880 287677 876224 6096 l
287677 876224 286944 876224 6096 l
286944 876224 286944 876519 6096 l
286944 876519 285552 879880 6096 l
285552 879880 282980 882452 6096 l
282980 882452 279619 883844 6096 l
279619 883844 256931 883844 6096 l
256931 883844 253570 882452 6096 l
253570 882452 252400 881282 6096 l
252400 881282 251230 882452 6096 l
121844 454330 173271 454330 6096 l
121844 460045 172256 460045 6096 l
121844 465760 172256 465760 6096 l
121844 471475 172256 471475 6096 l
121844 477190 174058 477190 6096 l
121844 482905 176708 482905 6096 l
121844 488620 179278 488620 6096 l
884322 488620 916356 488620 6096 l
121844 494335 184993 494335 6096 l
878607 494335 916356 494335 6096 l
121844 500050 190708 500050 6096 l
872892 500050 906218 500050 6096 l
121844 505765 196423 505765 6096 l
864732 505765 903656 505765 6096 l
121844 511480 202138 511480 6096 l
658262 511480 903656 511480 6096 l
121844 517195 167301 517195 6096 l
189099 517195 208502 517195 6096 l
652547 517195 903656 517195 6096 l
121844 522910 126663 522910 6096 l
138100 522910 138100 522910 6096 l
149537 522910 162362 522910 6096 l
194037 522910 202863 522910 6096 l
225737 522910 238562 522910 6096 l
270237 522910 315168 522910 6096 l
646832 522910 903656 522910 6096 l
121844 528625 123944 528625 6096 l
138100 528625 138100 528625 6096 l
152256 528625 160166 528625 6096 l
196234 528625 200144 528625 6096 l
228456 528625 236366 528625 6096 l
272434 528625 320883 528625 6096 l
641117 528625 903656 528625 6096 l
121844 534340 123844 534340 6096 l
138100 534340 138100 534340 6096 l
152356 534340 160166 534340 6096 l
196234 534340 200044 534340 6096 l
214300 534340 214300 534340 6096 l
228556 534340 236366 534340 6096 l
272434 534340 326598 534340 6096 l
635402 534340 903656 534340 6096 l
121844 540055 126202 540055 6096 l
138100 540055 138100 540055 6096 l
149998 540055 162099 540055 6096 l
194301 540055 202402 540055 6096 l
214300 540055 214300 540055 6096 l
226198 540055 238299 540055 6096 l
270501 540055 332313 540055 6096 l
629687 540055 903656 540055 6096 l
121844 545770 134244 545770 6096 l
138100 545770 138100 545770 6096 l
141956 545770 166666 545770 6096 l
189734 545770 210444 545770 6096 l
214300 545770 214300 545770 6096 l
218156 545770 242866 545770 6096 l
265934 545770 365406 545770 6096 l
520394 545770 903656 545770 6096 l
121844 551485 194383 551485 6096 l
234217 551485 370210 551485 6096 l
388590 551485 395610 551485 6096 l
413990 551485 421010 551485 6096 l
439390 551485 446410 551485 6096 l
464790 551485 471810 551485 6096 l
490190 551485 497210 551485 6096 l
515590 551485 903656 551485 6096 l
121844 557200 192456 557200 6096 l
236144 557200 616518 557200 6096 l
637582 557200 903656 557200 6096 l
121844 562915 192456 562915 6096 l
236144 562915 354982 562915 6096 l
366498 562915 366902 562915 6096 l
378418 562915 612906 562915 6096 l
669057 562915 905583 562915 6096 l
121844 568630 192456 568630 6096 l
236144 568630 353612 568630 6096 l
366498 568630 366902 568630 6096 l
379788 568630 612906 568630 6096 l
674772 568630 954456 568630 6096 l
121844 574345 192456 574345 6096 l
236144 574345 353612 574345 6096 l
379788 574345 612906 574345 6096 l
680487 574345 954456 574345 6096 l
121844 580060 192456 580060 6096 l
236144 580060 351808 580060 6096 l
381592 580060 606158 580060 6096 l
683644 580060 954456 580060 6096 l
121844 585775 169121 585775 6096 l
186479 585775 193018 585775 6096 l
235582 585775 245321 585775 6096 l
262679 585775 350056 585775 6096 l
383344 585775 401361 585775 6096 l
408239 585775 426761 585775 6096 l
433639 585775 452161 585775 6096 l
459039 585775 477561 585775 6096 l
484439 585775 502961 585775 6096 l
509839 585775 603406 585775 6096 l
647114 585775 657433 585775 6096 l
683692 585775 737109 585775 6096 l
948791 585775 954456 585775 6096 l
121844 591490 127435 591490 6096 l
137700 591490 137700 591490 6096 l
147965 591490 162509 591490 6096 l
193091 591490 199168 591490 6096 l
229432 591490 238709 591490 6096 l
269291 591490 345681 591490 6096 l
563849 591490 603326 591490 6096 l
647138 591490 659308 591490 6096 l
683692 591490 731394 591490 6096 l
121844 597205 123937 597205 6096 l
137700 597205 137700 597205 6096 l
151463 597205 160142 597205 6096 l
195458 597205 200137 597205 6096 l
227663 597205 236342 597205 6096 l
271658 597205 344856 597205 6096 l
584306 597205 603326 597205 6096 l
636550 597205 636550 597205 6096 l
647138 597205 659308 597205 6096 l
683692 597205 725679 597205 6096 l
121844 602920 123235 602920 6096 l
137700 602920 137700 602920 6096 l
152165 602920 159766 602920 6096 l
195834 602920 199435 602920 6096 l
213900 602920 213900 602920 6096 l
228365 602920 235966 602920 6096 l
272034 602920 344856 602920 6096 l
585394 602920 603326 602920 6096 l
636550 602920 636550 602920 6096 l
646663 602920 659308 602920 6096 l
683692 602920 720220 602920 6096 l
121844 608635 124985 608635 6096 l
137700 608635 137700 608635 6096 l
150415 608635 161153 608635 6096 l
194447 608635 201185 608635 6096 l
213900 608635 213900 608635 6096 l
226615 608635 237353 608635 6096 l
270647 608635 344856 608635 6096 l
585394 608635 602836 608635 6096 l
636348 608635 636752 608635 6096 l
646888 608635 659308 608635 6096 l
683692 608635 718236 608635 6096 l
121844 614350 130637 614350 6096 l
137700 614350 137700 614350 6096 l
144763 614350 164946 614350 6096 l
190654 614350 206837 614350 6096 l
213900 614350 213900 614350 6096 l
220963 614350 240208 614350 6096 l
266854 614350 344856 614350 6096 l
585394 614350 601906 614350 6096 l
636348 614350 636752 614350 6096 l
648638 614350 659308 614350 6096 l
683692 614350 718236 614350 6096 l
748766 614350 837853 614350 6096 l
121844 620065 165608 620065 6096 l
189992 620065 240208 620065 6096 l
264592 620065 344856 620065 6096 l
585394 620065 601906 620065 6096 l
636348 620065 636752 620065 6096 l
648638 620065 659308 620065 6096 l
683692 620065 714839 620065 6096 l
750081 620065 834219 620065 6096 l
121844 625780 165608 625780 6096 l
189992 625780 240208 625780 6096 l
264592 625780 306278 625780 6096 l
585394 625780 601906 625780 6096 l
636348 625780 636752 625780 6096 l
648638 625780 659308 625780 6096 l
683692 625780 713410 625780 6096 l
751510 625780 832790 625780 6096 l
121844 631495 165608 631495 6096 l
189992 631495 240208 631495 6096 l
264592 631495 300563 631495 6096 l
585394 631495 602310 631495 6096 l
636348 631495 636752 631495 6096 l
647889 631495 659308 631495 6096 l
683692 631495 713410 631495 6096 l
751510 631495 832790 631495 6096 l
121844 637210 165608 637210 6096 l
189992 637210 240208 637210 6096 l
264592 637210 294848 637210 6096 l
585394 637210 601906 637210 6096 l
636348 637210 636752 637210 6096 l
648463 637210 659308 637210 6096 l
683692 637210 713410 637210 6096 l
751510 637210 832790 637210 6096 l
121844 642925 165608 642925 6096 l
189992 642925 240208 642925 6096 l
264592 642925 289133 642925 6096 l
585394 642925 601906 642925 6096 l
636348 642925 636752 642925 6096 l
648638 642925 659308 642925 6096 l
683692 642925 713410 642925 6096 l
751510 642925 832790 642925 6096 l
121844 648640 165608 648640 6096 l
189992 648640 240208 648640 6096 l
264592 648640 283418 648640 6096 l
585394 648640 601906 648640 6096 l
648638 648640 659308 648640 6096 l
683692 648640 713410 648640 6096 l
751510 648640 832790 648640 6096 l
121844 654355 165608 654355 6096 l
189992 654355 240208 654355 6096 l
265197 654355 279145 654355 6096 l
585394 654355 601906 654355 6096 l
648633 654355 659308 654355 6096 l
683692 654355 714839 654355 6096 l
750081 654355 834219 654355 6096 l
869461 654355 900939 654355 6096 l
121844 660070 165608 660070 6096 l
189992 660070 240208 660070 6096 l
585394 660070 602573 660070 6096 l
651527 660070 659308 660070 6096 l
683692 660070 718473 660070 6096 l
746447 660070 837853 660070 6096 l
865827 660070 909358 660070 6096 l
121844 665785 165608 665785 6096 l
189992 665785 242143 665785 6096 l
587777 665785 601906 665785 6096 l
652194 665785 659308 665785 6096 l
683692 665785 727751 665785 6096 l
737169 665785 847131 665785 6096 l
856549 665785 924559 665785 6096 l
121844 671500 165608 671500 6096 l
189992 671500 247858 671500 6096 l
593492 671500 601906 671500 6096 l
652194 671500 659308 671500 6096 l
683692 671500 923849 671500 6096 l
121844 677215 165608 677215 6096 l
189992 677215 253573 677215 6096 l
599207 677215 601906 677215 6096 l
652194 677215 659308 677215 6096 l
683692 677215 924891 677215 6096 l
121844 682930 165608 682930 6096 l
192172 682930 260835 682930 6096 l
601142 682930 602573 682930 6096 l
651527 682930 659308 682930 6096 l
683692 682930 909357 682930 6096 l
121844 688645 165782 688645 6096 l
197887 688645 270270 688645 6096 l
601142 688645 624358 688645 6096 l
652250 688645 659308 688645 6096 l
683692 688645 900939 688645 6096 l
121844 694360 169118 694360 6096 l
203602 694360 268148 694360 6096 l
601142 694360 624358 694360 6096 l
654426 694360 659308 694360 6096 l
683692 694360 895224 694360 6096 l
121844 700075 174833 700075 6096 l
209317 700075 268166 700075 6096 l
601142 700075 625074 700075 6096 l
654426 700075 659308 700075 6096 l
683692 700075 889509 700075 6096 l
121844 705790 180548 705790 6096 l
215032 705790 270533 705790 6096 l
601142 705790 627885 705790 6096 l
651615 705790 659308 705790 6096 l
683692 705790 886282 705790 6096 l
121844 711505 132516 711505 6096 l
150800 711505 150800 711505 6096 l
169084 711505 186263 711505 6096 l
601142 711505 633600 711505 6096 l
645900 711505 659308 711505 6096 l
829698 711505 885876 711505 6096 l
918311 711505 927548 711505 6096 l
121844 717220 128337 717220 6096 l
150800 717220 150800 717220 6096 l
173263 717220 191978 717220 6096 l
601142 717220 659308 717220 6096 l
836062 717220 885876 717220 6096 l
914324 717220 924628 717220 6096 l
121844 722935 127305 722935 6096 l
150800 722935 150800 722935 6096 l
174295 722935 197693 722935 6096 l
601142 722935 653623 722935 6096 l
841777 722935 885876 722935 6096 l
914324 722935 923849 722935 6096 l
121844 728650 128558 728650 6096 l
150800 728650 150800 728650 6096 l
173042 728650 203408 728650 6096 l
601142 728650 647908 728650 6096 l
847492 728650 885876 728650 6096 l
914324 728650 924823 728650 6096 l
121844 734365 133163 734365 6096 l
150800 734365 150800 734365 6096 l
168437 734365 211568 734365 6096 l
601142 734365 642193 734365 6096 l
863922 734365 885876 734365 6096 l
914324 734365 928018 734365 6096 l
121844 740080 208769 740080 6096 l
227000 740080 227000 740080 6096 l
245231 740080 274362 740080 6096 l
601142 740080 640258 740080 6096 l
868672 740080 885876 740080 6096 l
914324 740080 936615 740080 6096 l
965185 740080 968426 740080 6096 l
121844 745795 206470 745795 6096 l
227000 745795 227000 745795 6096 l
247530 745795 271854 745795 6096 l
404292 745795 407540 745795 6096 l
427460 745795 429463 745795 6096 l
456337 745795 485318 745795 6096 l
601142 745795 640258 745795 6096 l
870890 745795 885876 745795 6096 l
914324 745795 968426 745795 6096 l
121844 751510 206894 751510 6096 l
247106 751510 272315 751510 6096 l
290500 751510 290500 751510 6096 l
403718 751510 485318 751510 6096 l
501066 751510 501066 751510 6096 l
601142 751510 640258 751510 6096 l
870890 751510 885876 751510 6096 l
914324 751510 968426 751510 6096 l
121844 757225 131915 757225 6096 l
169685 757225 210419 757225 6096 l
243581 757225 276264 757225 6096 l
290500 757225 290500 757225 6096 l
304736 757225 307543 757225 6096 l
498580 757225 514274 757225 6096 l
601142 757225 603120 757225 6096 l
625580 757225 640258 757225 6096 l
870890 757225 885876 757225 6096 l
914324 757225 932015 757225 6096 l
121844 762940 126301 762940 6096 l
247975 762940 307574 762940 6096 l
502026 762940 514274 762940 6096 l
629026 762940 640258 762940 6096 l
870890 762940 885876 762940 6096 l
914324 762940 926401 762940 6096 l
121844 768655 123933 768655 6096 l
250757 768655 307574 768655 6096 l
502026 768655 514274 768655 6096 l
629026 768655 640258 768655 6096 l
870890 768655 885876 768655 6096 l
914324 768655 924033 768655 6096 l
121844 774370 123749 774370 6096 l
251224 774370 257827 774370 6096 l
268098 774370 268502 774370 6096 l
500485 774370 514274 774370 6096 l
627485 774370 640258 774370 6096 l
870250 774370 885876 774370 6096 l
914324 774370 923849 774370 6096 l
121844 780085 125317 780085 6096 l
249705 780085 256212 780085 6096 l
268098 780085 268502 780085 6096 l
408707 780085 479930 780085 6096 l
494770 780085 514274 780085 6096 l
626542 780085 640258 780085 6096 l
867732 780085 885876 780085 6096 l
914324 780085 925417 780085 6096 l
121844 785800 129353 785800 6096 l
245435 785800 268098 785800 6096 l
402992 785800 479701 785800 6096 l
487350 785800 487350 785800 6096 l
500050 785800 500050 785800 6096 l
626542 785800 640258 785800 6096 l
861492 785800 885876 785800 6096 l
914324 785800 929453 785800 6096 l
976459 785800 979856 785800 6096 l
121844 791515 136576 791515 6096 l
165024 791515 256212 791515 6096 l
397277 791515 478460 791515 6096 l
487350 791515 487350 791515 6096 l
500050 791515 500050 791515 6096 l
626542 791515 636079 791515 6096 l
861492 791515 885876 791515 6096 l
914324 791515 979856 791515 6096 l
121844 797230 136576 797230 6096 l
165024 797230 198157 797230 6096 l
391562 797230 478460 797230 6096 l
487350 797230 487350 797230 6096 l
500050 797230 500050 797230 6096 l
626542 797230 635306 797230 6096 l
867312 797230 885876 797230 6096 l
914324 797230 979856 797230 6096 l
121844 802945 135249 802945 6096 l
166351 802945 189739 802945 6096 l
385847 802945 478460 802945 6096 l
487350 802945 487350 802945 6096 l
500050 802945 500050 802945 6096 l
626542 802945 635306 802945 6096 l
871108 802945 885876 802945 6096 l
914324 802945 979856 802945 6096 l
121844 808660 133274 808660 6096 l
168326 808660 187376 808660 6096 l
380132 808660 478460 808660 6096 l
487350 808660 487350 808660 6096 l
500050 808660 500050 808660 6096 l
626542 808660 635306 808660 6096 l
871144 808660 885876 808660 6096 l
914324 808660 979856 808660 6096 l
121844 814375 133274 814375 6096 l
168326 814375 187376 814375 6096 l
374417 814375 481011 814375 6096 l
487350 814375 487350 814375 6096 l
493689 814375 493711 814375 6096 l
500050 814375 500050 814375 6096 l
626542 814375 635306 814375 6096 l
871144 814375 885876 814375 6096 l
914324 814375 979856 814375 6096 l
121844 820090 135512 820090 6096 l
166088 820090 187376 820090 6096 l
368702 820090 473918 820090 6096 l
626542 820090 635306 820090 6096 l
871144 820090 885876 820090 6096 l
914324 820090 979856 820090 6096 l
121844 825805 140620 825805 6096 l
160980 825805 187376 825805 6096 l
273156 825805 284350 825805 6096 l
309350 825805 310058 825805 6096 l
334442 825805 335150 825805 6096 l
362987 825805 373919 825805 6096 l
384881 825805 399319 825805 6096 l
410281 825805 468203 825805 6096 l
626542 825805 635306 825805 6096 l
871144 825805 885876 825805 6096 l
914324 825805 979856 825805 6096 l
121844 831520 187376 831520 6096 l
274244 831520 290065 831520 6096 l
303635 831520 310058 831520 6096 l
334442 831520 340865 831520 6096 l
354435 831520 365852 831520 6096 l
418348 831520 421713 831520 6096 l
430200 831520 430200 831520 6096 l
438687 831520 462488 831520 6096 l
871144 831520 885064 831520 6096 l
914324 831520 979856 831520 6096 l
121844 837235 187376 837235 6096 l
274244 837235 310058 837235 6096 l
430200 837235 430200 837235 6096 l
442643 837235 457471 837235 6096 l
871144 837235 879349 837235 6096 l
914324 837235 979856 837235 6096 l
121844 842950 187376 842950 6096 l
284382 842950 305334 842950 6096 l
430200 842950 430200 842950 6096 l
443408 842950 456108 842950 6096 l
871144 842950 873634 842950 6096 l
912866 842950 979856 842950 6096 l
121844 848665 187376 848665 6096 l
430200 848665 430200 848665 6096 l
443408 848665 456108 848665 6096 l
908151 848665 979856 848665 6096 l
121844 854380 185992 854380 6096 l
443408 854380 456108 854380 6096 l
902436 854380 979856 854380 6096 l
121844 860095 184956 860095 6096 l
443056 860095 456108 860095 6096 l
896721 860095 979856 860095 6096 l
121844 865810 184956 865810 6096 l
121844 871525 184956 871525 6096 l
121844 877240 186708 877240 6096 l
286645 877240 288308 877240 6096 l
121844 882955 188512 882955 6096 l
214688 882955 216685 882955 6096 l
250015 882955 254785 882955 6096 l
281765 882955 290112 882955 6096 l
1008050 893750 976300 893750 6096 l
976300 893750 976300 862000 6096 l
976300 474650 1001700 474650 6096 l
1001700 474650 1001700 455600 6096 l
1008050 455600 963600 455600 6096 l
963600 455600 963600 481000 6096 l
963600 481000 976300 481000 6096 l
976300 481000 976300 474650 6096 l
177800 601700 177800 685800 6096 l
177800 685800 214300 722300 6096 l
214300 722300 290500 722300 6096 l
322250 725500 319100 725500 6096 l
319100 725500 315900 722300 6096 l
315900 722300 290500 722300 6096 l
252400 811200 201600 811200 10160 l
201600 811200 201600 849300 10160 l
201600 849300 201600 862000 10160 l
201600 862000 239700 862000 10160 l
201600 865200 201600 849300 4064 l
252400 811200 290500 811200 6096 l
290500 811200 296850 817550 6096 l
296850 817550 11064 11064 0.0 o
347650 817550 11064 11064 0.0 o
347650 817550 354000 817550 6096 l
354000 817550 404800 766750 6096 l
404800 766750 487350 766750 6096 l
487350 766750 11064 11064 0.0 o
614350 766750 11064 11064 0.0 o
614350 766750 614350 836600 6096 l
614350 836600 627050 849300 6096 l
627050 874700 627050 849300 10160 l
732460 759130 732460 808660 6096 l
732460 808660 735000 811200 6096 l
735000 811200 747700 823900 6096 l
690550 836600 709600 836600 6096 l
709600 836600 735000 811200 6096 l
627050 874700 684200 874700 6096 l
684200 874700 684200 842950 6096 l
684200 842950 690550 836600 6096 l
366700 671500 341300 671500 6096 l
341300 671500 341300 785800 6096 l
341300 785800 287300 785800 6096 l
366700 722300 366700 696900 6096 l
404800 608000 379400 608000 6096 l
455600 608000 436550 608000 6096 l
436550 608000 430200 608000 6096 l
379400 608000 379400 604800 6096 l
379400 604800 366700 592100 6096 l
404800 608000 430200 608000 6096 l
455600 608000 481000 608000 6096 l
481000 608000 506400 608000 6096 l
506400 608000 535000 608000 6096 l
366700 696900 436550 696900 6096 l
436550 696900 436550 608000 6096 l
188900 465100 188900 481000 6096 l
188900 481000 214300 506400 6096 l
214300 506400 315900 506400 6096 l
315900 506400 341300 531800 6096 l
341300 531800 379400 531800 6096 l
239700 465100 265100 465100 6096 l
265100 465100 265100 481000 6096 l
265100 481000 277800 493700 6096 l
277800 493700 392100 493700 6096 l
392100 493700 404800 506400 6096 l
404800 506400 404800 531800 6096 l
315900 465100 341300 465100 6096 l
341300 465100 366700 465100 6096 l
366700 465100 392100 465100 6096 l
392100 465100 401600 465100 6096 l
401600 465100 430200 493700 6096 l
430200 493700 430200 531800 6096 l
442900 465100 455600 465100 6096 l
455600 465100 468300 465100 6096 l
468300 465100 493700 465100 6096 l
493700 465100 519100 465100 6096 l
519100 465100 544500 465100 6096 l
544500 465100 569900 465100 6096 l
569900 465100 595300 465100 6096 l
595300 465100 620700 465100 6096 l
455600 531800 455600 465100 6096 l
671500 465100 696900 465100 6096 l
696900 465100 722300 465100 6096 l
722300 465100 747700 465100 6096 l
747700 465100 773100 465100 6096 l
773100 465100 798500 465100 6096 l
798500 465100 823900 465100 6096 l
671500 465100 662000 465100 6096 l
662000 465100 633400 493700 6096 l
633400 493700 493700 493700 6096 l
493700 493700 481000 506400 6096 l
481000 506400 481000 531800 6096 l
900100 470600 880200 470600 6096 l
880200 470600 874700 465100 6096 l
874700 465100 874700 481000 6096 l
874700 481000 862000 493700 6096 l
862000 493700 658800 493700 6096 l
658800 493700 620700 531800 6096 l
620700 531800 506400 531800 6096 l
290500 671500 265100 671500 6096 l
265100 671500 252400 658800 6096 l
252400 658800 252400 603300 6096 l
252400 603300 254000 601700 6096 l
501066 722300 487350 722300 6096 l
487350 722300 481000 728650 6096 l
481000 728650 471450 728650 6096 l
471450 728650 442900 731800 6096 l
290500 671500 290500 658800 6096 l
290500 658800 315900 633400 6096 l
315900 633400 417500 633400 6096 l
417500 633400 417500 684200 6096 l
442900 731800 420700 731800 6096 l
420700 731800 417500 735000 6096 l
417500 735000 11064 11064 0.0 o
417500 684200 11064 11064 0.0 o
512750 799516 512750 823900 6096 l
512750 823900 506400 830250 6096 l
506400 830250 481000 830250 6096 l
481000 830250 468300 842950 6096 l
468300 842950 468300 868350 6096 l
468300 868350 461950 874700 6096 l
461950 874700 411150 874700 6096 l
411150 874700 404800 868350 6096 l
404800 868350 404800 849300 6096 l
501066 684200 519100 684200 4064 l
519100 684200 538150 703250 4064 l
538150 703250 538150 799516 4064 l
290500 696900 315900 696900 6096 l
315900 696900 315900 671500 6096 l
315900 671500 334950 652450 6096 l
334950 652450 398450 652450 6096 l
398450 652450 398450 671500 6096 l
501066 684200 468300 684200 6096 l
468300 684200 468300 671500 6096 l
398450 671500 11064 11064 0.0 o
468300 671500 11064 11064 0.0 o
501066 735000 519100 735000 4064 l
519100 735000 525450 741350 4064 l
525450 741350 525450 799516 4064 l
501066 671500 493700 671500 4064 l
501066 671500 531800 671500 4064 l
531800 671500 544500 684200 4064 l
544500 684200 544500 773100 4064 l
544500 773100 563550 773100 4064 l
563550 773100 563550 799516 4064 l
563550 799516 563550 804850 4064 l
501066 696900 468300 696900 6096 l
468300 696900 11064 11064 0.0 o
636550 671500 636550 693700 6096 l
636550 693700 639750 696900 6096 l
639750 696900 11064 11064 0.0 o
627050 571600 660500 571600 6096 l
660500 571600 671500 582600 6096 l
671500 582600 671500 722300 6096 l
671500 722300 652450 741350 6096 l
652450 741350 652450 801700 6096 l
849300 823900 849300 761670 6096 l
849300 761670 851840 759130 6096 l
849300 761670 849300 747700 6096 l
849300 747700 823900 722300 6096 l
823900 722300 671500 722300 6096 l
652450 820700 652450 849300 6096 l
792150 779450 792150 842950 10160 l
792150 842950 811200 862000 10160 l
811200 862000 874700 862000 10160 l
874700 862000 900100 836600 10160 l
900100 836600 900100 709600 10160 l
900100 709600 912800 696900 10160 l
912800 696900 950900 696900 10160 l
950900 696900 950900 671100 10160 l
950900 696900 950900 722300 10160 l
950900 722700 950900 722300 6096 l
732460 637210 732460 610540 10160 l
732460 610540 747700 595300 10160 l
747700 595300 938200 595300 10160 l
938200 595300 950900 608000 10160 l
950900 608000 950900 621100 10160 l
851840 637210 903910 637210 10160 l
903910 637210 912800 646100 10160 l
912800 646100 982650 646100 10160 l
982650 646100 982650 760400 10160 l
982650 760400 969950 773100 10160 l
969950 773100 951300 773100 10160 l
951300 773100 950900 772700 10160 l
150800 773100 150800 772700 10160 l
227000 773100 150800 773100 10160 l
150800 773100 150800 811200 10160 l
617550 593600 617550 620700 10160 l
617550 620700 617550 646100 10160 l
617550 646100 617550 671500 10160 l
150800 811200 11176 h
252400 811200 11176 h
849300 823900 11176 h
747700 823900 11176 h
290500 747700 8128 h
290500 722300 8128 h
366700 722300 8128 h
366700 747700 8128 h
290500 696900 8128 h
290500 671500 8128 h
366700 696900 8128 h
366700 671500 8128 h
265100 862000 8128 h
252400 842950 8128 h
239700 862000 8128 h
792150 779450 13208 h
732460 759130 13208 h
851840 759130 13208 h
851840 637210 13208 h
732460 637210 13208 h
627050 849300 8128 h
652450 849300 8128 h
379400 849300 10160 h
404800 849300 10160 h
430200 849300 10160 h
506400 608000 8128 h
481000 608000 8128 h
379400 531800 8128 h
404800 531800 8128 h
455600 608000 8128 h
430200 608000 8128 h
379400 608000 8128 h
404800 608000 8128 h
430200 531800 8128 h
455600 531800 8128 h
481000 531800 8128 h
506400 531800 8128 h
138100 531800 8000 h
178200 531800 8000 h
137700 601700 8000 h
177800 601700 8000 h
214300 531800 8000 h
254400 531800 8000 h
213900 601700 8000 h
254000 601700 8000 h
950900 772700 11938 h
950900 722700 11938 h
950900 671100 11938 h
950900 621100 11938 h
227000 773100 10000 h
227000 747700 10000 h
150800 722700 11938 h
150800 772700 11938 h
322250 766750 7000 h
322250 804850 7000 h
334950 830250 7000 h
309550 830250 7000 h
138100 862000 28000 h
138100 474650 28000 h
976300 862000 28000 h
976300 474650 28000 h
296850 817550 7000 h
347650 817550 7000 h
487350 766750 7000 h
614350 766750 7000 h
417500 735000 7000 h
417500 684200 7000 h
398450 671500 7000 h
468300 671500 7000 h
468300 696900 7000 h
639750 696900 7000 h
