_PS0 408 0 ABS
_PS1 409 0 ABS
_PS2 40A 0 ABS
__S0 2008 0 ABS
__S1 22 0 ABS
__S2 0 0 ABS
_PSA 40B 0 ABS
__Hintentry 0 0 CODE
__Lintentry 0 0 CODE
_main 3E6 0 CODE
btemp 5E 0 ABS
_exit 0 0 CODE
start 0 0 CODE
_GPIO4 2C 0 ABS
reset_vec 0 0 CODE
_CMCON 19 0 ABS
wtemp0 5E 0 ABS
__Hosccal 3FF 0 CODE
__Losccal 3FF 0 CODE
__Hconfig 2008 0 CONFIG
__Lconfig 2007 0 CONFIG
___osccal_val 3FF 0 CODE
__Hram 7FE 0 ABS
__Lram 7FE 0 ABS
?_main 20 0 BANK0
__Hfunctab 0 0 CODE
__Lfunctab 0 0 CODE
__Hcommon 7FE 0 ABS
__Lcommon 7FE 0 ABS
__Heeprom_data 0 0 EEDATA
__Leeprom_data 0 0 EEDATA
__Habs1 7FE 0 ABS
__Labs1 7FE 0 ABS
__Hsfr0 7FE 0 ABS
__Lsfr0 7FE 0 ABS
_TRISIO 85 0 ABS
__Hsfr1 7FE 0 ABS
__Lsfr1 7FE 0 ABS
__Hcode 7FE 0 ABS
__Lcode 7FE 0 ABS
??_main 20 0 BANK0
__HcstackBANK0 7FE 0 ABS
__LcstackBANK0 7FE 0 ABS
__pcstackBANK0 20 0 BANK0
__Hinit 0 0 CODE
__Linit 0 0 CODE
__end_of_main 3FF 0 CODE
__Htext 7FE 0 ABS
__Ltext 7FE 0 ABS
end_of_initialization 3E4 0 CODE
__Hstrings 7FE 0 ABS
__Lstrings 7FE 0 ABS
__Hbank0 7FE 0 ABS
__Lbank0 7FE 0 ABS
__Hbank1 7FE 0 BANK1
__Lbank1 7FE 0 BANK1
__Hpowerup 0 0 CODE
__Lpowerup 0 0 CODE
__Hclrtext 7FE 0 ABS
__Lclrtext 7FE 0 ABS
__Hidloc 0 0 IDLOC
__Lidloc 0 0 IDLOC
__Hcinit 7FE 0 ABS
__Lcinit 7FE 0 ABS
__size_of_main 0 0 ABS
__Hend_init 5 0 CODE
__Lend_init 0 0 CODE
__Hreset_vec 0 0 CODE
__Lreset_vec 0 0 CODE
intlevel0 0 0 CODE
intlevel1 0 0 CODE
intlevel2 0 0 CODE
intlevel3 0 0 CODE
intlevel4 0 0 CODE
intlevel5 0 0 CODE
start_initialization 3E4 0 CODE
__Hmaintext 7FE 0 ABS
__Lmaintext 7FE 0 ABS
__pmaintext 3E6 0 CODE
%segments
reset_vec 0 9 CODE 0
config 400E 400F CONFIG 400E
cstackBANK0 20 21 BANK0 20
maintext 7CC 7FD CODE 7CC
cinit 7C8 7CB CODE 7C8
%locals
dist/default/production\Watchdog.X.production.obj
main.c
5 2007 0 CONFIG
9 3E6 0 CODE
10 3E8 0 CODE
11 3EB 0 CODE
12 3ED 0 CODE
13 3EE 0 CODE
14 3EF 0 CODE
15 3F0 0 CODE
16 3F2 0 CODE
18 3FB 0 CODE
19 3FD 0 CODE
23 3FE 0 CODE
C:\Users\Sarge\AppData\Local\Temp\s7os.
76 3E4 0 CODE
77 3E5 0 CODE
