_RB0 30 0 ABS
_RB4 34 0 ABS
_RB5 35 0 ABS
__S0 2008 0 ABS
__S1 78 0 ABS
__S2 0 0 ABS
_GIE 5F 0 ABS
__Hintentry E 0 CODE
__Lintentry 4 0 CODE
__pintentry 4 0 CODE
_isr BB 0 CODE
_PEIE 5E 0 ABS
_CMIE 466 0 ABS
_RCIF 65 0 ABS
_CMIF 66 0 ABS
_TXIF 64 0 ABS
_flag 3B8 -341 COMMON
_main 26 0 CODE
_temp 27 0 BANK0
btemp 7E 0 ABS
?_isr 70 0 COMMON
_exit E 0 CODE
start E 0 CODE
printf@ap 21 0 BANK0
_RCREG 1A 0 ABS
_TRISA 85 0 ABS
_RCSTA 18 0 ABS
_TRISB 86 0 ABS
_TXREG 19 0 ABS
reset_vec 0 0 CODE
_PORTB 6 0 ABS
_SPBRG 99 0 ABS
_TXSTA 98 0 ABS
_CMCON 1F 0 ABS
_VRCON 9F 0 ABS
wtemp0 7E 0 ABS
_C2OUT FF 0 ABS
interrupt_function 4 0 CODE
__Hconfig 2008 0 CONFIG
__Lconfig 2007 0 CONFIG
__Hram 0 0 ABS
__Lram 0 0 ABS
_putch FE 0 CODE
?_main 70 0 COMMON
__size_of_isr 0 0 ABS
??_isr 70 0 COMMON
??_printf 20 0 BANK0
_TRISB0 430 0 ABS
__Hfunctab 0 0 CODE
__Lfunctab 0 0 CODE
_TRISB1 431 0 ABS
_TRISB2 432 0 ABS
__end_of_putch 109 0 CODE
__Hcommon 0 0 ABS
__Lcommon 0 0 ABS
__Heeprom_data 0 0 EEDATA
__Leeprom_data 0 0 EEDATA
__Habs1 0 0 ABS
__Labs1 0 0 ABS
__Hsfr0 0 0 ABS
__Lsfr0 0 0 ABS
__Hsfr1 0 0 ABS
__Lsfr1 0 0 ABS
__Hsfr2 0 0 ABS
__Lsfr2 0 0 ABS
__Hsfr3 0 0 ABS
__Lsfr3 0 0 ABS
__Hcode 0 0 ABS
__Lcode 0 0 ABS
__ptext172 0 0 CODE
putch@byte 76 0 COMMON
?_putch 70 0 COMMON
__ptext173 E1 0 CODE
??_main 24 0 BANK0
__HcstackBANK0 0 0 ABS
__LcstackBANK0 0 0 ABS
_printf E1 0 CODE
__pcstackBANK0 20 0 BANK0
saved_w 7E 0 ABS
__ptext174 FE 0 CODE
__Hinit E 0 CODE
__Linit E 0 CODE
__end_of_main BB 0 CODE
__Htext 0 0 ABS
__Ltext 0 0 ABS
__ptext175 BB 0 CODE
__ptext176 0 0 CODE
end_of_initialization 10B 0 CODE
__size_of_putch 0 0 ABS
__Hstrings 0 0 ABS
__Lstrings 0 0 ABS
__pstrings F 0 STRING
__Hbank0 0 0 ABS
__Lbank0 0 0 ABS
__Hbank1 0 0 ABS
__Lbank1 0 0 ABS
__Hbank2 0 0 ABS
__Lbank2 0 0 ABS
__Hbank3 0 0 BANK3
__Lbank3 0 0 BANK3
__Hpowerup 0 0 CODE
__Lpowerup 0 0 CODE
__Hclrtext 0 0 ABS
__Lclrtext 0 0 ABS
__size_of_printf 0 0 ABS
printf@c 23 0 BANK0
printf@f 22 0 BANK0
__Hidloc 0 0 IDLOC
__Lidloc 0 0 IDLOC
??_putch 76 0 COMMON
__end_of_isr E1 0 CODE
?_printf 70 0 COMMON
__Hcinit 0 0 ABS
__Lcinit 0 0 ABS
__size_of_main 0 0 ABS
__HbssBANK0 0 0 ABS
__LbssBANK0 0 0 ABS
__pbssBANK0 27 0 BANK0
__end_of_printf FE 0 CODE
__Hend_init F 0 CODE
__Lend_init E 0 CODE
__Hreset_vec 1 0 CODE
__Lreset_vec 0 0 CODE
intlevel0 0 0 CODE
intlevel1 0 0 CODE
intlevel2 0 0 CODE
intlevel3 0 0 CODE
intlevel4 0 0 CODE
intlevel5 0 0 CODE
__HcstackCOMMON 0 0 ABS
__LcstackCOMMON 0 0 ABS
__pcstackCOMMON 70 0 COMMON
start_initialization 109 0 CODE
__Hmaintext 0 0 ABS
__Lmaintext 0 0 ABS
__pmaintext 26 0 CODE
__HbitbssCOMMON 0 0 ABS
__LbitbssCOMMON 0 0 ABS
__pbitbssCOMMON 3B8 -341 COMMON
%segments
reset_vec 0 1 CODE 0
intentry 8 1D CODE 8
config 400E 400F CONFIG 400E
cstackCOMMON 70 77 COMMON 70
cstackBANK0 20 27 BANK0 20
strings 1E 4B STRING 1E
maintext 4C 219 CODE 4C
%locals
dist/default/production\comparator.X.production.obj
../comp.c
6 2007 0 CONFIG
C:\Users\Sarge\AppData\Local\Temp\s77c.
158 109 0 CODE
161 10A 0 CODE
168 10B 0 CODE
169 10C 0 CODE
../comp.c
11 26 0 CODE
12 34 0 CODE
13 42 0 CODE
14 50 0 CODE
15 5E 0 CODE
16 6C 0 CODE
18 73 0 CODE
19 81 0 CODE
21 83 0 CODE
23 87 0 CODE
24 8B 0 CODE
25 8C 0 CODE
26 8D 0 CODE
27 8E 0 CODE
29 91 0 CODE
30 94 0 CODE
31 95 0 CODE
35 96 0 CODE
37 9C 0 CODE
38 A8 0 CODE
39 AE 0 CODE
45 B9 0 CODE
47 BA 0 CODE
C:\Program Files (x86)\HI-TECH Software\PICC\9.71a\sources\doprnt.c
537 E1 0 CODE
540 E8 0 CODE
545 E9 0 CODE
540 EB 0 CODE
1533 FD 0 CODE
../usart.c
7 FE 0 CODE
9 FF 0 CODE
11 106 0 CODE
12 108 0 CODE
../comp.c
53 BB 0 CODE
55 C1 0 CODE
57 CA 0 CODE
59 D0 0 CODE
60 D1 0 CODE
61 D2 0 CODE
63 D3 0 CODE
64 D4 0 CODE
67 D5 0 CODE
71 D6 0 CODE
52 4 0 CODE
