___lwdiv@dividend 15 0 COMRAM 1
_i 2B 0 COMRAM 1
___lwdiv@counter 1B 0 COMRAM 1
_GO 7E11 0 ABS 0
__end_of_OpenUSART 57C 0 CODE 0
__S0 30000E 0 ABS 0
__S1 200 0 ABS 0
__S2 0 0 ABS 0
_GIE 7F97 0 ABS 0
__Hintentry 0 0 ABS 0
__Lintentry 0 0 ABS 0
_isr 8 0 CODE 0
_ADIE 7CEE 0 ABS 0
_ADIF 7CF6 0 ABS 0
_PEIE 7F96 0 ABS 0
_ADON 7E10 0 ABS 0
_baud 29 0 COMRAM 1
_main 434 0 CODE 0
___sp 0 0 STACK 2
start 84 0 CODE 0
WriteUSART@data F 0 COMRAM 1
_RCSTA FAB 0 ABS 0
_TXREG FAD 0 ABS 0
_SPBRG FAF 0 ABS 0
__Hirdata 0 0 CODE 0
_TXSTA FAC 0 ABS 0
__Lirdata 0 0 CODE 0
__HRAM 0 0 ABS 0
_ANSEL F7E 0 ABS 0
__LRAM 1 0 ABS 0
__Hconfig 30000E 0 CONFIG 0
__Lconfig 300000 0 CONFIG 0
NumToUart@i 23 0 COMRAM 1
__Hbigram 0 0 ABS 0
__Lbigram 0 0 ABS 0
__Hrparam 0 0 ABS 0
__Lrparam 0 0 ABS 0
__Hram 0 0 ABS 0
__Lram 0 0 ABS 0
__size_of_WriteUSART 0 0 ABS 0
__Hcomram 0 0 ABS 0
__Lcomram 0 0 ABS 0
_Vmeas 100 0 BANK1 1
__Hsfr 0 0 ABS 0
__Lsfr 0 0 ABS 0
__end_of__stringdata 31A 0 SMALLCONST 0
__size_of_isr 0 0 ABS 0
__Hbss 0 0 RAM 1
__Lbss 0 0 RAM 1
__Hnvrram 0 0 COMRAM 1
__Lnvrram 0 0 COMRAM 1
_ADCON0 FC2 0 ABS 0
_ADCON2 FC0 0 ABS 0
_TRISB5 7C9D 0 ABS 0
_TRISC5 7CA5 0 ABS 0
_TRISB7 7C9F 0 ABS 0
_TRISC7 7CA7 0 ABS 0
_PIE1bits F9D 0 ABS 0
__Heeprom_data 0 0 EEDATA 0
__Leeprom_data 0 0 EEDATA 0
_PIR1bits F9E 0 ABS 0
__Hintsave_regs 0 0 BIGRAM 1
__Lintsave_regs 0 0 BIGRAM 1
__Hbigbss 0 0 BIGRAM 1
__Lbigbss 0 0 BIGRAM 1
__Hintret 0 0 ABS 0
__Lintret 0 0 ABS 0
__Hramtop 300 0 RAM 0
__Lramtop 300 0 RAM 0
__Hstruct 0 0 COMRAM 1
__Lstruct 0 0 COMRAM 1
__Hbigdata 0 0 BIGRAM 1
__Lbigdata 0 0 BIGRAM 1
__Hmediumconst 0 0 MEDIUMCONST 0
__Lmediumconst 0 0 MEDIUMCONST 0
_SPBRGH FB0 0 ABS 0
_ANSELH F7F 0 ABS 0
?___lwdiv 15 0 COMRAM 1
__Hfarbss 0 0 FARRAM 0
__Lfarbss 0 0 FARRAM 0
__Hintcode 84 0 CODE 0
__Lintcode 8 0 CODE 0
__Hfardata 0 0 FARRAM 0
_ADRESH FC4 0 ABS 0
__Lfardata 0 0 FARRAM 0
__pintcode 8 0 CODE 0
__Habs1 0 0 ABS 0
__Labs1 0 0 ABS 0
_ADRESL FC3 0 ABS 0
__HnvFARRAM 0 0 FARRAM 0
__LnvFARRAM 0 0 FARRAM 0
__HnvCOMRAM 0 0 ABS 0
__LnvCOMRAM 0 0 ABS 0
__pnvCOMRAM 28 0 COMRAM 1
__Hdata 0 0 ABS 0
__Ldata 0 0 ABS 0
stackhi 2FF 0 ABS 0
__Htemp 0 0 COMRAM 1
__Ltemp 0 0 COMRAM 1
stacklo 200 0 ABS 0
__Hrbit 0 0 COMRAM 1
__Lrbit 0 0 COMRAM 1
__Hinit 84 0 CODE 0
__Linit 84 0 CODE 0
__Hintcodelo 84 0 CODE 0
__Lintcodelo 84 0 CODE 0
___wmul 622 0 CODE 0
__Hrbss 0 0 COMRAM 1
__end_of_main 512 0 CODE 0
__Lrbss 0 0 COMRAM 1
__Htext 0 0 ABS 0
__Ltext 0 0 ABS 0
___wmul@multiplier F 0 COMRAM 1
end_of_initialization 614 0 CODE 0
OpenUSART@spbrg F 0 COMRAM 1
NumToUart@numtemp 22 0 COMRAM 1
___wmul@multiplicand 11 0 COMRAM 1
__size_of_NumToUart 0 0 ABS 0
_RCSTAbits FAB 0 ABS 0
_TRISBbits F93 0 ABS 0
_NumToUart 31C 0 CODE 0
_TXSTAbits FAC 0 ABS 0
__Hibigdata 0 0 CODE 0
__Libigdata 0 0 CODE 0
__end_of_NumToUart 434 0 CODE 0
__Hifardata 0 0 CODE 0
__Lifardata 0 0 CODE 0
__Hbank0 0 0 ABS 0
__Lbank0 0 0 ABS 0
__Hbank1 0 0 ABS 0
__Lbank1 0 0 ABS 0
__Hbank2 0 0 ABS 0
__Lbank2 0 0 ABS 0
_NumToUart$1057 1E 0 COMRAM 1
__Hpowerup 84 0 CODE 0
__Lpowerup 84 0 CODE 0
__Htext0 0 0 ABS 0
__Ltext0 0 0 ABS 0
__Htext1 0 0 ABS 0
__Ltext1 0 0 ABS 0
_UARTConfig 28 0 COMRAM 1
__ptext0 434 0 CODE 0
__Htext2 0 0 ABS 0
__Ltext2 0 0 ABS 0
__ptext1 5CE 0 CODE 0
__Htext3 0 0 ABS 0
__Ltext3 0 0 ABS 0
__ptext2 512 0 CODE 0
__Htext4 0 0 ABS 0
__Ltext4 0 0 ABS 0
__ptext3 31C 0 CODE 0
__Htext5 0 0 ABS 0
__Ltext5 0 0 ABS 0
__ptext4 622 0 CODE 0
_ADCstatus 160 -134 COMRAM 1
__Htext6 0 0 ABS 0
__Ltext6 0 0 ABS 0
__ptext5 57C 0 CODE 0
__ptext6 648 0 CODE 0
__HbssCOMRAM 0 0 ABS 0
__LbssCOMRAM 0 0 ABS 0
OpenUSART@config 14 0 COMRAM 1
__pbssCOMRAM 2A 0 COMRAM 1
__Hclrtext 0 0 ABS 0
__Lclrtext 0 0 ABS 0
__end_of__initialization 614 0 CODE 0
__end_of___lwdiv 5CE 0 CODE 0
NumToUart@bignum 24 0 COMRAM 1
_WriteUSART 648 0 CODE 0
_USART_Status 2A 0 COMRAM 1
__Hidata 0 0 CODE 0
__Lidata 0 0 CODE 0
__Hrdata 0 0 COMRAM 1
__Lrdata 0 0 COMRAM 1
putsUSART@data 10 0 COMRAM 1
__Hidloc 200008 0 IDLOC 0
__Lidloc 200000 0 IDLOC 0
__Hstack 0 0 STACK 2
__Lstack 0 0 STACK 2
__end_of_putsUSART 5FA 0 CODE 0
__Hparam 0 0 ABS 0
__Lparam 0 0 ABS 0
__Hspace_0 30000E 0 ABS 0
__HcstackCOMRAM 0 0 ABS 0
__Lspace_0 0 0 ABS 0
__LcstackCOMRAM 0 0 ABS 0
__end_of_isr 84 0 CODE 0
__pcstackCOMRAM 1 0 COMRAM 1
__Hspace_1 200 0 ABS 0
__Lspace_1 0 0 ABS 0
__Hsmallconst 31C 0 SMALLCONST 0
__Lsmallconst 300 0 SMALLCONST 0
__psmallconst 300 0 SMALLCONST 0
__Hspace_2 0 0 ABS 0
__Lspace_2 0 0 ABS 0
__Hnvbit 0 0 COMRAM 1
__Lnvbit 0 0 COMRAM 1
?___wmul F 0 COMRAM 1
__Hcinit 0 0 ABS 0
__Lcinit 0 0 ABS 0
__CFG_FOSC$HS 0 0 ABS 0
__pcinit 5FA 0 CODE 0
__ramtop 300 0 RAM 0
__mediumconst 0 0 MEDIUMCONST 0
___lwdiv 57C 0 CODE 0
__size_of_main 0 0 ABS 0
__Hconst 0 0 CODE 0
__Lconst 0 0 CODE 0
__size_of_OpenUSART 0 0 ABS 0
__HbitbssCOMRAM 0 0 ABS 0
__LbitbssCOMRAM 0 0 ABS 0
__pbitbssCOMRAM 160 -134 COMRAM 1
__size_of___lwdiv 0 0 ABS 0
__end_of_WriteUSART 65A 0 CODE 0
__size_of_putsUSART 0 0 ABS 0
__HbssBANK1 0 0 ABS 0
__LbssBANK1 0 0 ABS 0
__pbssBANK1 100 0 BANK1 1
___inthi_sp 0 0 STACK 2
__CFG_WDTEN$OFF 0 0 ABS 0
___intlo_sp 0 0 STACK 2
_OpenUSART 512 0 CODE 0
__Hend_init 88 0 CODE 0
__Lend_init 84 0 CODE 0
_NumToUart$1058 20 0 COMRAM 1
_putsUSART 5CE 0 CODE 0
___lwdiv@divisor 17 0 COMRAM 1
__smallconst 300 0 SMALLCONST 0
__size_of___wmul 0 0 ABS 0
__Hreset_vec 4 0 CODE 0
__Lreset_vec 0 0 CODE 0
__stringdata 301 0 SMALLCONST 0
__accesstop 60 0 ABS 0
__Hintcode_body 0 0 ABS 0
__Lintcode_body 0 0 ABS 0
intlevel0 0 0 CODE 0
intlevel1 0 0 CODE 0
intlevel2 0 0 CODE 0
intlevel3 0 0 CODE 0
__end_of___wmul 648 0 CODE 0
start_initialization 5FA 0 CODE 0
___lwdiv@quotient 19 0 COMRAM 1
__initialization 5FA 0 CODE 0
NumToUart@Num 1C 0 COMRAM 1
__activetblptr 1 0 ABS 0
___wmul@product 13 0 COMRAM 1
__CFG_LVP$OFF 0 0 ABS 0
%segments
reset_vec 0 3 CODE 0 0
intcode 8 87 CODE 8 0
smallconst 300 31B SMALLCONST 300 0
config 300000 30000D CONFIG 300000 0
idloc 200000 200007 IDLOC 200000 0
cstackCOMRAM 1 2C COMRAM 1 1
bssBANK1 100 1FF BANK1 100 1
text3 31C 659 CODE 31C 0
%locals
dist/default/production/ADC_PIC18.X.production.obj
/Applications/microchip/xc8/v1.33/include/pic18f14k50.h
/tmp/cgt1FvEq5
592 5FA 0 CODE 0
594 5FA 0 CODE 0
597 5FA 0 CODE 0
623 5FA 0 CODE 0
624 5FE 0 CODE 0
625 602 0 CODE 0
626 602 0 CODE 0
627 604 0 CODE 0
628 606 0 CODE 0
629 608 0 CODE 0
630 60A 0 CODE 0
631 60C 0 CODE 0
634 60E 0 CODE 0
637 610 0 CODE 0
638 612 0 CODE 0
644 614 0 CODE 0
646 614 0 CODE 0
647 616 0 CODE 0
648 618 0 CODE 0
649 61A 0 CODE 0
650 61C 0 CODE 0
651 61E 0 CODE 0
main.c
30 434 0 CODE 0
33 434 0 CODE 0
34 436 0 CODE 0
35 43A 0 CODE 0
36 43E 0 CODE 0
37 442 0 CODE 0
38 446 0 CODE 0
39 448 0 CODE 0
40 44A 0 CODE 0
43 44C 0 CODE 0
49 44E 0 CODE 0
50 452 0 CODE 0
51 456 0 CODE 0
54 462 0 CODE 0
56 46E 0 CODE 0
57 470 0 CODE 0
58 472 0 CODE 0
59 474 0 CODE 0
62 476 0 CODE 0
68 478 0 CODE 0
70 486 0 CODE 0
73 4B6 0 CODE 0
74 4B8 0 CODE 0
78 4BE 0 CODE 0
80 4CC 0 CODE 0
81 4D0 0 CODE 0
83 4DC 0 CODE 0
84 4FC 0 CODE 0
81 508 0 CODE 0
/Applications/microchip/xc8/v1.33/sources/pic18/plib/USART/uputs.c
14 5CE 0 CODE 0
18 5CE 0 CODE 0
19 5D2 0 CODE 0
20 5E2 0 CODE 0
21 5F6 0 CODE 0
20 5F8 0 CODE 0
/Applications/microchip/xc8/v1.33/sources/pic18/plib/USART/uopen.c
73 512 0 CODE 0
75 514 0 CODE 0
76 518 0 CODE 0
78 51C 0 CODE 0
79 51E 0 CODE 0
81 520 0 CODE 0
83 524 0 CODE 0
84 526 0 CODE 0
87 528 0 CODE 0
88 52A 0 CODE 0
90 52C 0 CODE 0
91 530 0 CODE 0
92 534 0 CODE 0
93 534 0 CODE 0
95 536 0 CODE 0
96 538 0 CODE 0
98 53A 0 CODE 0
100 53C 0 CODE 0
101 53E 0 CODE 0
103 540 0 CODE 0
104 544 0 CODE 0
105 548 0 CODE 0
106 548 0 CODE 0
108 54A 0 CODE 0
110 54C 0 CODE 0
111 550 0 CODE 0
112 554 0 CODE 0
113 554 0 CODE 0
115 556 0 CODE 0
116 55A 0 CODE 0
118 568 0 CODE 0
119 56A 0 CODE 0
132 56C 0 CODE 0
133 570 0 CODE 0
134 578 0 CODE 0
main.c
127 31C 0 CODE 0
130 31C 0 CODE 0
131 324 0 CODE 0
133 328 0 CODE 0
135 330 0 CODE 0
136 336 0 CODE 0
142 33C 0 CODE 0
144 358 0 CODE 0
145 35A 0 CODE 0
140 376 0 CODE 0
150 37A 0 CODE 0
152 384 0 CODE 0
153 40C 0 CODE 0
154 410 0 CODE 0
150 42C 0 CODE 0
/Applications/microchip/xc8/v1.33/sources/common/Umul16.c
15 622 0 CODE 0
37 622 0 CODE 0
38 62E 0 CODE 0
39 636 0 CODE 0
52 63E 0 CODE 0
/Applications/microchip/xc8/v1.33/sources/common/lwdiv.c
8 57C 0 CODE 0
14 57C 0 CODE 0
15 584 0 CODE 0
16 58C 0 CODE 0
17 590 0 CODE 0
18 592 0 CODE 0
19 598 0 CODE 0
17 59A 0 CODE 0
22 59E 0 CODE 0
23 5A4 0 CODE 0
24 5B0 0 CODE 0
25 5B8 0 CODE 0
27 5BA 0 CODE 0
28 5C0 0 CODE 0
29 5C4 0 CODE 0
30 5C4 0 CODE 0
31 5CC 0 CODE 0
/Applications/microchip/xc8/v1.33/sources/pic18/plib/USART/uwrite.c
13 648 0 CODE 0
15 64A 0 CODE 0
17 64E 0 CODE 0
18 650 0 CODE 0
19 652 0 CODE 0
22 654 0 CODE 0
23 658 0 CODE 0
/Applications/microchip/xc8/v1.33/sources/pic18/plib/USART/uwrite.c
23 8 0 CODE 0
main.c
96 8 0 CODE 0
98 40 0 CODE 0
100 44 0 CODE 0
101 48 0 CODE 0
105 4A 0 CODE 0
