<?xml version='1.0' encoding='UTF-8' standalone='no'?>
<svg xmlns="http://www.w3.org/2000/svg" viewBox="0 0 576 432" xmlns:xlink="http://www.w3.org/1999/xlink" height="432pt" width="576pt">
 <title>gl2ps_renderer figure</title>
 <desc>
Creator: GL2PS 1.4.0, (C) 1999-2017 C. Geuzaine
For: Octave
CreationDate: Sun Mar 28 15:22:02 2021
</desc>
 <defs/>
 <polygon fill="#ffffff" points="0,0 576,0 576,432 0,432"/>
 <g>
  <polygon fill="#ffffff" points="0,432 576,432 576,0 0,0" shape-rendering="crispEdges"/>
  <clipPath id="cp00576432">
   <polygon points="0,432 576,432 576,0 0,0"/>
  </clipPath>
  <g clip-path="url(#cp00576432)">
   <polygon fill="#ffffff" points="74.88,384.48 521.28,384.48 521.28,32.4 74.88,32.4" shape-rendering="crispEdges"/>
   <polyline fill="none" stroke="#262626" points="74.88,384.48 74.88,32.4" stroke-width="3" stroke-dasharray="48,0" stroke-linejoin="miter" stroke-opacity="0.15" stroke-linecap="butt"/>
   <polyline fill="none" stroke="#262626" points="164.16,384.48 164.16,32.4" stroke-width="3" stroke-dasharray="48,0" stroke-linejoin="miter" stroke-opacity="0.15" stroke-linecap="butt"/>
   <polyline fill="none" stroke="#262626" points="253.44,384.48 253.44,32.4" stroke-width="3" stroke-dasharray="48,0" stroke-linejoin="miter" stroke-opacity="0.15" stroke-linecap="butt"/>
   <polyline fill="none" stroke="#262626" points="342.72,384.48 342.72,32.4" stroke-width="3" stroke-dasharray="48,0" stroke-linejoin="miter" stroke-opacity="0.15" stroke-linecap="butt"/>
   <polyline fill="none" stroke="#262626" points="432,384.48 432,32.4" stroke-width="3" stroke-dasharray="48,0" stroke-linejoin="miter" stroke-opacity="0.15" stroke-linecap="butt"/>
   <polyline fill="none" stroke="#262626" points="521.28,384.48 521.28,32.4" stroke-width="3" stroke-dasharray="48,0" stroke-linejoin="miter" stroke-opacity="0.15" stroke-linecap="butt"/>
   <polyline fill="none" stroke="#262626" points="74.88,384.48 74.88,380.015" stroke-width="3" stroke-linejoin="miter" stroke-linecap="butt"/>
   <polyline fill="none" stroke="#262626" points="164.16,384.48 164.16,380.015" stroke-width="3" stroke-linejoin="miter" stroke-linecap="butt"/>
   <polyline fill="none" stroke="#262626" points="253.44,384.48 253.44,380.015" stroke-width="3" stroke-linejoin="miter" stroke-linecap="butt"/>
   <polyline fill="none" stroke="#262626" points="342.72,384.48 342.72,380.015" stroke-width="3" stroke-linejoin="miter" stroke-linecap="butt"/>
   <polyline fill="none" stroke="#262626" points="432,384.48 432,380.015" stroke-width="3" stroke-linejoin="miter" stroke-linecap="butt"/>
   <polyline fill="none" stroke="#262626" points="521.28,384.48 521.28,380.015" stroke-width="3" stroke-linejoin="miter" stroke-linecap="butt"/>
   <text xml:space="preserve" font-family="Verdana" font-size="18" font-style="normal" transform="translate(69.38,411.983) rotate(-0,5.5,-14)" font-weight="normal">
    <tspan fill="rgb(38,38,38)" x="0 " y="-0">0</tspan>
   </text>
   <text xml:space="preserve" font-family="Verdana" font-size="18" font-style="normal" transform="translate(149.66,411.983) rotate(-0,14.5,-14)" font-weight="normal">
    <tspan fill="rgb(38,38,38)" x="0 11 18 " y="-0">0.2</tspan>
   </text>
   <text xml:space="preserve" font-family="Verdana" font-size="18" font-style="normal" transform="translate(238.94,411.983) rotate(-0,14.5,-14)" font-weight="normal">
    <tspan fill="rgb(38,38,38)" x="0 11 18 " y="-0">0.4</tspan>
   </text>
   <text xml:space="preserve" font-family="Verdana" font-size="18" font-style="normal" transform="translate(328.22,411.983) rotate(-0,14.5,-14)" font-weight="normal">
    <tspan fill="rgb(38,38,38)" x="0 11 18 " y="-0">0.6</tspan>
   </text>
   <text xml:space="preserve" font-family="Verdana" font-size="18" font-style="normal" transform="translate(417.5,411.983) rotate(-0,14.5,-14)" font-weight="normal">
    <tspan fill="rgb(38,38,38)" x="0 11 18 " y="-0">0.8</tspan>
   </text>
   <text xml:space="preserve" font-family="Verdana" font-size="18" font-style="normal" transform="translate(515.78,411.983) rotate(-0,5.5,-14)" font-weight="normal">
    <tspan fill="rgb(38,38,38)" x="0 " y="-0">1</tspan>
   </text>
   <polyline fill="none" stroke="#262626" points="74.88,384.48 521.28,384.48" stroke-width="3" stroke-dasharray="48,0" stroke-linejoin="miter" stroke-opacity="0.15" stroke-linecap="butt"/>
   <polyline fill="none" stroke="#262626" points="74.88,334.183 521.28,334.183" stroke-width="3" stroke-dasharray="48,0" stroke-linejoin="miter" stroke-opacity="0.15" stroke-linecap="butt"/>
   <polyline fill="none" stroke="#262626" points="74.88,283.886 521.28,283.886" stroke-width="3" stroke-dasharray="48,0" stroke-linejoin="miter" stroke-opacity="0.15" stroke-linecap="butt"/>
   <polyline fill="none" stroke="#262626" points="74.88,233.589 521.28,233.589" stroke-width="3" stroke-dasharray="48,0" stroke-linejoin="miter" stroke-opacity="0.15" stroke-linecap="butt"/>
   <polyline fill="none" stroke="#262626" points="74.88,183.291 521.28,183.291" stroke-width="3" stroke-dasharray="48,0" stroke-linejoin="miter" stroke-opacity="0.15" stroke-linecap="butt"/>
   <polyline fill="none" stroke="#262626" points="74.88,132.994 521.28,132.994" stroke-width="3" stroke-dasharray="48,0" stroke-linejoin="miter" stroke-opacity="0.15" stroke-linecap="butt"/>
   <polyline fill="none" stroke="#262626" points="74.88,82.6971 521.28,82.6971" stroke-width="3" stroke-dasharray="48,0" stroke-linejoin="miter" stroke-opacity="0.15" stroke-linecap="butt"/>
   <polyline fill="none" stroke="#262626" points="74.88,32.4 521.28,32.4" stroke-width="3" stroke-dasharray="48,0" stroke-linejoin="miter" stroke-opacity="0.15" stroke-linecap="butt"/>
   <polyline fill="none" stroke="#262626" points="74.88,384.48 79.348,384.48" stroke-width="3" stroke-linejoin="miter" stroke-linecap="butt"/>
   <polyline fill="none" stroke="#262626" points="74.88,334.183 79.348,334.183" stroke-width="3" stroke-linejoin="miter" stroke-linecap="butt"/>
   <polyline fill="none" stroke="#262626" points="74.88,283.886 79.348,283.886" stroke-width="3" stroke-linejoin="miter" stroke-linecap="butt"/>
   <polyline fill="none" stroke="#262626" points="74.88,233.589 79.348,233.589" stroke-width="3" stroke-linejoin="miter" stroke-linecap="butt"/>
   <polyline fill="none" stroke="#262626" points="74.88,183.291 79.348,183.291" stroke-width="3" stroke-linejoin="miter" stroke-linecap="butt"/>
   <polyline fill="none" stroke="#262626" points="74.88,132.994 79.348,132.994" stroke-width="3" stroke-linejoin="miter" stroke-linecap="butt"/>
   <polyline fill="none" stroke="#262626" points="74.88,82.6971 79.348,82.6971" stroke-width="3" stroke-linejoin="miter" stroke-linecap="butt"/>
   <polyline fill="none" stroke="#262626" points="74.88,32.4 79.348,32.4" stroke-width="3" stroke-linejoin="miter" stroke-linecap="butt"/>
   <text xml:space="preserve" font-family="Verdana" font-size="18" font-style="normal" transform="translate(46.8719,391.48) rotate(-0,19,-7)" font-weight="normal">
    <tspan fill="rgb(38,38,38)" x="0 8 " y="-0">-4</tspan>
   </text>
   <text xml:space="preserve" font-family="Verdana" font-size="18" font-style="normal" transform="translate(46.8719,341.183) rotate(-0,19,-7)" font-weight="normal">
    <tspan fill="rgb(38,38,38)" x="0 8 " y="-0">-2</tspan>
   </text>
   <text xml:space="preserve" font-family="Verdana" font-size="18" font-style="normal" transform="translate(54.8719,290.886) rotate(-0,11,-7)" font-weight="normal">
    <tspan fill="rgb(38,38,38)" x="0 " y="-0">0</tspan>
   </text>
   <text xml:space="preserve" font-family="Verdana" font-size="18" font-style="normal" transform="translate(54.8719,240.589) rotate(-0,11,-7)" font-weight="normal">
    <tspan fill="rgb(38,38,38)" x="0 " y="-0">2</tspan>
   </text>
   <text xml:space="preserve" font-family="Verdana" font-size="18" font-style="normal" transform="translate(54.8719,190.291) rotate(-0,11,-7)" font-weight="normal">
    <tspan fill="rgb(38,38,38)" x="0 " y="-0">4</tspan>
   </text>
   <text xml:space="preserve" font-family="Verdana" font-size="18" font-style="normal" transform="translate(54.8719,139.994) rotate(-0,11,-7)" font-weight="normal">
    <tspan fill="rgb(38,38,38)" x="0 " y="-0">6</tspan>
   </text>
   <text xml:space="preserve" font-family="Verdana" font-size="18" font-style="normal" transform="translate(54.8719,89.6971) rotate(-0,11,-7)" font-weight="normal">
    <tspan fill="rgb(38,38,38)" x="0 " y="-0">8</tspan>
   </text>
   <text xml:space="preserve" font-family="Verdana" font-size="18" font-style="normal" transform="translate(43.8719,39.4) rotate(-0,22,-7)" font-weight="normal">
    <tspan fill="rgb(38,38,38)" x="0 11 " y="-0">10</tspan>
   </text>
   <polyline fill="none" stroke="#262626" points="74.88,384.48 521.28,384.48" stroke-width="3" stroke-dasharray="48,0" stroke-linejoin="miter" stroke-linecap="square"/>
   <polyline fill="none" stroke="#262626" points="74.88,384.48 74.88,32.4" stroke-width="3" stroke-dasharray="48,0" stroke-linejoin="miter" stroke-linecap="square"/>
   <polyline fill="none" stroke="#ff0000" points="74.88,57.5486 78.3675,48.0503 81.855,41.8926 85.3425,39.1824 88.83,39.9365 92.3175,44.0834 95.805,51.469 99.2925,61.8636 102.78,74.9722 106.267,90.4459 109.755,107.895 113.243,126.903 116.73,147.038 120.217,167.872 123.705,188.989 127.192,209.996 130.68,230.538 134.167,250.301 137.655,269.023 141.142,286.493 144.63,302.555 148.117,317.105 151.605,330.09 155.092,341.503 158.58,351.374 162.068,359.763 165.555,366.754 169.042,372.442 172.53,376.925 176.017,380.299 179.505,382.644 182.992,384.024 186.48,384.48 189.967,384.024 193.455,382.644 196.943,380.299 200.43,376.925 203.917,372.442 207.405,366.754 210.892,359.763 214.38,351.374 217.867,341.503 221.355,330.09 224.842,317.105 228.33,302.555 231.818,286.493 235.305,269.023 238.792,250.301 242.28,230.538 245.767,209.996 249.255,188.989 252.742,167.872 256.23,147.038 259.717,126.903 263.205,107.895 266.693,90.4459 270.18,74.9722 273.667,61.8636 277.155,51.469 280.642,44.0834 284.13,39.9365 287.617,39.1824 291.105,41.8926 294.592,48.0503 298.08,57.5486 301.568,70.1907 305.055,85.6941 308.542,103.697 312.03,123.767 315.517,145.416 319.005,168.11 322.492,191.287 325.98,214.378 329.467,236.815 332.955,258.06 336.443,277.612 339.93,295.03 343.417,309.943 346.905,322.063 350.392,331.193 353.88,337.234 357.367,340.187 360.855,340.153 364.342,337.327 367.83,331.992 371.318,324.509 374.805,315.3 378.292,304.84 381.78,293.63 385.267,282.19 388.755,271.03 392.242,260.639 395.73,251.464 399.217,243.894 402.705,238.25 406.193,234.766 409.68,233.589 413.167,234.766 416.655,238.25 420.142,243.894 423.63,251.464 427.117,260.639 430.605,271.03 434.092,282.19 437.58,293.63 441.068,304.84 444.555,315.3 448.042,324.509 451.53,331.992 455.017,337.327 458.505,340.153 461.992,340.187 465.48,337.234 468.967,331.193 472.455,322.063 475.943,309.943 479.43,295.03 482.917,277.612 486.405,258.06 489.892,236.815 493.38,214.378 496.867,191.287 500.355,168.11 503.842,145.416 507.33,123.767 510.818,103.697 514.305,85.6941 517.792,70.1907" stroke-width="4" stroke-linejoin="round" stroke-linecap="butt"/>
  </g>
 </g>
</svg>
