<?xml version='1.0' encoding='UTF-8' standalone='no'?>
<svg viewBox="0 0 576 432" xmlns="http://www.w3.org/2000/svg" height="432pt" width="576pt" xmlns:xlink="http://www.w3.org/1999/xlink">
 <title>gl2ps_renderer figure</title>
 <desc>
Creator: GL2PS 1.4.0, (C) 1999-2017 C. Geuzaine
For: Octave
CreationDate: Wed Mar 17 19:27:01 2021
</desc>
 <defs/>
 <polygon points="0,0 576,0 576,432 0,432" fill="#ffffff"/>
 <g>
  <polygon shape-rendering="crispEdges" points="0,432 576,432 576,0 0,0" fill="#ffffff"/>
  <clipPath id="cp00576432">
   <polygon points="0,432 576,432 576,0 0,0"/>
  </clipPath>
  <g clip-path="url(#cp00576432)">
   <polygon shape-rendering="crispEdges" points="74.88,381.497 521.28,381.497 521.28,32.4 74.88,32.4" fill="#ffffff"/>
   <polyline stroke-linecap="butt" stroke-width="3" stroke-dasharray="48,0" stroke-linejoin="miter" stroke-opacity="0.15" points="74.88,381.497 74.88,32.4" stroke="#262626" fill="none"/>
   <polyline stroke-linecap="butt" stroke-width="3" stroke-dasharray="48,0" stroke-linejoin="miter" stroke-opacity="0.15" points="164.16,381.497 164.16,32.4" stroke="#262626" fill="none"/>
   <polyline stroke-linecap="butt" stroke-width="3" stroke-dasharray="48,0" stroke-linejoin="miter" stroke-opacity="0.15" points="253.44,381.497 253.44,32.4" stroke="#262626" fill="none"/>
   <polyline stroke-linecap="butt" stroke-width="3" stroke-dasharray="48,0" stroke-linejoin="miter" stroke-opacity="0.15" points="342.72,381.497 342.72,32.4" stroke="#262626" fill="none"/>
   <polyline stroke-linecap="butt" stroke-width="3" stroke-dasharray="48,0" stroke-linejoin="miter" stroke-opacity="0.15" points="432,381.497 432,32.4" stroke="#262626" fill="none"/>
   <polyline stroke-linecap="butt" stroke-width="3" stroke-dasharray="48,0" stroke-linejoin="miter" stroke-opacity="0.15" points="521.28,381.497 521.28,32.4" stroke="#262626" fill="none"/>
   <polyline stroke-linecap="butt" stroke-width="3" stroke-linejoin="miter" points="74.88,381.497 74.88,377.032" stroke="#262626" fill="none"/>
   <polyline stroke-linecap="butt" stroke-width="3" stroke-linejoin="miter" points="74.88,32.4 74.88,36.8652" stroke="#262626" fill="none"/>
   <polyline stroke-linecap="butt" stroke-width="3" stroke-linejoin="miter" points="164.16,381.497 164.16,377.032" stroke="#262626" fill="none"/>
   <polyline stroke-linecap="butt" stroke-width="3" stroke-linejoin="miter" points="164.16,32.4 164.16,36.8652" stroke="#262626" fill="none"/>
   <polyline stroke-linecap="butt" stroke-width="3" stroke-linejoin="miter" points="253.44,381.497 253.44,377.032" stroke="#262626" fill="none"/>
   <polyline stroke-linecap="butt" stroke-width="3" stroke-linejoin="miter" points="253.44,32.4 253.44,36.8652" stroke="#262626" fill="none"/>
   <polyline stroke-linecap="butt" stroke-width="3" stroke-linejoin="miter" points="342.72,381.497 342.72,377.032" stroke="#262626" fill="none"/>
   <polyline stroke-linecap="butt" stroke-width="3" stroke-linejoin="miter" points="342.72,32.4 342.72,36.8652" stroke="#262626" fill="none"/>
   <polyline stroke-linecap="butt" stroke-width="3" stroke-linejoin="miter" points="432,381.497 432,377.032" stroke="#262626" fill="none"/>
   <polyline stroke-linecap="butt" stroke-width="3" stroke-linejoin="miter" points="432,32.4 432,36.8652" stroke="#262626" fill="none"/>
   <polyline stroke-linecap="butt" stroke-width="3" stroke-linejoin="miter" points="521.28,381.497 521.28,377.032" stroke="#262626" fill="none"/>
   <polyline stroke-linecap="butt" stroke-width="3" stroke-linejoin="miter" points="521.28,32.4 521.28,36.8652" stroke="#262626" fill="none"/>
   <text xml:space="preserve" transform="translate(69.38,409.001) rotate(-0,5.5,-14)" font-size="18" font-weight="normal" font-family="Verdana" font-style="normal">
    <tspan y="-0" x="0 " fill="rgb(38,38,38)">0</tspan>
   </text>
   <text xml:space="preserve" transform="translate(149.66,409.001) rotate(-0,14.5,-14)" font-size="18" font-weight="normal" font-family="Verdana" font-style="normal">
    <tspan y="-0" x="0 11 18 " fill="rgb(38,38,38)">0.2</tspan>
   </text>
   <text xml:space="preserve" transform="translate(238.94,409.001) rotate(-0,14.5,-14)" font-size="18" font-weight="normal" font-family="Verdana" font-style="normal">
    <tspan y="-0" x="0 11 18 " fill="rgb(38,38,38)">0.4</tspan>
   </text>
   <text xml:space="preserve" transform="translate(328.22,409.001) rotate(-0,14.5,-14)" font-size="18" font-weight="normal" font-family="Verdana" font-style="normal">
    <tspan y="-0" x="0 11 18 " fill="rgb(38,38,38)">0.6</tspan>
   </text>
   <text xml:space="preserve" transform="translate(417.5,409.001) rotate(-0,14.5,-14)" font-size="18" font-weight="normal" font-family="Verdana" font-style="normal">
    <tspan y="-0" x="0 11 18 " fill="rgb(38,38,38)">0.8</tspan>
   </text>
   <text xml:space="preserve" transform="translate(515.78,409.001) rotate(-0,5.5,-14)" font-size="18" font-weight="normal" font-family="Verdana" font-style="normal">
    <tspan y="-0" x="0 " fill="rgb(38,38,38)">1</tspan>
   </text>
   <polyline stroke-linecap="butt" stroke-width="3" stroke-dasharray="48,0" stroke-linejoin="miter" stroke-opacity="0.15" points="74.88,381.497 521.28,381.497" stroke="#262626" fill="none"/>
   <polyline stroke-linecap="butt" stroke-width="3" stroke-dasharray="48,0" stroke-linejoin="miter" stroke-opacity="0.15" points="74.88,331.626 521.28,331.626" stroke="#262626" fill="none"/>
   <polyline stroke-linecap="butt" stroke-width="3" stroke-dasharray="48,0" stroke-linejoin="miter" stroke-opacity="0.15" points="74.88,281.755 521.28,281.755" stroke="#262626" fill="none"/>
   <polyline stroke-linecap="butt" stroke-width="3" stroke-dasharray="48,0" stroke-linejoin="miter" stroke-opacity="0.15" points="74.88,231.884 521.28,231.884" stroke="#262626" fill="none"/>
   <polyline stroke-linecap="butt" stroke-width="3" stroke-dasharray="48,0" stroke-linejoin="miter" stroke-opacity="0.15" points="74.88,182.013 521.28,182.013" stroke="#262626" fill="none"/>
   <polyline stroke-linecap="butt" stroke-width="3" stroke-dasharray="48,0" stroke-linejoin="miter" stroke-opacity="0.15" points="74.88,132.142 521.28,132.142" stroke="#262626" fill="none"/>
   <polyline stroke-linecap="butt" stroke-width="3" stroke-dasharray="48,0" stroke-linejoin="miter" stroke-opacity="0.15" points="74.88,82.271 521.28,82.271" stroke="#262626" fill="none"/>
   <polyline stroke-linecap="butt" stroke-width="3" stroke-dasharray="48,0" stroke-linejoin="miter" stroke-opacity="0.15" points="74.88,32.4 521.28,32.4" stroke="#262626" fill="none"/>
   <polyline stroke-linecap="butt" stroke-width="3" stroke-linejoin="miter" points="74.88,381.497 79.348,381.497" stroke="#262626" fill="none"/>
   <polyline stroke-linecap="butt" stroke-width="3" stroke-linejoin="miter" points="521.28,381.497 516.812,381.497" stroke="#262626" fill="none"/>
   <polyline stroke-linecap="butt" stroke-width="3" stroke-linejoin="miter" points="74.88,331.626 79.348,331.626" stroke="#262626" fill="none"/>
   <polyline stroke-linecap="butt" stroke-width="3" stroke-linejoin="miter" points="521.28,331.626 516.812,331.626" stroke="#262626" fill="none"/>
   <polyline stroke-linecap="butt" stroke-width="3" stroke-linejoin="miter" points="74.88,281.755 79.348,281.755" stroke="#262626" fill="none"/>
   <polyline stroke-linecap="butt" stroke-width="3" stroke-linejoin="miter" points="521.28,281.755 516.812,281.755" stroke="#262626" fill="none"/>
   <polyline stroke-linecap="butt" stroke-width="3" stroke-linejoin="miter" points="74.88,231.884 79.348,231.884" stroke="#262626" fill="none"/>
   <polyline stroke-linecap="butt" stroke-width="3" stroke-linejoin="miter" points="521.28,231.884 516.812,231.884" stroke="#262626" fill="none"/>
   <polyline stroke-linecap="butt" stroke-width="3" stroke-linejoin="miter" points="74.88,182.013 79.348,182.013" stroke="#262626" fill="none"/>
   <polyline stroke-linecap="butt" stroke-width="3" stroke-linejoin="miter" points="521.28,182.013 516.812,182.013" stroke="#262626" fill="none"/>
   <polyline stroke-linecap="butt" stroke-width="3" stroke-linejoin="miter" points="74.88,132.142 79.348,132.142" stroke="#262626" fill="none"/>
   <polyline stroke-linecap="butt" stroke-width="3" stroke-linejoin="miter" points="521.28,132.142 516.812,132.142" stroke="#262626" fill="none"/>
   <polyline stroke-linecap="butt" stroke-width="3" stroke-linejoin="miter" points="74.88,82.271 79.348,82.271" stroke="#262626" fill="none"/>
   <polyline stroke-linecap="butt" stroke-width="3" stroke-linejoin="miter" points="521.28,82.271 516.812,82.271" stroke="#262626" fill="none"/>
   <polyline stroke-linecap="butt" stroke-width="3" stroke-linejoin="miter" points="74.88,32.4 79.348,32.4" stroke="#262626" fill="none"/>
   <polyline stroke-linecap="butt" stroke-width="3" stroke-linejoin="miter" points="521.28,32.4 516.812,32.4" stroke="#262626" fill="none"/>
   <text xml:space="preserve" transform="translate(46.8719,388.497) rotate(-0,19,-7)" font-size="18" font-weight="normal" font-family="Verdana" font-style="normal">
    <tspan y="-0" x="0 8 " fill="rgb(38,38,38)">-4</tspan>
   </text>
   <text xml:space="preserve" transform="translate(46.8719,338.626) rotate(-0,19,-7)" font-size="18" font-weight="normal" font-family="Verdana" font-style="normal">
    <tspan y="-0" x="0 8 " fill="rgb(38,38,38)">-2</tspan>
   </text>
   <text xml:space="preserve" transform="translate(54.8719,288.755) rotate(-0,11,-7)" font-size="18" font-weight="normal" font-family="Verdana" font-style="normal">
    <tspan y="-0" x="0 " fill="rgb(38,38,38)">0</tspan>
   </text>
   <text xml:space="preserve" transform="translate(54.8719,238.884) rotate(-0,11,-7)" font-size="18" font-weight="normal" font-family="Verdana" font-style="normal">
    <tspan y="-0" x="0 " fill="rgb(38,38,38)">2</tspan>
   </text>
   <text xml:space="preserve" transform="translate(54.8719,189.013) rotate(-0,11,-7)" font-size="18" font-weight="normal" font-family="Verdana" font-style="normal">
    <tspan y="-0" x="0 " fill="rgb(38,38,38)">4</tspan>
   </text>
   <text xml:space="preserve" transform="translate(54.8719,139.142) rotate(-0,11,-7)" font-size="18" font-weight="normal" font-family="Verdana" font-style="normal">
    <tspan y="-0" x="0 " fill="rgb(38,38,38)">6</tspan>
   </text>
   <text xml:space="preserve" transform="translate(54.8719,89.271) rotate(-0,11,-7)" font-size="18" font-weight="normal" font-family="Verdana" font-style="normal">
    <tspan y="-0" x="0 " fill="rgb(38,38,38)">8</tspan>
   </text>
   <text xml:space="preserve" transform="translate(43.8719,39.4) rotate(-0,22,-7)" font-size="18" font-weight="normal" font-family="Verdana" font-style="normal">
    <tspan y="-0" x="0 11 " fill="rgb(38,38,38)">10</tspan>
   </text>
   <polyline stroke-linecap="square" stroke-width="3" stroke-dasharray="48,0" stroke-linejoin="miter" points="74.88,381.497 521.28,381.497" stroke="#262626" fill="none"/>
   <polyline stroke-linecap="square" stroke-width="3" stroke-dasharray="48,0" stroke-linejoin="miter" points="74.88,32.4 521.28,32.4" stroke="#262626" fill="none"/>
   <polyline stroke-linecap="square" stroke-width="3" stroke-dasharray="48,0" stroke-linejoin="miter" points="74.88,381.497 74.88,32.4" stroke="#262626" fill="none"/>
   <polyline stroke-linecap="square" stroke-width="3" stroke-dasharray="48,0" stroke-linejoin="miter" points="521.28,381.497 521.28,32.4" stroke="#262626" fill="none"/>
   <text xml:space="preserve" transform="translate(282.08,432.001) rotate(-0,16,-18)" font-size="19.8" font-weight="normal" font-family="Verdana" font-style="normal">
    <tspan y="-3" x="0 8 15 22 " fill="rgb(38,38,38)">t, s</tspan>
   </text>
   <text xml:space="preserve" transform="translate(-25.1281,206.948) rotate(-90,64,0)" font-size="19.8" font-weight="normal" font-family="Verdana" font-style="normal">
    <tspan y="-4" x="0 14 33 45 50 55 63 76 88 100 107 114 " fill="rgb(38,38,38)">Amplitude, V</tspan>
   </text>
   <polyline stroke-linecap="butt" stroke-width="4" stroke-linejoin="round" points="74.88,57.3355 75.3159,55.9829 75.7519,54.6797 76.1878,53.4261 76.6237,52.2227 77.0597,51.0698 77.4956,49.9677 77.9315,48.9169 78.3675,47.9177 78.8034,46.9703 79.2394,46.0751 79.6753,45.2323 80.1112,44.4421 80.5472,43.7049 80.9831,43.0207 81.4191,42.3897 81.855,41.8122 82.2909,41.2881 82.7269,40.8177 83.1628,40.401 83.5987,40.0381 84.0347,39.7291 84.4706,39.4739 84.9066,39.2725 85.3425,39.1249 85.7784,39.0312 86.2144,38.9911 86.6503,39.0047 87.0863,39.0718 87.5222,39.1924 87.9581,39.3661 88.3941,39.5929 88.83,39.8726 89.2659,40.205 89.7019,40.5898 90.1378,41.0268 90.5737,41.5157 91.0097,42.0562 91.4456,42.6481 91.8816,43.291 92.3175,43.9844 92.7534,44.7282 93.1894,45.5218 93.6253,46.3649 94.0612,47.2571 94.4972,48.1979 94.9331,49.1869 95.369,50.2235 95.805,51.3074 96.2409,52.438 96.6769,53.6147 97.1128,54.8372 97.5487,56.1046 97.9847,57.4166 98.4206,58.7726 98.8566,60.1719 99.2925,61.614 99.7284,63.0981 100.164,64.6237 100.6,66.1902 101.036,67.7969 101.472,69.443 101.908,71.1279 102.344,72.851 102.78,74.6115 103.216,76.4087 103.652,78.2418 104.088,80.1102 104.524,82.013 104.96,83.9496 105.396,85.9192 105.832,87.9209 106.267,89.9541 106.703,92.0179 107.139,94.1116 107.575,96.2343 108.011,98.3853 108.447,100.564 108.883,102.769 109.319,105 109.755,107.255 110.191,109.535 110.627,111.839 111.063,114.165 111.499,116.512 111.935,118.88 112.371,121.269 112.807,123.676 113.243,126.102 113.678,128.545 114.114,131.005 114.55,133.481 114.986,135.971 115.422,138.476 115.858,140.994 116.294,143.525 116.73,146.067 117.166,148.62 117.602,151.183 118.038,153.755 118.474,156.335 118.91,158.923 119.346,161.518 119.782,164.119 120.217,166.725 120.653,169.335 121.089,171.948 121.525,174.565 121.961,177.183 122.397,179.803 122.833,182.423 123.269,185.043 123.705,187.662 124.141,190.279 124.577,192.894 125.013,195.505 125.449,198.113 125.885,200.716 126.321,203.314 126.757,205.906 127.192,208.491 127.628,211.069 128.064,213.639 128.5,216.201 128.936,218.753 129.372,221.296 129.808,223.828 130.244,226.349 130.68,228.859 131.116,231.356 131.552,233.841 131.988,236.313 132.424,238.771 132.86,241.215 133.296,243.643 133.732,246.057 134.167,248.455 134.603,250.837 135.039,253.202 135.475,255.55 135.911,257.88 136.347,260.193 136.783,262.487 137.219,264.762 137.655,267.019 138.091,269.255 138.527,271.472 138.963,273.669 139.399,275.846 139.835,278.001 140.271,280.136 140.707,282.249 141.142,284.341 141.578,286.41 142.014,288.458 142.45,290.483 142.886,292.485 143.322,294.465 143.758,296.422 144.194,298.356 144.63,300.266 145.066,302.153 145.502,304.016 145.938,305.856 146.374,307.671 146.81,309.463 147.246,311.23 147.682,312.974 148.117,314.693 148.553,316.388 148.989,318.058 149.425,319.704 149.861,321.326 150.297,322.923 150.733,324.496 151.169,326.044 151.605,327.568 152.041,329.068 152.477,330.543 152.913,331.994 153.349,333.42 153.785,334.822 154.221,336.2 154.657,337.554 155.092,338.884 155.528,340.19 155.964,341.473 156.4,342.731 156.836,343.966 157.272,345.177 157.708,346.365 158.144,347.53 158.58,348.671 159.016,349.79 159.452,350.886 159.888,351.959 160.324,353.01 160.76,354.038 161.196,355.044 161.632,356.028 162.068,356.99 162.503,357.93 162.939,358.849 163.375,359.747 163.811,360.623 164.247,361.479 164.683,362.314 165.119,363.128 165.555,363.921 165.991,364.695 166.427,365.449 166.863,366.182 167.299,366.896 167.735,367.591 168.171,368.267 168.607,368.923 169.042,369.561 169.478,370.18 169.914,370.78 170.35,371.363 170.786,371.927 171.222,372.473 171.658,373.001 172.094,373.512 172.53,374.006 172.966,374.483 173.402,374.942 173.838,375.385 174.274,375.811 174.71,376.22 175.146,376.613 175.582,376.99 176.017,377.351 176.453,377.696 176.889,378.025 177.325,378.339 177.761,378.637 178.197,378.919 178.633,379.187 179.069,379.439 179.505,379.676 179.941,379.899 180.377,380.106 180.813,380.299 181.249,380.477 181.685,380.641 182.121,380.79 182.557,380.925 182.992,381.045 183.428,381.151 183.864,381.243 184.3,381.321 184.736,381.384 185.172,381.434 185.608,381.469 186.044,381.49 186.48,381.497 186.916,381.49 187.352,381.469 187.788,381.434 188.224,381.384 188.66,381.321 189.096,381.243 189.532,381.151 189.967,381.045 190.403,380.925 190.839,380.79 191.275,380.641 191.711,380.477 192.147,380.299 192.583,380.106 193.019,379.899 193.455,379.676 193.891,379.439 194.327,379.187 194.763,378.919 195.199,378.637 195.635,378.339 196.071,378.025 196.507,377.696 196.943,377.351 197.378,376.99 197.814,376.613 198.25,376.22 198.686,375.811 199.122,375.385 199.558,374.942 199.994,374.483 200.43,374.006 200.866,373.512 201.302,373.001 201.738,372.473 202.174,371.927 202.61,371.363 203.046,370.78 203.482,370.18 203.917,369.561 204.353,368.923 204.789,368.267 205.225,367.591 205.661,366.896 206.097,366.182 206.533,365.449 206.969,364.695 207.405,363.921 207.841,363.128 208.277,362.314 208.713,361.479 209.149,360.623 209.585,359.747 210.021,358.849 210.457,357.93 210.892,356.99 211.328,356.028 211.764,355.044 212.2,354.038 212.636,353.01 213.072,351.959 213.508,350.886 213.944,349.79 214.38,348.671 214.816,347.53 215.252,346.365 215.688,345.177 216.124,343.966 216.56,342.731 216.996,341.473 217.432,340.19 217.867,338.884 218.303,337.554 218.739,336.2 219.175,334.822 219.611,333.42 220.047,331.994 220.483,330.543 220.919,329.068 221.355,327.568 221.791,326.044 222.227,324.496 222.663,322.923 223.099,321.326 223.535,319.704 223.971,318.058 224.407,316.388 224.842,314.693 225.278,312.974 225.714,311.23 226.15,309.463 226.586,307.671 227.022,305.856 227.458,304.016 227.894,302.153 228.33,300.266 228.766,298.356 229.202,296.422 229.638,294.465 230.074,292.485 230.51,290.483 230.946,288.458 231.382,286.41 231.818,284.341 232.253,282.249 232.689,280.136 233.125,278.001 233.561,275.846 233.997,273.669 234.433,271.472 234.869,269.255 235.305,267.019 235.741,264.762 236.177,262.487 236.613,260.193 237.049,257.88 237.485,255.55 237.921,253.202 238.357,250.837 238.792,248.455 239.228,246.057 239.664,243.643 240.1,241.215 240.536,238.771 240.972,236.313 241.408,233.841 241.844,231.356 242.28,228.859 242.716,226.349 243.152,223.828 243.588,221.296 244.024,218.753 244.46,216.201 244.896,213.639 245.332,211.069 245.767,208.491 246.203,205.906 246.639,203.314 247.075,200.716 247.511,198.113 247.947,195.505 248.383,192.894 248.819,190.279 249.255,187.662 249.691,185.043 250.127,182.423 250.563,179.803 250.999,177.183 251.435,174.565 251.871,171.948 252.307,169.335 252.742,166.725 253.178,164.119 253.614,161.518 254.05,158.923 254.486,156.335 254.922,153.755 255.358,151.183 255.794,148.62 256.23,146.067 256.666,143.525 257.102,140.994 257.538,138.476 257.974,135.971 258.41,133.481 258.846,131.005 259.282,128.545 259.717,126.102 260.153,123.676 260.589,121.269 261.025,118.88 261.461,116.512 261.897,114.165 262.333,111.839 262.769,109.535 263.205,107.255 263.641,105 264.077,102.769 264.513,100.564 264.949,98.3853 265.385,96.2343 265.821,94.1116 266.257,92.0179 266.693,89.9541 267.128,87.9209 267.564,85.9192 268,83.9496 268.436,82.013 268.872,80.1102 269.308,78.2418 269.744,76.4087 270.18,74.6115 270.616,72.851 271.052,71.1279 271.488,69.443 271.924,67.7969 272.36,66.1902 272.796,64.6237 273.232,63.0981 273.667,61.614 274.103,60.1719 274.539,58.7726 274.975,57.4166 275.411,56.1046 275.847,54.8372 276.283,53.6147 276.719,52.438 277.155,51.3074 277.591,50.2235 278.027,49.1869 278.463,48.1979 278.899,47.2571 279.335,46.3649 279.771,45.5218 280.207,44.7282 280.642,43.9844 281.078,43.291 281.514,42.6481 281.95,42.0562 282.386,41.5157 282.822,41.0268 283.258,40.5898 283.694,40.205 284.13,39.8726 284.566,39.5929 285.002,39.3661 285.438,39.1924 285.874,39.0718 286.31,39.0047 286.746,38.9911 287.182,39.0312 287.617,39.1249 288.053,39.2725 288.489,39.4739 288.925,39.7291 289.361,40.0381 289.797,40.401 290.233,40.8177 290.669,41.2881 291.105,41.8122 291.541,42.3897 291.977,43.0207 292.413,43.7049 292.849,44.4421 293.285,45.2323 293.721,46.0751 294.157,46.9703 294.592,47.9177 295.028,48.9169 295.464,49.9677 295.9,51.0698 296.336,52.2227 296.772,53.4261 297.208,54.6797 297.644,55.9829 298.08,57.3355 298.516,58.7368 298.952,60.1865 299.388,61.6841 299.824,63.2289 300.26,64.8206 300.696,66.4584 301.132,68.142 301.568,69.8705 302.003,71.6435 302.439,73.4603 302.875,75.3202 303.311,77.2226 303.747,79.1667 304.183,81.1519 304.619,83.1774 305.055,85.2425 305.491,87.3464 305.927,89.4883 306.363,91.6675 306.799,93.8831 307.235,96.1343 307.671,98.4202 308.107,100.74 308.542,103.093 308.978,105.478 309.414,107.894 309.85,110.34 310.286,112.816 310.722,115.32 311.158,117.852 311.594,120.41 312.03,122.993 312.466,125.601 312.902,128.233 313.338,130.887 313.774,133.562 314.21,136.258 314.646,138.974 315.082,141.707 315.517,144.458 315.953,147.226 316.389,150.008 316.825,152.804 317.261,155.614 317.697,158.435 318.133,161.267 318.569,164.109 319.005,166.96 319.441,169.818 319.877,172.682 320.313,175.552 320.749,178.426 321.185,181.303 321.621,184.182 322.057,187.062 322.492,189.941 322.928,192.819 323.364,195.695 323.8,198.567 324.236,201.435 324.672,204.296 325.108,207.151 325.544,209.998 325.98,212.836 326.416,215.663 326.852,218.48 327.288,221.284 327.724,224.075 328.16,226.851 328.596,229.612 329.032,232.356 329.467,235.083 329.903,237.792 330.339,240.481 330.775,243.149 331.211,245.796 331.647,248.42 332.083,251.021 332.519,253.597 332.955,256.148 333.391,258.673 333.827,261.17 334.263,263.639 334.699,266.08 335.135,268.49 335.571,270.87 336.007,273.219 336.443,275.535 336.878,277.817 337.314,280.066 337.75,282.28 338.186,284.459 338.622,286.602 339.058,288.707 339.494,290.775 339.93,292.805 340.366,294.796 340.802,296.747 341.238,298.659 341.674,300.529 342.11,302.358 342.546,304.145 342.982,305.89 343.417,307.592 343.853,309.25 344.289,310.865 344.725,312.435 345.161,313.961 345.597,315.441 346.033,316.876 346.469,318.266 346.905,319.609 347.341,320.905 347.777,322.155 348.213,323.358 348.649,324.514 349.085,325.622 349.521,326.683 349.957,327.696 350.392,328.661 350.828,329.578 351.264,330.448 351.7,331.268 352.136,332.041 352.572,332.766 353.008,333.442 353.444,334.071 353.88,334.651 354.316,335.183 354.752,335.668 355.188,336.105 355.624,336.494 356.06,336.836 356.496,337.131 356.932,337.378 357.367,337.579 357.803,337.734 358.239,337.843 358.675,337.905 359.111,337.923 359.547,337.895 359.983,337.823 360.419,337.706 360.855,337.546 361.291,337.342 361.727,337.095 362.163,336.806 362.599,336.475 363.035,336.103 363.471,335.69 363.907,335.237 364.342,334.744 364.778,334.212 365.214,333.642 365.65,333.034 366.086,332.389 366.522,331.708 366.958,330.991 367.394,330.24 367.83,329.454 368.266,328.635 368.702,327.783 369.138,326.9 369.574,325.985 370.01,325.041 370.446,324.067 370.882,323.064 371.318,322.034 371.753,320.977 372.189,319.894 372.625,318.786 373.061,317.654 373.497,316.499 373.933,315.322 374.369,314.123 374.805,312.904 375.241,311.665 375.677,310.408 376.113,309.133 376.549,307.842 376.985,306.535 377.421,305.214 377.857,303.879 378.292,302.531 378.728,301.172 379.164,299.802 379.6,298.423 380.036,297.035 380.472,295.639 380.908,294.237 381.344,292.829 381.78,291.417 382.216,290.001 382.652,288.583 383.088,287.162 383.524,285.742 383.96,284.322 384.396,282.903 384.832,281.486 385.267,280.073 385.703,278.665 386.139,277.262 386.575,275.865 387.011,274.475 387.447,273.093 387.883,271.721 388.319,270.359 388.755,269.008 389.191,267.669 389.627,266.343 390.063,265.03 390.499,263.732 390.935,262.45 391.371,261.184 391.807,259.935 392.242,258.705 392.678,257.493 393.114,256.301 393.55,255.13 393.986,253.98 394.422,252.852 394.858,251.747 395.294,250.665 395.73,249.607 396.166,248.575 396.602,247.568 397.038,246.588 397.474,245.634 397.91,244.708 398.346,243.811 398.782,242.942 399.217,242.102 399.653,241.293 400.089,240.514 400.525,239.766 400.961,239.049 401.397,238.364 401.833,237.712 402.269,237.092 402.705,236.506 403.141,235.953 403.577,235.434 404.013,234.95 404.449,234.5 404.885,234.085 405.321,233.705 405.757,233.36 406.193,233.052 406.628,232.779 407.064,232.542 407.5,232.341 407.936,232.177 408.372,232.049 408.808,231.957 409.244,231.902 409.68,231.884 410.116,231.902 410.552,231.957 410.988,232.049 411.424,232.177 411.86,232.341 412.296,232.542 412.732,232.779 413.167,233.052 413.603,233.36 414.039,233.705 414.475,234.085 414.911,234.5 415.347,234.95 415.783,235.434 416.219,235.953 416.655,236.506 417.091,237.092 417.527,237.712 417.963,238.364 418.399,239.049 418.835,239.766 419.271,240.514 419.707,241.293 420.142,242.102 420.578,242.942 421.014,243.811 421.45,244.708 421.886,245.634 422.322,246.588 422.758,247.568 423.194,248.575 423.63,249.607 424.066,250.665 424.502,251.747 424.938,252.852 425.374,253.98 425.81,255.13 426.246,256.301 426.682,257.493 427.117,258.705 427.553,259.935 427.989,261.184 428.425,262.45 428.861,263.732 429.297,265.03 429.733,266.343 430.169,267.669 430.605,269.008 431.041,270.359 431.477,271.721 431.913,273.093 432.349,274.475 432.785,275.865 433.221,277.262 433.657,278.665 434.092,280.073 434.528,281.486 434.964,282.903 435.4,284.322 435.836,285.742 436.272,287.162 436.708,288.583 437.144,290.001 437.58,291.417 438.016,292.829 438.452,294.237 438.888,295.639 439.324,297.035 439.76,298.423 440.196,299.802 440.632,301.172 441.068,302.531 441.503,303.879 441.939,305.214 442.375,306.535 442.811,307.842 443.247,309.133 443.683,310.408 444.119,311.665 444.555,312.904 444.991,314.123 445.427,315.322 445.863,316.499 446.299,317.654 446.735,318.786 447.171,319.894 447.607,320.977 448.042,322.034 448.478,323.064 448.914,324.067 449.35,325.041 449.786,325.985 450.222,326.9 450.658,327.783 451.094,328.635 451.53,329.454 451.966,330.24 452.402,330.991 452.838,331.708 453.274,332.389 453.71,333.034 454.146,333.642 454.582,334.212 455.017,334.744 455.453,335.237 455.889,335.69 456.325,336.103 456.761,336.475 457.197,336.806 457.633,337.095 458.069,337.342 458.505,337.546 458.941,337.706 459.377,337.823 459.813,337.895 460.249,337.923 460.685,337.905 461.121,337.843 461.557,337.734 461.992,337.579 462.428,337.378 462.864,337.131 463.3,336.836 463.736,336.494 464.172,336.105 464.608,335.668 465.044,335.183 465.48,334.651 465.916,334.071 466.352,333.442 466.788,332.766 467.224,332.041 467.66,331.268 468.096,330.448 468.532,329.578 468.967,328.661 469.403,327.696 469.839,326.683 470.275,325.622 470.711,324.514 471.147,323.358 471.583,322.155 472.019,320.905 472.455,319.609 472.891,318.266 473.327,316.876 473.763,315.441 474.199,313.961 474.635,312.435 475.071,310.865 475.507,309.25 475.943,307.592 476.378,305.89 476.814,304.145 477.25,302.358 477.686,300.529 478.122,298.659 478.558,296.747 478.994,294.796 479.43,292.805 479.866,290.775 480.302,288.707 480.738,286.602 481.174,284.459 481.61,282.28 482.046,280.066 482.482,277.817 482.917,275.535 483.353,273.219 483.789,270.87 484.225,268.49 484.661,266.08 485.097,263.639 485.533,261.17 485.969,258.673 486.405,256.148 486.841,253.597 487.277,251.021 487.713,248.42 488.149,245.796 488.585,243.149 489.021,240.481 489.457,237.792 489.892,235.083 490.328,232.356 490.764,229.612 491.2,226.851 491.636,224.075 492.072,221.284 492.508,218.48 492.944,215.663 493.38,212.836 493.816,209.998 494.252,207.151 494.688,204.296 495.124,201.435 495.56,198.567 495.996,195.695 496.432,192.819 496.867,189.941 497.303,187.062 497.739,184.182 498.175,181.303 498.611,178.426 499.047,175.552 499.483,172.682 499.919,169.818 500.355,166.96 500.791,164.109 501.227,161.267 501.663,158.435 502.099,155.614 502.535,152.804 502.971,150.008 503.407,147.226 503.842,144.458 504.278,141.707 504.714,138.974 505.15,136.258 505.586,133.562 506.022,130.887 506.458,128.233 506.894,125.601 507.33,122.993 507.766,120.41 508.202,117.852 508.638,115.32 509.074,112.816 509.51,110.34 509.946,107.894 510.382,105.478 510.818,103.093 511.253,100.74 511.689,98.4202 512.125,96.1343 512.561,93.8831 512.997,91.6675 513.433,89.4883 513.869,87.3464 514.305,85.2425 514.741,83.1774 515.177,81.1519 515.613,79.1667 516.049,77.2226 516.485,75.3202 516.921,73.4603 517.357,71.6435 517.792,69.8705 518.228,68.142 518.664,66.4584 519.1,64.8206 519.536,63.2289 519.972,61.6841 520.408,60.1865 520.844,58.7368 521.28,57.3355" stroke="#0000ff" fill="none"/>
   <polyline stroke-linecap="butt" stroke-width="1" stroke-linejoin="round" points="74.88,57.3355 130.68,228.859 186.48,381.497 242.28,228.859 298.08,57.3355 353.88,334.651 409.68,231.884 465.48,334.651" stroke="#ff0000" fill="none"/>
   <polyline stroke-linecap="round" stroke-width="1" stroke-linejoin="round" points="84.88,57.3355 84.6615,59.4146 84.0155,61.4029 82.9702,63.2133 81.5713,64.767 79.88,65.9958 77.9702,66.8461 75.9253,67.2807 73.8347,67.2807 71.7898,66.8461 69.88,65.9958 68.1887,64.767 66.7898,63.2133 65.7445,61.4029 65.0985,59.4146 64.88,57.3355 65.0985,55.2564 65.7445,53.2681 66.7898,51.4576 68.1887,49.9041 69.88,48.6752 71.7898,47.825 73.8347,47.3903 75.9253,47.3903 77.9702,47.825 79.88,48.6752 81.5713,49.9041 82.9702,51.4576 84.0155,53.2681 84.6615,55.2564 84.88,57.3355" stroke="#ff0000" fill="none"/>
   <polyline stroke-linecap="round" stroke-width="1" stroke-linejoin="round" points="140.68,228.859 140.461,230.938 139.815,232.926 138.77,234.737 137.371,236.29 135.68,237.519 133.77,238.369 131.725,238.804 129.635,238.804 127.59,238.369 125.68,237.519 123.989,236.29 122.59,234.737 121.545,232.926 120.899,230.938 120.68,228.859 120.899,226.78 121.545,224.791 122.59,222.981 123.989,221.427 125.68,220.199 127.59,219.348 129.635,218.914 131.725,218.914 133.77,219.348 135.68,220.199 137.371,221.427 138.77,222.981 139.815,224.791 140.461,226.78 140.68,228.859" stroke="#ff0000" fill="none"/>
   <polyline stroke-linecap="round" stroke-width="1" stroke-linejoin="round" points="196.48,381.497 196.261,383.576 195.615,385.564 194.57,387.375 193.171,388.928 191.48,390.157 189.57,391.007 187.525,391.442 185.435,391.442 183.39,391.007 181.48,390.157 179.789,388.928 178.39,387.375 177.345,385.564 176.699,383.576 176.48,381.497 176.699,379.418 177.345,377.43 178.39,375.619 179.789,374.065 181.48,372.837 183.39,371.986 185.435,371.552 187.525,371.552 189.57,371.986 191.48,372.837 193.171,374.065 194.57,375.619 195.615,377.43 196.261,379.418 196.48,381.497" stroke="#ff0000" fill="none"/>
   <polyline stroke-linecap="round" stroke-width="1" stroke-linejoin="round" points="252.28,228.859 252.061,230.938 251.415,232.926 250.37,234.737 248.971,236.29 247.28,237.519 245.37,238.369 243.325,238.804 241.235,238.804 239.19,238.369 237.28,237.519 235.589,236.29 234.19,234.737 233.145,232.926 232.499,230.938 232.28,228.859 232.499,226.78 233.145,224.791 234.19,222.981 235.589,221.427 237.28,220.199 239.19,219.348 241.235,218.914 243.325,218.914 245.37,219.348 247.28,220.199 248.971,221.427 250.37,222.981 251.415,224.791 252.061,226.78 252.28,228.859" stroke="#ff0000" fill="none"/>
   <polyline stroke-linecap="round" stroke-width="1" stroke-linejoin="round" points="308.08,57.3355 307.861,59.4146 307.215,61.4029 306.17,63.2133 304.771,64.767 303.08,65.9958 301.17,66.8461 299.125,67.2807 297.035,67.2807 294.99,66.8461 293.08,65.9958 291.389,64.767 289.99,63.2133 288.945,61.4029 288.299,59.4146 288.08,57.3355 288.299,55.2564 288.945,53.2681 289.99,51.4576 291.389,49.9041 293.08,48.6752 294.99,47.825 297.035,47.3903 299.125,47.3903 301.17,47.825 303.08,48.6752 304.771,49.9041 306.17,51.4576 307.215,53.2681 307.861,55.2564 308.08,57.3355" stroke="#ff0000" fill="none"/>
   <polyline stroke-linecap="round" stroke-width="1" stroke-linejoin="round" points="363.88,334.651 363.661,336.73 363.015,338.719 361.97,340.529 360.571,342.083 358.88,343.311 356.97,344.162 354.925,344.596 352.835,344.596 350.79,344.162 348.88,343.311 347.189,342.083 345.79,340.529 344.745,338.719 344.099,336.73 343.88,334.651 344.099,332.572 344.745,330.584 345.79,328.773 347.189,327.22 348.88,325.991 350.79,325.141 352.835,324.706 354.925,324.706 356.97,325.141 358.88,325.991 360.571,327.22 361.97,328.773 363.015,330.584 363.661,332.572 363.88,334.651" stroke="#ff0000" fill="none"/>
   <polyline stroke-linecap="round" stroke-width="1" stroke-linejoin="round" points="419.68,231.884 419.461,233.963 418.815,235.951 417.77,237.762 416.371,239.315 414.68,240.544 412.77,241.395 410.725,241.829 408.635,241.829 406.59,241.395 404.68,240.544 402.989,239.315 401.59,237.762 400.545,235.951 399.899,233.963 399.68,231.884 399.899,229.805 400.545,227.817 401.59,226.006 402.989,224.453 404.68,223.224 406.59,222.373 408.635,221.939 410.725,221.939 412.77,222.373 414.68,223.224 416.371,224.453 417.77,226.006 418.815,227.817 419.461,229.805 419.68,231.884" stroke="#ff0000" fill="none"/>
   <polyline stroke-linecap="round" stroke-width="1" stroke-linejoin="round" points="475.48,334.651 475.261,336.73 474.615,338.719 473.57,340.529 472.171,342.083 470.48,343.311 468.57,344.162 466.525,344.596 464.435,344.596 462.39,344.162 460.48,343.311 458.789,342.083 457.39,340.529 456.345,338.719 455.699,336.73 455.48,334.651 455.699,332.572 456.345,330.584 457.39,328.773 458.789,327.22 460.48,325.991 462.39,325.141 464.435,324.706 466.525,324.706 468.57,325.141 470.48,325.991 472.171,327.22 473.57,328.773 474.615,330.584 475.261,332.572 475.48,334.651" stroke="#ff0000" fill="none"/>
  </g>
  <clipPath id="cp00576432">
   <polygon points="0,432 576,432 576,0 0,0"/>
  </clipPath>
  <g clip-path="url(#cp00576432)">
   <polygon shape-rendering="crispEdges" points="437.944,67.9824 515.183,67.9824 515.183,40.3431 437.944,40.3431" fill="#ffffff"/>
   <polyline stroke-linecap="square" stroke-width="0.5" stroke-dasharray="16,0" stroke-linejoin="miter" points="437.944,67.9824 515.183,67.9824" stroke="#262626" fill="none"/>
   <polyline stroke-linecap="square" stroke-width="0.5" stroke-dasharray="16,0" stroke-linejoin="miter" points="437.944,40.3431 515.183,40.3431" stroke="#262626" fill="none"/>
   <polyline stroke-linecap="square" stroke-width="0.5" stroke-dasharray="16,0" stroke-linejoin="miter" points="437.944,67.9824 437.944,40.3431" stroke="#262626" fill="none"/>
   <polyline stroke-linecap="square" stroke-width="0.5" stroke-dasharray="16,0" stroke-linejoin="miter" points="515.183,67.9824 515.183,40.3431" stroke="#262626" fill="none"/>
   <text xml:space="preserve" transform="translate(452.932,54.753) rotate(-0,-0,-7.5)" font-size="14" font-weight="normal" font-family="Verdana" font-style="normal">
    <tspan y="-3" x="0 9 15 19 28 32 41 49 53 58 63 68 73 78 83 88 93 98 103 108 113 118 " fill="rgb(0,0,0)">original              </tspan>
   </text>
   <text xml:space="preserve" transform="translate(452.932,68.5726) rotate(-0,-0,-7.5)" font-size="14" font-weight="normal" font-family="Verdana" font-style="normal">
    <tspan y="-3" x="0 7 15 29 38 42 50 59 64 69 74 79 84 89 94 99 104 109 114 119 124 129 134 139 " fill="rgb(0,0,0)">sampled                 </tspan>
   </text>
   <polyline stroke-linecap="butt" stroke-width="4" stroke-linejoin="round" points="439.722,47.253 451.154,47.253" stroke="#0000ff" fill="none"/>
   <polyline stroke-linecap="butt" stroke-width="1" stroke-linejoin="round" points="439.722,61.0726 451.154,61.0726" stroke="#ff0000" fill="none"/>
   <polyline stroke-linecap="round" stroke-width="1" stroke-linejoin="round" points="450.438,61.0726 449.943,63.242 448.556,64.9817 446.551,65.9472 444.326,65.9472 442.321,64.9817 440.933,63.242 440.438,61.0726 440.933,58.9031 442.321,57.1634 444.326,56.1979 446.551,56.1979 448.556,57.1634 449.943,58.9031 450.438,61.0726" stroke="#ff0000" fill="none"/>
  </g>
 </g>
</svg>
