<?xml version='1.0' encoding='UTF-8' standalone='no'?>
<svg xmlns="http://www.w3.org/2000/svg" viewBox="0 0 576 432" xmlns:xlink="http://www.w3.org/1999/xlink" height="432pt" width="576pt">
 <title>gl2ps_renderer figure</title>
 <desc>
Creator: GL2PS 1.4.0, (C) 1999-2017 C. Geuzaine
For: Octave
CreationDate: Wed Mar 24 22:40:49 2021
</desc>
 <defs/>
 <polygon fill="#ffffff" points="0,0 576,0 576,432 0,432"/>
 <g>
  <polygon shape-rendering="crispEdges" fill="#ffffff" points="0,432 576,432 576,0 0,0"/>
  <clipPath id="cp00576432">
   <polygon points="0,432 576,432 576,0 0,0"/>
  </clipPath>
  <g clip-path="url(#cp00576432)">
   <polygon shape-rendering="crispEdges" fill="#ffffff" points="74.88,383.497 521.28,383.497 521.28,32.4 74.88,32.4"/>
   <polyline fill="none" points="74.88,383.497 74.88,32.4" stroke-opacity="0.15" stroke-linejoin="miter" stroke-width="3" stroke="#262626" stroke-linecap="butt" stroke-dasharray="48,0"/>
   <polyline fill="none" points="186.48,383.497 186.48,32.4" stroke-opacity="0.15" stroke-linejoin="miter" stroke-width="3" stroke="#262626" stroke-linecap="butt" stroke-dasharray="48,0"/>
   <polyline fill="none" points="298.08,383.497 298.08,32.4" stroke-opacity="0.15" stroke-linejoin="miter" stroke-width="3" stroke="#262626" stroke-linecap="butt" stroke-dasharray="48,0"/>
   <polyline fill="none" points="409.68,383.497 409.68,32.4" stroke-opacity="0.15" stroke-linejoin="miter" stroke-width="3" stroke="#262626" stroke-linecap="butt" stroke-dasharray="48,0"/>
   <polyline fill="none" points="521.28,383.497 521.28,32.4" stroke-opacity="0.15" stroke-linejoin="miter" stroke-width="3" stroke="#262626" stroke-linecap="butt" stroke-dasharray="48,0"/>
   <polyline fill="none" points="74.88,383.497 74.88,379.032" stroke-linejoin="miter" stroke-width="3" stroke="#262626" stroke-linecap="butt"/>
   <polyline fill="none" points="186.48,383.497 186.48,379.032" stroke-linejoin="miter" stroke-width="3" stroke="#262626" stroke-linecap="butt"/>
   <polyline fill="none" points="298.08,383.497 298.08,379.032" stroke-linejoin="miter" stroke-width="3" stroke="#262626" stroke-linecap="butt"/>
   <polyline fill="none" points="409.68,383.497 409.68,379.032" stroke-linejoin="miter" stroke-width="3" stroke="#262626" stroke-linecap="butt"/>
   <polyline fill="none" points="521.28,383.497 521.28,379.032" stroke-linejoin="miter" stroke-width="3" stroke="#262626" stroke-linecap="butt"/>
   <text xml:space="preserve" font-family="Verdana" transform="translate(69.38,411.001) rotate(-0,5.5,-14)" font-style="normal" font-size="18" font-weight="normal">
    <tspan fill="rgb(38,38,38)" x="0 " y="-0">0</tspan>
   </text>
   <text xml:space="preserve" font-family="Verdana" transform="translate(180.98,411.001) rotate(-0,5.5,-14)" font-style="normal" font-size="18" font-weight="normal">
    <tspan fill="rgb(38,38,38)" x="0 " y="-0">2</tspan>
   </text>
   <text xml:space="preserve" font-family="Verdana" transform="translate(292.58,411.001) rotate(-0,5.5,-14)" font-style="normal" font-size="18" font-weight="normal">
    <tspan fill="rgb(38,38,38)" x="0 " y="-0">4</tspan>
   </text>
   <text xml:space="preserve" font-family="Verdana" transform="translate(404.18,411.001) rotate(-0,5.5,-14)" font-style="normal" font-size="18" font-weight="normal">
    <tspan fill="rgb(38,38,38)" x="0 " y="-0">6</tspan>
   </text>
   <text xml:space="preserve" font-family="Verdana" transform="translate(515.78,411.001) rotate(-0,5.5,-14)" font-style="normal" font-size="18" font-weight="normal">
    <tspan fill="rgb(38,38,38)" x="0 " y="-0">8</tspan>
   </text>
   <polyline fill="none" points="74.88,383.497 521.28,383.497" stroke-opacity="0.15" stroke-linejoin="miter" stroke-width="3" stroke="#262626" stroke-linecap="butt" stroke-dasharray="48,0"/>
   <polyline fill="none" points="74.88,324.981 521.28,324.981" stroke-opacity="0.15" stroke-linejoin="miter" stroke-width="3" stroke="#262626" stroke-linecap="butt" stroke-dasharray="48,0"/>
   <polyline fill="none" points="74.88,266.465 521.28,266.465" stroke-opacity="0.15" stroke-linejoin="miter" stroke-width="3" stroke="#262626" stroke-linecap="butt" stroke-dasharray="48,0"/>
   <polyline fill="none" points="74.88,207.948 521.28,207.948" stroke-opacity="0.15" stroke-linejoin="miter" stroke-width="3" stroke="#262626" stroke-linecap="butt" stroke-dasharray="48,0"/>
   <polyline fill="none" points="74.88,149.432 521.28,149.432" stroke-opacity="0.15" stroke-linejoin="miter" stroke-width="3" stroke="#262626" stroke-linecap="butt" stroke-dasharray="48,0"/>
   <polyline fill="none" points="74.88,90.9162 521.28,90.9162" stroke-opacity="0.15" stroke-linejoin="miter" stroke-width="3" stroke="#262626" stroke-linecap="butt" stroke-dasharray="48,0"/>
   <polyline fill="none" points="74.88,32.4 521.28,32.4" stroke-opacity="0.15" stroke-linejoin="miter" stroke-width="3" stroke="#262626" stroke-linecap="butt" stroke-dasharray="48,0"/>
   <polyline fill="none" points="74.88,383.497 79.348,383.497" stroke-linejoin="miter" stroke-width="3" stroke="#262626" stroke-linecap="butt"/>
   <polyline fill="none" points="74.88,324.981 79.348,324.981" stroke-linejoin="miter" stroke-width="3" stroke="#262626" stroke-linecap="butt"/>
   <polyline fill="none" points="74.88,266.465 79.348,266.465" stroke-linejoin="miter" stroke-width="3" stroke="#262626" stroke-linecap="butt"/>
   <polyline fill="none" points="74.88,207.948 79.348,207.948" stroke-linejoin="miter" stroke-width="3" stroke="#262626" stroke-linecap="butt"/>
   <polyline fill="none" points="74.88,149.432 79.348,149.432" stroke-linejoin="miter" stroke-width="3" stroke="#262626" stroke-linecap="butt"/>
   <polyline fill="none" points="74.88,90.9162 79.348,90.9162" stroke-linejoin="miter" stroke-width="3" stroke="#262626" stroke-linecap="butt"/>
   <polyline fill="none" points="74.88,32.4 79.348,32.4" stroke-linejoin="miter" stroke-width="3" stroke="#262626" stroke-linecap="butt"/>
   <text xml:space="preserve" font-family="Verdana" transform="translate(46.8719,390.497) rotate(-0,19,-7)" font-style="normal" font-size="18" font-weight="normal">
    <tspan fill="rgb(38,38,38)" x="0 8 " y="-0">-1</tspan>
   </text>
   <text xml:space="preserve" font-family="Verdana" transform="translate(54.8719,331.981) rotate(-0,11,-7)" font-style="normal" font-size="18" font-weight="normal">
    <tspan fill="rgb(38,38,38)" x="0 " y="-0">0</tspan>
   </text>
   <text xml:space="preserve" font-family="Verdana" transform="translate(54.8719,273.465) rotate(-0,11,-7)" font-style="normal" font-size="18" font-weight="normal">
    <tspan fill="rgb(38,38,38)" x="0 " y="-0">1</tspan>
   </text>
   <text xml:space="preserve" font-family="Verdana" transform="translate(54.8719,214.948) rotate(-0,11,-7)" font-style="normal" font-size="18" font-weight="normal">
    <tspan fill="rgb(38,38,38)" x="0 " y="-0">2</tspan>
   </text>
   <text xml:space="preserve" font-family="Verdana" transform="translate(54.8719,156.432) rotate(-0,11,-7)" font-style="normal" font-size="18" font-weight="normal">
    <tspan fill="rgb(38,38,38)" x="0 " y="-0">3</tspan>
   </text>
   <text xml:space="preserve" font-family="Verdana" transform="translate(54.8719,97.9162) rotate(-0,11,-7)" font-style="normal" font-size="18" font-weight="normal">
    <tspan fill="rgb(38,38,38)" x="0 " y="-0">4</tspan>
   </text>
   <text xml:space="preserve" font-family="Verdana" transform="translate(54.8719,39.4) rotate(-0,11,-7)" font-style="normal" font-size="18" font-weight="normal">
    <tspan fill="rgb(38,38,38)" x="0 " y="-0">5</tspan>
   </text>
   <polyline fill="none" points="74.88,383.497 521.28,383.497" stroke-linejoin="miter" stroke-width="3" stroke="#262626" stroke-linecap="square" stroke-dasharray="48,0"/>
   <polyline fill="none" points="74.88,383.497 74.88,32.4" stroke-linejoin="miter" stroke-width="3" stroke="#262626" stroke-linecap="square" stroke-dasharray="48,0"/>
   <text xml:space="preserve" font-family="Verdana" transform="translate(290.58,432.001) rotate(-0,7.5,-16)" font-style="normal" font-size="19.8" font-weight="normal">
    <tspan fill="rgb(38,38,38)" x="0 " y="-0">N</tspan>
   </text>
   <text xml:space="preserve" font-family="Verdana" transform="translate(-10.6281,207.948) rotate(-90,52.5,0)" font-style="normal" font-size="19.8" font-weight="normal">
    <tspan fill="rgb(38,38,38)" x="0 14 26 38 45 52 57 67 72 84 97 " y="-0">Coefficient</tspan>
   </text>
   <polyline fill="none" points="74.88,32.4 81.855,357.628 88.83,128.251 95.805,194.175 102.78,311.133 109.755,45.7628 116.73,381.336 123.705,74.4604 130.68,262.196 137.655,248.929 144.63,83.817 151.605,378.647 158.58,40.992 165.555,321.958 172.53,180.487 179.505,140.769 186.48,349.97 193.455,32.9412 200.43,364.363 207.405,116.225 214.38,207.948 221.355,299.672 228.33,51.5337 235.305,382.956 242.28,65.9268 249.255,275.128 256.23,235.41 263.205,93.9389 270.18,374.905 277.155,37.2504 284.13,332.08 291.105,166.967 298.08,153.701 305.055,341.437 312.03,34.5613 319.005,370.134 325.98,104.764 332.955,221.722 339.93,287.646 346.905,58.2688 353.88,383.497 360.855,58.2688 367.83,287.646 374.805,221.722 381.78,104.764 388.755,370.134 395.73,34.5613 402.705,341.437 409.68,153.701 416.655,166.967 423.63,332.08 430.605,37.2504 437.58,374.905 444.555,93.9389 451.53,235.41 458.505,275.128 465.48,65.9268 472.455,382.956 479.43,51.5337 486.405,299.672 493.38,207.948 500.355,116.225 507.33,364.363 514.305,32.9412" stroke-linejoin="round" stroke-width="2" stroke="#0000ff" stroke-linecap="butt"/>
   <polyline fill="none" points="74.88,207.526 81.855,209.386 88.83,206.233 95.805,207.424 102.78,214.04 109.755,194.282 116.73,227.627 123.705,188.4 130.68,217.865 137.655,217.055 144.63,175.14 151.605,260.636 158.58,148.703 165.555,253.832 172.53,195.563 179.505,174.359 186.48,285.92 193.455,103.374 200.43,308.858 207.405,144.536 214.38,207.948 221.355,279.29 228.33,80.1268 235.305,357.327 242.28,82.0455 249.255,269.467 256.23,233.789 263.205,98.2781 270.18,371.31 277.155,38.8904 284.13,331.781 291.105,166.967 298.08,153.832 305.055,340.154 312.03,38.2943 319.005,363.961 325.98,110.856 332.955,220.561 339.93,278.601 346.905,80.1889 353.88,351.406 360.855,91.5298 367.83,266.582 374.805,217.471 381.78,141.38 388.755,304.862 395.73,112.757 402.705,274.693 409.68,183.483 416.655,191.455 423.63,251.997 430.605,155.261 437.58,252.075 444.555,182.614 451.53,212.969 458.505,217.787 465.48,191.83 472.455,222.695 479.43,198.714 486.405,211.439 493.38,207.948 500.355,207.067 507.33,208.325 514.305,207.948" stroke-linejoin="round" stroke-width="2" stroke="#ff0000" stroke-linecap="butt"/>
   <polyline fill="none" points="79.88,207.526 79.3848,209.695 77.9975,211.435 75.9926,212.4 73.7674,212.4 71.7625,211.435 70.3752,209.695 69.88,207.526 70.3752,205.356 71.7625,203.617 73.7674,202.651 75.9926,202.651 77.9975,203.617 79.3848,205.356 79.88,207.526" stroke-linejoin="round" stroke-width="2" stroke="#ff0000" stroke-linecap="round"/>
   <polyline fill="none" points="86.855,209.386 86.3598,211.556 84.9725,213.296 82.9676,214.261 80.7424,214.261 78.7376,213.296 77.3502,211.556 76.855,209.386 77.3502,207.217 78.7376,205.477 80.7424,204.512 82.9676,204.512 84.9725,205.477 86.3598,207.217 86.855,209.386" stroke-linejoin="round" stroke-width="2" stroke="#ff0000" stroke-linecap="round"/>
   <polyline fill="none" points="93.83,206.233 93.3348,208.402 91.9474,210.142 89.9426,211.107 87.7174,211.107 85.7125,210.142 84.3251,208.402 83.83,206.233 84.3251,204.063 85.7125,202.323 87.7174,201.358 89.9426,201.358 91.9474,202.323 93.3348,204.063 93.83,206.233" stroke-linejoin="round" stroke-width="2" stroke="#ff0000" stroke-linecap="round"/>
   <polyline fill="none" points="100.805,207.424 100.31,209.594 98.9225,211.333 96.9176,212.299 94.6924,212.299 92.6875,211.333 91.3002,209.594 90.805,207.424 91.3002,205.255 92.6875,203.515 94.6924,202.55 96.9176,202.55 98.9225,203.515 100.31,205.255 100.805,207.424" stroke-linejoin="round" stroke-width="2" stroke="#ff0000" stroke-linecap="round"/>
   <polyline fill="none" points="107.78,214.04 107.285,216.21 105.897,217.95 103.893,218.915 101.667,218.915 99.6625,217.95 98.2752,216.21 97.78,214.04 98.2752,211.871 99.6625,210.131 101.667,209.166 103.893,209.166 105.897,210.131 107.285,211.871 107.78,214.04" stroke-linejoin="round" stroke-width="2" stroke="#ff0000" stroke-linecap="round"/>
   <polyline fill="none" points="114.755,194.282 114.26,196.451 112.872,198.191 110.868,199.156 108.642,199.156 106.638,198.191 105.25,196.451 104.755,194.282 105.25,192.112 106.638,190.373 108.642,189.407 110.868,189.407 112.872,190.373 114.26,192.112 114.755,194.282" stroke-linejoin="round" stroke-width="2" stroke="#ff0000" stroke-linecap="round"/>
   <polyline fill="none" points="121.73,227.627 121.235,229.796 119.847,231.536 117.843,232.502 115.617,232.502 113.613,231.536 112.225,229.796 111.73,227.627 112.225,225.458 113.613,223.718 115.617,222.752 117.843,222.752 119.847,223.718 121.235,225.458 121.73,227.627" stroke-linejoin="round" stroke-width="2" stroke="#ff0000" stroke-linecap="round"/>
   <polyline fill="none" points="128.705,188.4 128.21,190.569 126.822,192.309 124.818,193.274 122.592,193.274 120.588,192.309 119.2,190.569 118.705,188.4 119.2,186.23 120.588,184.49 122.592,183.525 124.818,183.525 126.822,184.49 128.21,186.23 128.705,188.4" stroke-linejoin="round" stroke-width="2" stroke="#ff0000" stroke-linecap="round"/>
   <polyline fill="none" points="135.68,217.865 135.185,220.035 133.797,221.774 131.793,222.74 129.567,222.74 127.563,221.774 126.175,220.035 125.68,217.865 126.175,215.696 127.563,213.956 129.567,212.99 131.793,212.99 133.797,213.956 135.185,215.696 135.68,217.865" stroke-linejoin="round" stroke-width="2" stroke="#ff0000" stroke-linecap="round"/>
   <polyline fill="none" points="142.655,217.055 142.16,219.224 140.772,220.964 138.768,221.93 136.542,221.93 134.538,220.964 133.15,219.224 132.655,217.055 133.15,214.886 134.538,213.146 136.542,212.18 138.768,212.18 140.772,213.146 142.16,214.886 142.655,217.055" stroke-linejoin="round" stroke-width="2" stroke="#ff0000" stroke-linecap="round"/>
   <polyline fill="none" points="149.63,175.14 149.135,177.31 147.747,179.049 145.743,180.015 143.517,180.015 141.513,179.049 140.125,177.31 139.63,175.14 140.125,172.971 141.513,171.231 143.517,170.266 145.743,170.266 147.747,171.231 149.135,172.971 149.63,175.14" stroke-linejoin="round" stroke-width="2" stroke="#ff0000" stroke-linecap="round"/>
   <polyline fill="none" points="156.605,260.636 156.11,262.805 154.722,264.545 152.718,265.51 150.492,265.51 148.488,264.545 147.1,262.805 146.605,260.636 147.1,258.466 148.488,256.727 150.492,255.761 152.718,255.761 154.722,256.727 156.11,258.466 156.605,260.636" stroke-linejoin="round" stroke-width="2" stroke="#ff0000" stroke-linecap="round"/>
   <polyline fill="none" points="163.58,148.703 163.085,150.872 161.697,152.612 159.693,153.577 157.467,153.577 155.463,152.612 154.075,150.872 153.58,148.703 154.075,146.533 155.463,144.794 157.467,143.828 159.693,143.828 161.697,144.794 163.085,146.533 163.58,148.703" stroke-linejoin="round" stroke-width="2" stroke="#ff0000" stroke-linecap="round"/>
   <polyline fill="none" points="170.555,253.832 170.06,256.002 168.672,257.741 166.668,258.707 164.442,258.707 162.438,257.741 161.05,256.002 160.555,253.832 161.05,251.663 162.438,249.923 164.442,248.958 166.668,248.958 168.672,249.923 170.06,251.663 170.555,253.832" stroke-linejoin="round" stroke-width="2" stroke="#ff0000" stroke-linecap="round"/>
   <polyline fill="none" points="177.53,195.563 177.035,197.733 175.647,199.473 173.643,200.438 171.417,200.438 169.413,199.473 168.025,197.733 167.53,195.563 168.025,193.394 169.413,191.654 171.417,190.689 173.643,190.689 175.647,191.654 177.035,193.394 177.53,195.563" stroke-linejoin="round" stroke-width="2" stroke="#ff0000" stroke-linecap="round"/>
   <polyline fill="none" points="184.505,174.359 184.01,176.528 182.622,178.268 180.618,179.233 178.392,179.233 176.388,178.268 175,176.528 174.505,174.359 175,172.189 176.388,170.45 178.392,169.484 180.618,169.484 182.622,170.45 184.01,172.189 184.505,174.359" stroke-linejoin="round" stroke-width="2" stroke="#ff0000" stroke-linecap="round"/>
   <polyline fill="none" points="191.48,285.92 190.985,288.089 189.597,289.829 187.593,290.794 185.367,290.794 183.363,289.829 181.975,288.089 181.48,285.92 181.975,283.75 183.363,282.01 185.367,281.045 187.593,281.045 189.597,282.01 190.985,283.75 191.48,285.92" stroke-linejoin="round" stroke-width="2" stroke="#ff0000" stroke-linecap="round"/>
   <polyline fill="none" points="198.455,103.374 197.96,105.543 196.572,107.283 194.568,108.248 192.342,108.248 190.338,107.283 188.95,105.543 188.455,103.374 188.95,101.204 190.338,99.4645 192.342,98.4991 194.568,98.4991 196.572,99.4645 197.96,101.204 198.455,103.374" stroke-linejoin="round" stroke-width="2" stroke="#ff0000" stroke-linecap="round"/>
   <polyline fill="none" points="205.43,308.858 204.935,311.028 203.547,312.767 201.543,313.733 199.317,313.733 197.313,312.767 195.925,311.028 195.43,308.858 195.925,306.689 197.313,304.949 199.317,303.984 201.543,303.984 203.547,304.949 204.935,306.689 205.43,308.858" stroke-linejoin="round" stroke-width="2" stroke="#ff0000" stroke-linecap="round"/>
   <polyline fill="none" points="212.405,144.536 211.91,146.705 210.522,148.445 208.518,149.411 206.292,149.411 204.288,148.445 202.9,146.705 202.405,144.536 202.9,142.367 204.288,140.627 206.292,139.661 208.518,139.661 210.522,140.627 211.91,142.367 212.405,144.536" stroke-linejoin="round" stroke-width="2" stroke="#ff0000" stroke-linecap="round"/>
   <polyline fill="none" points="219.38,207.948 218.885,210.118 217.497,211.858 215.493,212.823 213.267,212.823 211.263,211.858 209.875,210.118 209.38,207.948 209.875,205.779 211.263,204.039 213.267,203.074 215.493,203.074 217.497,204.039 218.885,205.779 219.38,207.948" stroke-linejoin="round" stroke-width="2" stroke="#ff0000" stroke-linecap="round"/>
   <polyline fill="none" points="226.355,279.29 225.86,281.459 224.472,283.199 222.468,284.165 220.242,284.165 218.238,283.199 216.85,281.459 216.355,279.29 216.85,277.12 218.238,275.381 220.242,274.415 222.468,274.415 224.472,275.381 225.86,277.12 226.355,279.29" stroke-linejoin="round" stroke-width="2" stroke="#ff0000" stroke-linecap="round"/>
   <polyline fill="none" points="233.33,80.1268 232.835,82.2962 231.447,84.0359 229.443,85.0014 227.217,85.0014 225.213,84.0359 223.825,82.2962 223.33,80.1268 223.825,77.9574 225.213,76.2177 227.217,75.2522 229.443,75.2522 231.447,76.2177 232.835,77.9574 233.33,80.1268" stroke-linejoin="round" stroke-width="2" stroke="#ff0000" stroke-linecap="round"/>
   <polyline fill="none" points="240.305,357.327 239.81,359.496 238.422,361.236 236.418,362.201 234.192,362.201 232.188,361.236 230.8,359.496 230.305,357.327 230.8,355.157 232.188,353.417 234.192,352.452 236.418,352.452 238.422,353.417 239.81,355.157 240.305,357.327" stroke-linejoin="round" stroke-width="2" stroke="#ff0000" stroke-linecap="round"/>
   <polyline fill="none" points="247.28,82.0455 246.785,84.2149 245.397,85.9547 243.393,86.9201 241.167,86.9201 239.163,85.9547 237.775,84.2149 237.28,82.0455 237.775,79.8761 239.163,78.1364 241.167,77.1709 243.393,77.1709 245.397,78.1364 246.785,79.8761 247.28,82.0455" stroke-linejoin="round" stroke-width="2" stroke="#ff0000" stroke-linecap="round"/>
   <polyline fill="none" points="254.255,269.467 253.76,271.636 252.372,273.376 250.368,274.342 248.142,274.342 246.138,273.376 244.75,271.636 244.255,269.467 244.75,267.298 246.138,265.558 248.142,264.592 250.368,264.592 252.372,265.558 253.76,267.298 254.255,269.467" stroke-linejoin="round" stroke-width="2" stroke="#ff0000" stroke-linecap="round"/>
   <polyline fill="none" points="261.23,233.789 260.735,235.958 259.347,237.698 257.343,238.664 255.117,238.664 253.113,237.698 251.725,235.958 251.23,233.789 251.725,231.62 253.113,229.88 255.117,228.914 257.343,228.914 259.347,229.88 260.735,231.62 261.23,233.789" stroke-linejoin="round" stroke-width="2" stroke="#ff0000" stroke-linecap="round"/>
   <polyline fill="none" points="268.205,98.2781 267.71,100.448 266.322,102.187 264.318,103.153 262.092,103.153 260.088,102.187 258.7,100.448 258.205,98.2781 258.7,96.1087 260.088,94.3689 262.092,93.4034 264.318,93.4034 266.322,94.3689 267.71,96.1087 268.205,98.2781" stroke-linejoin="round" stroke-width="2" stroke="#ff0000" stroke-linecap="round"/>
   <polyline fill="none" points="275.18,371.31 274.685,373.48 273.297,375.22 271.293,376.185 269.067,376.185 267.063,375.22 265.675,373.48 265.18,371.31 265.675,369.141 267.063,367.401 269.067,366.436 271.293,366.436 273.297,367.401 274.685,369.141 275.18,371.31" stroke-linejoin="round" stroke-width="2" stroke="#ff0000" stroke-linecap="round"/>
   <polyline fill="none" points="282.155,38.8904 281.66,41.0598 280.272,42.7995 278.268,43.765 276.042,43.765 274.038,42.7995 272.65,41.0598 272.155,38.8904 272.65,36.7209 274.038,34.9812 276.042,34.0157 278.268,34.0157 280.272,34.9812 281.66,36.7209 282.155,38.8904" stroke-linejoin="round" stroke-width="2" stroke="#ff0000" stroke-linecap="round"/>
   <polyline fill="none" points="289.13,331.781 288.635,333.951 287.247,335.69 285.243,336.656 283.017,336.656 281.013,335.69 279.625,333.951 279.13,331.781 279.625,329.612 281.013,327.872 283.017,326.906 285.243,326.906 287.247,327.872 288.635,329.612 289.13,331.781" stroke-linejoin="round" stroke-width="2" stroke="#ff0000" stroke-linecap="round"/>
   <polyline fill="none" points="296.105,166.967 295.61,169.137 294.222,170.877 292.218,171.842 289.992,171.842 287.988,170.877 286.6,169.137 286.105,166.967 286.6,164.798 287.988,163.058 289.992,162.093 292.218,162.093 294.222,163.058 295.61,164.798 296.105,166.967" stroke-linejoin="round" stroke-width="2" stroke="#ff0000" stroke-linecap="round"/>
   <polyline fill="none" points="303.08,153.832 302.585,156.001 301.197,157.741 299.193,158.706 296.967,158.706 294.963,157.741 293.575,156.001 293.08,153.832 293.575,151.662 294.963,149.922 296.967,148.957 299.193,148.957 301.197,149.922 302.585,151.662 303.08,153.832" stroke-linejoin="round" stroke-width="2" stroke="#ff0000" stroke-linecap="round"/>
   <polyline fill="none" points="310.055,340.154 309.56,342.323 308.172,344.063 306.168,345.029 303.942,345.029 301.938,344.063 300.55,342.323 300.055,340.154 300.55,337.985 301.938,336.245 303.942,335.279 306.168,335.279 308.172,336.245 309.56,337.985 310.055,340.154" stroke-linejoin="round" stroke-width="2" stroke="#ff0000" stroke-linecap="round"/>
   <polyline fill="none" points="317.03,38.2943 316.535,40.4637 315.147,42.2034 313.143,43.1689 310.917,43.1689 308.913,42.2034 307.525,40.4637 307.03,38.2943 307.525,36.1248 308.913,34.3851 310.917,33.4196 313.143,33.4196 315.147,34.3851 316.535,36.1248 317.03,38.2943" stroke-linejoin="round" stroke-width="2" stroke="#ff0000" stroke-linecap="round"/>
   <polyline fill="none" points="324.005,363.961 323.51,366.131 322.122,367.87 320.118,368.836 317.892,368.836 315.888,367.87 314.5,366.131 314.005,363.961 314.5,361.792 315.888,360.052 317.892,359.087 320.118,359.087 322.122,360.052 323.51,361.792 324.005,363.961" stroke-linejoin="round" stroke-width="2" stroke="#ff0000" stroke-linecap="round"/>
   <polyline fill="none" points="330.98,110.856 330.485,113.025 329.097,114.765 327.093,115.73 324.867,115.73 322.863,114.765 321.475,113.025 320.98,110.856 321.475,108.686 322.863,106.946 324.867,105.981 327.093,105.981 329.097,106.946 330.485,108.686 330.98,110.856" stroke-linejoin="round" stroke-width="2" stroke="#ff0000" stroke-linecap="round"/>
   <polyline fill="none" points="337.955,220.561 337.46,222.731 336.072,224.47 334.068,225.436 331.842,225.436 329.838,224.47 328.45,222.731 327.955,220.561 328.45,218.392 329.838,216.652 331.842,215.687 334.068,215.687 336.072,216.652 337.46,218.392 337.955,220.561" stroke-linejoin="round" stroke-width="2" stroke="#ff0000" stroke-linecap="round"/>
   <polyline fill="none" points="344.93,278.601 344.435,280.77 343.047,282.51 341.043,283.475 338.817,283.475 336.813,282.51 335.425,280.77 334.93,278.601 335.425,276.431 336.813,274.691 338.817,273.726 341.043,273.726 343.047,274.691 344.435,276.431 344.93,278.601" stroke-linejoin="round" stroke-width="2" stroke="#ff0000" stroke-linecap="round"/>
   <polyline fill="none" points="351.905,80.1889 351.41,82.3583 350.022,84.098 348.018,85.0635 345.792,85.0635 343.788,84.098 342.4,82.3583 341.905,80.1889 342.4,78.0194 343.788,76.2797 345.792,75.3142 348.018,75.3142 350.022,76.2797 351.41,78.0194 351.905,80.1889" stroke-linejoin="round" stroke-width="2" stroke="#ff0000" stroke-linecap="round"/>
   <polyline fill="none" points="358.88,351.406 358.385,353.576 356.997,355.315 354.993,356.281 352.767,356.281 350.763,355.315 349.375,353.576 348.88,351.406 349.375,349.237 350.763,347.497 352.767,346.531 354.993,346.531 356.997,347.497 358.385,349.237 358.88,351.406" stroke-linejoin="round" stroke-width="2" stroke="#ff0000" stroke-linecap="round"/>
   <polyline fill="none" points="365.855,91.5298 365.36,93.6993 363.972,95.439 361.968,96.4045 359.742,96.4045 357.738,95.439 356.35,93.6993 355.855,91.5298 356.35,89.3604 357.738,87.6207 359.742,86.6552 361.968,86.6552 363.972,87.6207 365.36,89.3604 365.855,91.5298" stroke-linejoin="round" stroke-width="2" stroke="#ff0000" stroke-linecap="round"/>
   <polyline fill="none" points="372.83,266.582 372.335,268.751 370.947,270.491 368.943,271.456 366.717,271.456 364.713,270.491 363.325,268.751 362.83,266.582 363.325,264.412 364.713,262.672 366.717,261.707 368.943,261.707 370.947,262.672 372.335,264.412 372.83,266.582" stroke-linejoin="round" stroke-width="2" stroke="#ff0000" stroke-linecap="round"/>
   <polyline fill="none" points="379.805,217.471 379.31,219.64 377.922,221.38 375.918,222.345 373.692,222.345 371.688,221.38 370.3,219.64 369.805,217.471 370.3,215.301 371.688,213.561 373.692,212.596 375.918,212.596 377.922,213.561 379.31,215.301 379.805,217.471" stroke-linejoin="round" stroke-width="2" stroke="#ff0000" stroke-linecap="round"/>
   <polyline fill="none" points="386.78,141.38 386.285,143.549 384.897,145.289 382.893,146.254 380.667,146.254 378.663,145.289 377.275,143.549 376.78,141.38 377.275,139.21 378.663,137.47 380.667,136.505 382.893,136.505 384.897,137.47 386.285,139.21 386.78,141.38" stroke-linejoin="round" stroke-width="2" stroke="#ff0000" stroke-linecap="round"/>
   <polyline fill="none" points="393.755,304.862 393.26,307.031 391.872,308.771 389.868,309.736 387.642,309.736 385.638,308.771 384.25,307.031 383.755,304.862 384.25,302.692 385.638,300.953 387.642,299.987 389.868,299.987 391.872,300.953 393.26,302.692 393.755,304.862" stroke-linejoin="round" stroke-width="2" stroke="#ff0000" stroke-linecap="round"/>
   <polyline fill="none" points="400.73,112.757 400.235,114.927 398.847,116.667 396.843,117.632 394.617,117.632 392.613,116.667 391.225,114.927 390.73,112.757 391.225,110.588 392.613,108.848 394.617,107.883 396.843,107.883 398.847,108.848 400.235,110.588 400.73,112.757" stroke-linejoin="round" stroke-width="2" stroke="#ff0000" stroke-linecap="round"/>
   <polyline fill="none" points="407.705,274.693 407.21,276.862 405.822,278.602 403.818,279.567 401.592,279.567 399.588,278.602 398.2,276.862 397.705,274.693 398.2,272.523 399.588,270.783 401.592,269.818 403.818,269.818 405.822,270.783 407.21,272.523 407.705,274.693" stroke-linejoin="round" stroke-width="2" stroke="#ff0000" stroke-linecap="round"/>
   <polyline fill="none" points="414.68,183.483 414.185,185.653 412.797,187.392 410.793,188.358 408.567,188.358 406.563,187.392 405.175,185.653 404.68,183.483 405.175,181.314 406.563,179.574 408.567,178.609 410.793,178.609 412.797,179.574 414.185,181.314 414.68,183.483" stroke-linejoin="round" stroke-width="2" stroke="#ff0000" stroke-linecap="round"/>
   <polyline fill="none" points="421.655,191.455 421.16,193.625 419.772,195.365 417.768,196.33 415.542,196.33 413.538,195.365 412.15,193.625 411.655,191.455 412.15,189.286 413.538,187.546 415.542,186.581 417.768,186.581 419.772,187.546 421.16,189.286 421.655,191.455" stroke-linejoin="round" stroke-width="2" stroke="#ff0000" stroke-linecap="round"/>
   <polyline fill="none" points="428.63,251.997 428.135,254.167 426.747,255.907 424.743,256.872 422.517,256.872 420.513,255.907 419.125,254.167 418.63,251.997 419.125,249.828 420.513,248.088 422.517,247.123 424.743,247.123 426.747,248.088 428.135,249.828 428.63,251.997" stroke-linejoin="round" stroke-width="2" stroke="#ff0000" stroke-linecap="round"/>
   <polyline fill="none" points="435.605,155.261 435.11,157.431 433.722,159.17 431.718,160.136 429.492,160.136 427.488,159.17 426.1,157.431 425.605,155.261 426.1,153.092 427.488,151.352 429.492,150.386 431.718,150.386 433.722,151.352 435.11,153.092 435.605,155.261" stroke-linejoin="round" stroke-width="2" stroke="#ff0000" stroke-linecap="round"/>
   <polyline fill="none" points="442.58,252.075 442.085,254.245 440.697,255.985 438.693,256.95 436.467,256.95 434.463,255.985 433.075,254.245 432.58,252.075 433.075,249.906 434.463,248.166 436.467,247.201 438.693,247.201 440.697,248.166 442.085,249.906 442.58,252.075" stroke-linejoin="round" stroke-width="2" stroke="#ff0000" stroke-linecap="round"/>
   <polyline fill="none" points="449.555,182.614 449.06,184.783 447.672,186.523 445.668,187.488 443.442,187.488 441.438,186.523 440.05,184.783 439.555,182.614 440.05,180.444 441.438,178.705 443.442,177.739 445.668,177.739 447.672,178.705 449.06,180.444 449.555,182.614" stroke-linejoin="round" stroke-width="2" stroke="#ff0000" stroke-linecap="round"/>
   <polyline fill="none" points="456.53,212.969 456.035,215.138 454.647,216.878 452.643,217.843 450.417,217.843 448.413,216.878 447.025,215.138 446.53,212.969 447.025,210.799 448.413,209.059 450.417,208.094 452.643,208.094 454.647,209.059 456.035,210.799 456.53,212.969" stroke-linejoin="round" stroke-width="2" stroke="#ff0000" stroke-linecap="round"/>
   <polyline fill="none" points="463.505,217.787 463.01,219.956 461.622,221.696 459.618,222.661 457.392,222.661 455.388,221.696 454,219.956 453.505,217.787 454,215.617 455.388,213.878 457.392,212.912 459.618,212.912 461.622,213.878 463.01,215.617 463.505,217.787" stroke-linejoin="round" stroke-width="2" stroke="#ff0000" stroke-linecap="round"/>
   <polyline fill="none" points="470.48,191.83 469.985,193.999 468.597,195.739 466.593,196.704 464.367,196.704 462.363,195.739 460.975,193.999 460.48,191.83 460.975,189.66 462.363,187.921 464.367,186.955 466.593,186.955 468.597,187.921 469.985,189.66 470.48,191.83" stroke-linejoin="round" stroke-width="2" stroke="#ff0000" stroke-linecap="round"/>
   <polyline fill="none" points="477.455,222.695 476.96,224.865 475.572,226.605 473.568,227.57 471.342,227.57 469.338,226.605 467.95,224.865 467.455,222.695 467.95,220.526 469.338,218.786 471.342,217.821 473.568,217.821 475.572,218.786 476.96,220.526 477.455,222.695" stroke-linejoin="round" stroke-width="2" stroke="#ff0000" stroke-linecap="round"/>
   <polyline fill="none" points="484.43,198.714 483.935,200.883 482.547,202.623 480.543,203.588 478.317,203.588 476.313,202.623 474.925,200.883 474.43,198.714 474.925,196.544 476.313,194.805 478.317,193.839 480.543,193.839 482.547,194.805 483.935,196.544 484.43,198.714" stroke-linejoin="round" stroke-width="2" stroke="#ff0000" stroke-linecap="round"/>
   <polyline fill="none" points="491.405,211.44 490.91,213.609 489.522,215.349 487.518,216.314 485.292,216.314 483.288,215.349 481.9,213.609 481.405,211.44 481.9,209.27 483.288,207.53 485.292,206.565 487.518,206.565 489.522,207.53 490.91,209.27 491.405,211.44" stroke-linejoin="round" stroke-width="2" stroke="#ff0000" stroke-linecap="round"/>
   <polyline fill="none" points="498.38,207.948 497.885,210.118 496.497,211.858 494.493,212.823 492.267,212.823 490.263,211.858 488.875,210.118 488.38,207.948 488.875,205.779 490.263,204.039 492.267,203.074 494.493,203.074 496.497,204.039 497.885,205.779 498.38,207.948" stroke-linejoin="round" stroke-width="2" stroke="#ff0000" stroke-linecap="round"/>
   <polyline fill="none" points="505.355,207.067 504.86,209.237 503.472,210.976 501.468,211.942 499.242,211.942 497.238,210.976 495.85,209.237 495.355,207.067 495.85,204.898 497.238,203.158 499.242,202.193 501.468,202.193 503.472,203.158 504.86,204.898 505.355,207.067" stroke-linejoin="round" stroke-width="2" stroke="#ff0000" stroke-linecap="round"/>
   <polyline fill="none" points="512.33,208.325 511.835,210.494 510.447,212.234 508.443,213.2 506.217,213.2 504.213,212.234 502.825,210.494 502.33,208.325 502.825,206.156 504.213,204.416 506.217,203.45 508.443,203.45 510.447,204.416 511.835,206.156 512.33,208.325" stroke-linejoin="round" stroke-width="2" stroke="#ff0000" stroke-linecap="round"/>
   <polyline fill="none" points="519.305,207.948 518.81,210.118 517.422,211.858 515.418,212.823 513.192,212.823 511.188,211.858 509.8,210.118 509.305,207.948 509.8,205.779 511.188,204.039 513.192,203.074 515.418,203.074 517.422,204.039 518.81,205.779 519.305,207.948" stroke-linejoin="round" stroke-width="2" stroke="#ff0000" stroke-linecap="round"/>
  </g>
  <clipPath id="cp00576432">
   <polygon points="0,432 576,432 576,0 0,0"/>
  </clipPath>
  <g clip-path="url(#cp00576432)">
   <polygon shape-rendering="crispEdges" fill="#ffffff" points="422.66,77.8765 513.044,77.8765 513.044,44.0233 422.66,44.0233"/>
   <polyline fill="none" points="422.66,77.8765 513.044,77.8765" stroke-linejoin="miter" stroke-width="0.5" stroke="#262626" stroke-linecap="square" stroke-dasharray="16,0"/>
   <polyline fill="none" points="422.66,44.0233 513.044,44.0233" stroke-linejoin="miter" stroke-width="0.5" stroke="#262626" stroke-linecap="square" stroke-dasharray="16,0"/>
   <polyline fill="none" points="422.66,77.8765 422.66,44.0233" stroke-linejoin="miter" stroke-width="0.5" stroke="#262626" stroke-linecap="square" stroke-dasharray="16,0"/>
   <polyline fill="none" points="513.044,77.8765 513.044,44.0233" stroke-linejoin="miter" stroke-width="0.5" stroke="#262626" stroke-linecap="square" stroke-dasharray="16,0"/>
   <text xml:space="preserve" font-family="Verdana" transform="translate(442.908,59.9866) rotate(-0,-0,-7.5)" font-style="normal" font-size="14" font-weight="normal">
    <tspan fill="rgb(0,0,0)" x="0 9 15 19 28 32 41 49 53 58 63 68 73 78 83 88 93 98 103 108 113 118 " y="-3">original              </tspan>
   </text>
   <text xml:space="preserve" font-family="Verdana" transform="translate(442.908,75.4132) rotate(-0,-0,-6)" font-style="normal" font-size="14" font-weight="normal">
    <tspan fill="rgb(0,0,0)" x="0 11 15 24 33 42 53 61 70 75 80 85 90 95 100 105 110 115 120 125 130 135 140 145 150 " y="-0">windowed                 </tspan>
   </text>
   <polyline fill="none" points="425.062,52.4866 440.505,52.4866" stroke-linejoin="round" stroke-width="2" stroke="#0000ff" stroke-linecap="butt"/>
   <polyline fill="none" points="425.062,69.4132 440.505,69.4132" stroke-linejoin="round" stroke-width="2" stroke="#ff0000" stroke-linecap="butt"/>
   <polyline fill="none" points="437.784,69.4132 437.289,71.5826 435.901,73.3224 433.896,74.2878 431.671,74.2878 429.666,73.3224 428.279,71.5826 427.784,69.4132 428.279,67.2438 429.666,65.5041 431.671,64.5386 433.896,64.5386 435.901,65.5041 437.289,67.2438 437.784,69.4132" stroke-linejoin="round" stroke-width="2" stroke="#ff0000" stroke-linecap="round"/>
  </g>
 </g>
</svg>
