%!PS-Adobe-3.0 EPSF-3.0
%%Title: EAGLE Drawing /Users/sarge/diymicro.ru/PicLab/P18_E4_Encoder/PCB/Encoder_pcb_sch.brd
%%Creator: EAGLE
%%Pages: 1
%%BoundingBox: 0 0 576 810
%%EndComments

% Coordinate transfer:

/EU { 254 div 0.072 mul } def
/inch { 72 mul } def

% Linestyle:

1 setlinecap
1 setlinejoin

% Drawing functions:

/l {  % draw a line
   /lw exch def
   /y2 exch def
   /x2 exch def
   /y1 exch def
   /x1 exch def
   newpath
   x1 EU y1 EU moveto
   x2 EU y2 EU lineto
   lw EU setlinewidth
   stroke
   } def

/h {  % draw a hole
   /d  exch def
   /y  exch def
   /x  exch def
   d 0 gt {
     newpath
     x EU y EU d 2 div EU 0 360 arc
     currentgray dup
     1 exch sub setgray
     fill
     setgray
     } if
   } def

/b {  % draw a bar
   /an exch def
   /y2 exch def
   /x2 exch def
   /y1 exch def
   /x1 exch def
   /w2 x2 x1 sub 2 div EU def
   /h2 y2 y1 sub 2 div EU def
   gsave
   x1 x2 add 2 div EU y1 y2 add 2 div EU translate
   an rotate
   newpath
   w2     h2     moveto
   w2 neg h2     lineto
   w2 neg h2 neg lineto
   w2     h2 neg lineto
   closepath
   fill
   grestore
   } def

/c {  % draw a circle
   /lw exch def
   /rd exch def
   /y  exch def
   /x  exch def
   newpath
   lw EU setlinewidth
   x EU y EU rd EU 0 360 arc
   stroke
   } def

/a {  % draw an arc
   /lc exch def
   /ae exch def
   /as exch def
   /lw exch def
   /rd exch def
   /y  exch def
   /x  exch def
   lw rd 2 mul gt {
     /rd rd lw 2 div add 2 div def
     /lw rd 2 mul def
     } if
   currentlinecap currentlinejoin
   lc setlinecap 0 setlinejoin
   newpath
   lw EU setlinewidth
   x EU y EU rd EU as ae arc
   stroke
   setlinejoin setlinecap
   } def

/p {  % draw a pie
   /d exch def
   /y exch def
   /x exch def
   newpath
   x EU y EU d 2 div EU 0 360 arc
   fill
   } def

/edge { 0.20710678119 mul } def

/o {  % draw an octagon
   /an exch def
   /dy exch def
   /dx exch def
   /y  exch def
   /x  exch def
   gsave
   x EU y EU translate
   an dx dy lt { 90 add /dx dy /dy dx def def } if rotate
   newpath
      0 dx 2 div sub EU                    0 dy edge  add EU moveto
      0 dx dy sub 2 div sub dy edge sub EU 0 dy 2 div add EU lineto
      0 dx dy sub 2 div add dy edge add EU 0 dy 2 div add EU lineto
      0 dx 2 div add EU                    0 dy edge  add EU lineto
      0 dx 2 div add EU                    0 dy edge  sub EU lineto
      0 dx dy sub 2 div add dy edge add EU 0 dy 2 div sub EU lineto
      0 dx dy sub 2 div sub dy edge sub EU 0 dy 2 div sub EU lineto
      0 dx 2 div sub EU                    0 dy edge  sub EU lineto
   closepath
   fill
   grestore
   } def

% the real drawing size:

/MinDrawX 226060 EU def
/MinDrawY 226060 EU def
/MaxDrawX 761240 EU def
/MaxDrawY 624740 EU def

% the usable page size:

/LeftMargin 0.25 inch def  % change these if drawing gets clipped!
/BotMargin  0.25 inch def
/PageWidth   7.7500 inch def
/PageHeight 11.0000 inch def

% are we going to rotate?:

/RotateDrawing 0 0 ne def

% Media size functions:

/AbortMessage {  % Show a message in a box and stop printing
   /h 100 def
   /Courier findfont 12 scalefont setfont
   mediawidth pagemargin sub h 1 setpage
   newpath
   0 0 moveto
   0 h rlineto
   mediawidth pagemargin sub 0 rlineto
   0 h neg rlineto
   closepath
   5 setlinewidth
   stroke
   newpath 50 60 moveto (ERROR: Jobsize exceeds physical printing area!) show
   newpath 50 40 moveto (       Job has been aborted!) show
   showpage
   stop
   } def

/SelectPage {  % Select the page identified by Row and Column
   /Column exch def
   /Row    exch def

   % the actually exposed area (if the machine knows these parameters!):

   /DrawX MaxDrawX MinDrawX sub def
   /DrawY MaxDrawY MinDrawY sub def
   statusdict /setpage known
   statusdict /mediawidth known and
   statusdict /medialength known and
   statusdict /pagemargin known and {
      % this is for machines that can tell the media size:
      statusdict begin
         /MediaW mediawidth pagemargin sub def
         DrawX DrawY ge {
            DrawX MediaW le DrawY medialength le and {
               MediaW DrawY 1 setpage
               MediaW DrawX sub 2 div 0 translate
               }{
            DrawY MediaW le DrawX medialength le and {
               MediaW DrawX 0 setpage
               0 MediaW DrawY sub 2 div translate
               }{
               AbortMessage
               } ifelse
               } ifelse
            }{
            DrawY MediaW le DrawX medialength le and {
               MediaW DrawX 0 setpage
               0 MediaW DrawY sub 2 div translate
               }{
            DrawX MediaW le DrawY medialength le and {
               MediaW DrawY 1 setpage
               MediaW DrawX sub 2 div 0 translate
               }{
               AbortMessage
               } ifelse
               } ifelse
            } ifelse
         end
      }{
      % this is for machines that can NOT tell the media size:
      % (Ghostscript doesn't like this!)
      /Product product length string def
      /i 0 def
      product { dup 97 lt { 32 add } if Product exch i exch put /i i 1 add def } forall 
      Product (ghostscript) search dup /IsGhostscript exch def
      { pop pop } if
      pop
      IsGhostscript not {
         statusdict /setpage known {
            statusdict begin
               RotateDrawing {
                  LeftMargin PageHeight add BotMargin DrawY add
                  }{
                  BotMargin DrawY add LeftMargin DrawX add 
                  } ifelse
               0 setpage
               end
            } if
         } if
      % set clipping boundary:
      newpath
      LeftMargin BotMargin moveto
      0 PageHeight rlineto
      PageWidth  0 rlineto
      0 PageHeight neg rlineto
      closepath
      clip
      % set the origin:
      LeftMargin BotMargin translate
      RotateDrawing {
         0 PageHeight translate
         -90 rotate
         PageHeight Column mul neg PageWidth Row mul neg translate
         }{
         PageWidth Column mul neg PageHeight Row mul neg translate
         } ifelse
      } ifelse
   % move the lower left corner of the drawing to the origin:
   MinDrawX neg MinDrawY neg translate
   
   % Linestyle:
   
   1 setlinecap
   1 setlinejoin
   
   } def

% TheDrawing

gsave 0 0 SelectPage
572591 563132 572591 546862 1524 l
572591 546862 580726 546862 1524 l
580726 546862 583438 549574 1524 l
583438 549574 583438 554997 1524 l
583438 554997 580726 557709 1524 l
580726 557709 572591 557709 1524 l
567066 557709 564355 557709 1524 l
564355 557709 564355 546862 1524 l
567066 546862 561643 546862 1524 l
564355 565844 564355 563132 1524 l
556152 557709 556152 549574 1524 l
556152 549574 553440 546862 1524 l
553440 546862 545305 546862 1524 l
545305 557709 545305 544150 1524 l
545305 544150 548017 541439 1524 l
548017 541439 550729 541439 1524 l
539781 546862 539781 557709 1524 l
539781 557709 537069 557709 1524 l
537069 557709 534357 554997 1524 l
534357 554997 534357 546862 1524 l
534357 554997 531646 557709 1524 l
531646 557709 528934 554997 1524 l
528934 554997 528934 546862 1524 l
523409 557709 520697 557709 1524 l
520697 557709 520697 546862 1524 l
523409 546862 517986 546862 1524 l
520697 565844 520697 563132 1524 l
501648 557709 509783 557709 1524 l
509783 557709 512495 554997 1524 l
512495 554997 512495 549574 1524 l
512495 549574 509783 546862 1524 l
509783 546862 501648 546862 1524 l
496123 546862 496123 557709 1524 l
496123 552285 490700 557709 1524 l
490700 557709 487988 557709 1524 l
479768 546862 474345 546862 1524 l
474345 546862 471633 549574 1524 l
471633 549574 471633 554997 1524 l
471633 554997 474345 557709 1524 l
474345 557709 479768 557709 1524 l
479768 557709 482480 554997 1524 l
482480 554997 482480 549574 1524 l
482480 549574 479768 546862 1524 l
466108 546862 466108 549574 1524 l
466108 549574 463397 549574 1524 l
463397 549574 463397 546862 1524 l
463397 546862 466108 546862 1524 l
457923 546862 457923 557709 1524 l
457923 552285 452499 557709 1524 l
452499 557709 449788 557709 1524 l
444280 557709 444280 549574 1524 l
444280 549574 441568 546862 1524 l
441568 546862 433433 546862 1524 l
433433 546862 433433 557709 1524 l
447500 347600 460500 363600 180.0 b
428500 347600 441500 363600 180.0 b
555500 347600 568500 363600 0.0 b
574500 347600 587500 363600 0.0 b
298300 433300 311300 449300 270.0 b
298300 414300 311300 430300 270.0 b
665480 508000 680720 508000 15240 l
665480 482600 680720 482600 15240 l
665480 457200 680720 457200 15240 l
665480 431800 680720 431800 15240 l
665480 406400 680720 406400 15240 l
665480 381000 680720 381000 15240 l
665480 355600 680720 355600 15240 l
350520 355600 335280 355600 15240 l
350520 381000 335280 381000 15240 l
350520 406400 335280 406400 15240 l
350520 431800 335280 431800 15240 l
350520 457200 335280 457200 15240 l
350520 482600 335280 482600 15240 l
350520 508000 335280 508000 15240 l
475460 349260 490540 364340 0.0 b
500460 349260 515540 364340 0.0 b
525460 349260 540540 364340 0.0 b
475460 494260 490540 509340 0.0 b
525460 494260 540540 509340 0.0 b
430920 415720 463080 447880 0.0 b
552920 415720 585080 447880 0.0 b
454000 356800 454000 355600 6096 l
673100 406400 546100 406400 6096 l
342900 406400 482600 406400 6096 l
482600 406400 482600 357200 6096 l
482600 357200 483000 356800 6096 l
482600 357200 458800 357200 6096 l
458800 357200 457200 355600 6096 l
476568 400368 488632 412432 0.0 b
454000 355600 457200 355600 6096 l
342900 431800 393700 431800 6096 l
393700 431800 419100 457200 6096 l
419100 457200 533400 457200 6096 l
533400 457200 596900 457200 6096 l
596900 457200 622300 431800 6096 l
622300 431800 673100 431800 6096 l
533000 356800 533400 356800 6096 l
562000 356800 562000 355600 6096 l
562000 356800 533400 356800 6096 l
533400 356800 533400 457200 6096 l
342900 508000 342900 482600 12700 l
342900 482600 381000 482600 12700 l
381000 482600 419100 520700 12700 l
419100 520700 533400 520700 12700 l
533400 520700 596900 520700 12700 l
596900 520700 635000 482600 12700 l
635000 482600 673100 482600 12700 l
673100 508000 673100 482600 12700 l
533000 501800 533000 520300 12700 l
533000 520300 533400 520700 12700 l
533400 501400 533000 501800 12700 l
673100 495808 673100 508000 6096 l
673100 508000 673100 508000 6096 l
673100 508000 673100 482600 6096 l
673100 482600 673100 482600 6096 l
673100 482600 673100 495808 6096 l
520280 372092 517721 369533 6096 l
517721 369533 517697 369547 6096 l
517697 369547 516276 369928 6096 l
516276 369928 508000 369928 6096 l
508000 369928 508000 356800 6096 l
508000 356800 508000 356800 6096 l
508000 356800 508000 369928 6096 l
508000 369928 499724 369928 6096 l
499724 369928 498303 369547 6096 l
498303 369547 498279 369533 6096 l
498279 369533 495720 372092 6096 l
495720 372092 494792 372476 6096 l
494792 372476 494792 393596 6096 l
494792 393596 496384 395188 6096 l
496384 395188 497776 398549 6096 l
497776 398549 497776 414251 6096 l
497776 414251 496384 417612 6096 l
496384 417612 493812 420184 6096 l
493812 420184 490451 421576 6096 l
490451 421576 474749 421576 6096 l
474749 421576 472224 420530 6096 l
472224 420530 472224 445008 6096 l
472224 445008 521208 445008 6096 l
521208 445008 521208 372476 6096 l
521208 372476 520280 372092 6096 l
342900 495808 342900 482600 6096 l
342900 482600 342900 482600 6096 l
342900 482600 342900 508000 6096 l
342900 508000 342900 508000 6096 l
342900 508000 342900 495808 6096 l
736600 596900 736600 266700 6096 l
736600 266700 279400 266700 6096 l
279400 266700 279400 596900 6096 l
279400 596900 736600 596900 6096 l
533000 514928 533000 501800 6096 l
533000 501800 533000 501800 6096 l
533000 501800 533000 514928 6096 l
533000 514928 524724 514928 6096 l
524724 514928 523303 514547 6096 l
523303 514547 522029 513812 6096 l
522029 513812 520988 512771 6096 l
520988 512771 520253 511497 6096 l
520253 511497 519872 510076 6096 l
519872 510076 519872 501800 6096 l
519872 501800 533000 501800 6096 l
533000 501800 533000 501800 6096 l
533000 501800 519872 501800 6096 l
519872 501800 519872 493524 6096 l
519872 493524 520253 492103 6096 l
520253 492103 520988 490829 6096 l
520988 490829 522029 489788 6096 l
522029 489788 523303 489053 6096 l
523303 489053 524724 488672 6096 l
524724 488672 533000 488672 6096 l
533000 488672 533000 501800 6096 l
533000 501800 533000 501800 6096 l
533000 501800 533000 488672 6096 l
533000 488672 541276 488672 6096 l
541276 488672 542697 489053 6096 l
542697 489053 543971 489788 6096 l
543971 489788 545012 490829 6096 l
545012 490829 545747 492103 6096 l
545747 492103 546128 493524 6096 l
546128 493524 546128 501800 6096 l
546128 501800 533000 501800 6096 l
533000 501800 533000 501800 6096 l
533000 501800 546128 501800 6096 l
546128 501800 546128 510076 6096 l
546128 510076 545747 511497 6096 l
545747 511497 545012 512771 6096 l
545012 512771 543971 513812 6096 l
543971 513812 542697 514547 6096 l
542697 514547 541276 514928 6096 l
541276 514928 533000 514928 6096 l
655984 341388 662145 338836 6096 l
662145 338836 684055 338836 6096 l
684055 338836 690216 341388 6096 l
690216 341388 694932 346104 6096 l
694932 346104 697484 352265 6096 l
697484 352265 697484 358935 6096 l
697484 358935 694932 365096 6096 l
694932 365096 691728 368300 6096 l
691728 368300 694932 371504 6096 l
694932 371504 697484 377665 6096 l
697484 377665 697484 384335 6096 l
697484 384335 694932 390496 6096 l
694932 390496 691728 393700 6096 l
691728 393700 694932 396904 6096 l
694932 396904 697484 403065 6096 l
697484 403065 697484 409735 6096 l
697484 409735 694932 415896 6096 l
694932 415896 691728 419100 6096 l
691728 419100 694932 422304 6096 l
694932 422304 697484 428465 6096 l
697484 428465 697484 435135 6096 l
697484 435135 694932 441296 6096 l
694932 441296 691728 444500 6096 l
691728 444500 694932 447704 6096 l
694932 447704 697484 453865 6096 l
697484 453865 697484 460535 6096 l
697484 460535 694932 466696 6096 l
694932 466696 690216 471412 6096 l
690216 471412 688672 472051 6096 l
688672 472051 689324 472526 6096 l
689324 472526 690794 473996 6096 l
690794 473996 692016 475677 6096 l
692016 475677 692960 477530 6096 l
692960 477530 693603 479507 6096 l
693603 479507 693928 481560 6096 l
693928 481560 693928 482600 6096 l
693928 482600 673100 482600 6096 l
673100 482600 673100 482600 6096 l
673100 482600 693928 482600 6096 l
693928 482600 693928 483640 6096 l
693928 483640 693603 485693 6096 l
693603 485693 692960 487670 6096 l
692960 487670 692016 489523 6096 l
692016 489523 690794 491204 6096 l
690794 491204 689324 492674 6096 l
689324 492674 687643 493896 6096 l
687643 493896 685790 494840 6096 l
685790 494840 684375 495300 6096 l
684375 495300 685790 495760 6096 l
685790 495760 687643 496704 6096 l
687643 496704 689324 497926 6096 l
689324 497926 690794 499396 6096 l
690794 499396 692016 501077 6096 l
692016 501077 692960 502930 6096 l
692960 502930 693603 504907 6096 l
693603 504907 693928 506960 6096 l
693928 506960 693928 508000 6096 l
693928 508000 673100 508000 6096 l
673100 508000 673100 508000 6096 l
673100 508000 693928 508000 6096 l
693928 508000 693928 509040 6096 l
693928 509040 693603 511093 6096 l
693603 511093 692960 513070 6096 l
692960 513070 692016 514923 6096 l
692016 514923 690794 516604 6096 l
690794 516604 689324 518074 6096 l
689324 518074 687643 519296 6096 l
687643 519296 685790 520240 6096 l
685790 520240 683813 520883 6096 l
683813 520883 681760 521208 6096 l
681760 521208 673100 521208 6096 l
673100 521208 673100 508000 6096 l
673100 508000 673100 508000 6096 l
673100 508000 673100 521208 6096 l
673100 521208 664440 521208 6096 l
664440 521208 662387 520883 6096 l
662387 520883 660410 520240 6096 l
660410 520240 658557 519296 6096 l
658557 519296 656876 518074 6096 l
656876 518074 655406 516604 6096 l
655406 516604 654184 514923 6096 l
654184 514923 653240 513070 6096 l
653240 513070 652597 511093 6096 l
652597 511093 652272 509040 6096 l
652272 509040 652272 508000 6096 l
652272 508000 673100 508000 6096 l
673100 508000 673100 508000 6096 l
673100 508000 652272 508000 6096 l
652272 508000 652272 506960 6096 l
652272 506960 652597 504907 6096 l
652597 504907 653240 502930 6096 l
653240 502930 654184 501077 6096 l
654184 501077 655406 499396 6096 l
655406 499396 656876 497926 6096 l
656876 497926 658557 496704 6096 l
658557 496704 660410 495760 6096 l
660410 495760 661825 495300 6096 l
661825 495300 660410 494840 6096 l
660410 494840 658557 493896 6096 l
658557 493896 656876 492674 6096 l
656876 492674 655406 491204 6096 l
655406 491204 654184 489523 6096 l
654184 489523 653240 487670 6096 l
653240 487670 652597 485693 6096 l
652597 485693 652272 483640 6096 l
652272 483640 652272 482600 6096 l
652272 482600 673100 482600 6096 l
673100 482600 673100 482600 6096 l
673100 482600 652272 482600 6096 l
652272 482600 652272 481560 6096 l
652272 481560 652597 479507 6096 l
652597 479507 653240 477530 6096 l
653240 477530 654184 475677 6096 l
654184 475677 655406 473996 6096 l
655406 473996 656876 472526 6096 l
656876 472526 657528 472051 6096 l
657528 472051 655984 471412 6096 l
655984 471412 653964 469392 6096 l
653964 469392 627350 469392 6096 l
627350 469392 616506 480236 6096 l
616506 480236 612025 482092 6096 l
612025 482092 494946 482092 6096 l
494946 482092 494997 486209 6096 l
494997 486209 495720 486508 6096 l
495720 486508 498292 489080 6096 l
498292 489080 499684 492441 6096 l
499684 492441 499684 511159 6096 l
499684 511159 498292 514520 6096 l
498292 514520 495720 517092 6096 l
495720 517092 492359 518484 6096 l
492359 518484 473641 518484 6096 l
473641 518484 470280 517092 6096 l
470280 517092 467708 514520 6096 l
467708 514520 466316 511159 6096 l
466316 511159 466316 492441 6096 l
466316 492441 467708 489080 6096 l
467708 489080 470280 486508 6096 l
470280 486508 470614 486370 6096 l
470614 486370 470560 482092 6096 l
470560 482092 403975 482092 6096 l
403975 482092 399494 480236 6096 l
399494 480236 396064 476806 6096 l
396064 476806 388650 469392 6096 l
388650 469392 362036 469392 6096 l
362036 469392 360016 471412 6096 l
360016 471412 358472 472051 6096 l
358472 472051 359124 472526 6096 l
359124 472526 360594 473996 6096 l
360594 473996 361816 475677 6096 l
361816 475677 362760 477530 6096 l
362760 477530 363403 479507 6096 l
363403 479507 363728 481560 6096 l
363728 481560 363728 482600 6096 l
363728 482600 342900 482600 6096 l
342900 482600 342900 482600 6096 l
342900 482600 363728 482600 6096 l
363728 482600 363728 483640 6096 l
363728 483640 363403 485693 6096 l
363403 485693 362760 487670 6096 l
362760 487670 361816 489523 6096 l
361816 489523 360594 491204 6096 l
360594 491204 359124 492674 6096 l
359124 492674 357443 493896 6096 l
357443 493896 355590 494840 6096 l
355590 494840 354175 495300 6096 l
354175 495300 355590 495760 6096 l
355590 495760 357443 496704 6096 l
357443 496704 359124 497926 6096 l
359124 497926 360594 499396 6096 l
360594 499396 361816 501077 6096 l
361816 501077 362760 502930 6096 l
362760 502930 363403 504907 6096 l
363403 504907 363728 506960 6096 l
363728 506960 363728 508000 6096 l
363728 508000 342900 508000 6096 l
342900 508000 342900 508000 6096 l
342900 508000 363728 508000 6096 l
363728 508000 363728 509040 6096 l
363728 509040 363403 511093 6096 l
363403 511093 362760 513070 6096 l
362760 513070 361816 514923 6096 l
361816 514923 360594 516604 6096 l
360594 516604 359124 518074 6096 l
359124 518074 357443 519296 6096 l
357443 519296 355590 520240 6096 l
355590 520240 353613 520883 6096 l
353613 520883 351560 521208 6096 l
351560 521208 342900 521208 6096 l
342900 521208 342900 508000 6096 l
342900 508000 342900 508000 6096 l
342900 508000 342900 521208 6096 l
342900 521208 334240 521208 6096 l
334240 521208 332187 520883 6096 l
332187 520883 330210 520240 6096 l
330210 520240 328357 519296 6096 l
328357 519296 326676 518074 6096 l
326676 518074 325206 516604 6096 l
325206 516604 323984 514923 6096 l
323984 514923 323040 513070 6096 l
323040 513070 322397 511093 6096 l
322397 511093 322072 509040 6096 l
322072 509040 322072 508000 6096 l
322072 508000 342900 508000 6096 l
342900 508000 342900 508000 6096 l
342900 508000 322072 508000 6096 l
322072 508000 322072 506960 6096 l
322072 506960 322397 504907 6096 l
322397 504907 323040 502930 6096 l
323040 502930 323984 501077 6096 l
323984 501077 325206 499396 6096 l
325206 499396 326676 497926 6096 l
326676 497926 328357 496704 6096 l
328357 496704 330210 495760 6096 l
330210 495760 331625 495300 6096 l
331625 495300 330210 494840 6096 l
330210 494840 328357 493896 6096 l
328357 493896 326676 492674 6096 l
326676 492674 325206 491204 6096 l
325206 491204 323984 489523 6096 l
323984 489523 323040 487670 6096 l
323040 487670 322397 485693 6096 l
322397 485693 322072 483640 6096 l
322072 483640 322072 482600 6096 l
322072 482600 342900 482600 6096 l
342900 482600 342900 482600 6096 l
342900 482600 322072 482600 6096 l
322072 482600 322072 481560 6096 l
322072 481560 322397 479507 6096 l
322397 479507 323040 477530 6096 l
323040 477530 323984 475677 6096 l
323984 475677 325206 473996 6096 l
325206 473996 326676 472526 6096 l
326676 472526 327328 472051 6096 l
327328 472051 325784 471412 6096 l
325784 471412 323764 469392 6096 l
323764 469392 302375 469392 6096 l
302375 469392 297894 467536 6096 l
297894 467536 294464 464106 6096 l
294464 464106 292608 459625 6096 l
292608 459625 292608 455961 6096 l
292608 455961 291620 455552 6096 l
291620 455552 289048 452980 6096 l
289048 452980 287656 449619 6096 l
287656 449619 287656 432981 6096 l
287656 432981 288145 431800 6096 l
288145 431800 287656 430619 6096 l
287656 430619 287656 413981 6096 l
287656 413981 289048 410620 6096 l
289048 410620 291620 408048 6096 l
291620 408048 292608 407639 6096 l
292608 407639 292608 378575 6096 l
292608 378575 294464 374094 6096 l
294464 374094 297894 370664 6096 l
297894 370664 302375 368808 6096 l
302375 368808 323764 368808 6096 l
323764 368808 324272 368300 6096 l
324272 368300 321068 365096 6096 l
321068 365096 318516 358935 6096 l
318516 358935 318516 352265 6096 l
318516 352265 321068 346104 6096 l
321068 346104 325784 341388 6096 l
325784 341388 331945 338836 6096 l
331945 338836 353855 338836 6096 l
353855 338836 360016 341388 6096 l
360016 341388 362036 343408 6096 l
362036 343408 420339 343408 6096 l
420339 343408 420748 342420 6096 l
420748 342420 423320 339848 6096 l
423320 339848 426681 338456 6096 l
426681 338456 443319 338456 6096 l
443319 338456 444500 338945 6096 l
444500 338945 445681 338456 6096 l
445681 338456 462319 338456 6096 l
462319 338456 465680 339848 6096 l
465680 339848 468252 342420 6096 l
468252 342420 468579 343210 6096 l
468579 343210 470280 341508 6096 l
470280 341508 473641 340116 6096 l
473641 340116 492359 340116 6096 l
492359 340116 495720 341508 6096 l
495720 341508 498279 344067 6096 l
498279 344067 498303 344053 6096 l
498303 344053 499724 343672 6096 l
499724 343672 508000 343672 6096 l
508000 343672 508000 356800 6096 l
508000 356800 508000 356800 6096 l
508000 356800 508000 343672 6096 l
508000 343672 516276 343672 6096 l
516276 343672 517697 344053 6096 l
517697 344053 517721 344067 6096 l
517721 344067 520280 341508 6096 l
520280 341508 523641 340116 6096 l
523641 340116 542359 340116 6096 l
542359 340116 545720 341508 6096 l
545720 341508 547421 343210 6096 l
547421 343210 547748 342420 6096 l
547748 342420 550320 339848 6096 l
550320 339848 553681 338456 6096 l
553681 338456 570319 338456 6096 l
570319 338456 571500 338945 6096 l
571500 338945 572681 338456 6096 l
572681 338456 589319 338456 6096 l
589319 338456 592680 339848 6096 l
592680 339848 595252 342420 6096 l
595252 342420 595661 343408 6096 l
595661 343408 653964 343408 6096 l
653964 343408 655984 341388 6096 l
401234 570206 401234 539774 6096 l
401234 539774 401303 538979 6096 l
401303 538979 401442 538192 6096 l
401442 538192 401649 537421 6096 l
401649 537421 401922 536671 6096 l
401922 536671 402259 535947 6096 l
402259 535947 402658 535256 6096 l
402658 535256 403116 534602 6096 l
403116 534602 403630 533990 6096 l
403630 533990 404194 533425 6096 l
404194 533425 404806 532912 6096 l
404806 532912 405460 532454 6096 l
405460 532454 406151 532055 6096 l
406151 532055 406875 531717 6096 l
406875 531717 407625 531444 6096 l
407625 531444 408397 531238 6096 l
408397 531238 409183 531099 6096 l
409183 531099 409978 531029 6096 l
409978 531029 590526 531029 6096 l
590526 531029 591321 531099 6096 l
591321 531099 592108 531238 6096 l
592108 531238 592879 531444 6096 l
592879 531444 593629 531717 6096 l
593629 531717 594353 532055 6096 l
594353 532055 595044 532454 6096 l
595044 532454 595698 532912 6096 l
595698 532912 596310 533425 6096 l
596310 533425 596875 533990 6096 l
596875 533990 597388 534602 6096 l
597388 534602 597846 535256 6096 l
597846 535256 598245 535947 6096 l
598245 535947 598583 536671 6096 l
598583 536671 598856 537421 6096 l
598856 537421 599062 538192 6096 l
599062 538192 599201 538979 6096 l
599201 538979 599271 539774 6096 l
599271 539774 599271 570206 6096 l
599271 570206 599201 571001 6096 l
599201 571001 599062 571788 6096 l
599062 571788 598856 572559 6096 l
598856 572559 598583 573309 6096 l
598583 573309 598245 574033 6096 l
598245 574033 597846 574724 6096 l
597846 574724 597388 575378 6096 l
597388 575378 596875 575990 6096 l
596875 575990 596310 576555 6096 l
596310 576555 595698 577068 6096 l
595698 577068 595044 577526 6096 l
595044 577526 594353 577925 6096 l
594353 577925 593629 578263 6096 l
593629 578263 592879 578536 6096 l
592879 578536 592108 578742 6096 l
592108 578742 591321 578881 6096 l
591321 578881 590526 578951 6096 l
590526 578951 409978 578951 6096 l
409978 578951 409183 578881 6096 l
409183 578881 408397 578742 6096 l
408397 578742 407625 578536 6096 l
407625 578536 406875 578263 6096 l
406875 578263 406151 577925 6096 l
406151 577925 405460 577526 6096 l
405460 577526 404806 577068 6096 l
404806 577068 404194 576555 6096 l
404194 576555 403630 575990 6096 l
403630 575990 403116 575378 6096 l
403116 575378 402658 574724 6096 l
402658 574724 402259 574033 6096 l
402259 574033 401922 573309 6096 l
401922 573309 401649 572559 6096 l
401649 572559 401442 571788 6096 l
401442 571788 401303 571001 6096 l
401303 571001 401234 570206 6096 l
345724 547109 345724 570491 6096 l
345724 570491 329191 587024 6096 l
329191 587024 305809 587024 6096 l
305809 587024 289276 570491 6096 l
289276 570491 289276 547109 6096 l
289276 547109 305809 530576 6096 l
305809 530576 329191 530576 6096 l
329191 530576 345724 547109 6096 l
345724 293109 345724 316491 6096 l
345724 316491 329191 333024 6096 l
329191 333024 305809 333024 6096 l
305809 333024 289276 316491 6096 l
289276 316491 289276 293109 6096 l
289276 293109 305809 276576 6096 l
305809 276576 329191 276576 6096 l
329191 276576 345724 293109 6096 l
726724 293109 726724 316491 6096 l
726724 316491 710191 333024 6096 l
710191 333024 686809 333024 6096 l
686809 333024 670276 316491 6096 l
670276 316491 670276 293109 6096 l
670276 293109 686809 276576 6096 l
686809 276576 710191 276576 6096 l
710191 276576 726724 293109 6096 l
726724 547109 726724 570491 6096 l
726724 570491 710191 587024 6096 l
710191 587024 686809 587024 6096 l
686809 587024 670276 570491 6096 l
670276 570491 670276 547109 6096 l
670276 547109 686809 530576 6096 l
686809 530576 710191 530576 6096 l
710191 530576 726724 547109 6096 l
279400 268605 736600 268605 6096 l
279400 274320 736600 274320 6096 l
279400 280035 302350 280035 6096 l
332650 280035 683350 280035 6096 l
713650 280035 736600 280035 6096 l
279400 285750 296635 285750 6096 l
338365 285750 677635 285750 6096 l
719365 285750 736600 285750 6096 l
279400 291465 290920 291465 6096 l
344080 291465 671920 291465 6096 l
725080 291465 736600 291465 6096 l
279400 297180 289276 297180 6096 l
345724 297180 670276 297180 6096 l
726724 297180 736600 297180 6096 l
279400 302895 289276 302895 6096 l
345724 302895 670276 302895 6096 l
726724 302895 736600 302895 6096 l
279400 308610 289276 308610 6096 l
345724 308610 670276 308610 6096 l
726724 308610 736600 308610 6096 l
279400 314325 289276 314325 6096 l
345724 314325 670276 314325 6096 l
726724 314325 736600 314325 6096 l
279400 320040 292825 320040 6096 l
342175 320040 673825 320040 6096 l
723175 320040 736600 320040 6096 l
279400 325755 298540 325755 6096 l
336460 325755 679540 325755 6096 l
717460 325755 736600 325755 6096 l
279400 331470 304255 331470 6096 l
330745 331470 685255 331470 6096 l
711745 331470 736600 331470 6096 l
279400 337185 736600 337185 6096 l
279400 342900 324272 342900 6096 l
361528 342900 420549 342900 6096 l
468451 342900 468888 342900 6096 l
497112 342900 518888 342900 6096 l
547112 342900 547549 342900 6096 l
595451 342900 654472 342900 6096 l
691728 342900 736600 342900 6096 l
279400 348615 320028 348615 6096 l
508000 348615 508000 348615 6096 l
695972 348615 736600 348615 6096 l
279400 354330 318516 354330 6096 l
508000 354330 508000 354330 6096 l
697484 354330 736600 354330 6096 l
279400 360045 318976 360045 6096 l
508000 360045 508000 360045 6096 l
697024 360045 736600 360045 6096 l
279400 365760 321732 365760 6096 l
508000 365760 508000 365760 6096 l
694268 365760 736600 365760 6096 l
279400 371475 297083 371475 6096 l
496337 371475 519663 371475 6096 l
694903 371475 736600 371475 6096 l
279400 377190 293182 377190 6096 l
494792 377190 521208 377190 6096 l
697287 377190 736600 377190 6096 l
279400 382905 292608 382905 6096 l
494792 382905 521208 382905 6096 l
697484 382905 736600 382905 6096 l
279400 388620 292608 388620 6096 l
494792 388620 521208 388620 6096 l
695709 388620 736600 388620 6096 l
279400 394335 292608 394335 6096 l
495531 394335 521208 394335 6096 l
692363 394335 736600 394335 6096 l
279400 400050 292608 400050 6096 l
497776 400050 521208 400050 6096 l
696235 400050 736600 400050 6096 l
279400 405765 292608 405765 6096 l
497776 405765 521208 405765 6096 l
697484 405765 736600 405765 6096 l
279400 411480 288692 411480 6096 l
497776 411480 521208 411480 6096 l
696761 411480 736600 411480 6096 l
279400 417195 287656 417195 6096 l
496556 417195 521208 417195 6096 l
693633 417195 736600 417195 6096 l
279400 422910 287656 422910 6096 l
472224 422910 521208 422910 6096 l
695183 422910 736600 422910 6096 l
279400 428625 287656 428625 6096 l
472224 428625 521208 428625 6096 l
697484 428625 736600 428625 6096 l
279400 434340 287656 434340 6096 l
472224 434340 521208 434340 6096 l
697484 434340 736600 434340 6096 l
279400 440055 287656 440055 6096 l
472224 440055 521208 440055 6096 l
695446 440055 736600 440055 6096 l
279400 445770 287656 445770 6096 l
692998 445770 736600 445770 6096 l
279400 451485 288429 451485 6096 l
696498 451485 736600 451485 6096 l
279400 457200 292608 457200 6096 l
697484 457200 736600 457200 6096 l
279400 462915 293971 462915 6096 l
696498 462915 736600 462915 6096 l
279400 468630 300535 468630 6096 l
692998 468630 736600 468630 6096 l
279400 474345 324952 474345 6096 l
360848 474345 393603 474345 6096 l
622397 474345 655152 474345 6096 l
691048 474345 736600 474345 6096 l
279400 480060 322310 480060 6096 l
363490 480060 399318 480060 6096 l
616682 480060 652510 480060 6096 l
693690 480060 736600 480060 6096 l
279400 485775 322424 485775 6096 l
342900 485775 342900 485775 6096 l
363376 485775 470606 485775 6096 l
494992 485775 652624 485775 6096 l
673100 485775 673100 485775 6096 l
693576 485775 736600 485775 6096 l
279400 491490 325491 491490 6096 l
342900 491490 342900 491490 6096 l
360309 491490 466710 491490 6096 l
499290 491490 520607 491490 6096 l
533000 491490 533000 491490 6096 l
545393 491490 655691 491490 6096 l
673100 491490 673100 491490 6096 l
690509 491490 736600 491490 6096 l
279400 497205 327667 497205 6096 l
342900 497205 342900 497205 6096 l
358133 497205 466316 497205 6096 l
499684 497205 519872 497205 6096 l
533000 497205 533000 497205 6096 l
546128 497205 657867 497205 6096 l
673100 497205 673100 497205 6096 l
688333 497205 736600 497205 6096 l
279400 502920 323045 502920 6096 l
342900 502920 342900 502920 6096 l
362755 502920 466316 502920 6096 l
499684 502920 519872 502920 6096 l
533000 502920 533000 502920 6096 l
546128 502920 653245 502920 6096 l
673100 502920 673100 502920 6096 l
692955 502920 736600 502920 6096 l
279400 508635 322072 508635 6096 l
342900 508635 342900 508635 6096 l
363728 508635 466316 508635 6096 l
499684 508635 519872 508635 6096 l
533000 508635 533000 508635 6096 l
546128 508635 652272 508635 6096 l
673100 508635 673100 508635 6096 l
693928 508635 736600 508635 6096 l
279400 514350 323692 514350 6096 l
342900 514350 342900 514350 6096 l
362108 514350 467638 514350 6096 l
498362 514350 522962 514350 6096 l
533000 514350 533000 514350 6096 l
543038 514350 653892 514350 6096 l
673100 514350 673100 514350 6096 l
692308 514350 736600 514350 6096 l
279400 520065 329866 520065 6096 l
342900 520065 342900 520065 6096 l
355934 520065 660066 520065 6096 l
673100 520065 673100 520065 6096 l
686134 520065 736600 520065 6096 l
279400 525780 736600 525780 6096 l
279400 531495 304890 531495 6096 l
330110 531495 407486 531495 6096 l
593018 531495 685890 531495 6096 l
711110 531495 736600 531495 6096 l
279400 537210 299175 537210 6096 l
335825 537210 401725 537210 6096 l
598779 537210 680175 537210 6096 l
716825 537210 736600 537210 6096 l
279400 542925 293460 542925 6096 l
341540 542925 401234 542925 6096 l
599271 542925 674460 542925 6096 l
722540 542925 736600 542925 6096 l
279400 548640 289276 548640 6096 l
345724 548640 401234 548640 6096 l
599271 548640 670276 548640 6096 l
726724 548640 736600 548640 6096 l
279400 554355 289276 554355 6096 l
345724 554355 401234 554355 6096 l
599271 554355 670276 554355 6096 l
726724 554355 736600 554355 6096 l
279400 560070 289276 560070 6096 l
345724 560070 401234 560070 6096 l
599271 560070 670276 560070 6096 l
726724 560070 736600 560070 6096 l
279400 565785 289276 565785 6096 l
345724 565785 401234 565785 6096 l
599271 565785 670276 565785 6096 l
726724 565785 736600 565785 6096 l
279400 571500 290285 571500 6096 l
344715 571500 401391 571500 6096 l
599113 571500 671285 571500 6096 l
725715 571500 736600 571500 6096 l
279400 577215 296000 577215 6096 l
339000 577215 405016 577215 6096 l
595489 577215 677000 577215 6096 l
720000 577215 736600 577215 6096 l
279400 582930 301715 582930 6096 l
333285 582930 682715 582930 6096 l
714285 582930 736600 582930 6096 l
279400 588645 736600 588645 6096 l
279400 594360 736600 594360 6096 l
673100 381000 673100 355600 12700 l
581000 355600 673100 355600 6096 l
342900 381000 342900 355600 12700 l
342900 355600 435000 355600 6096 l
304800 422300 304800 381000 6096 l
304800 381000 342900 381000 6096 l
435000 355600 431800 355600 6096 l
431800 355600 431800 381000 6096 l
581000 355600 584200 355600 6096 l
584200 355600 584200 381000 6096 l
431800 381000 16764 16764 0.0 o
584200 381000 16764 16764 0.0 o
584200 381000 16764 16764 0.0 o
342900 457200 393700 457200 6096 l
393700 457200 406400 469900 6096 l
406400 469900 482600 469900 6096 l
482600 469900 609600 469900 6096 l
609600 469900 622300 457200 6096 l
622300 457200 673100 457200 6096 l
483000 501800 482600 469900 6096 l
342900 457200 304800 457200 6096 l
304800 457200 304800 441300 6096 l
540068 400368 552132 412432 0.0 b
317500 558800 38160 38160 0.0 o
317500 304800 38160 38160 0.0 o
698500 304800 38160 38160 0.0 o
698500 558800 38160 38160 0.0 o
673100 508000 10160 h
673100 482600 10160 h
673100 457200 10160 h
673100 431800 10160 h
673100 406400 10160 h
673100 381000 10160 h
673100 355600 10160 h
342900 355600 10160 h
342900 381000 10160 h
342900 406400 10160 h
342900 431800 10160 h
342900 457200 10160 h
342900 482600 10160 h
342900 508000 10160 h
483000 356800 10000 h
508000 356800 10000 h
533000 356800 10000 h
483000 501800 10000 h
533000 501800 10000 h
447000 431800 22000 h
569000 431800 22000 h
482600 406400 8000 h
431800 381000 10000 h
584200 381000 10000 h
584200 381000 10000 h
546100 406400 8000 h
317500 558800 28000 h
317500 304800 28000 h
698500 304800 28000 h
698500 558800 28000 h
showpage grestore
