%!PS-Adobe-3.0 EPSF-3.0
%%Title: EAGLE Drawing D:/Diymicro.ru/Projects/Busyboard/Steering_wheel/PCB/LED_board/LED_board/LED_board2.brd
%%Creator: EAGLE
%%Pages: 1
%%BoundingBox: 0 0 317 67
%%EndComments

% Coordinate transfer:

/EU { 254 div 0.072 mul } def
/inch { 72 mul } def

% Linestyle:

1 setlinecap
1 setlinejoin

% Drawing functions:

/l {  % draw a line
   /lw exch def
   /y2 exch def
   /x2 exch def
   /y1 exch def
   /x1 exch def
   newpath
   x1 EU y1 EU moveto
   x2 EU y2 EU lineto
   lw EU setlinewidth
   stroke
   } def

/h {  % draw a hole
   /d  exch def
   /y  exch def
   /x  exch def
   d 0 gt {
     newpath
     x EU y EU d 2 div EU 0 360 arc
     currentgray dup
     1 exch sub setgray
     fill
     setgray
     } if
   } def

/b {  % draw a bar
   /an exch def
   /y2 exch def
   /x2 exch def
   /y1 exch def
   /x1 exch def
   /w2 x2 x1 sub 2 div EU def
   /h2 y2 y1 sub 2 div EU def
   gsave
   x1 x2 add 2 div EU y1 y2 add 2 div EU translate
   an rotate
   newpath
   w2     h2     moveto
   w2 neg h2     lineto
   w2 neg h2 neg lineto
   w2     h2 neg lineto
   closepath
   fill
   grestore
   } def

/c {  % draw a circle
   /lw exch def
   /rd exch def
   /y  exch def
   /x  exch def
   newpath
   lw EU setlinewidth
   x EU y EU rd EU 0 360 arc
   stroke
   } def

/a {  % draw an arc
   /lc exch def
   /ae exch def
   /as exch def
   /lw exch def
   /rd exch def
   /y  exch def
   /x  exch def
   lw rd 2 mul gt {
     /rd rd lw 2 div add 2 div def
     /lw rd 2 mul def
     } if
   currentlinecap currentlinejoin
   lc setlinecap 0 setlinejoin
   newpath
   lw EU setlinewidth
   x EU y EU rd EU as ae arc
   stroke
   setlinejoin setlinecap
   } def

/p {  % draw a pie
   /d exch def
   /y exch def
   /x exch def
   newpath
   x EU y EU d 2 div EU 0 360 arc
   fill
   } def

/edge { 0.20710678119 mul } def

/o {  % draw an octagon
   /an exch def
   /dy exch def
   /dx exch def
   /y  exch def
   /x  exch def
   gsave
   x EU y EU translate
   an dx dy lt { 90 add /dx dy /dy dx def def } if rotate
   newpath
      0 dx 2 div sub EU                    0 dy edge  add EU moveto
      0 dx dy sub 2 div sub dy edge sub EU 0 dy 2 div add EU lineto
      0 dx dy sub 2 div add dy edge add EU 0 dy 2 div add EU lineto
      0 dx 2 div add EU                    0 dy edge  add EU lineto
      0 dx 2 div add EU                    0 dy edge  sub EU lineto
      0 dx dy sub 2 div add dy edge add EU 0 dy 2 div sub EU lineto
      0 dx dy sub 2 div sub dy edge sub EU 0 dy 2 div sub EU lineto
      0 dx 2 div sub EU                    0 dy edge  sub EU lineto
   closepath
   fill
   grestore
   } def

990600 44450 1016000 95250 0.0 b
984250 31750 990600 95250 0.0 b
984250 31750 1016000 50800 0.0 b
984250 0 1016000 31750 0.0 b
958850 44450 977900 63500 0.0 b
38100 44450 57150 63500 0.0 b
38100 38100 57150 44450 0.0 b
228600 114300 247650 133350 0.0 b
228600 127000 247650 139700 0.0 b
508000 152400 533400 171450 0.0 b
793750 114300 819150 139700 0.0 b
38100 57150 57150 82550 0.0 b
38100 76200 57150 88900 0.0 b
946150 50800 977900 88900 0.0 b
7500 0 123750 7500 0.0 b
7500 7500 67500 11250 0.0 b
7500 11250 22500 120000 0.0 b
7500 112500 26250 168750 0.0 b
7500 213750 78750 225000 0.0 b
7500 157500 15000 213750 0.0 b
120000 0 903750 52500 0.0 b
903750 0 986250 7500 0.0 b
960000 3750 986250 37500 0.0 b
1005000 93750 1016250 172500 0.0 b
1008750 172500 1016250 221250 0.0 b
952500 217500 1016250 225000 0.0 b
7500 217500 952500 225000 0.0 b
63750 206250 82500 217500 0.0 b
511000 176650 524000 191650 180.0 b
492000 176650 505000 191650 180.0 b
225250 138550 238250 153550 180.0 b
206250 138550 219250 153550 180.0 b
34750 68700 47750 83700 180.0 b
15750 68700 28750 83700 180.0 b
961900 68700 974900 83700 0.0 b
980900 68700 993900 83700 0.0 b
796750 144900 809750 159900 180.0 b
777750 144900 790750 159900 180.0 b
521800 162400 13208 13208 180.0 o
496400 162400 13208 13208 180.0 o
804800 124600 13208 13208 180.0 o
779400 124600 13208 13208 180.0 o
238900 125000 13208 13208 180.0 o
213500 125000 13208 13208 180.0 o
971300 52000 13208 13208 0.0 o
996700 52000 13208 13208 0.0 o
46750 51700 13208 13208 180.0 o
21350 51700 13208 13208 180.0 o
627000 103000 643000 123000 90.0 b
627000 131000 643000 151000 90.0 b
601600 103000 617600 123000 90.0 b
601600 131000 617600 151000 90.0 b
652400 103000 668400 123000 90.0 b
652400 131000 668400 151000 90.0 b
677800 103000 693800 123000 90.0 b
677800 131000 693800 151000 90.0 b
703200 103000 719200 123000 90.0 b
703200 131000 719200 151000 90.0 b
584200 171196 584200 184404 13208 l
609600 171196 609600 184404 13208 l
635000 171196 635000 184404 13208 l
660400 171196 660400 184404 13208 l
685800 171196 685800 184404 13208 l
711200 171196 711200 184404 13208 l
736600 171196 736600 184404 13208 l
45640 114300 30560 114300 15080 l
45640 139700 30560 139700 15080 l
976710 139700 991790 139700 15080 l
976710 114300 991790 114300 15080 l
521800 162400 520700 161300 6096 l
520700 161300 520700 114300 6096 l
520700 114300 522000 113000 6096 l
522000 113000 609600 113000 6096 l
517500 184150 521800 179850 6096 l
521800 179850 521800 162400 6096 l
635000 113000 635000 95250 6096 l
635000 95250 628650 88900 6096 l
628650 88900 260350 88900 6096 l
260350 88900 247650 88900 6096 l
247650 88900 238900 97650 6096 l
238900 97650 238900 125000 6096 l
231750 146050 238900 138900 6096 l
238900 138900 238900 125000 6096 l
660400 113000 660400 82550 6096 l
660400 82550 641350 63500 6096 l
641350 63500 171450 63500 6096 l
171450 63500 69850 63500 6096 l
69850 63500 50800 63500 6096 l
50800 63500 47625 60325 6096 l
47625 60325 46750 59450 6096 l
46750 59450 46750 51700 6096 l
41250 76200 47625 69825 6096 l
47625 69825 47625 60325 6096 l
971300 52000 970771 57069 6096 l
970771 57069 970100 63500 6096 l
970100 63500 704850 63500 6096 l
704850 63500 685800 82550 6096 l
685800 82550 685800 113000 6096 l
968400 76200 970771 73829 6096 l
970771 73829 970771 57069 6096 l
804800 124600 806450 122950 6096 l
806450 122950 806450 88900 6096 l
806450 88900 793750 76200 6096 l
793750 76200 730250 76200 6096 l
730250 76200 717550 76200 6096 l
717550 76200 711200 82550 6096 l
711200 82550 711200 113000 6096 l
803250 152400 804800 150850 6096 l
804800 150850 804800 124600 6096 l
889000 4350 127000 4350 8128 l
76200 107950 76200 114300 8128 l
76200 114300 38100 114300 8128 l
38100 114300 38100 139700 8128 l
984250 139700 952500 139700 8128 l
952500 139700 952500 215900 8128 l
952500 215900 787400 215900 8128 l
952500 114300 984250 114300 8128 l
984250 114300 990600 114300 8128 l
984250 114300 984250 139700 8128 l
787400 215900 736600 215900 8128 l
736600 215900 584200 215900 8128 l
584200 215900 495300 215900 8128 l
495300 215900 215900 215900 8128 l
215900 215900 76200 215900 8128 l
76200 215900 76200 177800 8128 l
76200 177800 76200 139700 8128 l
76200 139700 38100 139700 8128 l
984250 64450 984250 114300 6096 l
996700 52000 984250 64450 6096 l
21350 51700 22250 52600 6096 l
22250 52600 22250 76200 6096 l
22250 76200 19050 79400 6096 l
19050 79400 19050 107950 6096 l
19050 107950 25400 114300 6096 l
25400 114300 38100 114300 6096 l
779400 124600 781050 126250 6096 l
781050 126250 781050 152400 6096 l
781050 152400 755650 177800 6096 l
755650 177800 736600 177800 6096 l
736600 177800 736600 215900 6096 l
584200 177800 584200 215900 6096 l
496400 162400 495300 163500 6096 l
495300 163500 495300 215900 6096 l
498500 184150 496400 182050 6096 l
496400 182050 496400 162400 6096 l
213500 125000 212750 125750 6096 l
212750 125750 212750 146050 6096 l
212750 146050 215900 149200 6096 l
215900 149200 215900 215900 6096 l
996829 127534 997888 128073 6096 l
997888 128073 997888 125927 6096 l
997888 125927 996829 126466 6096 l
996829 126466 995186 127000 6096 l
995186 127000 996829 127534 6096 l
997888 114300 997888 114300 6096 l
997888 114300 984250 114300 6096 l
984250 114300 984250 114300 6096 l
984250 114300 997888 114300 6096 l
984250 127428 984250 139700 6096 l
984250 139700 984250 139700 6096 l
984250 139700 984250 114300 6096 l
984250 114300 984250 114300 6096 l
984250 114300 984250 127428 6096 l
695960 86758 695960 97888 6096 l
695960 97888 697215 97888 6096 l
697215 97888 698500 98420 6096 l
698500 98420 699785 97888 6096 l
699785 97888 701040 97888 6096 l
701040 97888 701040 81678 6096 l
701040 81678 695960 86758 6096 l
694370 59612 651830 59612 6096 l
651830 59612 669013 76795 6096 l
669013 76795 670560 80529 6096 l
670560 80529 670560 97888 6096 l
670560 97888 671815 97888 6096 l
671815 97888 673100 98420 6096 l
673100 98420 674385 97888 6096 l
674385 97888 675640 97888 6096 l
675640 97888 675640 80529 6096 l
675640 80529 677187 76795 6096 l
677187 76795 680045 73937 6096 l
680045 73937 694370 59612 6096 l
910862 53340 915171 53340 6096 l
915171 53340 910891 49060 6096 l
910891 49060 910862 49010 6096 l
910862 49010 910862 53340 6096 l
112888 14612 111559 14612 6096 l
111559 14612 112888 16915 6096 l
112888 16915 112888 14612 6096 l
29612 18362 29612 42720 6096 l
29612 42720 30988 44096 6096 l
30988 44096 30988 36685 6096 l
30988 36685 32071 34071 6096 l
32071 34071 34071 32071 6096 l
34071 32071 36685 30988 6096 l
36685 30988 58565 30988 6096 l
58565 30988 60708 31876 6096 l
60708 31876 60708 28038 6096 l
60708 28038 62629 20868 6096 l
62629 20868 64076 18362 6096 l
64076 18362 29612 18362 6096 l
64262 45865 64262 53340 6096 l
64262 53340 70621 53340 6096 l
70621 53340 66341 49060 6096 l
66341 49060 64262 45460 6096 l
64262 45460 64262 45865 6096 l
112888 53340 112888 46585 6096 l
112888 46585 111459 49060 6096 l
111459 49060 107179 53340 6096 l
107179 53340 112888 53340 6096 l
997888 102362 997277 102362 6096 l
997277 102362 997888 102673 6096 l
997888 102673 997888 102362 6096 l
648985 156112 647700 155580 6096 l
647700 155580 646415 156112 6096 l
646415 156112 645160 156112 6096 l
645160 156112 645160 161959 6096 l
645160 161959 646628 163427 6096 l
646628 163427 647700 166015 6096 l
647700 166015 648772 163427 6096 l
648772 163427 650240 161959 6096 l
650240 161959 650240 156112 6096 l
650240 156112 648985 156112 6096 l
699785 156112 698500 155580 6096 l
698500 155580 697215 156112 6096 l
697215 156112 695960 156112 6096 l
695960 156112 695960 161959 6096 l
695960 161959 697428 163427 6096 l
697428 163427 698500 166015 6096 l
698500 166015 699572 163427 6096 l
699572 163427 701040 161959 6096 l
701040 161959 701040 156112 6096 l
701040 156112 699785 156112 6096 l
737560 196596 736600 196596 6096 l
736600 196596 736600 177800 6096 l
736600 177800 736600 177800 6096 l
736600 177800 736600 196596 6096 l
736600 196596 735640 196596 6096 l
735640 196596 733745 196296 6096 l
733745 196296 731920 195703 6096 l
731920 195703 730210 194832 6096 l
730210 194832 728657 193704 6096 l
728657 193704 727300 192347 6096 l
727300 192347 726172 190794 6096 l
726172 190794 725301 189084 6096 l
725301 189084 724776 187469 6096 l
724776 187469 722828 192173 6096 l
722828 192173 718969 196032 6096 l
718969 196032 713928 198120 6096 l
713928 198120 708472 198120 6096 l
708472 198120 703431 196032 6096 l
703431 196032 699572 192173 6096 l
699572 192173 698500 189585 6096 l
698500 189585 697428 192173 6096 l
697428 192173 693569 196032 6096 l
693569 196032 688528 198120 6096 l
688528 198120 683072 198120 6096 l
683072 198120 678031 196032 6096 l
678031 196032 674172 192173 6096 l
674172 192173 673100 189585 6096 l
673100 189585 672028 192173 6096 l
672028 192173 668169 196032 6096 l
668169 196032 663128 198120 6096 l
663128 198120 657672 198120 6096 l
657672 198120 652631 196032 6096 l
652631 196032 648772 192173 6096 l
648772 192173 647700 189585 6096 l
647700 189585 646628 192173 6096 l
646628 192173 642769 196032 6096 l
642769 196032 637728 198120 6096 l
637728 198120 632272 198120 6096 l
632272 198120 627231 196032 6096 l
627231 196032 623372 192173 6096 l
623372 192173 622300 189585 6096 l
622300 189585 621228 192173 6096 l
621228 192173 617369 196032 6096 l
617369 196032 612328 198120 6096 l
612328 198120 606872 198120 6096 l
606872 198120 601831 196032 6096 l
601831 196032 597972 192173 6096 l
597972 192173 596024 187469 6096 l
596024 187469 595499 189084 6096 l
595499 189084 594628 190794 6096 l
594628 190794 593500 192347 6096 l
593500 192347 592143 193704 6096 l
592143 193704 590590 194832 6096 l
590590 194832 588880 195703 6096 l
588880 195703 587055 196296 6096 l
587055 196296 585160 196596 6096 l
585160 196596 584200 196596 6096 l
584200 196596 584200 177800 6096 l
584200 177800 584200 177800 6096 l
584200 177800 584200 196596 6096 l
584200 196596 583240 196596 6096 l
583240 196596 581345 196296 6096 l
581345 196296 579520 195703 6096 l
579520 195703 577810 194832 6096 l
577810 194832 576257 193704 6096 l
576257 193704 574900 192347 6096 l
574900 192347 573772 190794 6096 l
573772 190794 572901 189084 6096 l
572901 189084 572308 187259 6096 l
572308 187259 572008 185364 6096 l
572008 185364 572008 177800 6096 l
572008 177800 584200 177800 6096 l
584200 177800 584200 177800 6096 l
584200 177800 572008 177800 6096 l
572008 177800 572008 170236 6096 l
572008 170236 572308 168341 6096 l
572308 168341 572901 166516 6096 l
572901 166516 573772 164806 6096 l
573772 164806 574900 163253 6096 l
574900 163253 576257 161896 6096 l
576257 161896 577810 160768 6096 l
577810 160768 579520 159897 6096 l
579520 159897 581345 159304 6096 l
581345 159304 583240 159004 6096 l
583240 159004 584200 159004 6096 l
584200 159004 584200 177800 6096 l
584200 177800 584200 177800 6096 l
584200 177800 584200 159004 6096 l
584200 159004 585160 159004 6096 l
585160 159004 587055 159304 6096 l
587055 159304 588880 159897 6096 l
588880 159897 590590 160768 6096 l
590590 160768 592143 161896 6096 l
592143 161896 593500 163253 6096 l
593500 163253 594628 164806 6096 l
594628 164806 595499 166516 6096 l
595499 166516 596024 168131 6096 l
596024 168131 597972 163427 6096 l
597972 163427 599440 161959 6096 l
599440 161959 599440 156112 6096 l
599440 156112 598185 156112 6096 l
598185 156112 595571 155029 6096 l
595571 155029 593571 153029 6096 l
593571 153029 592488 150415 6096 l
592488 150415 592488 131585 6096 l
592488 131585 593571 128971 6096 l
593571 128971 595542 127000 6096 l
595542 127000 593571 125029 6096 l
593571 125029 592797 123160 6096 l
592797 123160 530860 123160 6096 l
530860 123160 530860 145288 6096 l
530860 145288 534815 145288 6096 l
534815 145288 537429 146371 6096 l
537429 146371 539429 148371 6096 l
539429 148371 540512 150985 6096 l
540512 150985 540512 172865 6096 l
540512 172865 539429 175479 6096 l
539429 175479 537429 177479 6096 l
537429 177479 534815 178562 6096 l
534815 178562 531960 178562 6096 l
531960 178562 531960 181871 6096 l
531960 181871 531112 183918 6096 l
531112 183918 531112 193065 6096 l
531112 193065 530029 195679 6096 l
530029 195679 528029 197679 6096 l
528029 197679 525415 198762 6096 l
525415 198762 509585 198762 6096 l
509585 198762 506971 197679 6096 l
506971 197679 506362 197070 6096 l
506362 197070 505736 197238 6096 l
505736 197238 498702 197238 6096 l
498702 197238 498702 184352 6096 l
498702 184352 498298 184352 6096 l
498298 184352 498298 197238 6096 l
498298 197238 491264 197238 6096 l
491264 197238 489843 196857 6096 l
489843 196857 488569 196122 6096 l
488569 196122 487528 195081 6096 l
487528 195081 486793 193807 6096 l
486793 193807 486412 192386 6096 l
486412 192386 486412 184352 6096 l
486412 184352 498298 184352 6096 l
498298 184352 498298 183948 6096 l
498298 183948 486412 183948 6096 l
486412 183948 486412 175914 6096 l
486412 175914 486793 174493 6096 l
486793 174493 487528 173219 6096 l
487528 173219 488569 172178 6096 l
488569 172178 488802 172044 6096 l
488802 172044 484208 167450 6096 l
484208 167450 484208 162400 6096 l
484208 162400 496400 162400 6096 l
496400 162400 496400 162400 6096 l
496400 162400 484208 162400 6096 l
484208 162400 484208 157350 6096 l
484208 157350 491350 150208 6096 l
491350 150208 496400 150208 6096 l
496400 150208 496400 162400 6096 l
496400 162400 496400 162400 6096 l
496400 162400 496400 150208 6096 l
496400 150208 501210 150208 6096 l
501210 150208 501971 148371 6096 l
501971 148371 503971 146371 6096 l
503971 146371 506585 145288 6096 l
506585 145288 510540 145288 6096 l
510540 145288 510540 112279 6096 l
510540 112279 512087 108545 6096 l
512087 108545 513387 107245 6096 l
513387 107245 516245 104387 6096 l
516245 104387 519979 102840 6096 l
519979 102840 592797 102840 6096 l
592797 102840 593571 100971 6096 l
593571 100971 595482 99060 6096 l
595482 99060 251858 99060 6096 l
251858 99060 249060 101858 6096 l
249060 101858 249060 107188 6096 l
249060 107188 249065 107188 6096 l
249065 107188 251679 108271 6096 l
251679 108271 253679 110271 6096 l
253679 110271 254762 112885 6096 l
254762 112885 254762 141115 6096 l
254762 141115 253679 143729 6096 l
253679 143729 251679 145729 6096 l
251679 145729 249065 146812 6096 l
249065 146812 245362 146812 6096 l
245362 146812 245362 154965 6096 l
245362 154965 244279 157579 6096 l
244279 157579 242279 159579 6096 l
242279 159579 239665 160662 6096 l
239665 160662 223835 160662 6096 l
223835 160662 221221 159579 6096 l
221221 159579 220612 158970 6096 l
220612 158970 219986 159138 6096 l
219986 159138 212952 159138 6096 l
212952 159138 212952 146252 6096 l
212952 146252 212548 146252 6096 l
212548 146252 212548 159138 6096 l
212548 159138 205514 159138 6096 l
205514 159138 204093 158757 6096 l
204093 158757 202819 158022 6096 l
202819 158022 201778 156981 6096 l
201778 156981 201043 155707 6096 l
201043 155707 200662 154286 6096 l
200662 154286 200662 146252 6096 l
200662 146252 212548 146252 6096 l
212548 146252 212548 145848 6096 l
212548 145848 200662 145848 6096 l
200662 145848 200662 137814 6096 l
200662 137814 201043 136393 6096 l
201043 136393 201778 135119 6096 l
201778 135119 202819 134078 6096 l
202819 134078 204093 133343 6096 l
204093 133343 204494 133236 6096 l
204494 133236 201308 130050 6096 l
201308 130050 201308 125000 6096 l
201308 125000 213500 125000 6096 l
213500 125000 213500 125000 6096 l
213500 125000 201308 125000 6096 l
201308 125000 201308 119950 6096 l
201308 119950 208450 112808 6096 l
208450 112808 213500 112808 6096 l
213500 112808 213500 125000 6096 l
213500 125000 213500 125000 6096 l
213500 125000 213500 112808 6096 l
213500 112808 218550 112808 6096 l
218550 112808 221488 115746 6096 l
221488 115746 221488 112885 6096 l
221488 112885 222571 110271 6096 l
222571 110271 224571 108271 6096 l
224571 108271 227185 107188 6096 l
227185 107188 228740 107188 6096 l
228740 107188 228740 95629 6096 l
228740 95629 230287 91895 6096 l
230287 91895 233145 89037 6096 l
233145 89037 233145 89037 6096 l
233145 89037 241895 80287 6096 l
241895 80287 245629 78740 6096 l
245629 78740 630671 78740 6096 l
630671 78740 634405 80287 6096 l
634405 80287 643613 89495 6096 l
643613 89495 645160 93229 6096 l
645160 93229 645160 97888 6096 l
645160 97888 646415 97888 6096 l
646415 97888 647700 98420 6096 l
647700 98420 648985 97888 6096 l
648985 97888 650240 97888 6096 l
650240 97888 650240 86758 6096 l
650240 86758 637142 73660 6096 l
637142 73660 64262 73660 6096 l
64262 73660 64262 90315 6096 l
64262 90315 63179 92929 6096 l
63179 92929 61179 94929 6096 l
61179 94929 58565 96012 6096 l
58565 96012 36685 96012 6096 l
36685 96012 34071 94929 6096 l
34071 94929 32071 92929 6096 l
32071 92929 30988 90315 6096 l
30988 90315 30988 89840 6096 l
30988 89840 30721 89729 6096 l
30721 89729 30112 89120 6096 l
30112 89120 29612 89254 6096 l
29612 89254 29612 101172 6096 l
29612 101172 38100 101172 6096 l
38100 101172 38100 114300 6096 l
38100 114300 38100 114300 6096 l
38100 114300 38100 101172 6096 l
38100 101172 46673 101172 6096 l
46673 101172 48714 101495 6096 l
48714 101495 50679 102134 6096 l
50679 102134 52521 103072 6096 l
52521 103072 54192 104287 6096 l
54192 104287 55653 105748 6096 l
55653 105748 56868 107419 6096 l
56868 107419 57806 109261 6096 l
57806 109261 58445 111226 6096 l
58445 111226 58768 113267 6096 l
58768 113267 58768 114300 6096 l
58768 114300 38100 114300 6096 l
38100 114300 38100 114300 6096 l
38100 114300 58768 114300 6096 l
58768 114300 58768 115333 6096 l
58768 115333 58445 117374 6096 l
58445 117374 57806 119339 6096 l
57806 119339 56868 121181 6096 l
56868 121181 55653 122852 6096 l
55653 122852 54192 124313 6096 l
54192 124313 52521 125528 6096 l
52521 125528 50679 126466 6096 l
50679 126466 49036 127000 6096 l
49036 127000 50679 127534 6096 l
50679 127534 52521 128472 6096 l
52521 128472 54192 129687 6096 l
54192 129687 55653 131148 6096 l
55653 131148 56868 132819 6096 l
56868 132819 57806 134661 6096 l
57806 134661 58445 136626 6096 l
58445 136626 58768 138667 6096 l
58768 138667 58768 139700 6096 l
58768 139700 38100 139700 6096 l
38100 139700 38100 139700 6096 l
38100 139700 58768 139700 6096 l
58768 139700 58768 140733 6096 l
58768 140733 58445 142774 6096 l
58445 142774 57806 144739 6096 l
57806 144739 56868 146581 6096 l
56868 146581 55653 148252 6096 l
55653 148252 54192 149713 6096 l
54192 149713 52521 150928 6096 l
52521 150928 50679 151866 6096 l
50679 151866 48714 152505 6096 l
48714 152505 46673 152828 6096 l
46673 152828 38100 152828 6096 l
38100 152828 38100 139700 6096 l
38100 139700 38100 139700 6096 l
38100 139700 38100 152828 6096 l
38100 152828 33362 152828 6096 l
33362 152828 33362 162583 6096 l
33362 162583 34388 162308 6096 l
34388 162308 41812 162308 6096 l
41812 162308 48982 164229 6096 l
48982 164229 55410 167941 6096 l
55410 167941 60659 173190 6096 l
60659 173190 64371 179618 6096 l
64371 179618 66292 186788 6096 l
66292 186788 66292 194212 6096 l
66292 194212 64972 199138 6096 l
64972 199138 83915 199138 6096 l
83915 199138 86529 200221 6096 l
86529 200221 88529 202221 6096 l
88529 202221 89612 204835 6096 l
89612 204835 89612 210388 6096 l
89612 210388 964269 210388 6096 l
964269 210388 961691 207810 6096 l
961691 207810 957979 201382 6096 l
957979 201382 956058 194212 6096 l
956058 194212 956058 186788 6096 l
956058 186788 957979 179618 6096 l
957979 179618 961691 173190 6096 l
961691 173190 966940 167941 6096 l
966940 167941 973368 164229 6096 l
973368 164229 980538 162308 6096 l
980538 162308 987962 162308 6096 l
987962 162308 995132 164229 6096 l
995132 164229 997888 165821 6096 l
997888 165821 997888 151327 6096 l
997888 151327 996829 151866 6096 l
996829 151866 994864 152505 6096 l
994864 152505 992823 152828 6096 l
992823 152828 984250 152828 6096 l
984250 152828 984250 139700 6096 l
984250 139700 984250 139700 6096 l
984250 139700 984250 152828 6096 l
984250 152828 975677 152828 6096 l
975677 152828 973636 152505 6096 l
973636 152505 971671 151866 6096 l
971671 151866 969829 150928 6096 l
969829 150928 968158 149713 6096 l
968158 149713 966697 148252 6096 l
966697 148252 965482 146581 6096 l
965482 146581 964544 144739 6096 l
964544 144739 963905 142774 6096 l
963905 142774 963582 140733 6096 l
963582 140733 963582 139700 6096 l
963582 139700 984250 139700 6096 l
984250 139700 984250 139700 6096 l
984250 139700 963582 139700 6096 l
963582 139700 963582 138667 6096 l
963582 138667 963905 136626 6096 l
963905 136626 964544 134661 6096 l
964544 134661 965482 132819 6096 l
965482 132819 966697 131148 6096 l
966697 131148 968158 129687 6096 l
968158 129687 969829 128472 6096 l
969829 128472 971671 127534 6096 l
971671 127534 973314 127000 6096 l
973314 127000 971671 126466 6096 l
971671 126466 969829 125528 6096 l
969829 125528 968158 124313 6096 l
968158 124313 966697 122852 6096 l
966697 122852 965482 121181 6096 l
965482 121181 964544 119339 6096 l
964544 119339 963905 117374 6096 l
963905 117374 963582 115333 6096 l
963582 115333 963582 114300 6096 l
963582 114300 984250 114300 6096 l
984250 114300 984250 114300 6096 l
984250 114300 963582 114300 6096 l
963582 114300 963582 113267 6096 l
963582 113267 963905 111226 6096 l
963905 111226 964544 109261 6096 l
964544 109261 965482 107419 6096 l
965482 107419 966697 105748 6096 l
966697 105748 968158 104287 6096 l
968158 104287 969829 103072 6096 l
969829 103072 971671 102134 6096 l
971671 102134 973636 101495 6096 l
973636 101495 975677 101172 6096 l
975677 101172 980114 101172 6096 l
980114 101172 978221 99279 6096 l
978221 99279 977138 96665 6096 l
977138 96665 977138 96012 6096 l
977138 96012 944735 96012 6096 l
944735 96012 942121 94929 6096 l
942121 94929 940121 92929 6096 l
940121 92929 939038 90315 6096 l
939038 90315 939038 73660 6096 l
939038 73660 805578 73660 6096 l
805578 73660 815063 83145 6096 l
815063 83145 816610 86879 6096 l
816610 86879 816610 107188 6096 l
816610 107188 820565 107188 6096 l
820565 107188 823179 108271 6096 l
823179 108271 825179 110271 6096 l
825179 110271 826262 112885 6096 l
826262 112885 826262 141115 6096 l
826262 141115 825179 143729 6096 l
825179 143729 823179 145729 6096 l
823179 145729 820565 146812 6096 l
820565 146812 816862 146812 6096 l
816862 146812 816862 161315 6096 l
816862 161315 815779 163929 6096 l
815779 163929 813779 165929 6096 l
813779 165929 811165 167012 6096 l
811165 167012 795335 167012 6096 l
795335 167012 792721 165929 6096 l
792721 165929 792112 165320 6096 l
792112 165320 791486 165488 6096 l
791486 165488 784452 165488 6096 l
784452 165488 784452 152602 6096 l
784452 152602 784048 152602 6096 l
784048 152602 784048 165488 6096 l
784048 165488 777014 165488 6096 l
777014 165488 775593 165107 6096 l
775593 165107 774319 164372 6096 l
774319 164372 773278 163331 6096 l
773278 163331 772543 162057 6096 l
772543 162057 772162 160636 6096 l
772162 160636 772162 152602 6096 l
772162 152602 784048 152602 6096 l
784048 152602 784048 152198 6096 l
784048 152198 772162 152198 6096 l
772162 152198 772162 144164 6096 l
772162 144164 772543 142743 6096 l
772543 142743 773278 141469 6096 l
773278 141469 774319 140428 6096 l
774319 140428 775593 139693 6096 l
775593 139693 777014 139312 6096 l
777014 139312 784048 139312 6096 l
784048 139312 784048 152198 6096 l
784048 152198 784452 152198 6096 l
784452 152198 784452 139312 6096 l
784452 139312 786638 139312 6096 l
786638 139312 786638 134604 6096 l
786638 134604 784450 136792 6096 l
784450 136792 779400 136792 6096 l
779400 136792 779400 124600 6096 l
779400 124600 779400 124600 6096 l
779400 124600 779400 136792 6096 l
779400 136792 774350 136792 6096 l
774350 136792 767208 129650 6096 l
767208 129650 767208 124600 6096 l
767208 124600 779400 124600 6096 l
779400 124600 779400 124600 6096 l
779400 124600 767208 124600 6096 l
767208 124600 767208 119550 6096 l
767208 119550 774350 112408 6096 l
774350 112408 779400 112408 6096 l
779400 112408 779400 124600 6096 l
779400 124600 779400 124600 6096 l
779400 124600 779400 112408 6096 l
779400 112408 784450 112408 6096 l
784450 112408 786638 114596 6096 l
786638 114596 786638 112885 6096 l
786638 112885 787721 110271 6096 l
787721 110271 789721 108271 6096 l
789721 108271 792335 107188 6096 l
792335 107188 796290 107188 6096 l
796290 107188 796290 93108 6096 l
796290 93108 789542 86360 6096 l
789542 86360 721758 86360 6096 l
721758 86360 721360 86758 6096 l
721360 86758 721360 97888 6096 l
721360 97888 722615 97888 6096 l
722615 97888 725229 98971 6096 l
725229 98971 727229 100971 6096 l
727229 100971 728312 103585 6096 l
728312 103585 728312 122415 6096 l
728312 122415 727229 125029 6096 l
727229 125029 725258 127000 6096 l
725258 127000 727229 128971 6096 l
727229 128971 728312 131585 6096 l
728312 131585 728312 150415 6096 l
728312 150415 727229 153029 6096 l
727229 153029 725229 155029 6096 l
725229 155029 722615 156112 6096 l
722615 156112 721360 156112 6096 l
721360 156112 721360 161959 6096 l
721360 161959 722828 163427 6096 l
722828 163427 724776 168131 6096 l
724776 168131 725301 166516 6096 l
725301 166516 726172 164806 6096 l
726172 164806 727300 163253 6096 l
727300 163253 728657 161896 6096 l
728657 161896 730210 160768 6096 l
730210 160768 731920 159897 6096 l
731920 159897 733745 159304 6096 l
733745 159304 735640 159004 6096 l
735640 159004 736600 159004 6096 l
736600 159004 736600 177800 6096 l
736600 177800 736600 177800 6096 l
736600 177800 736600 159004 6096 l
736600 159004 737560 159004 6096 l
737560 159004 739455 159304 6096 l
739455 159304 741280 159897 6096 l
741280 159897 742990 160768 6096 l
742990 160768 744543 161896 6096 l
744543 161896 745900 163253 6096 l
745900 163253 747028 164806 6096 l
747028 164806 747899 166516 6096 l
747899 166516 748492 168341 6096 l
748492 168341 748792 170236 6096 l
748792 170236 748792 177800 6096 l
748792 177800 736600 177800 6096 l
736600 177800 736600 177800 6096 l
736600 177800 748792 177800 6096 l
748792 177800 748792 185364 6096 l
748792 185364 748492 187259 6096 l
748492 187259 747899 189084 6096 l
747899 189084 747028 190794 6096 l
747028 190794 745900 192347 6096 l
745900 192347 744543 193704 6096 l
744543 193704 742990 194832 6096 l
742990 194832 741280 195703 6096 l
741280 195703 739455 196296 6096 l
739455 196296 737560 196596 6096 l
674385 156112 673100 155580 6096 l
673100 155580 671815 156112 6096 l
671815 156112 670560 156112 6096 l
670560 156112 670560 161959 6096 l
670560 161959 672028 163427 6096 l
672028 163427 673100 166015 6096 l
673100 166015 674172 163427 6096 l
674172 163427 675640 161959 6096 l
675640 161959 675640 156112 6096 l
675640 156112 674385 156112 6096 l
623585 156112 622300 155580 6096 l
622300 155580 621015 156112 6096 l
621015 156112 619760 156112 6096 l
619760 156112 619760 161959 6096 l
619760 161959 621228 163427 6096 l
621228 163427 622300 166015 6096 l
622300 166015 623372 163427 6096 l
623372 163427 624840 161959 6096 l
624840 161959 624840 156112 6096 l
624840 156112 623585 156112 6096 l
29612 63146 30112 63280 6096 l
30112 63280 30721 62671 6096 l
30721 62671 30988 62560 6096 l
30988 62560 30988 59304 6096 l
30988 59304 29612 60680 6096 l
29612 60680 29612 63146 6096 l
30988 51700 29612 51700 6096 l
29612 51700 29612 51700 6096 l
29612 51700 30988 51700 6096 l
30988 51700 30988 51700 6096 l
38100 126572 38100 114300 6096 l
38100 114300 38100 114300 6096 l
38100 114300 38100 139700 6096 l
38100 139700 38100 139700 6096 l
38100 139700 38100 126572 6096 l
29612 22860 62096 22860 6096 l
29612 28575 60708 28575 6096 l
29612 34290 31980 34290 6096 l
29612 40005 30988 40005 6096 l
64262 45720 64412 45720 6096 l
64262 51435 68716 51435 6096 l
109084 51435 112888 51435 6096 l
910862 51435 913266 51435 6096 l
29612 62865 30527 62865 6096 l
655083 62865 691117 62865 6096 l
660798 68580 685402 68580 6096 l
64262 74295 637777 74295 6096 l
666513 74295 679687 74295 6096 l
806213 74295 939038 74295 6096 l
64262 80010 242563 80010 6096 l
633737 80010 643492 80010 6096 l
670345 80010 675855 80010 6096 l
811928 80010 939038 80010 6096 l
64262 85725 236457 85725 6096 l
639843 85725 649207 85725 6096 l
670560 85725 675640 85725 6096 l
696993 85725 701040 85725 6096 l
816132 85725 939038 85725 6096 l
29612 91440 31454 91440 6096 l
63796 91440 230742 91440 6096 l
644419 91440 650240 91440 6096 l
670560 91440 675640 91440 6096 l
695960 91440 701040 91440 6096 l
721360 91440 794622 91440 6096 l
816610 91440 939504 91440 6096 l
29612 97155 228740 97155 6096 l
645160 97155 650240 97155 6096 l
670560 97155 675640 97155 6096 l
695960 97155 701040 97155 6096 l
721360 97155 796290 97155 6096 l
816610 97155 977341 97155 6096 l
38100 102870 38100 102870 6096 l
52124 102870 228740 102870 6096 l
249060 102870 519907 102870 6096 l
728016 102870 796290 102870 6096 l
816610 102870 970226 102870 6096 l
38100 108585 38100 108585 6096 l
57462 108585 224257 108585 6096 l
251993 108585 512070 108585 6096 l
728312 108585 789407 108585 6096 l
823493 108585 964888 108585 6096 l
38100 114300 206958 114300 6096 l
213500 114300 213500 114300 6096 l
220042 114300 221488 114300 6096 l
254762 114300 510540 114300 6096 l
728312 114300 772458 114300 6096 l
779400 114300 779400 114300 6096 l
786342 114300 786638 114300 6096 l
826262 114300 984250 114300 6096 l
984250 114300 997888 114300 6096 l
38100 120015 38100 120015 6096 l
57462 120015 201308 120015 6096 l
213500 120015 213500 120015 6096 l
254762 120015 510540 120015 6096 l
728312 120015 767208 120015 6096 l
779400 120015 779400 120015 6096 l
826262 120015 964888 120015 6096 l
984250 120015 984250 120015 6096 l
38100 125730 38100 125730 6096 l
52124 125730 201308 125730 6096 l
254762 125730 510540 125730 6096 l
530860 125730 594272 125730 6096 l
726528 125730 767208 125730 6096 l
779400 125730 779400 125730 6096 l
826262 125730 970226 125730 6096 l
984250 125730 984250 125730 6096 l
38100 131445 38100 131445 6096 l
55869 131445 202703 131445 6096 l
254762 131445 510540 131445 6096 l
530860 131445 592546 131445 6096 l
728254 131445 769003 131445 6096 l
779400 131445 779400 131445 6096 l
826262 131445 966480 131445 6096 l
984250 131445 984250 131445 6096 l
38100 137160 38100 137160 6096 l
58529 137160 200837 137160 6096 l
254762 137160 510540 137160 6096 l
530860 137160 592488 137160 6096 l
728312 137160 786638 137160 6096 l
826262 137160 963821 137160 6096 l
984250 137160 984250 137160 6096 l
38100 142875 38100 142875 6096 l
58412 142875 200662 142875 6096 l
254033 142875 510540 142875 6096 l
530860 142875 592488 142875 6096 l
728312 142875 772507 142875 6096 l
784048 142875 784452 142875 6096 l
825533 142875 963938 142875 6096 l
984250 142875 984250 142875 6096 l
38100 148590 38100 148590 6096 l
55316 148590 200662 148590 6096 l
212548 148590 212952 148590 6096 l
245362 148590 501880 148590 6096 l
539520 148590 592488 148590 6096 l
728312 148590 772162 148590 6096 l
784048 148590 784452 148590 6096 l
816862 148590 967034 148590 6096 l
984250 148590 984250 148590 6096 l
33362 154305 200667 154305 6096 l
212548 154305 212952 154305 6096 l
245362 154305 487253 154305 6096 l
496400 154305 496400 154305 6096 l
540512 154305 594847 154305 6096 l
725953 154305 772162 154305 6096 l
784048 154305 784452 154305 6096 l
816862 154305 997888 154305 6096 l
33362 160020 222285 160020 6096 l
241215 160020 484208 160020 6096 l
496400 160020 496400 160020 6096 l
540512 160020 579279 160020 6096 l
584200 160020 584200 160020 6096 l
589121 160020 599440 160020 6096 l
619760 160020 624840 160020 6096 l
645160 160020 650240 160020 6096 l
670560 160020 675640 160020 6096 l
695960 160020 701040 160020 6096 l
721360 160020 731679 160020 6096 l
736600 160020 736600 160020 6096 l
741521 160020 772162 160020 6096 l
784048 160020 784452 160020 6096 l
816862 160020 997888 160020 6096 l
51590 165735 484208 165735 6096 l
540512 165735 573299 165735 6096 l
584200 165735 584200 165735 6096 l
595101 165735 597016 165735 6096 l
622184 165735 622416 165735 6096 l
647584 165735 647816 165735 6096 l
672984 165735 673216 165735 6096 l
698384 165735 698616 165735 6096 l
723784 165735 725699 165735 6096 l
736600 165735 736600 165735 6096 l
747501 165735 792527 165735 6096 l
813973 165735 970760 165735 6096 l
997740 165735 997888 165735 6096 l
58920 171450 488208 171450 6096 l
540512 171450 572008 171450 6096 l
584200 171450 584200 171450 6096 l
736600 171450 736600 171450 6096 l
748792 171450 963430 171450 6096 l
62954 177165 486412 177165 6096 l
537743 177165 572008 177165 6096 l
584200 177165 584200 177165 6096 l
736600 177165 736600 177165 6096 l
748792 177165 959396 177165 6096 l
65245 182880 486412 182880 6096 l
531542 182880 572008 182880 6096 l
584200 182880 584200 182880 6096 l
736600 182880 736600 182880 6096 l
748792 182880 957105 182880 6096 l
66292 188595 486412 188595 6096 l
498298 188595 498702 188595 6096 l
531112 188595 572742 188595 6096 l
584200 188595 584200 188595 6096 l
595658 188595 596490 188595 6096 l
724310 188595 725142 188595 6096 l
736600 188595 736600 188595 6096 l
748058 188595 956058 188595 6096 l
66266 194310 487083 194310 6096 l
498298 194310 498702 194310 6096 l
530596 194310 577092 194310 6096 l
584200 194310 584200 194310 6096 l
591308 194310 600109 194310 6096 l
619091 194310 625509 194310 6096 l
644491 194310 650909 194310 6096 l
669891 194310 676309 194310 6096 l
695291 194310 701709 194310 6096 l
720691 194310 729492 194310 6096 l
736600 194310 736600 194310 6096 l
743708 194310 956084 194310 6096 l
86056 200025 957616 200025 6096 l
89612 205740 960496 205740 6096 l
609600 177800 609600 141000 6096 l
635000 177800 635000 141000 6096 l
660400 177800 660400 141000 6096 l
685800 177800 685800 141000 6096 l
711200 177800 711200 141000 6096 l
88900 31750 42160 p
38100 190500 42160 p
984250 190500 42160 p
933450 31750 42160 p
521800 162400 8128 h
496400 162400 8128 h
804800 124600 8128 h
779400 124600 8128 h
238900 125000 8128 h
213500 125000 8128 h
971300 52000 8128 h
996700 52000 8128 h
46750 51700 8128 h
21350 51700 8128 h
584200 177800 8128 h
609600 177800 8128 h
635000 177800 8128 h
660400 177800 8128 h
685800 177800 8128 h
711200 177800 8128 h
736600 177800 8128 h
38100 114300 10000 h
38100 139700 10000 h
984250 139700 10000 h
984250 114300 10000 h
88900 31750 32000 h
38100 190500 32000 h
984250 190500 32000 h
933450 31750 32000 h
