%!PS-Adobe-3.0 EPSF-3.0
%%Title: EAGLE Drawing D:/Diymicro.ru/Projects/Busyboard/Steering_wheel/PCB/LED_board/LED_board/LED_board2.brd
%%Creator: EAGLE
%%Pages: 1
%%BoundingBox: 0 0 317 67
%%EndComments

% Coordinate transfer:

/EU { 254 div 0.072 mul } def
/inch { 72 mul } def

% Linestyle:

1 setlinecap
1 setlinejoin

% Drawing functions:

/l {  % draw a line
   /lw exch def
   /y2 exch def
   /x2 exch def
   /y1 exch def
   /x1 exch def
   newpath
   x1 EU y1 EU moveto
   x2 EU y2 EU lineto
   lw EU setlinewidth
   stroke
   } def

/h {  % draw a hole
   /d  exch def
   /y  exch def
   /x  exch def
   d 0 gt {
     newpath
     x EU y EU d 2 div EU 0 360 arc
     currentgray dup
     1 exch sub setgray
     fill
     setgray
     } if
   } def

/b {  % draw a bar
   /an exch def
   /y2 exch def
   /x2 exch def
   /y1 exch def
   /x1 exch def
   /w2 x2 x1 sub 2 div EU def
   /h2 y2 y1 sub 2 div EU def
   gsave
   x1 x2 add 2 div EU y1 y2 add 2 div EU translate
   an rotate
   newpath
   w2     h2     moveto
   w2 neg h2     lineto
   w2 neg h2 neg lineto
   w2     h2 neg lineto
   closepath
   fill
   grestore
   } def

/c {  % draw a circle
   /lw exch def
   /rd exch def
   /y  exch def
   /x  exch def
   newpath
   lw EU setlinewidth
   x EU y EU rd EU 0 360 arc
   stroke
   } def

/a {  % draw an arc
   /lc exch def
   /ae exch def
   /as exch def
   /lw exch def
   /rd exch def
   /y  exch def
   /x  exch def
   lw rd 2 mul gt {
     /rd rd lw 2 div add 2 div def
     /lw rd 2 mul def
     } if
   currentlinecap currentlinejoin
   lc setlinecap 0 setlinejoin
   newpath
   lw EU setlinewidth
   x EU y EU rd EU as ae arc
   stroke
   setlinejoin setlinecap
   } def

/p {  % draw a pie
   /d exch def
   /y exch def
   /x exch def
   newpath
   x EU y EU d 2 div EU 0 360 arc
   fill
   } def

/edge { 0.20710678119 mul } def

/o {  % draw an octagon
   /an exch def
   /dy exch def
   /dx exch def
   /y  exch def
   /x  exch def
   gsave
   x EU y EU translate
   an dx dy lt { 90 add /dx dy /dy dx def def } if rotate
   newpath
      0 dx 2 div sub EU                    0 dy edge  add EU moveto
      0 dx dy sub 2 div sub dy edge sub EU 0 dy 2 div add EU lineto
      0 dx dy sub 2 div add dy edge add EU 0 dy 2 div add EU lineto
      0 dx 2 div add EU                    0 dy edge  add EU lineto
      0 dx 2 div add EU                    0 dy edge  sub EU lineto
      0 dx dy sub 2 div add dy edge add EU 0 dy 2 div sub EU lineto
      0 dx dy sub 2 div sub dy edge sub EU 0 dy 2 div sub EU lineto
      0 dx 2 div sub EU                    0 dy edge  sub EU lineto
   closepath
   fill
   grestore
   } def

34200 45300 34200 57500 4064 l
41000 51700 34300 51700 4064 l
34300 51700 27100 51700 4064 l
267450 133400 267450 145100 4064 l
274050 140000 261550 140000 4064 l
502900 159800 515100 159800 4064 l
759350 135950 772150 135950 4064 l
984200 58100 984200 45800 4064 l
978000 52000 989700 52000 4064 l
989700 52000 989700 51900 4064 l
509202 -848900 1018142 4064 61.71 117.80 1 a
7500 0 7500 225000 6096 l
7500 225000 1016250 225000 6096 l
1016250 225000 1016250 221250 6096 l
1016250 221250 1016250 0 6096 l
1016250 0 11250 0 6096 l
11250 0 7500 0 6096 l
7500 0 11250 0 6096 l
510000 165000 510000 153750 6096 l
765000 142500 765000 131250 6096 l
483700 181450 483700 143350 2032 l
509100 162400 31750 2540 216.87 503.13 1 a
509100 162400 25400 1524 c
740450 156900 740450 118800 2032 l
765850 137850 31750 2540 216.87 503.13 1 a
765850 137850 25400 1524 c
242050 159050 242050 120950 2032 l
267450 140000 31750 2540 216.87 503.13 1 a
267450 140000 25400 1524 c
1009400 32950 1009400 71050 2032 l
984000 52000 31750 2540 36.87 323.13 1 a
984000 52000 25400 1524 c
8650 70750 8650 32650 2032 l
34050 51700 31750 2540 216.87 503.13 1 a
34050 51700 25400 1524 c
571500 190500 571500 165100 1524 l
571500 165100 594360 165100 1524 l
594360 165100 596900 167640 1524 l
596900 167640 599440 165100 1524 l
599440 165100 619760 165100 1524 l
619760 165100 622300 167640 1524 l
622300 167640 624840 165100 1524 l
624840 165100 645160 165100 1524 l
645160 165100 647700 167640 1524 l
647700 167640 650240 165100 1524 l
650240 165100 670560 165100 1524 l
670560 165100 673100 167640 1524 l
673100 167640 675640 165100 1524 l
749300 165100 749300 190500 1524 l
675640 190500 673100 187960 1524 l
673100 187960 670560 190500 1524 l
670560 190500 650240 190500 1524 l
650240 190500 647700 187960 1524 l
647700 187960 645160 190500 1524 l
645160 190500 624840 190500 1524 l
624840 190500 622300 187960 1524 l
622300 187960 619760 190500 1524 l
619760 190500 599440 190500 1524 l
599440 190500 596900 187960 1524 l
596900 187960 594360 190500 1524 l
594360 190500 571500 190500 1524 l
675640 165100 695960 165100 1524 l
695960 165100 698500 167640 1524 l
698500 167640 701040 165100 1524 l
701040 165100 721360 165100 1524 l
721360 165100 723900 167640 1524 l
723900 167640 726440 165100 1524 l
726440 190500 723900 187960 1524 l
723900 187960 721360 190500 1524 l
721360 190500 701040 190500 1524 l
701040 190500 698500 187960 1524 l
698500 187960 695960 190500 1524 l
695960 190500 675640 190500 1524 l
749300 190500 726440 190500 1524 l
726440 165100 749300 165100 1524 l
579755 201302 583568 205115 1270 l
583568 205115 583568 193675 1270 l
579755 193675 587382 193675 1270 l
732155 205115 739782 205115 1270 l
739782 205115 739782 203208 1270 l
739782 203208 732155 195582 1270 l
732155 195582 732155 193675 1270 l
6350 101600 6350 152400 2540 l
6350 152400 25400 152400 2540 l
25400 152400 69850 152400 2540 l
69850 152400 69850 101600 2540 l
69850 101600 25400 101600 2540 l
25400 101600 6350 101600 2540 l
25400 101600 25400 152400 2540 l
1016000 152400 1016000 101600 2540 l
1016000 101600 996950 101600 2540 l
996950 101600 952500 101600 2540 l
952500 101600 952500 152400 2540 l
952500 152400 996950 152400 2540 l
996950 152400 1016000 152400 2540 l
996950 152400 996950 101600 2540 l
