%!PS-Adobe-3.0 EPSF-3.0
%%Title: EAGLE Drawing D:/Diymicro.ru/Projects/Busyboard/Steering_wheel/PCB/LED_board/LED_board/LED_board2.brd
%%Creator: EAGLE
%%Pages: 1
%%BoundingBox: 0 0 317 67
%%EndComments

% Coordinate transfer:

/EU { 254 div 0.072 mul } def
/inch { 72 mul } def

% Linestyle:

1 setlinecap
1 setlinejoin

% Drawing functions:

/l {  % draw a line
   /lw exch def
   /y2 exch def
   /x2 exch def
   /y1 exch def
   /x1 exch def
   newpath
   x1 EU y1 EU moveto
   x2 EU y2 EU lineto
   lw EU setlinewidth
   stroke
   } def

/h {  % draw a hole
   /d  exch def
   /y  exch def
   /x  exch def
   d 0 gt {
     newpath
     x EU y EU d 2 div EU 0 360 arc
     currentgray dup
     1 exch sub setgray
     fill
     setgray
     } if
   } def

/b {  % draw a bar
   /an exch def
   /y2 exch def
   /x2 exch def
   /y1 exch def
   /x1 exch def
   /w2 x2 x1 sub 2 div EU def
   /h2 y2 y1 sub 2 div EU def
   gsave
   x1 x2 add 2 div EU y1 y2 add 2 div EU translate
   an rotate
   newpath
   w2     h2     moveto
   w2 neg h2     lineto
   w2 neg h2 neg lineto
   w2     h2 neg lineto
   closepath
   fill
   grestore
   } def

/c {  % draw a circle
   /lw exch def
   /rd exch def
   /y  exch def
   /x  exch def
   newpath
   lw EU setlinewidth
   x EU y EU rd EU 0 360 arc
   stroke
   } def

/a {  % draw an arc
   /lc exch def
   /ae exch def
   /as exch def
   /lw exch def
   /rd exch def
   /y  exch def
   /x  exch def
   lw rd 2 mul gt {
     /rd rd lw 2 div add 2 div def
     /lw rd 2 mul def
     } if
   currentlinecap currentlinejoin
   lc setlinecap 0 setlinejoin
   newpath
   lw EU setlinewidth
   x EU y EU rd EU as ae arc
   stroke
   setlinejoin setlinecap
   } def

/p {  % draw a pie
   /d exch def
   /y exch def
   /x exch def
   newpath
   x EU y EU d 2 div EU 0 360 arc
   fill
   } def

/edge { 0.20710678119 mul } def

/o {  % draw an octagon
   /an exch def
   /dy exch def
   /dx exch def
   /y  exch def
   /x  exch def
   gsave
   x EU y EU translate
   an dx dy lt { 90 add /dx dy /dy dx def def } if rotate
   newpath
      0 dx 2 div sub EU                    0 dy edge  add EU moveto
      0 dx dy sub 2 div sub dy edge sub EU 0 dy 2 div add EU lineto
      0 dx dy sub 2 div add dy edge add EU 0 dy 2 div add EU lineto
      0 dx 2 div add EU                    0 dy edge  add EU lineto
      0 dx 2 div add EU                    0 dy edge  sub EU lineto
      0 dx dy sub 2 div add dy edge add EU 0 dy 2 div sub EU lineto
      0 dx dy sub 2 div sub dy edge sub EU 0 dy 2 div sub EU lineto
      0 dx 2 div sub EU                    0 dy edge  sub EU lineto
   closepath
   fill
   grestore
   } def

990600 44450 1016000 95250 0.0 b
984250 31750 990600 95250 0.0 b
984250 31750 1016000 50800 0.0 b
984250 0 1016000 31750 0.0 b
958850 44450 977900 63500 0.0 b
38100 44450 57150 63500 0.0 b
38100 38100 57150 44450 0.0 b
269850 129300 288900 148350 0.0 b
269850 142000 288900 154700 0.0 b
508000 152400 533400 171450 0.0 b
772100 130750 797500 156150 0.0 b
38100 57150 57150 82550 0.0 b
38100 76200 57150 88900 0.0 b
946150 50800 977900 88900 0.0 b
7500 0 123750 7500 0.0 b
7500 7500 67500 11250 0.0 b
7500 11250 22500 120000 0.0 b
7500 112500 26250 168750 0.0 b
7500 213750 78750 225000 0.0 b
7500 157500 15000 213750 0.0 b
120000 0 903750 52500 0.0 b
903750 0 986250 7500 0.0 b
960000 3750 986250 37500 0.0 b
1005000 93750 1016250 172500 0.0 b
1008750 172500 1016250 221250 0.0 b
952500 217500 1016250 225000 0.0 b
7500 217500 952500 225000 0.0 b
63750 206250 82500 217500 0.0 b
221250 131250 262500 217500 0.0 b
273750 131250 292500 165000 0.0 b
270000 150000 292500 172500 0.0 b
746250 127500 765000 161250 0.0 b
75000 93750 258750 217500 0.0 b
251250 195000 495000 217500 0.0 b
738750 191250 952500 213750 0.0 b
937500 176250 948750 198750 0.0 b
993750 93750 1012500 161250 0.0 b
112500 3750 127500 15000 0.0 b
511000 176650 524000 191650 180.0 b
492000 176650 505000 191650 180.0 b
266500 153550 279500 168550 180.0 b
247500 153550 260500 168550 180.0 b
34750 68700 47750 83700 180.0 b
15750 68700 28750 83700 180.0 b
961900 68700 974900 83700 0.0 b
980900 68700 993900 83700 0.0 b
771350 144900 784350 159900 180.0 b
752350 144900 765350 159900 180.0 b
521800 162400 13208 13208 180.0 o
496400 162400 13208 13208 180.0 o
778550 137850 13208 13208 180.0 o
753150 137850 13208 13208 180.0 o
280150 140000 13208 13208 180.0 o
254750 140000 13208 13208 180.0 o
971300 52000 13208 13208 0.0 o
996700 52000 13208 13208 0.0 o
46750 51700 13208 13208 180.0 o
21350 51700 13208 13208 180.0 o
627000 103000 643000 123000 90.0 b
627000 131000 643000 151000 90.0 b
601600 103000 617600 123000 90.0 b
601600 131000 617600 151000 90.0 b
652400 103000 668400 123000 90.0 b
652400 131000 668400 151000 90.0 b
677800 103000 693800 123000 90.0 b
677800 131000 693800 151000 90.0 b
703200 103000 719200 123000 90.0 b
703200 131000 719200 151000 90.0 b
584200 171196 584200 184404 13208 l
609600 171196 609600 184404 13208 l
635000 171196 635000 184404 13208 l
660400 171196 660400 184404 13208 l
685800 171196 685800 184404 13208 l
711200 171196 711200 184404 13208 l
736600 171196 736600 184404 13208 l
45640 114300 30560 114300 15080 l
45640 139700 30560 139700 15080 l
976710 139700 991790 139700 15080 l
976710 114300 991790 114300 15080 l
521800 162400 520700 161300 6096 l
520700 161300 520700 114300 6096 l
520700 114300 522000 113000 6096 l
522000 113000 609600 113000 6096 l
517500 184150 521800 179850 6096 l
521800 179850 521800 162400 6096 l
635000 113000 635000 95250 6096 l
635000 95250 628650 88900 6096 l
628650 88900 280150 88900 6096 l
280150 88900 280150 140000 6096 l
280150 140000 273000 140000 6096 l
273000 140000 273000 161050 6096 l
660400 113000 660400 82550 6096 l
660400 82550 641350 63500 6096 l
641350 63500 171450 63500 6096 l
171450 63500 69850 63500 6096 l
69850 63500 50800 63500 6096 l
50800 63500 47625 60325 6096 l
47625 60325 46750 59450 6096 l
46750 59450 46750 51700 6096 l
41250 76200 47625 69825 6096 l
47625 69825 47625 60325 6096 l
971300 52000 970771 57069 6096 l
970771 57069 970100 63500 6096 l
970100 63500 704850 63500 6096 l
704850 63500 685800 82550 6096 l
685800 82550 685800 113000 6096 l
968400 76200 970771 73829 6096 l
970771 73829 970771 57069 6096 l
730250 76200 717550 76200 6096 l
717550 76200 711200 82550 6096 l
711200 82550 711200 113000 6096 l
778550 137850 777850 137850 6096 l
778550 137850 787400 129000 6096 l
774700 76200 730250 76200 6096 l
774700 76200 778550 80050 6096 l
778550 80050 778550 137850 6096 l
778550 137850 777850 138550 6096 l
777850 138550 777850 152400 6096 l
889000 4350 127000 4350 8128 l
76200 107950 76200 114300 8128 l
76200 114300 38100 114300 8128 l
38100 114300 38100 139700 8128 l
984250 139700 952500 139700 8128 l
952500 139700 952500 215900 8128 l
952500 215900 787400 215900 8128 l
952500 114300 984250 114300 8128 l
984250 114300 990600 114300 8128 l
984250 114300 984250 139700 8128 l
787400 215900 736600 215900 8128 l
736600 215900 584200 215900 8128 l
584200 215900 495300 215900 8128 l
495300 215900 255000 215900 8128 l
255000 215900 215900 215900 8128 l
215900 215900 76200 215900 8128 l
76200 215900 76200 177800 8128 l
76200 177800 76200 139700 8128 l
76200 139700 38100 139700 8128 l
984250 64450 984250 114300 6096 l
996700 52000 984250 64450 6096 l
21350 51700 22250 52600 6096 l
22250 52600 22250 76200 6096 l
22250 76200 19050 79400 6096 l
19050 79400 19050 107950 6096 l
19050 107950 25400 114300 6096 l
25400 114300 38100 114300 6096 l
736600 177800 736600 215900 6096 l
584200 177800 584200 215900 6096 l
496400 162400 495300 163500 6096 l
495300 163500 495300 215900 6096 l
498500 184150 496400 182050 6096 l
496400 182050 496400 162400 6096 l
254750 140000 254000 140750 6096 l
254000 161050 257150 164200 6096 l
741012 101059 741012 108225 6096 l
741012 108225 742309 107688 6096 l
742309 107688 755690 107688 6096 l
755690 107688 755690 99060 6096 l
755690 99060 740184 99060 6096 l
740184 99060 741012 101059 6096 l
801827 111098 808723 113954 6096 l
808723 113954 814296 119527 6096 l
814296 119527 817312 126809 6096 l
817312 126809 817312 160091 6096 l
817312 160091 814296 167373 6096 l
814296 167373 810230 171438 6096 l
810230 171438 918049 171438 6096 l
918049 171438 920704 165027 6096 l
920704 165027 926277 159454 6096 l
926277 159454 933559 156438 6096 l
933559 156438 952691 156438 6096 l
952691 156438 958200 158720 6096 l
958200 158720 959142 157778 6096 l
959142 157778 968466 152395 6096 l
968466 152395 971246 151650 6096 l
971246 151650 969829 150928 6096 l
969829 150928 968158 149713 6096 l
968158 149713 966697 148252 6096 l
966697 148252 965482 146581 6096 l
965482 146581 964544 144739 6096 l
964544 144739 963905 142774 6096 l
963905 142774 963582 140733 6096 l
963582 140733 963582 139700 6096 l
963582 139700 973938 139700 6096 l
973938 139700 973938 139700 6096 l
973938 139700 963582 139700 6096 l
963582 139700 963582 138667 6096 l
963582 138667 963905 136626 6096 l
963905 136626 964544 134661 6096 l
964544 134661 965482 132819 6096 l
965482 132819 966697 131148 6096 l
966697 131148 968158 129687 6096 l
968158 129687 969829 128472 6096 l
969829 128472 971671 127534 6096 l
971671 127534 973314 127000 6096 l
973314 127000 971671 126466 6096 l
971671 126466 969829 125528 6096 l
969829 125528 968158 124313 6096 l
968158 124313 966697 122852 6096 l
966697 122852 965482 121181 6096 l
965482 121181 964544 119339 6096 l
964544 119339 963905 117374 6096 l
963905 117374 963582 115333 6096 l
963582 115333 963582 114300 6096 l
963582 114300 973938 114300 6096 l
973938 114300 973938 114300 6096 l
973938 114300 963582 114300 6096 l
963582 114300 963582 113267 6096 l
963582 113267 963905 111226 6096 l
963905 111226 964544 109261 6096 l
964544 109261 964823 108712 6096 l
964823 108712 942209 108712 6096 l
942209 108712 934927 105696 6096 l
934927 105696 929354 100123 6096 l
929354 100123 926338 92841 6096 l
926338 92841 926338 86360 6096 l
926338 86360 801410 86360 6096 l
801410 86360 801410 110681 6096 l
801410 110681 801827 111098 6096 l
303723 114454 309296 120027 6096 l
309296 120027 312312 127309 6096 l
312312 127309 312312 175188 6096 l
312312 175188 486607 175188 6096 l
486607 175188 486793 174493 6096 l
486793 174493 487528 173219 6096 l
487528 173219 488188 172559 6096 l
488188 172559 488188 171430 6096 l
488188 171430 484208 167450 6096 l
484208 167450 484208 162400 6096 l
484208 162400 488188 162400 6096 l
488188 162400 488188 162400 6096 l
488188 162400 484208 162400 6096 l
484208 162400 484208 157350 6096 l
484208 157350 488188 153370 6096 l
488188 153370 488188 148459 6096 l
488188 148459 491204 141177 6096 l
491204 141177 496777 135604 6096 l
496777 135604 497840 135164 6096 l
497840 135164 497840 111760 6096 l
497840 111760 303010 111760 6096 l
303010 111760 303010 114159 6096 l
303010 114159 303723 114454 6096 l
585160 196596 584200 196596 6096 l
584200 196596 584200 191674 6096 l
584200 191674 584200 191673 6096 l
584200 191673 584200 196596 6096 l
584200 196596 583240 196596 6096 l
583240 196596 581345 196296 6096 l
581345 196296 579520 195703 6096 l
579520 195703 577810 194832 6096 l
577810 194832 576257 193704 6096 l
576257 193704 574900 192347 6096 l
574900 192347 573772 190794 6096 l
573772 190794 572901 189084 6096 l
572901 189084 572308 187259 6096 l
572308 187259 572008 185364 6096 l
572008 185364 572008 177800 6096 l
572008 177800 583184 177800 6096 l
583184 177800 583184 177800 6096 l
583184 177800 572008 177800 6096 l
572008 177800 572008 170236 6096 l
572008 170236 572308 168341 6096 l
572308 168341 572901 166516 6096 l
572901 166516 573772 164806 6096 l
573772 164806 574900 163253 6096 l
574900 163253 576257 161896 6096 l
576257 161896 577810 160768 6096 l
577810 160768 579520 159897 6096 l
579520 159897 581345 159304 6096 l
581345 159304 582357 159144 6096 l
582357 159144 579788 152941 6096 l
579788 152941 579788 135860 6096 l
579788 135860 544878 135860 6096 l
544878 135860 550196 141177 6096 l
550196 141177 553212 148459 6096 l
553212 148459 553212 175391 6096 l
553212 175391 550196 182673 6096 l
550196 182673 544623 188246 6096 l
544623 188246 543812 188582 6096 l
543812 188582 543812 195591 6096 l
543812 195591 542943 197688 6096 l
542943 197688 586767 197688 6096 l
586767 197688 586055 196454 6096 l
586055 196454 585160 196596 6096 l
584200 161619 584200 161618 6096 l
584200 161618 584200 163927 6096 l
584200 163927 584200 163926 6096 l
584200 163926 584200 161619 6096 l
55188 148718 54192 149713 6096 l
54192 149713 52521 150928 6096 l
52521 150928 51104 151650 6096 l
51104 151650 53884 152395 6096 l
53884 152395 55188 153148 6096 l
55188 153148 55188 148718 6096 l
55188 123318 54192 124313 6096 l
54192 124313 52521 125528 6096 l
52521 125528 50679 126466 6096 l
50679 126466 49036 127000 6096 l
49036 127000 50679 127534 6096 l
50679 127534 52521 128472 6096 l
52521 128472 54192 129687 6096 l
54192 129687 55188 130682 6096 l
55188 130682 55188 123318 6096 l
801410 91440 926338 91440 6096 l
801410 97155 928125 97155 6096 l
741012 102870 755690 102870 6096 l
801410 102870 932102 102870 6096 l
801410 108585 941903 108585 6096 l
303350 114300 497840 114300 6096 l
809068 114300 973938 114300 6096 l
309283 120015 497840 120015 6096 l
814498 120015 964888 120015 6096 l
52124 125730 55188 125730 6096 l
311658 125730 497840 125730 6096 l
816865 125730 970226 125730 6096 l
312312 131445 497840 131445 6096 l
817312 131445 966480 131445 6096 l
312312 137160 495222 137160 6096 l
546178 137160 579788 137160 6096 l
817312 137160 963821 137160 6096 l
312312 142875 490501 142875 6096 l
550899 142875 579788 142875 6096 l
817312 142875 963938 142875 6096 l
312312 148590 488188 148590 6096 l
553212 148590 579788 148590 6096 l
817312 148590 967034 148590 6096 l
312312 154305 487253 154305 6096 l
553212 154305 580353 154305 6096 l
817312 154305 965158 154305 6096 l
312312 160020 484208 160020 6096 l
553212 160020 579279 160020 6096 l
817312 160020 925712 160020 6096 l
312312 165735 484208 165735 6096 l
553212 165735 573299 165735 6096 l
814974 165735 920411 165735 6096 l
312312 171450 488188 171450 6096 l
553212 171450 572008 171450 6096 l
552477 177165 572008 177165 6096 l
549988 182880 572008 182880 6096 l
543812 188595 572742 188595 6096 l
543812 194310 577092 194310 6096 l
584200 194310 584200 194310 6096 l
254000 161050 255000 161050 6096 l
255000 161050 255000 215900 6096 l
254000 140750 254000 161050 6096 l
753150 137850 758850 143550 6096 l
758850 143550 758850 152400 6096 l
758850 152400 736600 174650 6096 l
736600 174650 736600 177800 6096 l
609600 177800 609600 141000 6096 l
635000 177800 635000 141000 6096 l
660400 177800 660400 141000 6096 l
685800 177800 685800 141000 6096 l
711200 177800 711200 141000 6096 l
88900 31750 42160 p
38100 190500 42160 p
984250 190500 42160 p
933450 31750 42160 p
521800 162400 8128 h
496400 162400 8128 h
778550 137850 8128 h
753150 137850 8128 h
280150 140000 8128 h
254750 140000 8128 h
971300 52000 8128 h
996700 52000 8128 h
46750 51700 8128 h
21350 51700 8128 h
584200 177800 8128 h
609600 177800 8128 h
635000 177800 8128 h
660400 177800 8128 h
685800 177800 8128 h
711200 177800 8128 h
736600 177800 8128 h
38100 114300 10000 h
38100 139700 10000 h
984250 139700 10000 h
984250 114300 10000 h
88900 31750 32000 h
38100 190500 32000 h
984250 190500 32000 h
933450 31750 32000 h
