%!PS-Adobe-3.0 EPSF-3.0
%%Title: EAGLE Drawing F:/diymicro.ru/Projects/Busyboard/Steering_wheel/PCB/LED_board/LED_board/LED_board2.brd
%%Creator: EAGLE
%%Pages: 1
%%BoundingBox: 0 0 266 67
%%EndComments

% Coordinate transfer:

/EU { 254 div 0.072 mul } def
/inch { 72 mul } def

% Linestyle:

1 setlinecap
1 setlinejoin

% Drawing functions:

/l {  % draw a line
   /lw exch def
   /y2 exch def
   /x2 exch def
   /y1 exch def
   /x1 exch def
   newpath
   x1 EU y1 EU moveto
   x2 EU y2 EU lineto
   lw EU setlinewidth
   stroke
   } def

/h {  % draw a hole
   /d  exch def
   /y  exch def
   /x  exch def
   d 0 gt {
     newpath
     x EU y EU d 2 div EU 0 360 arc
     currentgray dup
     1 exch sub setgray
     fill
     setgray
     } if
   } def

/b {  % draw a bar
   /an exch def
   /y2 exch def
   /x2 exch def
   /y1 exch def
   /x1 exch def
   /w2 x2 x1 sub 2 div EU def
   /h2 y2 y1 sub 2 div EU def
   gsave
   x1 x2 add 2 div EU y1 y2 add 2 div EU translate
   an rotate
   newpath
   w2     h2     moveto
   w2 neg h2     lineto
   w2 neg h2 neg lineto
   w2     h2 neg lineto
   closepath
   fill
   grestore
   } def

/c {  % draw a circle
   /lw exch def
   /rd exch def
   /y  exch def
   /x  exch def
   newpath
   lw EU setlinewidth
   x EU y EU rd EU 0 360 arc
   stroke
   } def

/a {  % draw an arc
   /lc exch def
   /ae exch def
   /as exch def
   /lw exch def
   /rd exch def
   /y  exch def
   /x  exch def
   lw rd 2 mul gt {
     /rd rd lw 2 div add 2 div def
     /lw rd 2 mul def
     } if
   currentlinecap currentlinejoin
   lc setlinecap 0 setlinejoin
   newpath
   lw EU setlinewidth
   x EU y EU rd EU as ae arc
   stroke
   setlinejoin setlinecap
   } def

/p {  % draw a pie
   /d exch def
   /y exch def
   /x exch def
   newpath
   x EU y EU d 2 div EU 0 360 arc
   fill
   } def

/edge { 0.20710678119 mul } def

/o {  % draw an octagon
   /an exch def
   /dy exch def
   /dx exch def
   /y  exch def
   /x  exch def
   gsave
   x EU y EU translate
   an dx dy lt { 90 add /dx dy /dy dx def def } if rotate
   newpath
      0 dx 2 div sub EU                    0 dy edge  add EU moveto
      0 dx dy sub 2 div sub dy edge sub EU 0 dy 2 div add EU lineto
      0 dx dy sub 2 div add dy edge add EU 0 dy 2 div add EU lineto
      0 dx 2 div add EU                    0 dy edge  add EU lineto
      0 dx 2 div add EU                    0 dy edge  sub EU lineto
      0 dx dy sub 2 div add dy edge add EU 0 dy 2 div sub EU lineto
      0 dx dy sub 2 div sub dy edge sub EU 0 dy 2 div sub EU lineto
      0 dx 2 div sub EU                    0 dy edge  sub EU lineto
   closepath
   fill
   grestore
   } def

8000 0 863600 0 0 l
863600 0 863600 224000 0 l
863600 224000 8000 224000 0 l
8000 224000 8000 0 0 l
34200 45300 34200 57500 4064 l
41000 51700 27100 51700 4064 l
267450 133400 267450 145100 4064 l
274050 140000 261550 140000 4064 l
831800 58100 831800 45800 4064 l
825600 52000 837300 52000 4064 l
837300 52000 837300 51900 4064 l
7500 0 7500 225000 6096 l
7500 225000 863850 225000 6096 l
863850 225000 863850 0 6096 l
863850 0 7500 0 6096 l
267450 120000 757100 120000 1300 l
820000 90000 718100 90000 1300 l
737600 89350 737600 38000 1300 l
737600 120650 737600 195449 1300 l
737600 120650 734408 146000 1300 l
734408 146000 740792 146000 1300 l
740792 146000 737600 120650 1300 l
737600 120650 736300 146000 1300 l
738900 146000 737600 120650 1300 l
737600 120650 735000 146000 1300 l
740200 146000 737600 120650 1300 l
737600 89350 734408 64000 1300 l
734408 64000 740792 64000 1300 l
740792 64000 737600 89350 1300 l
737600 89350 736300 64000 1300 l
738900 64000 737600 89350 1300 l
737600 89350 735000 64000 1300 l
740200 64000 737600 89350 1300 l
717535 146762 714823 149474 1524 l
714823 149474 714823 154897 1524 l
714823 154897 717535 157609 1524 l
717535 157609 720246 157609 1524 l
720246 157609 722958 154897 1524 l
722958 154897 722958 152185 1524 l
722958 154897 725670 157609 1524 l
725670 157609 728381 157609 1524 l
728381 157609 731093 154897 1524 l
731093 154897 731093 149474 1524 l
731093 149474 728381 146762 1524 l
731093 163134 728381 163134 1524 l
728381 163134 728381 165845 1524 l
728381 165845 731093 165845 1524 l
731093 165845 731093 163134 1524 l
728381 171319 717535 171319 1524 l
717535 171319 714823 174031 1524 l
714823 174031 714823 179454 1524 l
714823 179454 717535 182166 1524 l
717535 182166 728381 182166 1524 l
728381 182166 731093 179454 1524 l
731093 179454 731093 174031 1524 l
731093 174031 728381 171319 1524 l
728381 171319 717535 182166 1524 l
728381 187691 717535 187691 1524 l
717535 187691 714823 190403 1524 l
714823 190403 714823 195826 1524 l
714823 195826 717535 198538 1524 l
717535 198538 728381 198538 1524 l
728381 198538 731093 195826 1524 l
731093 195826 731093 190403 1524 l
731093 190403 728381 187691 1524 l
728381 187691 717535 198538 1524 l
501172 -902311 1059649 6096 73.61 115.91 1 a
483700 181450 483700 143350 2032 l
509100 162400 31750 2540 216.87 503.13 1 a
509100 162400 25400 1524 c
727450 138900 727450 100800 2032 l
752850 119850 31750 2540 216.87 503.13 1 a
752850 119850 25400 1524 c
242050 139050 242050 100950 2032 l
267450 120000 31750 2540 216.87 503.13 1 a
267450 120000 25400 1524 c
8650 70750 8650 32650 2032 l
34050 51700 31750 2540 216.87 503.13 1 a
34050 51700 25400 1524 c
6350 101600 6350 152400 2540 l
6350 152400 25400 152400 2540 l
25400 152400 69850 152400 2540 l
69850 152400 69850 101600 2540 l
69850 101600 25400 101600 2540 l
25400 101600 6350 101600 2540 l
25400 101600 25400 152400 2540 l
863600 152400 863600 101600 2540 l
863600 101600 844550 101600 2540 l
844550 101600 800100 101600 2540 l
800100 101600 800100 152400 2540 l
800100 152400 844550 152400 2540 l
844550 152400 863600 152400 2540 l
844550 152400 844550 101600 2540 l
541100 204200 541100 178800 1524 l
541100 178800 563960 178800 1524 l
563960 178800 566500 181340 1524 l
566500 181340 569040 178800 1524 l
569040 178800 589360 178800 1524 l
589360 178800 591900 181340 1524 l
591900 181340 594440 178800 1524 l
594440 178800 614760 178800 1524 l
614760 178800 617300 181340 1524 l
617300 181340 619840 178800 1524 l
619840 178800 640160 178800 1524 l
640160 178800 642700 181340 1524 l
642700 181340 645240 178800 1524 l
645240 178800 665560 178800 1524 l
670640 178800 693500 178800 1524 l
693500 178800 693500 204200 1524 l
693500 204200 670640 204200 1524 l
665560 204200 645240 204200 1524 l
645240 204200 642700 201660 1524 l
642700 201660 640160 204200 1524 l
640160 204200 619840 204200 1524 l
619840 204200 617300 201660 1524 l
617300 201660 614760 204200 1524 l
614760 204200 594440 204200 1524 l
594440 204200 591900 201660 1524 l
591900 201660 589360 204200 1524 l
589360 204200 569040 204200 1524 l
569040 204200 566500 201660 1524 l
566500 201660 563960 204200 1524 l
563960 204200 541100 204200 1524 l
670640 204200 668100 201660 1524 l
668100 201660 665560 204200 1524 l
668100 181340 670640 178800 1524 l
665560 178800 668100 181340 1524 l
549355 215002 553168 218815 1270 l
553168 218815 553168 207375 1270 l
549355 207375 556982 207375 1270 l
683982 218815 680168 216908 1270 l
680168 216908 676355 213095 1270 l
676355 213095 676355 209282 1270 l
676355 209282 678262 207375 1270 l
678262 207375 682075 207375 1270 l
682075 207375 683982 209282 1270 l
683982 209282 683982 211188 1270 l
683982 211188 682075 213095 1270 l
682075 213095 676355 213095 1270 l
