%!PS-Adobe-3.0 EPSF-3.0
%%Title: EAGLE Drawing F:/diymicro.ru/Projects/Busyboard/Steering_wheel/PCB/LED_board/LED_board/LED_board2.brd
%%Creator: EAGLE
%%Pages: 1
%%BoundingBox: 0 0 266 67
%%EndComments

% Coordinate transfer:

/EU { 254 div 0.072 mul } def
/inch { 72 mul } def

% Linestyle:

1 setlinecap
1 setlinejoin

% Drawing functions:

/l {  % draw a line
   /lw exch def
   /y2 exch def
   /x2 exch def
   /y1 exch def
   /x1 exch def
   newpath
   x1 EU y1 EU moveto
   x2 EU y2 EU lineto
   lw EU setlinewidth
   stroke
   } def

/h {  % draw a hole
   /d  exch def
   /y  exch def
   /x  exch def
   d 0 gt {
     newpath
     x EU y EU d 2 div EU 0 360 arc
     currentgray dup
     1 exch sub setgray
     fill
     setgray
     } if
   } def

/b {  % draw a bar
   /an exch def
   /y2 exch def
   /x2 exch def
   /y1 exch def
   /x1 exch def
   /w2 x2 x1 sub 2 div EU def
   /h2 y2 y1 sub 2 div EU def
   gsave
   x1 x2 add 2 div EU y1 y2 add 2 div EU translate
   an rotate
   newpath
   w2     h2     moveto
   w2 neg h2     lineto
   w2 neg h2 neg lineto
   w2     h2 neg lineto
   closepath
   fill
   grestore
   } def

/c {  % draw a circle
   /lw exch def
   /rd exch def
   /y  exch def
   /x  exch def
   newpath
   lw EU setlinewidth
   x EU y EU rd EU 0 360 arc
   stroke
   } def

/a {  % draw an arc
   /lc exch def
   /ae exch def
   /as exch def
   /lw exch def
   /rd exch def
   /y  exch def
   /x  exch def
   lw rd 2 mul gt {
     /rd rd lw 2 div add 2 div def
     /lw rd 2 mul def
     } if
   currentlinecap currentlinejoin
   lc setlinecap 0 setlinejoin
   newpath
   lw EU setlinewidth
   x EU y EU rd EU as ae arc
   stroke
   setlinejoin setlinecap
   } def

/p {  % draw a pie
   /d exch def
   /y exch def
   /x exch def
   newpath
   x EU y EU d 2 div EU 0 360 arc
   fill
   } def

/edge { 0.20710678119 mul } def

/o {  % draw an octagon
   /an exch def
   /dy exch def
   /dx exch def
   /y  exch def
   /x  exch def
   gsave
   x EU y EU translate
   an dx dy lt { 90 add /dx dy /dy dx def def } if rotate
   newpath
      0 dx 2 div sub EU                    0 dy edge  add EU moveto
      0 dx dy sub 2 div sub dy edge sub EU 0 dy 2 div add EU lineto
      0 dx dy sub 2 div add dy edge add EU 0 dy 2 div add EU lineto
      0 dx 2 div add EU                    0 dy edge  add EU lineto
      0 dx 2 div add EU                    0 dy edge  sub EU lineto
      0 dx dy sub 2 div add dy edge add EU 0 dy 2 div sub EU lineto
      0 dx dy sub 2 div sub dy edge sub EU 0 dy 2 div sub EU lineto
      0 dx 2 div sub EU                    0 dy edge  sub EU lineto
   closepath
   fill
   grestore
   } def

38100 44450 57150 63500 0.0 b
38100 38100 57150 44450 0.0 b
508000 152400 533400 171450 0.0 b
38100 57150 57150 82550 0.0 b
38100 76200 57150 88900 0.0 b
7500 0 123750 7500 0.0 b
7500 7500 67500 11250 0.0 b
7500 11250 22500 120000 0.0 b
7500 112500 26250 168750 0.0 b
7500 213750 78750 225000 0.0 b
7500 157500 15000 213750 0.0 b
751350 0 833850 7500 0.0 b
807600 3750 833850 37500 0.0 b
63750 206250 82500 217500 0.0 b
112500 3750 127500 15000 0.0 b
723900 101600 749300 165100 0.0 b
762000 88900 774700 127000 0.0 b
241300 106000 262000 152400 0.0 b
241000 143000 262000 178000 0.0 b
270000 107000 290000 153000 0.0 b
271000 143000 290000 172000 0.0 b
270000 151000 274000 172000 0.0 b
488000 153000 503000 188000 0.0 b
512000 164000 524000 183000 0.0 b
759000 116000 775000 146000 0.0 b
240000 173000 262000 216000 0.0 b
489000 182000 505000 216000 0.0 b
674000 146000 748000 217000 0.0 b
224000 83000 246000 213000 0.0 b
240000 93000 262000 107000 0.0 b
811000 -2000 866000 54000 0.0 b
847000 40000 864000 161000 0.0 b
856000 153000 864000 219000 0.0 b
757000 214000 863000 224000 0.0 b
725000 168000 762000 221000 0.0 b
469000 141000 503000 216000 0.0 b
33000 216000 777000 224000 0.0 b
75000 193000 101000 214000 0.0 b
24000 135000 40000 143000 0.0 b
22000 132000 41000 163000 0.0 b
18000 9000 64000 32000 0.0 b
516134 37616 516134 22617 2794 l
516134 22617 523633 22617 2794 l
523633 22617 526133 25117 2794 l
526133 25117 526133 30116 2794 l
526133 30116 523633 32616 2794 l
523633 32616 516134 32616 2794 l
509762 32616 507262 32616 2794 l
507262 32616 507262 22617 2794 l
509762 22617 504762 22617 2794 l
507262 40116 507262 37616 2794 l
498847 32616 498847 25117 2794 l
498847 25117 496347 22617 2794 l
496347 22617 488848 22617 2794 l
488848 32616 488848 20117 2794 l
488848 20117 491348 17617 2794 l
491348 17617 493848 17617 2794 l
482476 22617 482476 32616 2794 l
482476 32616 479976 32616 2794 l
479976 32616 477476 30116 2794 l
477476 30116 477476 22617 2794 l
477476 30116 474976 32616 2794 l
474976 32616 472476 30116 2794 l
472476 30116 472476 22617 2794 l
466104 32616 463604 32616 2794 l
463604 32616 463604 22617 2794 l
466104 22617 461104 22617 2794 l
463604 40116 463604 37616 2794 l
445191 32616 452690 32616 2794 l
452690 32616 455190 30116 2794 l
455190 30116 455190 25117 2794 l
455190 25117 452690 22617 2794 l
452690 22617 445191 22617 2794 l
438818 22617 438818 32616 2794 l
438818 27617 433819 32616 2794 l
433819 32616 431319 32616 2794 l
422675 22617 417676 22617 2794 l
417676 22617 415176 25117 2794 l
415176 25117 415176 30116 2794 l
415176 30116 417676 32616 2794 l
417676 32616 422675 32616 2794 l
422675 32616 425175 30116 2794 l
425175 30116 425175 25117 2794 l
425175 25117 422675 22617 2794 l
408804 22617 408804 25117 2794 l
408804 25117 406304 25117 2794 l
406304 25117 406304 22617 2794 l
406304 22617 408804 22617 2794 l
400618 22617 400618 32616 2794 l
400618 27617 395618 32616 2794 l
395618 32616 393118 32616 2794 l
386975 32616 386975 25117 2794 l
386975 25117 384475 22617 2794 l
384475 22617 376976 22617 2794 l
376976 22617 376976 32616 2794 l
63000 72000 246000 218000 0.0 b
121000 5000 370000 27000 0.0 b
530000 7000 741000 12000 0.0 b
836000 42000 859000 162000 0.0 b
750000 171000 802000 216000 0.0 b
499000 206000 544000 216000 0.0 b
537000 210000 559000 213000 0.0 b
539000 207000 557000 212000 0.0 b
117000 13000 128000 27000 0.0 b
301000 132000 474000 220000 0.0 b
251000 182000 316000 215000 0.0 b
511000 176650 524000 191650 180.0 b
492000 176650 505000 191650 180.0 b
266500 153550 279500 168550 180.0 b
247500 153550 260500 168550 180.0 b
34750 68700 47750 83700 180.0 b
15750 68700 28750 83700 180.0 b
758650 144900 771650 159900 180.0 b
739650 144900 752650 159900 180.0 b
521800 162400 13208 13208 180.0 o
496400 162400 13208 13208 180.0 o
765550 119850 13208 13208 180.0 o
740150 119850 13208 13208 180.0 o
280150 120000 13208 13208 180.0 o
254750 120000 13208 13208 180.0 o
46750 51700 13208 13208 180.0 o
21350 51700 13208 13208 180.0 o
597000 113000 613000 133000 90.0 b
597000 141000 613000 161000 90.0 b
571600 113000 587600 133000 90.0 b
571600 141000 587600 161000 90.0 b
622400 113000 638400 133000 90.0 b
622400 141000 638400 161000 90.0 b
647800 113000 663800 133000 90.0 b
647800 141000 663800 161000 90.0 b
45640 114300 30560 114300 15080 l
45640 139700 30560 139700 15080 l
824310 139700 839390 139700 15080 l
824310 114300 839390 114300 15080 l
553800 184896 553800 198104 13208 l
579200 184896 579200 198104 13208 l
604600 184896 604600 198104 13208 l
630000 184896 630000 198104 13208 l
655400 184896 655400 198104 13208 l
680800 184896 680800 198104 13208 l
517500 184150 521800 179850 6096 l
521800 179850 521800 162400 6096 l
579600 123000 537400 123000 6096 l
537400 123000 520700 139700 6096 l
520700 139700 520700 161300 6096 l
520700 161300 521800 162400 6096 l
273000 161050 273000 146100 6096 l
273000 146100 279400 139700 6096 l
279400 139700 279400 120750 6096 l
279400 120750 280150 120000 6096 l
605000 123000 605000 109700 6096 l
605000 109700 596900 101600 6096 l
596900 101600 292100 101600 6096 l
292100 101600 279400 114300 6096 l
279400 114300 279400 119250 6096 l
279400 119250 280150 120000 6096 l
630400 123000 630400 84300 6096 l
630400 84300 596900 50800 6096 l
596900 50800 127000 50800 6096 l
127000 50800 114300 63500 6096 l
114300 63500 58550 63500 6096 l
58550 63500 46750 51700 6096 l
655800 123000 655800 93500 6096 l
673100 76200 749300 76200 6096 l
749300 76200 762000 88900 6096 l
762000 88900 762000 116300 6096 l
762000 116300 765550 119850 6096 l
673100 76200 655800 93500 6096 l
765550 119850 765150 119850 8128 l
765150 119850 765150 152400 8128 l
736600 4350 127000 4350 8128 l
76200 107950 76200 114300 8128 l
76200 114300 38100 114300 8128 l
38100 114300 38100 139700 8128 l
831850 139700 800100 139700 8128 l
800100 139700 800100 215900 8128 l
831850 114300 838200 114300 8128 l
831850 114300 831850 139700 8128 l
800100 215900 711200 215900 8128 l
711200 215900 685800 215900 8128 l
685800 215900 558800 215900 8128 l
558800 215900 495300 215900 8128 l
495300 215900 255000 215900 8128 l
255000 215900 76200 215900 8128 l
76200 215900 76200 139700 8128 l
76200 139700 38100 139700 8128 l
831850 64450 831850 114300 6096 l
21350 51700 22250 52600 6096 l
22250 52600 22250 76200 6096 l
22250 76200 19050 79400 6096 l
19050 79400 19050 107950 6096 l
19050 107950 25400 114300 6096 l
25400 114300 38100 114300 6096 l
496400 162400 495300 163500 6096 l
495300 163500 495300 215900 6096 l
498500 184150 496400 182050 6096 l
496400 182050 496400 162400 6096 l
254750 120000 254000 140750 6096 l
254000 161050 257150 164200 6096 l
712724 134824 712724 133858 6096 l
712724 133858 676713 133858 6096 l
676713 133858 676313 134824 6096 l
676313 134824 712724 134824 6096 l
35877 100076 33676 99164 6096 l
33676 99164 33676 101172 6096 l
33676 101172 38100 101172 6096 l
38100 101172 38100 114300 6096 l
38100 114300 38100 114300 6096 l
38100 114300 38100 101172 6096 l
38100 101172 46673 101172 6096 l
46673 101172 48714 101495 6096 l
48714 101495 50679 102134 6096 l
50679 102134 51824 102717 6096 l
51824 102717 51824 100076 6096 l
51824 100076 35877 100076 6096 l
51824 125883 50783 126413 6096 l
50783 126413 51399 127900 6096 l
51399 127900 51824 128117 6096 l
51824 128117 51824 125883 6096 l
670024 104653 672131 105525 6096 l
672131 105525 672747 106142 6096 l
672747 106142 712724 106142 6096 l
712724 106142 712724 102773 6096 l
712724 102773 710250 101748 6096 l
710250 101748 706352 97850 6096 l
706352 97850 704242 92757 6096 l
704242 92757 704242 90424 6096 l
704242 90424 678992 90424 6096 l
678992 90424 670024 99392 6096 l
670024 99392 670024 104653 6096 l
750129 18676 747331 21475 6096 l
747331 21475 743223 23176 6096 l
743223 23176 538706 23176 6096 l
538706 23176 538706 32617 6096 l
538706 32617 537066 36576 6096 l
537066 36576 599729 36576 6096 l
599729 36576 604957 38741 6096 l
604957 38741 608959 42743 6096 l
608959 42743 642459 76243 6096 l
642459 76243 644624 81471 6096 l
644624 81471 644624 84560 6096 l
644624 84560 665043 64141 6096 l
665043 64141 670271 61976 6096 l
670271 61976 720550 61976 6096 l
720550 61976 720550 61243 6096 l
720550 61243 721272 59500 6096 l
721272 59500 721771 57679 6096 l
721771 57679 722318 56975 6096 l
722318 56975 722659 56150 6096 l
722659 56150 723742 55067 6096 l
723742 55067 723742 35243 6096 l
723742 35243 725852 30150 6096 l
725852 30150 729750 26252 6096 l
729750 26252 734843 24142 6096 l
734843 24142 740357 24142 6096 l
740357 24142 745450 26252 6096 l
745450 26252 748794 29596 6096 l
748794 29596 748794 27503 6096 l
748794 27503 750992 19300 6096 l
750992 19300 751352 18676 6096 l
751352 18676 750129 18676 6096 l
808777 65176 804669 63475 6096 l
804669 63475 801525 60331 6096 l
801525 60331 800470 57784 6096 l
800470 57784 793500 61808 6096 l
793500 61808 785297 64006 6096 l
785297 64006 776803 64006 6096 l
776803 64006 768600 61808 6096 l
768600 61808 761244 57561 6096 l
761244 57561 755239 51556 6096 l
755239 51556 751458 45007 6096 l
751458 45007 751458 55067 6096 l
751458 55067 752541 56150 6096 l
752541 56150 752882 56975 6096 l
752882 56975 753429 57679 6096 l
753429 57679 753928 59500 6096 l
753928 59500 754650 61243 6096 l
754650 61243 754650 62136 6096 l
754650 62136 754886 62997 6096 l
754886 62997 754872 63112 6096 l
754872 63112 757357 64141 6096 l
757357 64141 769358 76142 6096 l
769358 76142 822757 76142 6096 l
822757 76142 824824 76998 6096 l
824824 76998 824824 65176 6096 l
824824 65176 808777 65176 6096 l
255475 65669 257176 69777 6096 l
257176 69777 257176 81824 6096 l
257176 81824 264223 81824 6096 l
264223 81824 268331 83525 6096 l
268331 83525 271475 86669 6096 l
271475 86669 273176 90777 6096 l
273176 90777 273176 95824 6096 l
273176 95824 277760 95824 6096 l
277760 95824 284043 89541 6096 l
284043 89541 289271 87376 6096 l
289271 87376 599729 87376 6096 l
599729 87376 604957 89541 6096 l
604957 89541 608959 93543 6096 l
608959 93543 616176 100760 6096 l
616176 100760 616176 90192 6096 l
616176 90192 591008 65024 6096 l
591008 65024 254829 65024 6096 l
254829 65024 255475 65669 6096 l
785876 103858 785876 113053 6096 l
785876 113053 786176 113777 6096 l
786176 113777 786176 148223 6096 l
786176 148223 784475 152331 6096 l
784475 152331 782826 153979 6096 l
782826 153979 782826 159824 6096 l
782826 159824 804223 159824 6096 l
804223 159824 808331 161525 6096 l
808331 161525 811475 164669 6096 l
811475 164669 811647 165086 6096 l
811647 165086 812044 164689 6096 l
812044 164689 819400 160442 6096 l
819400 160442 824824 158989 6096 l
824824 158989 824824 152828 6096 l
824824 152828 823277 152828 6096 l
823277 152828 821236 152505 6096 l
821236 152505 819271 151866 6096 l
819271 151866 817429 150928 6096 l
817429 150928 815758 149713 6096 l
815758 149713 814297 148252 6096 l
814297 148252 813082 146581 6096 l
813082 146581 812144 144739 6096 l
812144 144739 811505 142774 6096 l
811505 142774 811182 140733 6096 l
811182 140733 811182 139700 6096 l
811182 139700 824824 139700 6096 l
824824 139700 824824 139700 6096 l
824824 139700 811182 139700 6096 l
811182 139700 811182 138667 6096 l
811182 138667 811505 136626 6096 l
811505 136626 812144 134661 6096 l
812144 134661 813082 132819 6096 l
813082 132819 814297 131148 6096 l
814297 131148 815758 129687 6096 l
815758 129687 817429 128472 6096 l
817429 128472 819271 127534 6096 l
819271 127534 820914 127000 6096 l
820914 127000 819271 126466 6096 l
819271 126466 817429 125528 6096 l
817429 125528 815758 124313 6096 l
815758 124313 814297 122852 6096 l
814297 122852 813082 121181 6096 l
813082 121181 812144 119339 6096 l
812144 119339 811505 117374 6096 l
811505 117374 811182 115333 6096 l
811182 115333 811182 114300 6096 l
811182 114300 824824 114300 6096 l
824824 114300 824824 114300 6096 l
824824 114300 811182 114300 6096 l
811182 114300 811182 113267 6096 l
811182 113267 811505 111226 6096 l
811505 111226 812144 109261 6096 l
812144 109261 813082 107419 6096 l
813082 107419 814297 105748 6096 l
814297 105748 815758 104287 6096 l
815758 104287 816348 103858 6096 l
816348 103858 785876 103858 6096 l
552840 172704 553800 172704 6096 l
553800 172704 553800 191500 6096 l
553800 191500 553800 191500 6096 l
553800 191500 553800 172704 6096 l
553800 172704 554760 172704 6096 l
554760 172704 556655 173004 6096 l
556655 173004 558480 173597 6096 l
558480 173597 560190 174468 6096 l
560190 174468 561743 175596 6096 l
561743 175596 563100 176953 6096 l
563100 176953 563192 177081 6096 l
563192 177081 563960 175227 6096 l
563960 175227 563960 168761 6096 l
563960 168761 563269 168475 6096 l
563269 168475 560125 165331 6096 l
560125 165331 558424 161223 6096 l
558424 161223 558424 140777 6096 l
558424 140777 559896 137224 6096 l
559896 137224 543292 137224 6096 l
543292 137224 538217 142299 6096 l
538217 142299 539731 142925 6096 l
539731 142925 542875 146069 6096 l
542875 146069 544576 150177 6096 l
544576 150177 544576 173673 6096 l
544576 173673 542875 177781 6096 l
542875 177781 539731 180925 6096 l
539731 180925 536024 182460 6096 l
536024 182460 536024 182679 6096 l
536024 182679 535176 184727 6096 l
535176 184727 535176 193873 6096 l
535176 193873 534782 194824 6096 l
534782 194824 541608 194824 6096 l
541608 194824 541608 191500 6096 l
541608 191500 553800 191500 6096 l
553800 191500 553800 191500 6096 l
553800 191500 541608 191500 6096 l
541608 191500 541608 183936 6096 l
541608 183936 541908 182041 6096 l
541908 182041 542501 180216 6096 l
542501 180216 543372 178506 6096 l
543372 178506 544500 176953 6096 l
544500 176953 545857 175596 6096 l
545857 175596 547410 174468 6096 l
547410 174468 549120 173597 6096 l
549120 173597 550945 173004 6096 l
550945 173004 552840 172704 6096 l
553800 191500 553800 191500 6096 l
553800 191500 561420 191500 6096 l
561420 191500 561420 191500 6096 l
561420 191500 553800 191500 6096 l
743986 22860 750038 22860 6096 l
538706 28575 727427 28575 6096 l
747773 28575 748794 28575 6096 l
538013 34290 724137 34290 6096 l
606221 40005 723742 40005 6096 l
611936 45720 723742 45720 6096 l
751458 45720 751870 45720 6096 l
617651 51435 723742 51435 6096 l
751458 51435 755169 51435 6096 l
623366 57150 722182 57150 6096 l
753018 57150 760833 57150 6096 l
629081 62865 668124 62865 6096 l
754850 62865 772545 62865 6096 l
789555 62865 804060 62865 6096 l
256680 68580 594564 68580 6096 l
634796 68580 660604 68580 6096 l
761796 68580 824824 68580 6096 l
257176 74295 600279 74295 6096 l
640511 74295 654889 74295 6096 l
767511 74295 824824 74295 6096 l
257176 80010 605994 80010 6096 l
644019 80010 649174 80010 6096 l
270530 85725 611709 85725 6096 l
273176 91440 282144 91440 6096 l
606856 91440 616176 91440 6096 l
677976 91440 704242 91440 6096 l
612571 97155 616176 97155 6096 l
672261 97155 706064 97155 6096 l
38100 102870 38100 102870 6096 l
670024 102870 712724 102870 6096 l
38100 108585 38100 108585 6096 l
785876 108585 812488 108585 6096 l
786176 114300 824824 114300 6096 l
786176 120015 812488 120015 6096 l
786176 125730 817826 125730 6096 l
786176 131445 814080 131445 6096 l
786176 137160 811421 137160 6096 l
539609 142875 558424 142875 6096 l
786176 142875 811538 142875 6096 l
543919 148590 558424 148590 6096 l
786024 148590 814634 148590 6096 l
544576 154305 558424 154305 6096 l
782826 154305 824824 154305 6096 l
544576 160020 558424 160020 6096 l
804696 160020 820975 160020 6096 l
544576 165735 560530 165735 6096 l
544576 171450 563960 171450 6096 l
543130 177165 544347 177165 6096 l
553800 177165 553800 177165 6096 l
535941 182880 541775 182880 6096 l
553800 182880 553800 182880 6096 l
535176 188595 541608 188595 6096 l
553800 188595 553800 188595 6096 l
534995 194310 541608 194310 6096 l
254000 161050 255000 161050 6096 l
255000 161050 255000 215900 6096 l
740150 119850 740150 143250 6096 l
740150 143250 749300 152400 6096 l
749300 152400 746150 152400 6096 l
723900 152400 746150 152400 6096 l
706600 211300 711200 215900 6096 l
736600 4350 804450 4350 6096 l
804450 4350 825500 25400 6096 l
825500 25400 838200 25400 6096 l
838200 25400 838200 58100 6096 l
838200 58100 831850 64450 6096 l
680800 191500 685800 191500 8128 l
685800 191500 685800 215900 8128 l
553800 191500 558800 191500 8128 l
558800 191500 558800 215900 8128 l
723900 152400 685800 152400 8128 l
685800 152400 685800 191500 8128 l
254000 140750 254000 161050 8128 l
579600 151000 579200 151000 8128 l
579200 151000 579200 191500 8128 l
605000 151000 604600 151000 8128 l
604600 151000 604600 191500 8128 l
630400 151000 630000 151000 8128 l
630000 151000 630000 191500 8128 l
655800 151000 655400 151000 8128 l
655400 151000 655400 191500 8128 l
88900 31750 42160 p
38100 190500 42160 p
831850 190500 42160 p
781050 31750 42160 p
521800 162400 8128 h
496400 162400 8128 h
765550 119850 8128 h
740150 119850 8128 h
280150 120000 8128 h
254750 120000 8128 h
46750 51700 8128 h
21350 51700 8128 h
38100 114300 10000 h
38100 139700 10000 h
831850 139700 10000 h
831850 114300 10000 h
553800 191500 8128 h
579200 191500 8128 h
604600 191500 8128 h
630000 191500 8128 h
655400 191500 8128 h
680800 191500 8128 h
88900 31750 32000 h
38100 190500 32000 h
831850 190500 32000 h
781050 31750 32000 h
