%!PS-Adobe-3.0 EPSF-3.0
%%Title: EAGLE Drawing D:/Diymicro.ru/Projects/Lamp/PCB/main_pcb.brd
%%Creator: EAGLE
%%Pages: 1
%%BoundingBox: 0 0 576 810
%%EndComments

% Coordinate transfer:

/EU { 254 div 0.072 mul } def
/inch { 72 mul } def

% Linestyle:

1 setlinecap
1 setlinejoin

% Drawing functions:

/l {  % draw a line
   /lw exch def
   /y2 exch def
   /x2 exch def
   /y1 exch def
   /x1 exch def
   newpath
   x1 EU y1 EU moveto
   x2 EU y2 EU lineto
   lw EU setlinewidth
   stroke
   } def

/h {  % draw a hole
   /d  exch def
   /y  exch def
   /x  exch def
   d 0 gt {
     newpath
     x EU y EU d 2 div EU 0 360 arc
     currentgray dup
     1 exch sub setgray
     fill
     setgray
     } if
   } def

/b {  % draw a bar
   /an exch def
   /y2 exch def
   /x2 exch def
   /y1 exch def
   /x1 exch def
   /w2 x2 x1 sub 2 div EU def
   /h2 y2 y1 sub 2 div EU def
   gsave
   x1 x2 add 2 div EU y1 y2 add 2 div EU translate
   an rotate
   newpath
   w2     h2     moveto
   w2 neg h2     lineto
   w2 neg h2 neg lineto
   w2     h2 neg lineto
   closepath
   fill
   grestore
   } def

/c {  % draw a circle
   /lw exch def
   /rd exch def
   /y  exch def
   /x  exch def
   newpath
   lw EU setlinewidth
   x EU y EU rd EU 0 360 arc
   stroke
   } def

/a {  % draw an arc
   /lc exch def
   /ae exch def
   /as exch def
   /lw exch def
   /rd exch def
   /y  exch def
   /x  exch def
   lw rd 2 mul gt {
     /rd rd lw 2 div add 2 div def
     /lw rd 2 mul def
     } if
   currentlinecap currentlinejoin
   lc setlinecap 0 setlinejoin
   newpath
   lw EU setlinewidth
   x EU y EU rd EU as ae arc
   stroke
   setlinejoin setlinecap
   } def

/p {  % draw a pie
   /d exch def
   /y exch def
   /x exch def
   newpath
   x EU y EU d 2 div EU 0 360 arc
   fill
   } def

/edge { 0.20710678119 mul } def

/o {  % draw an octagon
   /an exch def
   /dy exch def
   /dx exch def
   /y  exch def
   /x  exch def
   gsave
   x EU y EU translate
   an dx dy lt { 90 add /dx dy /dy dx def def } if rotate
   newpath
      0 dx 2 div sub EU                    0 dy edge  add EU moveto
      0 dx dy sub 2 div sub dy edge sub EU 0 dy 2 div add EU lineto
      0 dx dy sub 2 div add dy edge add EU 0 dy 2 div add EU lineto
      0 dx 2 div add EU                    0 dy edge  add EU lineto
      0 dx 2 div add EU                    0 dy edge  sub EU lineto
      0 dx dy sub 2 div add dy edge add EU 0 dy 2 div sub EU lineto
      0 dx dy sub 2 div sub dy edge sub EU 0 dy 2 div sub EU lineto
      0 dx 2 div sub EU                    0 dy edge  sub EU lineto
   closepath
   fill
   grestore
   } def

% the real drawing size:

/MinDrawX -141992 EU def
/MinDrawY -56388 EU def
/MaxDrawX 1004572 EU def
/MaxDrawY 802540 EU def

% the usable page size:

/LeftMargin 0.25 inch def  % change these if drawing gets clipped!
/BotMargin  0.25 inch def
/PageWidth   7.7500 inch def
/PageHeight 11.0000 inch def

% are we going to rotate?:

/RotateDrawing 0 0 ne def

% Media size functions:

/AbortMessage {  % Show a message in a box and stop printing
   /h 100 def
   /Courier findfont 12 scalefont setfont
   mediawidth pagemargin sub h 1 setpage
   newpath
   0 0 moveto
   0 h rlineto
   mediawidth pagemargin sub 0 rlineto
   0 h neg rlineto
   closepath
   5 setlinewidth
   stroke
   newpath 50 60 moveto (ERROR: Jobsize exceeds physical printing area!) show
   newpath 50 40 moveto (       Job has been aborted!) show
   showpage
   stop
   } def

/SelectPage {  % Select the page identified by Row and Column
   /Column exch def
   /Row    exch def

   % the actually exposed area (if the machine knows these parameters!):

   /DrawX MaxDrawX MinDrawX sub def
   /DrawY MaxDrawY MinDrawY sub def
   statusdict /setpage known
   statusdict /mediawidth known and
   statusdict /medialength known and
   statusdict /pagemargin known and {
      % this is for machines that can tell the media size:
      statusdict begin
         /MediaW mediawidth pagemargin sub def
         DrawX DrawY ge {
            DrawX MediaW le DrawY medialength le and {
               MediaW DrawY 1 setpage
               MediaW DrawX sub 2 div 0 translate
               }{
            DrawY MediaW le DrawX medialength le and {
               MediaW DrawX 0 setpage
               0 MediaW DrawY sub 2 div translate
               }{
               AbortMessage
               } ifelse
               } ifelse
            }{
            DrawY MediaW le DrawX medialength le and {
               MediaW DrawX 0 setpage
               0 MediaW DrawY sub 2 div translate
               }{
            DrawX MediaW le DrawY medialength le and {
               MediaW DrawY 1 setpage
               MediaW DrawX sub 2 div 0 translate
               }{
               AbortMessage
               } ifelse
               } ifelse
            } ifelse
         end
      }{
      % this is for machines that can NOT tell the media size:
      % (Ghostscript doesn't like this!)
      /Product product length string def
      /i 0 def
      product { dup 97 lt { 32 add } if Product exch i exch put /i i 1 add def } forall 
      Product (ghostscript) search dup /IsGhostscript exch def
      { pop pop } if
      pop
      IsGhostscript not {
         statusdict /setpage known {
            statusdict begin
               RotateDrawing {
                  LeftMargin PageHeight add BotMargin DrawY add
                  }{
                  BotMargin DrawY add LeftMargin DrawX add 
                  } ifelse
               0 setpage
               end
            } if
         } if
      % set clipping boundary:
      newpath
      LeftMargin BotMargin moveto
      0 PageHeight rlineto
      PageWidth  0 rlineto
      0 PageHeight neg rlineto
      closepath
      clip
      % set the origin:
      LeftMargin BotMargin translate
      RotateDrawing {
         0 PageHeight translate
         -90 rotate
         PageHeight Column mul neg PageWidth Row mul neg translate
         }{
         PageWidth Column mul neg PageHeight Row mul neg translate
         } ifelse
      } ifelse
   % move the lower left corner of the drawing to the origin:
   MinDrawX neg MinDrawY neg translate
   
   % Linestyle:
   
   1 setlinecap
   1 setlinejoin
   
   } def

% TheDrawing

gsave 0 0 SelectPage
787400 342900 812800 393700 0.0 b
711200 228600 736600 279400 0.0 b
717550 215900 730250 234950 0.0 b
711200 266700 762000 292100 0.0 b
787400 266700 812800 355600 0.0 b
711200 368300 768350 400050 0.0 b
673100 450850 704850 482600 0.0 b
673100 463550 704850 488950 0.0 b
685800 133350 723900 146050 0.0 b
685800 127000 717550 146050 0.0 b
685800 317500 698500 330200 0.0 b
781050 387350 812800 431800 0.0 b
768350 457200 806450 495300 0.0 b
698500 546100 723900 571500 0.0 b
387350 685800 406400 698500 0.0 b
444500 692150 463550 698500 0.0 b
387350 673100 419100 685800 0.0 b
431800 673100 463550 692150 0.0 b
304800 628650 323850 641350 0.0 b
488950 501650 533400 533400 0.0 b
482600 501650 488950 527050 0.0 b
482600 469900 488950 508000 0.0 b
431800 495300 469900 520700 0.0 b
825500 450850 838200 469900 0.0 b
819150 450850 831850 469900 0.0 b
825500 438150 831850 450850 0.0 b
863600 412750 882650 431800 0.0 b
857250 412750 863600 431800 0.0 b
914400 444500 927100 469900 0.0 b
908050 444500 914400 457200 0.0 b
831850 387350 844550 412750 0.0 b
825500 393700 850900 412750 0.0 b
887000 137000 912000 143000 0.0 b
889000 141000 912000 146000 0.0 b
887000 139000 912000 152000 0.0 b
857000 135000 871000 151000 0.0 b
772000 174000 789000 200000 0.0 b
895350 158750 911225 206375 0.0 b
895350 155575 917575 168275 0.0 b
895350 206375 911225 250825 0.0 b
485775 473075 549275 501650 0.0 b
482600 549275 533400 571500 0.0 b
339725 692150 368300 717550 0.0 b
895350 247650 911225 285750 0.0 b
879475 263525 917575 288925 0.0 b
873125 263525 882650 288925 0.0 b
923925 231775 939800 254000 0.0 b
895350 304800 933450 323850 0.0 b
914400 415925 927100 469900 0.0 b
908050 415925 917575 444500 0.0 b
857250 412750 895350 434975 0.0 b
825500 387350 850900 403225 0.0 b
854075 263525 876300 288925 0.0 b
742950 546100 774700 568325 0.0 b
742950 539750 781050 568325 0.0 b
241300 536575 260350 558800 0.0 b
203200 488950 241300 527050 0.0 b
257175 485775 279400 508000 0.0 b
276225 485775 292100 508000 0.0 b
257175 479425 292100 488950 0.0 b
114300 469900 158750 508000 0.0 b
142875 514350 174625 536575 0.0 b
939800 368300 990600 482600 0.0 b
101600 695325 171450 723900 0.0 b
130175 555625 158750 631825 0.0 b
200025 536575 212725 555625 0.0 b
187325 635000 225425 641350 0.0 b
219075 625475 238125 641350 0.0 b
222250 622300 238125 628650 0.0 b
285750 596900 304800 615950 0.0 b
276225 527050 301625 542925 0.0 b
282575 523875 295275 527050 0.0 b
295275 523875 301625 527050 0.0 b
355600 469900 381000 492125 0.0 b
342900 498475 361950 514350 0.0 b
342900 508000 361950 523875 0.0 b
342900 517525 358775 530225 0.0 b
374650 498475 393700 530225 0.0 b
425450 622300 434975 635000 0.0 b
434975 622300 438150 635000 0.0 b
425450 619125 431800 622300 0.0 b
914400 415925 933450 473075 0.0 b
819150 438150 847725 473075 0.0 b
746125 558800 781050 571500 0.0 b
711200 285750 765175 295275 0.0 b
711200 396875 758825 403225 0.0 b
695325 142875 708025 149225 0.0 b
923925 247650 939800 263525 0.0 b
923925 234950 942975 266700 0.0 b
923925 225425 942975 238125 0.0 b
349250 635000 361950 657225 0.0 b
346075 635000 352425 650875 0.0 b
342900 635000 349250 644525 0.0 b
342900 628650 361950 635000 0.0 b
342900 625475 361950 628650 0.0 b
342900 622300 358775 625475 0.0 b
342900 619125 346075 622300 0.0 b
342900 644525 346075 647700 0.0 b
346075 650875 349250 654050 0.0 b
850000 145000 885000 200000 0.0 b
715000 20000 750000 120000 0.0 b
760000 20000 790000 80000 0.0 b
800000 25000 825000 80000 0.0 b
866550 129750 886050 154750 90.0 b
866550 99250 886050 124250 90.0 b
546500 473275 566000 498275 180.0 b
577000 473275 596500 498275 180.0 b
269725 548150 282725 563150 90.0 b
269725 567150 282725 582150 90.0 b
488800 529100 501800 544100 90.0 b
488800 548100 501800 563100 90.0 b
431650 681500 444650 696500 90.0 b
431650 700500 444650 715500 90.0 b
406250 681500 419250 696500 90.0 b
406250 700500 419250 715500 90.0 b
841150 129750 860650 154750 90.0 b
841150 99250 860650 124250 90.0 b
129325 568525 148825 593525 0.0 b
98825 568525 118325 593525 0.0 b
510950 512000 530450 537000 270.0 b
510950 542500 530450 567500 270.0 b
784700 369000 808700 393000 180.0 b
740700 369000 764700 393000 180.0 b
784700 267400 808700 291400 180.0 b
740700 267400 764700 291400 180.0 b
781750 410500 805750 434500 90.0 b
781750 454500 805750 478500 90.0 b
805800 121600 829800 145600 270.0 b
805800 77600 829800 101600 270.0 b
773500 96900 797500 120900 180.0 b
729500 96900 753500 120900 180.0 b
316611 521335 324231 532765 90.0 b
316611 534035 324231 545465 90.0 b
316611 546735 324231 558165 90.0 b
316611 559435 324231 570865 90.0 b
316611 572135 324231 583565 90.0 b
316611 584835 324231 596265 90.0 b
316611 597535 324231 608965 90.0 b
316611 610235 324231 621665 90.0 b
316611 622935 324231 634365 90.0 b
412369 622935 419989 634365 90.0 b
412369 610235 419989 621665 90.0 b
412369 597535 419989 608965 90.0 b
412369 584835 419989 596265 90.0 b
412369 572135 419989 583565 90.0 b
412369 559435 419989 570865 90.0 b
412369 546735 419989 558165 90.0 b
412369 534035 419989 545465 90.0 b
412369 521335 419989 532765 90.0 b
919200 173650 944200 206150 180.0 b
859200 173650 884200 206150 180.0 b
710850 481950 720850 495950 90.0 b
688850 491450 698850 505450 90.0 b
688850 472450 698850 486450 90.0 b
106125 524700 116125 538700 180.0 b
96625 502700 106625 516700 180.0 b
115625 502700 125625 516700 180.0 b
450850 691388 450850 680212 11176 l
400050 691388 400050 680212 11176 l
223390 554735 235580 577085 180.0 b
200280 554735 212470 577085 180.0 b
177170 554735 189360 577085 180.0 b
188375 616890 224375 638890 180.0 b
740918 205486 753110 227838 180.0 b
717804 205486 729996 227838 180.0 b
694690 205486 706882 227838 180.0 b
705900 267640 741900 289640 180.0 b
242650 537400 252650 551400 180.0 b
233150 515400 243150 529400 180.0 b
252150 515400 262150 529400 180.0 b
740918 313436 753110 335788 180.0 b
717804 313436 729996 335788 180.0 b
694690 313436 706882 335788 180.0 b
705900 375590 741900 397590 180.0 b
737950 169100 747950 183100 180.0 b
728450 147100 738450 161100 180.0 b
747450 147100 757450 161100 180.0 b
668100 562800 678100 576800 180.0 b
658600 540800 668600 554800 180.0 b
677600 540800 687600 554800 180.0 b
865125 229425 881125 249425 270.0 b
865125 201425 881125 221425 270.0 b
411100 489450 427100 516450 270.0 b
411100 461450 427100 488450 270.0 b
341250 689800 357250 709800 270.0 b
341250 661800 357250 681800 270.0 b
270100 625000 286100 645000 0.0 b
298100 625000 314100 645000 0.0 b
679100 174150 695100 194150 180.0 b
651100 174150 667100 194150 180.0 b
715900 407800 731900 427800 90.0 b
715900 435800 731900 455800 90.0 b
679100 383700 695100 403700 180.0 b
651100 383700 667100 403700 180.0 b
117125 478950 133125 498950 180.0 b
89125 478950 105125 498950 180.0 b
169800 471300 185800 491300 90.0 b
169800 499300 185800 519300 90.0 b
253650 491650 269650 511650 180.0 b
225650 491650 241650 511650 180.0 b
977550 240825 993550 260825 180.0 b
949550 240825 965550 260825 180.0 b
299975 468125 315975 488125 90.0 b
299975 496125 315975 516125 90.0 b
714600 453550 730600 473550 0.0 b
742600 453550 758600 473550 0.0 b
741300 407800 757300 427800 90.0 b
741300 435800 757300 455800 90.0 b
765400 180500 781400 200500 0.0 b
793400 180500 809400 200500 0.0 b
793400 205900 809400 225900 180.0 b
765400 205900 781400 225900 180.0 b
793400 231300 809400 251300 180.0 b
765400 231300 781400 251300 180.0 b
679100 142400 695100 162400 180.0 b
651100 142400 667100 162400 180.0 b
679100 447200 695100 467200 180.0 b
651100 447200 667100 467200 180.0 b
691800 510700 707800 530700 180.0 b
663800 510700 679800 530700 180.0 b
742600 548800 758600 568800 180.0 b
714600 548800 730600 568800 180.0 b
895575 231300 911575 251300 0.0 b
923575 231300 939575 251300 0.0 b
896875 299275 912875 319275 270.0 b
896875 271275 912875 291275 270.0 b
971200 336075 987200 356075 180.0 b
943200 336075 959200 356075 180.0 b
830200 435800 846200 455800 270.0 b
830200 407800 846200 427800 270.0 b
861950 467550 877950 487550 270.0 b
861950 439550 877950 459550 270.0 b
893700 439550 909700 459550 90.0 b
893700 467550 909700 487550 90.0 b
879700 415450 895700 435450 0.0 b
907700 415450 923700 435450 0.0 b
464820 514350 449580 514350 15240 l
464820 539750 449580 539750 15240 l
464820 565150 449580 565150 15240 l
464820 590550 449580 590550 15240 l
464820 615950 449580 615950 15240 l
464820 641350 449580 641350 15240 l
676150 418450 686150 432450 270.0 b
698150 408950 708150 422950 270.0 b
698150 427950 708150 441950 270.0 b
831500 221600 841500 235600 90.0 b
809500 231100 819500 245100 90.0 b
809500 212100 819500 226100 90.0 b
946600 130750 951100 142750 270.0 b
946600 124250 951100 136250 270.0 b
946600 117750 951100 129750 270.0 b
946600 111250 951100 123250 270.0 b
903100 111250 907600 123250 270.0 b
903100 117750 907600 129750 270.0 b
903100 124250 907600 136250 270.0 b
903100 130750 907600 142750 270.0 b
25400 289497 25400 307404 17907 l
76200 289497 76200 307404 17907 l
127000 289497 127000 307404 17907 l
177800 289497 177800 307404 17907 l
142304 622300 124397 622300 17907 l
142304 673100 124397 673100 17907 l
217090 660400 202010 660400 15080 l
217090 685800 202010 685800 15080 l
814700 57150 14080 14080 180.0 o
774060 57150 14080 14080 180.0 o
733420 57150 14080 14080 180.0 o
814700 31750 14080 14080 180.0 o
774060 31750 14080 14080 180.0 o
733420 31750 14080 14080 180.0 o
431325 463550 14080 14080 0.0 o
431325 422910 14080 14080 0.0 o
431325 382270 14080 14080 0.0 o
456725 463550 14080 14080 0.0 o
456725 422910 14080 14080 0.0 o
456725 382270 14080 14080 0.0 o
723900 278640 723900 216662 6096 l
749300 279400 752700 279400 6096 l
752700 279400 762000 279400 6096 l
751940 278640 723900 278640 6096 l
869950 425450 12064 p
887700 425450 869950 425450 6096 l
742950 285750 12064 p
752700 279400 751940 278640 6096 l
752700 279400 749300 279400 6096 l
749300 279400 742950 285750 6096 l
703150 415950 722050 415950 6096 l
722050 415950 723900 417800 6096 l
749300 417800 759900 417800 6096 l
759900 417800 796700 381000 6096 l
723900 417800 723900 419100 6096 l
749300 417800 723900 417800 6096 l
796700 279400 796700 246000 6096 l
796700 246000 801400 241300 6096 l
787400 190500 773400 190500 4064 l
787400 190500 787400 241300 4064 l
787400 241300 801400 241300 4064 l
804600 238100 814500 238100 4064 l
804600 238100 801400 241300 4064 l
787400 381000 796700 381000 6096 l
796700 381000 796700 279400 6096 l
793750 422500 793750 387350 19304 l
793750 387350 800100 381000 19304 l
800100 381000 796700 381000 19304 l
774060 57150 774060 31750 8128 l
814500 238100 827534 238100 5080 l
827534 238100 827606 238172 5080 l
827606 238172 846828 238172 5080 l
846828 238172 850000 235000 5080 l
835000 200000 835000 175000 5080 l
835000 175000 815000 155000 5080 l
815000 155000 780000 155000 5080 l
765000 140000 765000 80000 5080 l
765000 80000 775000 70000 5080 l
775000 70000 775000 58090 5080 l
775000 58090 774060 57150 5080 l
850000 235000 850000 215000 5080 l
850000 215000 835000 200000 5080 l
780000 155000 765000 140000 5080 l
863600 142250 876300 142250 10160 l
850900 142250 863600 142250 10160 l
905350 136750 881800 136750 2000 l
881800 136750 876300 142250 2000 l
871700 189900 871700 150350 8128 l
871700 150350 863600 142250 8128 l
873125 211425 873125 191325 6096 l
873125 191325 871700 189900 6096 l
849550 143600 817800 133600 6096 l
849550 143600 850900 142250 6096 l
785500 108900 785500 125500 10160 l
785500 125500 795000 135000 10160 l
795000 135000 816400 135000 10160 l
816400 135000 817800 133600 10160 l
817800 133600 839550 133600 10160 l
839550 133600 845446 139496 10160 l
76200 298450 76200 292100 21844 l
76200 292100 76200 260350 21844 l
76200 260350 654050 260350 21844 l
654050 260350 654050 167500 21844 l
654050 167500 654050 6350 21844 l
654050 6350 844550 6350 21844 l
844550 107950 844550 6350 21844 l
939800 107950 844550 107950 21844 l
939800 107950 990600 107950 21844 l
990600 254000 990600 107950 21844 l
990600 304800 990600 254000 21844 l
990600 342900 990600 304800 21844 l
990600 482600 990600 342900 21844 l
990600 482600 990600 488950 21844 l
990600 488950 844550 488950 21844 l
844550 558800 844550 488950 21844 l
844550 558800 844550 590550 21844 l
844550 590550 654050 590550 21844 l
654050 590550 654050 520700 21844 l
654050 520700 654050 381000 21844 l
654050 381000 654050 388650 6096 l
654050 388650 659100 393700 6096 l
654050 260350 654050 184150 6096 l
654050 184150 647700 177800 6096 l
647700 177800 659100 184150 6096 l
693850 498450 663550 498450 6096 l
663550 498450 660400 495300 6096 l
660400 460030 660400 395000 6096 l
660400 395000 659100 393700 6096 l
660400 495300 660400 460030 6096 l
698500 165100 698500 165800 4064 l
698500 165800 696800 167500 5080 l
696800 167500 654050 167500 5080 l
733450 154100 709500 154100 5080 l
709500 154100 698500 165100 5080 l
671800 520700 654050 520700 6096 l
659100 457200 659100 458730 1524 l
659100 458730 660400 460030 1524 l
663600 547800 663600 568300 1524 l
660400 571500 663600 568300 1524 l
965200 304800 42160 p
294800 680800 42160 p
660400 571500 657954 573946 1524 l
76200 292100 76200 368300 6096 l
869950 477550 869950 480060 6096 l
901700 477550 901700 480060 6096 l
869950 477550 901700 477550 6096 l
905350 117250 930500 117250 2000 l
930500 117250 939800 107950 2000 l
948850 117250 949100 117250 2000 l
949100 117250 939800 107950 2000 l
279425 577850 320421 577850 6096 l
279425 577850 276225 574650 6096 l
183265 596015 183265 565910 6096 l
183265 596015 190500 603250 6096 l
190500 603250 234950 603250 6096 l
234950 603250 254000 622300 6096 l
254000 622300 254000 717550 6096 l
596900 482600 596900 501650 6096 l
596900 482600 596900 473075 6096 l
596900 473075 600075 469900 6096 l
254000 717550 101600 717550 6096 l
38100 568325 101600 568325 6096 l
38100 568325 3175 568325 6096 l
3175 568325 3175 368300 6096 l
3175 368300 596900 368300 6096 l
596900 368300 600075 371475 6096 l
600075 371475 600075 498475 6096 l
600075 498475 596900 501650 6096 l
101600 584200 101600 717550 6096 l
101600 584200 101600 568325 6096 l
294800 717550 254000 717550 6096 l
294800 717550 342900 717550 6096 l
355600 717550 342900 717550 6096 l
368300 717550 419100 717550 6096 l
368300 717550 355600 717550 6096 l
444500 717550 419100 717550 6096 l
498475 717550 444500 717550 6096 l
600075 527050 600075 571500 6096 l
600075 527050 600075 514350 6096 l
294800 680800 294800 717550 6096 l
342900 717550 342900 706150 6096 l
342900 706150 349250 699800 6096 l
349250 699800 349250 711200 6096 l
349250 711200 355600 717550 6096 l
412750 708000 412750 711200 6096 l
412750 711200 419100 717550 6096 l
438150 708000 438150 711200 6096 l
438150 711200 444500 717550 6096 l
520700 571500 501650 571500 6096 l
520700 571500 600075 571500 6096 l
501650 571500 501650 714375 6096 l
501650 714375 498475 717550 6096 l
495300 565150 495300 555600 6096 l
495300 565150 501650 571500 6096 l
520700 555000 520700 571500 6096 l
457200 565150 495300 565150 6096 l
320421 577850 349250 577850 6096 l
349250 577850 368300 596900 6096 l
368300 596900 368300 717550 6096 l
108575 581025 104775 581025 6096 l
104775 581025 101600 584200 6096 l
985550 250825 987425 250825 4064 l
987425 250825 990600 254000 4064 l
965200 304800 990600 304800 4064 l
979200 346075 987425 346075 6096 l
987425 346075 990600 342900 6096 l
586750 485775 593725 485775 6096 l
593725 485775 596900 482600 6096 l
654050 590550 654050 577850 6096 l
654050 577850 660400 571500 6096 l
812800 558800 42160 p
38100 527050 42160 p
565150 402050 42160 p
812800 558800 844550 558800 4064 l
565150 402050 600075 527050 4064 l
233650 501650 233650 517900 6096 l
238150 522400 233650 517900 6096 l
183265 546100 183265 565910 6096 l
183265 546100 183265 540635 6096 l
183265 540635 203200 520700 6096 l
203200 520700 236450 520700 6096 l
236450 520700 238150 522400 6096 l
38100 527050 38100 568325 6096 l
101625 493450 101625 509700 6096 l
101625 493450 97125 488950 6096 l
968375 463550 12750 12750 0.0 o
968375 444500 12750 12750 0.0 o
968375 425450 12750 12750 0.0 o
968375 406400 12750 12750 0.0 o
968375 387350 12750 12750 0.0 o
971550 463550 968375 463550 6096 l
971550 463550 990600 482600 6096 l
968375 463550 968375 444500 6096 l
968375 444500 968375 425450 6096 l
968375 425450 968375 415925 6096 l
968375 415925 977900 406400 6096 l
977900 406400 968375 406400 6096 l
968375 406400 968375 387350 6096 l
101625 509700 101625 517500 6096 l
101625 517500 98425 520700 6096 l
98425 520700 98425 539750 6096 l
98425 539750 104775 546100 6096 l
104775 546100 183265 546100 6096 l
123825 708025 12750 12750 0.0 o
149225 708025 12750 12750 0.0 o
101600 717550 114300 717550 8128 l
123825 708025 114300 717550 8128 l
149225 708025 123825 708025 8128 l
654050 167500 654050 157450 8128 l
654050 157450 659100 152400 8128 l
844550 488950 858550 488950 1524 l
858550 488950 869950 477550 1524 l
876300 111750 850900 111750 1524 l
850900 111750 848350 111750 1524 l
848350 111750 844550 107950 1524 l
419100 577850 425450 577850 6096 l
482600 482600 482600 469900 6096 l
482600 482600 482600 520700 6096 l
428959 469900 482600 469900 10160 l
463550 539750 482600 520700 6096 l
158750 628650 133350 622300 6096 l
158750 628650 190500 660400 6096 l
190500 660400 209550 660400 6096 l
425450 577850 431800 571500 6096 l
431800 571500 431800 552450 6096 l
431800 552450 444500 539750 6096 l
444500 539750 463550 539750 6096 l
419100 474950 419100 470234 6096 l
419100 470234 428959 469900 6096 l
482600 520700 482600 523900 6096 l
493580 534880 482600 523900 6096 l
493580 534880 495300 536600 6096 l
520700 524500 503960 524500 6096 l
503960 524500 493580 534880 6096 l
905350 130250 915250 130250 4064 l
915250 130250 916000 131000 4064 l
916000 157000 916000 131000 4064 l
916000 152400 916000 157000 4064 l
901700 174625 916000 160325 4064 l
901700 203200 901700 174625 4064 l
901700 203200 901700 206375 4064 l
546100 485775 485775 485775 4064 l
485775 485775 482600 482600 4064 l
903575 241300 903575 205075 4064 l
903575 205075 901700 203200 4064 l
133350 622300 133350 590550 6096 l
139700 584200 133350 590550 6096 l
882650 276225 12750 12750 0.0 o
882650 276225 899825 276225 3048 l
899825 276225 904875 281275 3048 l
904875 281275 904875 242600 3048 l
904875 242600 903575 241300 3048 l
556250 485775 546100 485775 6096 l
863600 276225 12750 12750 0.0 o
863600 276225 882650 276225 6096 l
768350 558800 12750 12750 0.0 o
750600 558800 768350 558800 4064 l
514350 488950 12750 12750 0.0 o
495300 488950 12750 12750 0.0 o
495300 508000 12750 12750 0.0 o
514350 508000 12750 12750 0.0 o
495300 508000 514350 508000 4064 l
514350 508000 514350 518150 4064 l
514350 518150 520700 524500 4064 l
514350 508000 514350 488950 4064 l
514350 488950 495300 488950 4064 l
139075 572125 139075 581025 6096 l
307975 478125 307975 450850 6096 l
307975 450850 304800 447675 6096 l
391825 447675 419100 474950 10160 l
304800 447675 391825 447675 10160 l
73025 447675 63500 457200 10160 l
63500 457200 63500 498475 10160 l
63500 498475 76200 511175 10160 l
76200 511175 76200 539750 10160 l
76200 539750 88900 552450 10160 l
177800 447675 304800 447675 10160 l
177800 447675 73025 447675 10160 l
139075 572125 139075 583575 10160 l
139075 583575 139700 584200 10160 l
177800 481300 177800 447675 6096 l
88900 552450 92075 555625 8128 l
92075 555625 101600 555625 8128 l
101600 555625 104775 558800 8128 l
104775 558800 130175 558800 8128 l
130175 558800 133350 561975 8128 l
133350 561975 133350 566400 8128 l
133350 566400 139075 572125 8128 l
916000 160325 916000 157000 3048 l
457200 539750 463550 539750 3048 l
416179 577850 419100 577850 3048 l
948850 136750 948850 155100 5080 l
948850 155100 962025 168275 5080 l
962025 231775 958850 234950 5080 l
958850 234950 958850 249525 5080 l
958850 249525 957550 250825 4064 l
962025 168275 962025 231775 5080 l
957550 250825 957550 252125 4064 l
923925 295275 920750 295275 5080 l
920750 295275 892175 295275 5080 l
866775 244475 860425 250825 5080 l
866775 244475 868075 244475 4064 l
868075 244475 873125 239425 4064 l
957550 250825 957550 261650 5080 l
957550 261650 946150 273050 5080 l
946150 273050 927100 273050 5080 l
927100 273050 927100 292100 5080 l
927100 292100 923925 295275 5080 l
860425 250825 857250 250825 5080 l
844550 263525 844550 292100 5080 l
844550 292100 847725 295275 5080 l
847725 295275 892175 295275 5080 l
857250 250825 844550 263525 5080 l
905350 123750 921750 123750 4064 l
923000 125000 923000 152400 5080 l
923000 152400 923000 157000 4064 l
921750 123750 923000 125000 4064 l
923000 152400 923000 181200 5080 l
923000 181200 931700 189900 4064 l
948850 123750 931250 123750 4064 l
931250 123750 931000 124000 4064 l
931000 124000 931000 156300 5080 l
931000 156300 931000 157000 4064 l
931000 156300 939800 165100 5080 l
939800 165100 946150 165100 5080 l
946150 165100 952500 171450 5080 l
952500 219075 939800 231775 5080 l
939800 231775 939800 233075 4064 l
931575 241300 939800 233075 4064 l
952500 171450 952500 219075 5080 l
933450 257175 12750 12750 0.0 o
933450 257175 933450 243175 4064 l
933450 243175 931575 241300 4064 l
311150 552450 292100 533400 6096 l
292100 533400 285750 533400 6096 l
285750 533400 279400 533400 6096 l
285750 533400 12750 12750 0.0 o
320421 552450 311150 552450 6096 l
948850 130250 958925 130250 5080 l
958925 130250 971550 142875 5080 l
971550 142875 971550 234950 5080 l
971550 234950 971550 263525 5080 l
971550 263525 971550 266700 4064 l
927100 307975 906175 307975 4064 l
906175 307975 904875 309275 4064 l
958850 279400 952500 279400 5080 l
952500 279400 949325 282575 4064 l
935550 299525 936625 298450 4064 l
935550 299525 930275 304800 5080 l
930275 304800 927100 307975 4064 l
971550 266700 958850 279400 5080 l
951200 346075 951200 341600 6096 l
951200 341600 930275 320675 6096 l
930275 320675 930275 311150 6096 l
930275 311150 927100 307975 6096 l
952500 279400 939800 292100 5080 l
939800 292100 939800 295275 5080 l
939800 295275 935550 299525 5080 l
416179 590550 457200 590550 6096 l
355600 565150 320421 565150 6096 l
355600 565150 381000 539750 6096 l
381000 539750 416179 539750 6096 l
438150 514350 457200 514350 6096 l
438150 514350 431800 508000 6096 l
431800 508000 424150 508000 6096 l
424150 508000 419100 502950 6096 l
416179 539750 425450 539750 6096 l
425450 539750 438150 527050 6096 l
438150 527050 438150 514350 6096 l
320421 565150 292100 565150 6096 l
292100 565150 285750 558800 6096 l
285750 558800 279375 558800 6096 l
279375 558800 276225 555650 6096 l
416179 603250 425450 603250 6096 l
425450 603250 438150 615950 6096 l
438150 615950 457200 615950 6096 l
416179 628650 416179 635000 6096 l
416179 635000 416179 638429 6096 l
436127 641350 431800 641350 6096 l
436127 641350 457200 641350 6096 l
416179 635000 416179 638429 6096 l
416179 638429 419100 641350 6096 l
419100 641350 436127 641350 6096 l
438150 689000 454000 689000 1524 l
454000 689000 457200 685800 1524 l
457200 685800 450850 685800 1524 l
416179 565150 400050 565150 6096 l
400050 565150 400050 644525 6096 l
400050 644525 438150 682625 6096 l
438150 682625 438150 689000 6096 l
403250 689000 412750 689000 6096 l
400050 685800 403250 689000 6096 l
412750 679450 412750 689000 6096 l
416179 552450 387350 552450 6096 l
412750 679450 406400 679450 6096 l
387350 654050 412750 679450 6096 l
387350 552450 387350 654050 6096 l
723900 324612 723900 304800 6096 l
723900 304800 774700 304800 6096 l
774700 304800 774700 355600 6096 l
774700 355600 762000 368300 6096 l
762000 368300 762000 371700 6096 l
753744 379956 762000 371700 6096 l
753744 379956 752700 381000 6096 l
752700 381000 749300 381000 6096 l
838200 400050 12064 p
838200 417800 838200 400050 6096 l
723900 386590 747110 386590 6096 l
749226 384474 747110 386590 6096 l
742950 393700 12064 p
749226 384474 753744 379956 6096 l
752700 381000 749226 384474 6096 l
742950 393700 742950 390750 6096 l
742950 390750 749226 384474 6096 l
875000 445800 838200 445800 6096 l
875000 445800 876300 444500 6096 l
876300 444500 875000 444500 6096 l
875000 444500 869950 449550 6096 l
831850 463550 12064 p
838200 445800 838200 457200 6096 l
838200 457200 831850 463550 6096 l
416179 527050 387350 527050 6096 l
387350 527050 381000 520700 6096 l
381000 520700 381000 508000 6096 l
381000 508000 12064 p
909350 449550 901700 449550 6096 l
909350 449550 914400 444500 6096 l
914400 444500 914400 426750 6096 l
914400 426750 915700 425450 6096 l
920750 463550 12064 p
920750 463550 920750 460950 6096 l
920750 460950 909350 449550 6096 l
320421 527050 349250 527050 6096 l
349250 527050 355600 520700 6096 l
355600 520700 355600 508000 6096 l
355600 508000 12064 p
320421 628650 301371 633379 6096 l
301371 633379 306100 635000 6096 l
278100 642332 278100 652750 6096 l
278100 635000 278100 642332 6096 l
278100 652750 279400 654050 6096 l
279400 654050 336550 654050 6096 l
336550 654050 349250 666750 6096 l
349250 666750 349250 671800 6096 l
278100 635000 278100 633700 6096 l
279400 641032 278100 642332 6096 l
229485 565910 229485 581910 6096 l
229485 581910 276225 628650 6096 l
276225 628650 276225 633125 6096 l
276225 633125 278100 635000 6096 l
747014 324612 747014 345186 6096 l
747014 345186 736600 355600 6096 l
736600 355600 704850 355600 6096 l
704850 355600 692150 368300 6096 l
692150 368300 692150 393700 6096 l
688975 396875 692150 393700 6096 l
688975 396875 685800 400050 6096 l
687100 398750 687100 393700 6096 l
687100 398750 679450 406400 6096 l
679450 406400 679450 423750 6096 l
679450 423750 681150 425450 6096 l
687100 393700 687100 395000 8128 l
687100 395000 688975 396875 8128 l
25400 298450 25400 330200 19304 l
25400 330200 16764 p
774700 482600 16764 p
699800 520700 698500 520700 6096 l
698500 520700 699800 520700 6096 l
699800 520700 730250 520700 6096 l
730250 520700 755650 495300 6096 l
755650 495300 774700 476250 6096 l
774700 476250 774700 482600 6096 l
682600 547800 684100 547800 6096 l
684100 547800 685800 546100 6096 l
685800 546100 698500 533400 6096 l
698500 533400 698500 522000 6096 l
698500 522000 699800 520700 6096 l
774700 482600 777650 482600 6096 l
777650 482600 793750 466500 6096 l
127000 298450 127000 317500 21844 l
127000 317500 152400 342900 21844 l
152400 342900 628650 342900 21844 l
628650 342900 647700 342900 21844 l
647700 342900 660400 342900 19304 l
660400 342900 666750 342900 21844 l
666750 342900 673100 342900 21844 l
673100 342900 692150 323850 21844 l
692150 323850 685800 323850 21844 l
685800 323850 666750 342900 21844 l
666750 342900 628650 342900 21844 l
700786 324612 692912 324612 6096 l
692912 324612 692150 323850 6096 l
133350 673100 165100 673100 6096 l
165100 673100 177800 685800 6096 l
177800 685800 209550 685800 6096 l
234950 635000 234950 685800 6096 l
234190 627890 206375 627890 6096 l
234190 627890 234950 635000 6096 l
234950 685800 209550 685800 6096 l
206375 565910 206375 546100 6096 l
206375 546100 7564 p
206375 635000 7564 p
206375 627890 206375 635000 6096 l
257150 522400 258650 522400 6096 l
258650 522400 263525 517525 6096 l
263525 503525 263525 517525 6096 l
263525 503525 261650 501650 6096 l
279400 498475 12750 12750 0.0 o
817400 77000 12750 12750 0.0 o
279400 498475 268575 498475 6096 l
268575 498475 263525 503525 6096 l
814700 57150 814700 31750 8128 l
817800 89600 817800 77400 10160 l
817800 77400 817400 77000 10160 l
817400 77000 817400 59850 10160 l
817400 59850 814700 57150 10160 l
120625 509700 120625 493450 6096 l
120625 493450 125125 488950 6096 l
146050 485775 12750 12750 0.0 o
125125 488950 142875 488950 6096 l
142875 488950 146050 485775 6096 l
735000 77000 12750 12750 0.0 o
741500 108900 741500 96500 10160 l
741500 96500 735000 90000 10160 l
735000 90000 735000 77000 10160 l
735000 77000 735000 58730 10160 l
735000 58730 733420 57150 10160 l
733420 57150 733420 31750 10160 l
416179 615950 425450 615950 6096 l
425450 615950 431800 622300 6096 l
431800 622300 431800 628650 6096 l
431800 628650 10064 p
177800 509300 177800 517525 6096 l
161925 533400 177800 517525 6096 l
161925 533400 112825 533400 6096 l
112825 533400 111125 531700 6096 l
158750 527050 12750 12750 0.0 o
158750 527050 158750 530225 6096 l
158750 530225 161925 533400 6096 l
260350 590550 320421 590550 6096 l
254000 584200 260350 590550 6096 l
255700 544400 247650 544400 4064 l
255700 544400 266700 533400 4064 l
266700 533400 266700 530225 4064 l
282575 514350 299750 514350 4064 l
299750 514350 307975 506125 4064 l
266700 530225 282575 514350 4064 l
247650 544400 247650 549275 6096 l
247650 549275 254000 555625 6096 l
254000 555625 254000 584200 6096 l
703150 434950 708000 434950 6096 l
708000 434950 717550 444500 6096 l
723900 445800 718850 445800 6096 l
718850 445800 717550 444500 6096 l
722600 463550 722600 447100 6096 l
722600 447100 723900 445800 6096 l
750600 463550 750600 447100 6096 l
750600 447100 749300 445800 6096 l
715850 488950 742950 488950 6096 l
742950 488950 749300 482600 6096 l
749300 482600 749300 464850 6096 l
749300 464850 750600 463550 6096 l
801400 215900 801400 190500 6096 l
814500 219100 804600 219100 4064 l
804600 219100 801400 215900 4064 l
773400 241300 773400 215900 6096 l
773400 215900 771525 215900 4064 l
768350 215900 771525 215900 4064 l
771525 215900 742950 187325 5080 l
742950 187325 742950 176100 6096 l
722600 560100 711200 571500 6096 l
711200 571500 674800 571500 6096 l
674800 571500 673100 569800 6096 l
320421 539750 361950 539750 6096 l
361950 539750 368300 533400 6096 l
368300 533400 368300 482600 6096 l
368300 482600 12064 p
711200 558800 16764 p
722600 560100 722600 558800 6096 l
722600 558800 711200 558800 6096 l
177800 298450 603250 298450 21844 l
603250 298450 628650 298450 21844 l
628650 298450 603250 298450 21844 l
628650 298450 666750 298450 21844 l
666750 298450 685800 279400 21844 l
685800 279400 685800 228600 21844 l
685800 228600 685800 222250 21844 l
685800 222250 692150 215900 21844 l
700786 216662 692912 216662 6096 l
692912 216662 692150 215900 6096 l
687100 469900 687100 457200 6096 l
687100 469900 687100 472700 6096 l
687100 472700 693850 479450 6096 l
295275 606425 12750 12750 0.0 o
679450 476250 16764 p
687100 469900 698500 469900 8128 l
679450 476250 680750 476250 8128 l
680750 476250 687100 469900 8128 l
320421 603250 298450 603250 8128 l
298450 603250 295275 606425 8128 l
752450 154100 752450 142850 6096 l
752450 142850 749300 139700 6096 l
749300 139700 698500 139700 6096 l
698500 139700 698500 141000 6096 l
698500 141000 687100 152400 6096 l
698500 139700 16764 p
320421 615950 342900 615950 6096 l
355600 628650 342900 615950 6096 l
355600 647700 12750 12750 0.0 o
355600 628650 355600 647700 6096 l
838200 228600 831850 228600 4064 l
831850 228600 831850 215900 5080 l
831850 215900 819150 203200 5080 l
819150 203200 819150 177800 5080 l
819150 177800 806450 165100 5080 l
806450 165100 717550 165100 5080 l
747014 216662 747014 213614 6096 l
747014 213614 717550 184150 6096 l
717550 184150 687100 184150 6096 l
717550 165100 717550 184150 5080 l
836500 228600 838200 228600 6096 l
682500 35800 42160 p
419100 660400 420845 660400 6096 l
438150 679450 444500 679450 6096 l
444500 679450 450850 685800 6096 l
450850 685800 6096 h
400050 685800 6096 h
457200 514350 10160 h
457200 539750 10160 h
457200 565150 10160 h
457200 590550 10160 h
457200 615950 10160 h
457200 641350 10160 h
25400 298450 11938 h
76200 298450 11938 h
127000 298450 11938 h
177800 298450 11938 h
133350 622300 11938 h
133350 673100 11938 h
209550 660400 10000 h
209550 685800 10000 h
814700 57150 9000 h
774060 57150 9000 h
733420 57150 9000 h
814700 31750 9000 h
774060 31750 9000 h
733420 31750 9000 h
431325 463550 9000 h
431325 422910 9000 h
431325 382270 9000 h
456725 463550 9000 h
456725 422910 9000 h
456725 382270 9000 h
869950 425450 8000 h
742950 285750 8000 h
965200 304800 32000 h
294800 680800 32000 h
812800 558800 32000 h
38100 527050 32000 h
565150 402050 32000 h
968375 463550 8500 h
968375 444500 8500 h
968375 425450 8500 h
968375 406400 8500 h
968375 387350 8500 h
123825 708025 8500 h
149225 708025 8500 h
882650 276225 8500 h
863600 276225 8500 h
768350 558800 8500 h
514350 488950 8500 h
495300 488950 8500 h
495300 508000 8500 h
514350 508000 8500 h
933450 257175 8500 h
285750 533400 8500 h
838200 400050 8000 h
742950 393700 8000 h
831850 463550 8000 h
381000 508000 8000 h
920750 463550 8000 h
355600 508000 8000 h
25400 330200 8000 h
774700 482600 8000 h
206375 546100 3500 h
206375 635000 3500 h
279400 498475 8500 h
817400 77000 8500 h
146050 485775 8500 h
735000 77000 8500 h
431800 628650 6000 h
158750 527050 8500 h
368300 482600 8000 h
711200 558800 8000 h
295275 606425 8500 h
679450 476250 8000 h
698500 139700 8000 h
355600 647700 8500 h
682500 35800 32000 h
showpage grestore
