:020000000A28CC
:10000800FF000308F5000A08F60024283528CC303C
:10001800F4006400F40B0D281128831603138601DD
:100028008312860190161016901190108B170B17DB
:1000380083160C1483121014FE308F008E012328AF
:10004800831203130C1C2E28FE308F008E012030E3
:1000580086060C1076088A0075088300FF0E7F0E4E
:06006800090083010B28D2
:02400E007B3FF6
:00000001FF
