_DC 19 0 ABS
_PD 1B 0 ABS
_RD 4E0 0 ABS
_TO 1C 0 ABS
_WR 4E1 0 ABS
_RA0 28 0 ABS
_RB0 30 0 ABS
_RA1 29 0 ABS
_RB1 31 0 ABS
_RA2 2A 0 ABS
_CM0 F8 0 ABS
_RB2 32 0 ABS
_RA3 2B 0 ABS
_CM1 F9 0 ABS
_RB3 33 0 ABS
_RA4 2C 0 ABS
_CM2 FA 0 ABS
_RB4 34 0 ABS
_RA5 2D 0 ABS
_RB5 35 0 ABS
_RA6 2E 0 ABS
_RB6 36 0 ABS
_RA7 2F 0 ABS
_RB7 37 0 ABS
_RP0 1D 0 ABS
_PS0 408 0 ABS
_RP1 1E 0 ABS
_PS1 409 0 ABS
_VR0 4F8 0 ABS
_PR2 92 0 ABS
_PS2 40A 0 ABS
_VR1 4F9 0 ABS
_VR2 4FA 0 ABS
__S0 2008 0 ABS
_VR3 4FB 0 ABS
__S1 180 0 ABS
__S2 2100 0 ABS
_RX9 C6 0 ABS
_TX9 4C6 0 ABS
_GIE 5F 0 ABS
_PSA 40B 0 ABS
_PCL 2 0 ABS
_CIS FB 0 ABS
_BOR 470 0 ABS
_IRP 1F 0 ABS
_FSR 4 0 ABS
_POR 471 0 ABS
_VRR 4FD 0 ABS
__Hintentry A 0 CODE
__Lintentry 4 0 CODE
__pintentry 4 0 CODE
_isr 24 0 CODE
_PIE1 8C 0 ABS
_PIR1 C 0 ABS
_TMR0 1 0 ABS
_TMR2 11 0 ABS
_T0IE 5D 0 ABS
_RX9D C0 0 ABS
_T0IF 5A 0 ABS
_TX9D 4C0 0 ABS
_EEIE 467 0 ABS
_RBIE 5B 0 ABS
_EEIF 67 0 ABS
_RCIE 465 0 ABS
_INDF 0 0 ABS
_PEIE 5E 0 ABS
_T0SE 40C 0 ABS
_CMIE 466 0 ABS
_RBIF 58 0 ABS
_RCIF 65 0 ABS
_CMIF 66 0 ABS
_OSCF 473 0 ABS
_BRGH 4C2 0 ABS
_CSRC 4C7 0 ABS
_ADEN C3 0 ABS
_TXIE 464 0 ABS
_SYNC 4C4 0 ABS
_T0CS 40D 0 ABS
_TXIF 64 0 ABS
_INTE 5C 0 ABS
_VROE 4FE 0 ABS
_INTF 59 0 ABS
_CREN C4 0 ABS
_SPEN C7 0 ABS
_SREN C5 0 ABS
_VREN 4FF 0 ABS
_WREN 4E2 0 ABS
_PCON 8E 0 ABS
_TXEN 4C5 0 ABS
_ZERO 1A 0 ABS
_FERR C2 0 ABS
_OERR C1 0 ABS
_RBPU 40F 0 ABS
_TRMT 4C1 0 ABS
_main B 0 CODE
btemp 7E 0 ABS
?_isr 77 0 COMMON
_exit A 0 CODE
start A 0 CODE
_TMR1H F 0 ABS
_TMR1L E 0 ABS
_RCREG 1A 0 ABS
_TRISA 85 0 ABS
_RCSTA 18 0 ABS
_TRISB 86 0 ABS
_TXREG 19 0 ABS
_PORTA 5 0 ABS
reset_vec 0 0 CODE
_PORTB 6 0 ABS
_SPBRG 99 0 ABS
_TXSTA 98 0 ABS
_CCP1X BD 0 ABS
_EEADR 9B 0 ABS
_T1CON 10 0 ABS
_T2CON 12 0 ABS
_CCP1Y BC 0 ABS
_CMCON 1F 0 ABS
_VRCON 9F 0 ABS
_C1INV FC 0 ABS
_C2INV FD 0 ABS
_WRERR 4E3 0 ABS
_C1OUT FE 0 ABS
_C2OUT FF 0 ABS
interrupt_function 4 0 CODE
_CARRY 18 0 ABS
__Hconfig 2008 0 CONFIG
__Lconfig 2007 0 CONFIG
__Bram 4200 4200 ABS
__Hram 0 4200 ABS
__Lram 0 4200 ABS
?_main 75 0 COMMON
__size_of_isr 0 0 ABS
??_isr 75 0 COMMON
_CCP1M0 B8 0 ABS
_CCP1M1 B9 0 ABS
_CCP1M2 BA 0 ABS
_CCP1M3 BB 0 ABS
_TRISA0 428 0 ABS
_TRISB0 430 0 ABS
_TRISA1 429 0 ABS
_TRISB1 431 0 ABS
_TRISA2 42A 0 ABS
_TRISB2 432 0 ABS
_TRISA3 42B 0 ABS
_TRISB3 433 0 ABS
_TRISA4 42C 0 ABS
_EECON1 9C 0 ABS
_TRISB4 434 0 ABS
_TRISA5 42D 0 ABS
_EECON2 9D 0 ABS
_TRISB5 435 0 ABS
_TRISA6 42E 0 ABS
_TRISB6 436 0 ABS
_TRISA7 42F 0 ABS
_TRISB7 437 0 ABS
__Bcommon 4200 4200 ABS
__Hcommon 0 4200 ABS
__Lcommon 0 4200 ABS
__Beeprom_data 2100 4200 EEDATA
__Heeprom_data 0 4200 EEDATA
__Leeprom_data 0 4200 EEDATA
_CCPR1H 16 0 ABS
_CCP1IE 462 0 ABS
_CCP1IF 62 0 ABS
_TMR1IE 460 0 ABS
_TMR2IE 461 0 ABS
_TMR1IF 60 0 ABS
??__delay 70 0 COMMON
_TMR2IF 61 0 ABS
_CCPR1L 15 0 ABS
_EEDATA 9A 0 ABS
_INTEDG 40E 0 ABS
__Hstruct 20 0 BANK0
__Lstruct 20 0 BANK0
_T1SYNC 82 0 ABS
_PCLATH A 0 ABS
_TMR1CS 81 0 ABS
_TMR1ON 80 0 ABS
_TMR2ON 92 0 ABS
__Babs1 4200 4200 ABS
__Habs1 0 4200 ABS
__Labs1 0 4200 ABS
_INTCON B 0 ABS
__Bsfr0 4200 4200 ABS
__Hsfr0 0 4200 ABS
__Lsfr0 0 4200 ABS
__Bsfr1 4200 4200 ABS
__Hsfr1 0 4200 ABS
__Lsfr1 0 4200 ABS
_OPTION 81 0 ABS
__Bsfr2 4200 4200 ABS
__Hsfr2 0 4200 ABS
__Lsfr2 0 4200 ABS
__Bsfr3 4200 4200 ABS
__Hsfr3 0 4200 ABS
__Lsfr3 0 4200 ABS
_STATUS 3 0 ABS
__Bcode 4200 4200 ABS
__Hcode 0 4200 ABS
__Lcode 0 4200 ABS
__Hintsave 4200 0 ABS
__Lintsave 4200 0 ABS
??_main 74 0 COMMON
__Htemp 20 0 BANK0
__Ltemp 20 0 BANK0
saved_w 7F 0 ABS
__Hinit A 0 CODE
__Linit A 0 CODE
__end_of_main 24 0 CODE
__Btext 4200 4200 ABS
__Htext 0 4200 ABS
__Ltext 0 4200 ABS
end_of_initialization 35 0 CODE
_T1CKPS0 84 0 ABS
_T2CKPS0 90 0 ABS
_T1CKPS1 85 0 ABS
_T2CKPS1 91 0 ABS
_TOUTPS0 93 0 ABS
_TOUTPS1 94 0 ABS
_TOUTPS2 95 0 ABS
_TOUTPS3 96 0 ABS
__Bstrings 4200 4200 ABS
__Hstrings 0 4200 ABS
__Lstrings 0 4200 ABS
_T1OSCEN 83 0 ABS
_CCP1CON 17 0 ABS
__Bbank0 4200 4200 ABS
__Hbank0 0 4200 ABS
__Lbank0 0 4200 ABS
__Bbank1 4200 4200 ABS
__Hbank1 0 4200 ABS
__Lbank1 0 4200 ABS
__Bbank2 4200 4200 ABS
__Hbank2 0 4200 ABS
__Lbank2 0 4200 ABS
__Bbank3 4200 4200 BANK3
__Hbank3 0 4200 BANK3
__Lbank3 0 4200 BANK3
__Hpowerup B 0 CODE
__Lpowerup B 0 CODE
__ptext6 37 0 CODE
__ptext7 24 0 CODE
__ptext8 37 0 CODE
__Bclrtext 4200 4200 ABS
__Hclrtext 0 4200 ABS
__Lclrtext 0 4200 ABS
__Hidloc 2000 0 IDLOC
__Lidloc 2000 0 IDLOC
__end_of_isr 35 0 CODE
__Hcinit 4200 0 ABS
__Lcinit 4200 0 ABS
?__delay 70 0 COMMON
__size_of_main 0 0 ABS
__Bptbit_0 4200 -1CE00 ABS
__Hptbit_0 21000 -1CE00 ABS
__Lptbit_0 21000 -1CE00 ABS
__delay$0 70 0 COMMON
__Hpa_nodes 4200 0 ABS
__Lpa_nodes 4200 0 ABS
__Hend_init B 0 CODE
__Lend_init A 0 CODE
__Hreset_vec 1 0 CODE
__Lreset_vec 0 0 CODE
intlevel0 4 0 CODE
intlevel1 4 0 CODE
intlevel2 4 0 CODE
intlevel3 4 0 CODE
intlevel4 4 0 CODE
intlevel5 4 0 CODE
__HcstackCOMMON 4200 0 ABS
__LcstackCOMMON 4200 0 ABS
__pcstackCOMMON 70 0 COMMON
start_initialization 35 0 CODE
__Hmaintext 4200 0 ABS
__Lmaintext 4200 0 ABS
__pmaintext B 0 CODE
%segments
reset_vec 0 1 CODE 0
intentry 8 6D CODE 8
config 400E 400F CONFIG 400E
cstackCOMMON 70 76 COMMON 70
%locals
startup.obj
startup.as
63 0 0 CODE
72 A 0 CODE
timer1.obj
timer1.as
2 2007 0 CONFIG
timer1.as
388 35 0 CODE
389 36 0 CODE
X:\Hi-tech\TMR1\timer1.c
7 B 0 CODE
8 11 0 CODE
9 14 0 CODE
10 16 0 CODE
11 17 0 CODE
13 18 0 CODE
14 19 0 CODE
15 1A 0 CODE
16 1B 0 CODE
17 1C 0 CODE
18 1E 0 CODE
20 20 0 CODE
X:\Hi-tech\TMR1\timer1.c
31 24 0 CODE
32 28 0 CODE
33 2B 0 CODE
34 2D 0 CODE
