

HI-TECH Software PIC PRO Macro Assembler V9.70 build 5239 
                                                                                               Thu Apr 14 23:57:59 2011

HI-TECH Software Omniscient Code Generator (PRO mode) build 5239
     1                           	processor	16F628A
     2                           	opt	pw 120
     3                           	opt	pm
     4                           	psect	config,global,class=CONFIG,delta=2
     5                           	psect	nvCOMMON,global,class=COMMON,space=1,delta=1
     6                           	psect	cinit,global,class=CODE,delta=2
     7                           	psect	cstackCOMMON,global,class=COMMON,space=1,delta=1
     8                           	psect	maintext,local,class=CODE,delta=2
     9                           	psect	pa_nodes,global,class=CODE,delta=2
    10  000A                     	;#
    11                           
    12                           	psect	config
    13  2007  3F7B               	dw	16251	;#
    14                           
    15                           	psect	nvCOMMON
    16  0076                     __pnvCOMMON:	;COMMON:	_main->__delay
    17  0076                     _i:
    18  0076                     	ds	1
    19  04E3                     
    20                           	psect	cinit
    21  07E1                     start_initialization:
    22  07E1                     end_of_initialization:	;End of C runtime variable initationation code
    23  07E1  0183               	clrf	3
    24  07E2  2FE3               	ljmp	_main	;jump to C main() function
    25                           
    26                           	psect	cstackCOMMON
    27  0070                     __pcstackCOMMON:
    28  0070                     ?__delay:
    29  0070                     ??__delay:	;@ 0x0
    30  0070                     __delay$0:	;@ 0x0
    31                           ; 4 bytes @ 0x0
    32  0070                     	ds	4
    33  0074                     ??_main:
    34                           ;@ 0x4
    35  0074                     	ds	2
    36  0076                     ?_main:
    37                           
    38                           	psect	maintext
    39  07E3                     __pmaintext:	;@ 0x6
    40                           ;Data sizes: Strings 0, constant 0, data 0, bss 0, persistent 1 stack 0
    41                           ;Auto spaces:   Size  Autos    Used
    42                           ; COMMON          14      6       7
    43                           ; BANK0           80      0       0
    44                           ; BANK1           80      0       0
    45                           ; BANK2           48      0       0
    46                           ;Pointer list with targets:
    47                           ;Main: autosize = 0, tempsize = 2, incstack = 0, save=0
    48                           ;Call graph:                      Base Space Used Autos Args Refs Density
    49                           ;_main                                                2    0    0   0.00
    50                           ;                                    4 COMMO    2
    51                           ;             __delay
    52                           ;  __delay                                            0    4    0   0.00
    53                           ;                                    0 COMMO    4
    54                           ; Estimated maximum call depth 1
    55                           ; Address spaces:
    56                           ;Name               Size   Autos  Total    Cost      Usage
    57                           ;BITCOMMON            E      0       0       0        0.0%
    58                           ;NULL                 0      0       0       0        0.0%
    59                           ;CODE                 0      0       0       0        0.0%
    60                           ;COMMON               E      6       7       1     
    61                           ; *************** function _main *****************
    62                           ; Defined at:
    63                           ;		line 9 in file "X:\Hi-tech\TMR0\puls.c"
    64                           ; Parameters:    Size  Location     Type
    65                           ;		None
    66                           ; Auto vars:     Size  Location     Type
    67                           ;		None
    68                           ; Return value:  Size  Location     Type
    69                           ;		None               void
    70                           ; Registers used:
    71                           ;		wreg, status,2, status,0
    72                           ; Tracked objects:
    73                           ;		On entry : 17F/0
    74                           ;		On exit  : 60/0
    75                           ;		Unchanged: 0/0
    76                           ; Data sizes:     COMMON   BANK0   BANK1   BANK2
    77                           ;      Locals:         2       0       0       0
    78                           ;      Temp:     2
    79                           ;      Total:    2
    80                           ; This function calls:
    81                           ;		__delay
    82                           ; This function is called by:
    83                           ;		Startup code after reset
    84                           ; This function uses a non-reentrant model
    85                           ; 
    86  07E3                     _main:	;puls.c: 4: asm("\tpsect config,class=CONFIG,delta=2"); asm("\tdw ""0x3FFB & 0x3F
      +                          FF & 0x3FFF & 0x3F7F");
    87                           ;puls.c: 6: unsigned char cnt = 0;
    88                           ;puls.c: 7: unsigned char i = 0;
    89                           ;puls.c: 8: unsigned char srb = 0;
    90                           ;puls.c: 9: void main() {
    91                           ;puls.c: 11: TRISB = 0x00;
    92                           ; Regs used in _main: [wreg+status,2+status,0]
    93  07E3  1683               	bsf	3,5	;RP0=1, select bank1
    94  07E4  0186               	clrf	6	;volatile
    95                           ;puls.c: 12: PORTB = 0xff;
    96  07E5  30FF               	movlw	255
    97  07E6  1283               	bcf	3,5	;RP0=0, select bank0
    98  07E7  0086               	movwf	6	;volatile
    99                           ;puls.c: 13: i = 0xff;
   100  07E8  00F6               	movwf	_i
   101  07E9                     l30000256:
   102                           ;puls.c: 15: _delay((unsigned long)((150)*(4000000/4000.0)));
   103  07E9  30C3               	movlw	195
   104  07EA  00F5               	movwf	??_main+1
   105  07EB  30CD               	movlw	205
   106  07EC  00F4               	movwf	??_main
   107  07ED                     u17:
   108  07ED  0BF4               	decfsz	??_main,f
   109  07EE  2FED               	goto	u17
   110  07EF  0BF5               	decfsz	??_main+1,f
   111  07F0  2FED               	goto	u17
   112                           ;puls.c: 16: _delay((unsigned long)((150)*(4000000/4000.0)));
   113  07F1  30C3               	movlw	195
   114  07F2  00F5               	movwf	??_main+1
   115  07F3  30CD               	movlw	205
   116  07F4  00F4               	movwf	??_main
   117  07F5                     u27:
   118  07F5  0BF4               	decfsz	??_main,f
   119  07F6  2FF5               	goto	u27
   120  07F7  0BF5               	decfsz	??_main+1,f
   121  07F8  2FF5               	goto	u27
   122                           ;puls.c: 17: PORTB = i;
   123  07F9  0876               	movf	_i,w
   124  07FA  1283               	bcf	3,5	;RP0=0, select bank0
   125  07FB  1303               	bcf	3,6	;RP1=0, select bank0
   126  07FC  0086               	movwf	6	;volatile
   127                           ;puls.c: 18: i = ~i;
   128  07FD  30FF               	movlw	255
   129  07FE  06F6               	xorwf	_i,f
   130  07FF  2FE9               	goto	l30000256
   131  0800                     __end_of_main:


HI-TECH Software PICC Macro Assembler V9.70 build 5239 
Symbol Table                                                                                   Thu Apr 14 23:57:59 2011

                   _i 0076                    _DC 0019                    _PD 001B                    _RD 04E0  
                  u17 07ED                    u27 07F5                    _TO 001C                    _WR 04E1  
            __delay$0 0070                   _CM0 00F8                   _CM1 00F9                   _CM2 00FA  
                 _CIS 00FB                   _GIE 005F                   _BOR 0470                   _RA0 0028  
                 _RA1 0029                   _RB0 0030                   _RA2 002A                   _RB1 0031  
                 _RA3 002B                   _RB2 0032                   _RA4 002C                   _RB3 0033  
                 _RA5 002D                   _RB4 0034                   _RA6 002E                   _RB5 0035  
                 _RA7 002F                   _RB6 0036                   _RB7 0037                   _FSR 0004  
                 _PCL 0002                   _PS0 0408                   _PR2 0092                   _PS1 0409  
                 _PS2 040A                   _RP0 001D                   _IRP 001F                   _RP1 001E  
                 _PSA 040B                   _VR0 04F8                   _VR1 04F9                   _VR2 04FA  
                 _VR3 04FB                   _POR 0471                   _RX9 00C6                   _TX9 04C6  
                 _VRR 04FD                  _ADEN 00C3                  _EEIE 0467                  _EEIF 0067  
                _CMIE 0466                  _CMIF 0066                  _BRGH 04C2                  _T0IE 005D  
                _T0IF 005A                  _CREN 00C4                  _T0CS 040D                  _FERR 00C2  
                _T0SE 040C                  _CSRC 04C7                  _INDF 0000                  _PIE1 008C  
                _PEIE 005E                  _INTE 005C                  _INTF 0059                  _RBIE 005B  
                _RBIF 0058                  _RCIE 0465                  _RCIF 0065                  _PCON 008E  
                _PIR1 000C                  _OERR 00C1                  _RBPU 040F                  _OSCF 0473  
                _RX9D 00C0                  _TMR0 0001                  _TMR2 0011                  _SPEN 00C7  
                _TX9D 04C0                  _SREN 00C5                  _VREN 04FF                  _TRMT 04C1  
                _TXIE 0464                  _ZERO 001A                  _WREN 04E2                  _TXEN 04C5  
                _TXIF 0064                  _VROE 04FE                  _SYNC 04C4                  _main 07E3  
                start 0000   start_initialization 07E1               ?__delay 0070              ??__delay 0070  
             _CCP1CON 0017                 _C1INV 00FC                 _C2INV 00FD                 _C1OUT 00FE  
               _C2OUT 00FF                 ?_main 0076                 _CCP1X 00BD                 _CCP1Y 00BC  
               _EEADR 009B                 _CARRY 0018                 _CMCON 001F                 _T1CON 0010  
               _T2CON 0012               _T1CKPS0 0084               _T1CKPS1 0085               _T2CKPS0 0090  
             _T2CKPS1 0091                 _RCREG 001A                 _RCSTA 0018                 _TMR1H 000F  
               _TMR1L 000E                 _SPBRG 0099                 _PORTA 0005                 _PORTB 0006  
             _T1OSCEN 0083                 _TRISA 0085                 _TRISB 0086                 _VRCON 009F  
               _WRERR 04E3                 _TXREG 0019                 _TXSTA 0098        __pcstackCOMMON 0070  
             _TOUTPS0 0093               _TOUTPS1 0094               _TOUTPS2 0095               _TOUTPS3 0096  
               status 0003         __size_of_main 001D              l30000253 0000              l30000254 0000  
            l30000255 0000              l30000256 07E9              l30000257 0000              l30000258 0000  
            l30000259 0000            __pnvCOMMON 0076                ??_main 0074            __pmaintext 07E3  
              _CCP1M0 00B8                _CCP1M1 00B9                _CCP1M2 00BA                _CCP1M3 00BB  
              _CCP1IE 0462                _CCP1IF 0062                _EEDATA 009A                _CCPR1H 0016  
              _CCPR1L 0015                _EECON1 009C                _EECON2 009D          __end_of_main 0800  
end_of_initialization 07E1                _T1SYNC 0082                _INTEDG 040E                _PCLATH 000A  
              _INTCON 000B                _TMR1IE 0460                _TMR1IF 0060                _TMR1CS 0081  
              _TMR2IE 0461                _TMR2IF 0061                _OPTION 0081                _TMR1ON 0080  
              _TMR2ON 0092                _TRISA0 0428                _TRISA1 0429                _TRISB0 0430  
              _TRISA2 042A                _TRISB1 0431                _TRISA3 042B                _TRISB2 0432  
              _TRISA4 042C                _TRISB3 0433                _TRISA5 042D                _TRISB4 0434  
              _TRISA6 042E                _TRISB5 0435                _TRISA7 042F                _TRISB6 0436  
              _TRISB7 0437                _STATUS 0003  
