%!PS-Adobe-3.0 EPSF-3.0
%%Title: EAGLE Drawing D:/Diymicro.ru/Projects/PowerSwitcher/PCB/PowerSwitcher.brd
%%Creator: EAGLE
%%Pages: 1
%%BoundingBox: 0 0 311 252
%%EndComments

% Coordinate transfer:

/EU { 254 div 0.072 mul } def
/inch { 72 mul } def

% Linestyle:

1 setlinecap
1 setlinejoin

% Drawing functions:

/l {  % draw a line
   /lw exch def
   /y2 exch def
   /x2 exch def
   /y1 exch def
   /x1 exch def
   newpath
   x1 EU y1 EU moveto
   x2 EU y2 EU lineto
   lw EU setlinewidth
   stroke
   } def

/h {  % draw a hole
   /d  exch def
   /y  exch def
   /x  exch def
   d 0 gt {
     newpath
     x EU y EU d 2 div EU 0 360 arc
     currentgray dup
     1 exch sub setgray
     fill
     setgray
     } if
   } def

/b {  % draw a bar
   /an exch def
   /y2 exch def
   /x2 exch def
   /y1 exch def
   /x1 exch def
   /w2 x2 x1 sub 2 div EU def
   /h2 y2 y1 sub 2 div EU def
   gsave
   x1 x2 add 2 div EU y1 y2 add 2 div EU translate
   an rotate
   newpath
   w2     h2     moveto
   w2 neg h2     lineto
   w2 neg h2 neg lineto
   w2     h2 neg lineto
   closepath
   fill
   grestore
   } def

/c {  % draw a circle
   /lw exch def
   /rd exch def
   /y  exch def
   /x  exch def
   newpath
   lw EU setlinewidth
   x EU y EU rd EU 0 360 arc
   stroke
   } def

/a {  % draw an arc
   /lc exch def
   /ae exch def
   /as exch def
   /lw exch def
   /rd exch def
   /y  exch def
   /x  exch def
   lw rd 2 mul gt {
     /rd rd lw 2 div add 2 div def
     /lw rd 2 mul def
     } if
   currentlinecap currentlinejoin
   lc setlinecap 0 setlinejoin
   newpath
   lw EU setlinewidth
   x EU y EU rd EU as ae arc
   stroke
   setlinejoin setlinecap
   } def

/p {  % draw a pie
   /d exch def
   /y exch def
   /x exch def
   newpath
   x EU y EU d 2 div EU 0 360 arc
   fill
   } def

/edge { 0.20710678119 mul } def

/o {  % draw an octagon
   /an exch def
   /dy exch def
   /dx exch def
   /y  exch def
   /x  exch def
   gsave
   x EU y EU translate
   an dx dy lt { 90 add /dx dy /dy dx def def } if rotate
   newpath
      0 dx 2 div sub EU                    0 dy edge  add EU moveto
      0 dx dy sub 2 div sub dy edge sub EU 0 dy 2 div add EU lineto
      0 dx dy sub 2 div add dy edge add EU 0 dy 2 div add EU lineto
      0 dx 2 div add EU                    0 dy edge  add EU lineto
      0 dx 2 div add EU                    0 dy edge  sub EU lineto
      0 dx dy sub 2 div add dy edge add EU 0 dy 2 div sub EU lineto
      0 dx dy sub 2 div sub dy edge sub EU 0 dy 2 div sub EU lineto
      0 dx 2 div sub EU                    0 dy edge  sub EU lineto
   closepath
   fill
   grestore
   } def

231900 197600 235900 215600 270.0 b
232900 186600 234900 204600 270.0 b
233900 197600 245900 203600 270.0 b
221900 199600 231900 203600 270.0 b
230900 172600 236900 190600 270.0 b
230900 160600 236900 178600 270.0 b
221900 173600 231900 177600 270.0 b
233900 171600 245900 177600 270.0 b
230900 148600 236900 166600 270.0 b
230900 134600 236900 152600 270.0 b
234900 148600 244900 154600 270.0 b
222900 148600 230900 152600 270.0 b
230900 122600 236900 140600 270.0 b
230900 108600 236900 126600 270.0 b
217900 121600 235900 125600 270.0 b
234900 122600 246900 126600 270.0 b
151900 199600 159900 217600 270.0 b
142900 196600 154900 200600 270.0 b
154900 186600 158900 202600 270.0 b
155900 199600 169900 203600 270.0 b
152900 172600 158900 190600 270.0 b
152900 158600 158900 176600 270.0 b
155900 171600 169900 175600 270.0 b
153900 147600 157900 165600 270.0 b
153900 135600 157900 153600 270.0 b
141900 147600 155900 151600 270.0 b
152900 122600 158900 140600 270.0 b
142900 118600 156900 124600 270.0 b
155900 111600 161900 123600 270.0 b
156900 122600 168900 126600 270.0 b
231900 185600 235900 203600 270.0 b
229900 201600 237900 219600 270.0 b
270600 290000 296000 315400 0.0 b
67400 404300 118200 429700 0.0 b
54700 315400 105500 366200 0.0 b
219800 378900 245200 404300 0.0 b
219800 328100 245200 353500 0.0 b
207100 328100 232500 353500 0.0 b
219800 290000 245200 315400 0.0 b
219800 239200 245200 264600 0.0 b
435700 163000 511900 188400 0.0 b
194400 239200 245200 264600 0.0 b
194400 226500 245200 239200 0.0 b
435700 61400 461100 99500 0.0 b
270600 455100 296000 467800 0.0 b
283300 442400 296000 455100 0.0 b
444000 240000 492000 264000 0.0 b
528000 240000 552000 264000 0.0 b
384549 127518 384549 115316 2032 l
384549 115316 390650 115316 2032 l
390650 115316 392684 117350 2032 l
392684 117350 392684 121417 2032 l
392684 121417 390650 123451 2032 l
390650 123451 384549 123451 2032 l
379587 123451 377553 123451 2032 l
377553 123451 377553 115316 2032 l
379587 115316 375519 115316 2032 l
377553 129552 377553 127518 2032 l
370855 123451 370855 117350 2032 l
370855 117350 368822 115316 2032 l
368822 115316 362720 115316 2032 l
362720 123451 362720 113282 2032 l
362720 113282 364754 111249 2032 l
364754 111249 366788 111249 2032 l
357758 115316 357758 123451 2032 l
357758 123451 355724 123451 2032 l
355724 123451 353691 121417 2032 l
353691 121417 353691 115316 2032 l
353691 121417 351657 123451 2032 l
351657 123451 349623 121417 2032 l
349623 121417 349623 115316 2032 l
344661 123451 342627 123451 2032 l
342627 123451 342627 115316 2032 l
344661 115316 340593 115316 2032 l
342627 129552 342627 127518 2032 l
327794 123451 333896 123451 2032 l
333896 123451 335929 121417 2032 l
335929 121417 335929 117350 2032 l
335929 117350 333896 115316 2032 l
333896 115316 327794 115316 2032 l
322832 115316 322832 123451 2032 l
322832 119383 318765 123451 2032 l
318765 123451 316731 123451 2032 l
309884 115316 305816 115316 2032 l
305816 115316 303783 117350 2032 l
303783 117350 303783 121417 2032 l
303783 121417 305816 123451 2032 l
305816 123451 309884 123451 2032 l
309884 123451 311918 121417 2032 l
311918 121417 311918 117350 2032 l
311918 117350 309884 115316 2032 l
298820 115316 298820 117350 2032 l
298820 117350 296787 117350 2032 l
296787 117350 296787 115316 2032 l
296787 115316 298820 115316 2032 l
292272 115316 292272 123451 2032 l
292272 119383 288204 123451 2032 l
288204 123451 286171 123451 2032 l
281357 123451 281357 117350 2032 l
281357 117350 279324 115316 2032 l
279324 115316 273222 115316 2032 l
273222 115316 273222 123451 2032 l
226000 368200 239000 383200 270.0 b
226000 349200 239000 364200 270.0 b
232500 340800 13208 13208 0.0 o
232500 391600 13208 13208 0.0 o
187900 120600 200900 135600 90.0 b
187900 139600 200900 154600 90.0 b
187900 457100 200900 472100 270.0 b
187900 438100 200900 453100 270.0 b
283300 404300 13208 13208 0.0 o
283300 455100 13208 13208 0.0 o
200600 260300 213600 275300 90.0 b
200600 279300 213600 294300 90.0 b
232500 302700 13208 13208 0.0 o
232500 251900 13208 13208 0.0 o
318100 398200 331100 413200 0.0 b
337100 398200 350100 413200 0.0 b
448400 74100 16764 p
448400 175700 16764 p
156300 201100 13208 p
156300 175700 13208 p
232500 175700 13208 p
232500 201100 13208 p
156300 150300 13208 p
156300 124900 13208 p
232500 150300 13208 p
232500 124900 13208 p
321400 257996 321400 271204 13208 l
346800 257996 346800 271204 13208 l
372200 257996 372200 271204 13208 l
397600 257996 397600 271204 13208 l
397600 334196 397600 347404 13208 l
372200 334196 372200 347404 13208 l
346800 334196 346800 347404 13208 l
321400 334196 321400 347404 13208 l
492500 321100 502500 335100 90.0 b
470500 330600 480500 344600 90.0 b
470500 311600 480500 325600 90.0 b
492500 283000 502500 297000 90.0 b
470500 292500 480500 306500 90.0 b
470500 273500 480500 287500 90.0 b
175000 292700 191000 312700 180.0 b
147000 292700 163000 312700 180.0 b
415000 281300 431000 301300 270.0 b
415000 253300 431000 273300 270.0 b
427700 177100 443700 197100 90.0 b
427700 205100 443700 225100 90.0 b
110200 177100 126200 197100 90.0 b
110200 205100 126200 225100 90.0 b
186400 179700 202400 199700 270.0 b
186400 151700 202400 171700 270.0 b
124200 140300 140200 160300 180.0 b
96200 140300 112200 160300 180.0 b
224500 253300 240500 273300 90.0 b
224500 281300 240500 301300 90.0 b
275300 281300 291300 301300 270.0 b
275300 253300 291300 273300 270.0 b
275300 304100 291300 324100 90.0 b
275300 332100 291300 352100 90.0 b
362900 370300 378900 390300 0.0 b
390900 370300 406900 390300 0.0 b
340100 370300 356100 390300 180.0 b
312100 370300 328100 390300 180.0 b
321400 193480 321400 208720 15240 l
346800 193480 346800 208720 15240 l
372200 193480 372200 208720 15240 l
95404 417000 77497 417000 17907 l
95404 467800 77497 467800 17907 l
95404 290000 77497 290000 17907 l
95404 340800 77497 340800 17907 l
181700 373740 181700 358660 15080 l
156300 373740 156300 358660 15080 l
163840 442400 148760 442400 15080 l
163840 467800 148760 467800 15080 l
496597 150300 514504 150300 17907 l
496597 99500 514504 99500 17907 l
519440 201100 504360 201100 15080 l
519440 226500 504360 226500 15080 l
416500 222200 429500 237200 90.0 b
416500 241200 429500 256200 90.0 b
156300 175700 129600 175700 10160 l
129600 175700 118200 187100 10160 l
118200 187100 94100 187100 6096 l
94100 187100 92800 188400 6096 l
92800 188400 92800 226500 6096 l
92800 226500 104200 251900 6096 l
104200 251900 155000 302700 6096 l
232500 356700 232500 340800 10160 l
183000 302700 183000 304000 10160 l
183000 304000 219800 340800 10160 l
219800 340800 232500 340800 10160 l
86450 290000 105500 290000 10160 l
105500 290000 118200 302700 10160 l
118200 302700 118200 328100 10160 l
118200 328100 130900 340800 10160 l
130900 340800 169000 340800 10160 l
169000 340800 181700 353500 10160 l
181700 353500 181700 366200 10160 l
232500 391600 232500 375700 10160 l
181700 366200 181700 378900 10160 l
181700 378900 194400 391600 10160 l
194400 391600 232500 391600 10160 l
132200 150300 156300 150300 10160 l
132200 150300 181700 150300 10160 l
181700 150300 183000 150300 10160 l
183000 150300 194400 161700 10160 l
194400 147100 184900 147100 10160 l
184900 147100 181700 150300 10160 l
321400 340800 284600 340800 10160 l
284600 340800 283300 342100 10160 l
86450 467800 156300 467800 10160 l
54700 378900 54700 372000 10160 l
54700 372000 54700 340800 10160 l
54700 340800 54700 124900 10160 l
54700 124900 54700 48700 10160 l
54700 48700 550000 48700 10160 l
550000 48700 550000 348000 10160 l
550000 348000 550000 467800 10160 l
550000 467800 296000 467800 10160 l
296000 467800 156300 467800 10160 l
86450 340800 54700 340800 10160 l
156300 366200 92800 366200 10160 l
92800 366200 92800 347150 10160 l
92800 347150 86450 340800 10160 l
194400 464600 159500 464600 10160 l
159500 464600 156300 467800 10160 l
423000 248700 423000 263300 10160 l
283300 455100 296000 467800 6096 l
156300 124900 105500 124900 10160 l
105500 124900 105500 149000 10160 l
105500 149000 104200 150300 10160 l
105500 124900 54700 124900 10160 l
194400 128100 159500 128100 10160 l
159500 128100 156300 124900 10160 l
423000 263300 444700 263300 6096 l
444700 263300 456000 252000 6096 l
480000 252000 14224 p
456000 300000 14224 p
456000 252000 14224 p
540000 252000 14224 p
475500 299500 456500 299500 6096 l
456500 299500 456000 300000 6096 l
456000 252000 480000 252000 6096 l
475500 337600 475600 337600 6096 l
475600 337600 486000 348000 6096 l
486000 348000 550000 348000 6096 l
473800 302700 458700 302700 6096 l
458700 302700 456000 300000 6096 l
320100 380300 320100 342100 6096 l
320100 342100 321400 340800 6096 l
320100 380300 320100 401200 6096 l
320100 401200 324600 405700 6096 l
324600 405700 324600 384600 6096 l
324600 384600 318000 378000 6096 l
318000 378000 282000 378000 6096 l
282000 378000 246000 414000 6096 l
246000 414000 144000 414000 6096 l
144000 414000 120000 390000 6096 l
120000 390000 60000 390000 6096 l
60000 390000 54000 384000 6096 l
54000 384000 54000 372700 6096 l
54000 372700 54700 372000 6096 l
478068 337600 478068 337600 6096 l
478068 337600 475500 337600 6096 l
475500 337600 475500 337600 6096 l
475500 337600 478068 337600 6096 l
422048 262348 423952 262348 6096 l
423952 262348 423952 260788 6096 l
423952 260788 423202 260788 6096 l
423202 260788 423202 249408 6096 l
423202 249408 422798 249408 6096 l
422798 249408 422798 260788 6096 l
422798 260788 422048 260788 6096 l
422048 260788 422048 262348 6096 l
131408 401673 131408 424112 6096 l
131408 424112 138694 424112 6096 l
138694 424112 144633 421652 6096 l
144633 421652 167967 421652 6096 l
167967 421652 173906 424112 6096 l
173906 424112 201238 424112 6096 l
201238 424112 207959 426896 6096 l
207959 426896 208672 427609 6096 l
208672 427609 208998 427744 6096 l
208998 427744 233267 427744 6096 l
233267 427744 243503 417508 6096 l
243503 417508 217173 417508 6096 l
217173 417508 212318 415497 6096 l
212318 415497 208603 411782 6096 l
208603 411782 207818 409888 6096 l
207818 409888 190762 409888 6096 l
190762 409888 184041 407104 6096 l
184041 407104 178896 401959 6096 l
178896 401959 166196 389259 6096 l
166196 389259 165008 386390 6096 l
165008 386390 164111 385493 6096 l
164111 385493 163728 384570 6096 l
163728 384570 163181 384968 6096 l
163181 384968 161339 385906 6096 l
161339 385906 159374 386545 6096 l
159374 386545 157333 386868 6096 l
157333 386868 156300 386868 6096 l
156300 386868 156300 366200 6096 l
156300 366200 156300 366200 6096 l
156300 366200 156300 386868 6096 l
156300 386868 155267 386868 6096 l
155267 386868 153226 386545 6096 l
153226 386545 151261 385906 6096 l
151261 385906 149419 384968 6096 l
149419 384968 147748 383753 6096 l
147748 383753 146287 382292 6096 l
146287 382292 145072 380621 6096 l
145072 380621 144134 378779 6096 l
144134 378779 143495 376814 6096 l
143495 376814 143172 374773 6096 l
143172 374773 143172 366200 6096 l
143172 366200 156300 366200 6096 l
156300 366200 156300 366200 6096 l
156300 366200 143172 366200 6096 l
143172 366200 143172 359088 6096 l
143172 359088 127262 359088 6096 l
127262 359088 120541 356304 6096 l
120541 356304 118708 354471 6096 l
118708 354471 118708 368827 6096 l
118708 368827 116697 373682 6096 l
116697 373682 112982 377397 6096 l
112982 377397 108127 379408 6096 l
108127 379408 70358 379408 6096 l
70358 379408 70358 391092 6096 l
70358 391092 120827 391092 6096 l
120827 391092 125682 393103 6096 l
125682 393103 129397 396818 6096 l
129397 396818 131408 401673 6096 l
263488 396094 275094 384488 6096 l
275094 384488 291506 384488 6096 l
291506 384488 303112 396094 6096 l
303112 396094 303112 409744 6096 l
303112 409744 312512 409744 6096 l
312512 409744 312512 405902 6096 l
312512 405902 323892 405902 6096 l
323892 405902 323892 405498 6096 l
323892 405498 312512 405498 6096 l
312512 405498 312512 397464 6096 l
312512 397464 312893 396043 6096 l
312893 396043 312982 395888 6096 l
312982 395888 311364 395888 6096 l
311364 395888 309943 395507 6096 l
309943 395507 308669 394772 6096 l
308669 394772 307628 393731 6096 l
307628 393731 306893 392457 6096 l
306893 392457 306512 391036 6096 l
306512 391036 306512 381252 6096 l
306512 381252 319148 381252 6096 l
319148 381252 319148 379348 6096 l
319148 379348 306512 379348 6096 l
306512 379348 306512 369564 6096 l
306512 369564 306893 368143 6096 l
306893 368143 307628 366869 6096 l
307628 366869 308669 365828 6096 l
308669 365828 309943 365093 6096 l
309943 365093 311364 364712 6096 l
311364 364712 319148 364712 6096 l
319148 364712 319148 379348 6096 l
319148 379348 321052 379348 6096 l
321052 379348 321052 364712 6096 l
321052 364712 328118 364712 6096 l
328118 364712 328903 362818 6096 l
328903 362818 331549 360172 6096 l
331549 360172 330004 358627 6096 l
330004 358627 329239 356779 6096 l
329239 356779 327790 357832 6096 l
327790 357832 326080 358703 6096 l
326080 358703 324255 359296 6096 l
324255 359296 322360 359596 6096 l
322360 359596 321400 359596 6096 l
321400 359596 321400 340800 6096 l
321400 340800 321400 340800 6096 l
321400 340800 321400 359596 6096 l
321400 359596 320440 359596 6096 l
320440 359596 318545 359296 6096 l
318545 359296 316720 358703 6096 l
316720 358703 315010 357832 6096 l
315010 357832 313457 356704 6096 l
313457 356704 312100 355347 6096 l
312100 355347 310972 353794 6096 l
310972 353794 310101 352084 6096 l
310101 352084 309508 350259 6096 l
309508 350259 309208 348364 6096 l
309208 348364 309208 340800 6096 l
309208 340800 321400 340800 6096 l
321400 340800 321400 340800 6096 l
321400 340800 309208 340800 6096 l
309208 340800 309208 333236 6096 l
309208 333236 309342 332388 6096 l
309342 332388 301691 332388 6096 l
301691 332388 300782 333297 6096 l
300782 333297 298888 334082 6096 l
298888 334082 298888 341148 6096 l
298888 341148 284252 341148 6096 l
284252 341148 284252 343052 6096 l
284252 343052 298888 343052 6096 l
298888 343052 298888 350836 6096 l
298888 350836 298507 352257 6096 l
298507 352257 297772 353531 6096 l
297772 353531 296731 354572 6096 l
296731 354572 295457 355307 6096 l
295457 355307 294036 355688 6096 l
294036 355688 284252 355688 6096 l
284252 355688 284252 343052 6096 l
284252 343052 282348 343052 6096 l
282348 343052 282348 355688 6096 l
282348 355688 272564 355688 6096 l
272564 355688 271143 355307 6096 l
271143 355307 269869 354572 6096 l
269869 354572 268828 353531 6096 l
268828 353531 268093 352257 6096 l
268093 352257 267712 350836 6096 l
267712 350836 267712 343052 6096 l
267712 343052 282348 343052 6096 l
282348 343052 282348 341148 6096 l
282348 341148 267712 341148 6096 l
267712 341148 267712 334082 6096 l
267712 334082 265818 333297 6096 l
265818 333297 262103 329582 6096 l
262103 329582 260092 324727 6096 l
260092 324727 260092 323571 6096 l
260092 323571 259403 322882 6096 l
259403 322882 258618 320988 6096 l
258618 320988 257182 320988 6096 l
257182 320988 256866 321750 6096 l
256866 321750 258408 325473 6096 l
258408 325473 258408 356127 6096 l
258408 356127 256397 360982 6096 l
256397 360982 253208 364171 6096 l
253208 364171 253208 365827 6096 l
253208 365827 253054 366200 6096 l
253054 366200 253208 366573 6096 l
253208 366573 253208 368229 6096 l
253208 368229 256397 371418 6096 l
256397 371418 258408 376273 6096 l
258408 376273 258408 406927 6096 l
258408 406927 257241 409744 6096 l
257241 409744 263488 409744 6096 l
263488 409744 263488 396094 6096 l
462912 301618 462912 299500 6096 l
462912 299500 475500 299500 6096 l
475500 299500 475500 299500 6096 l
475500 299500 462912 299500 6096 l
462912 299500 462912 297482 6096 l
462912 297482 461160 296756 6096 l
461160 296756 451956 296756 6096 l
451956 296756 451956 302344 6096 l
451956 302344 461160 302344 6096 l
461160 302344 462912 301618 6096 l
538442 277208 530188 277208 6096 l
530188 277208 530188 293638 6096 l
530188 293638 527404 300359 6096 l
527404 300359 522259 305504 6096 l
522259 305504 515788 308184 6096 l
515788 308184 515788 315837 6096 l
515788 315837 517708 320473 6096 l
517708 320473 517708 335727 6096 l
517708 335727 515697 340582 6096 l
515697 340582 511982 344297 6096 l
511982 344297 507127 346308 6096 l
507127 346308 501331 346308 6096 l
501331 346308 501138 346388 6096 l
501138 346388 493862 346388 6096 l
493862 346388 493669 346308 6096 l
493669 346308 487873 346308 6096 l
487873 346308 487016 345953 6096 l
487016 345953 486972 346031 6096 l
486972 346031 485931 347072 6096 l
485931 347072 484657 347807 6096 l
484657 347807 483236 348188 6096 l
483236 348188 475500 348188 6096 l
475500 348188 475500 337600 6096 l
475500 337600 475500 337600 6096 l
475500 337600 475500 348188 6096 l
475500 348188 467764 348188 6096 l
467764 348188 466343 347807 6096 l
466343 347807 465069 347072 6096 l
465069 347072 464028 346031 6096 l
464028 346031 463293 344757 6096 l
463293 344757 462912 343336 6096 l
462912 343336 462912 337600 6096 l
462912 337600 475500 337600 6096 l
475500 337600 475500 337600 6096 l
475500 337600 462912 337600 6096 l
462912 337600 462912 335582 6096 l
462912 335582 461160 334856 6096 l
461160 334856 439256 334856 6096 l
439256 334856 439256 359434 6096 l
439256 359434 436781 365408 6096 l
436781 365408 420108 382081 6096 l
420108 382081 420108 392927 6096 l
420108 392927 418097 397782 6096 l
418097 397782 414382 401497 6096 l
414382 401497 412256 402378 6096 l
412256 402378 412256 423234 6096 l
412256 423234 409781 429208 6096 l
409781 429208 405208 433781 6096 l
405208 433781 399208 439781 6096 l
399208 439781 393234 442256 6096 l
393234 442256 309208 442256 6096 l
309208 442256 309208 454442 6096 l
309208 454442 538442 454442 6096 l
538442 454442 538442 277208 6096 l
265012 159362 267796 152641 6096 l
267796 152641 272941 147496 6096 l
272941 147496 282762 137675 6096 l
282762 137675 278528 137675 6096 l
278528 137675 277290 137162 6096 l
277290 137162 276052 137675 6096 l
276052 137675 270393 137675 6096 l
270393 137675 265165 135509 6096 l
265165 135509 261164 131508 6096 l
261164 131508 258998 126280 6096 l
258998 126280 258998 112487 6096 l
258998 112487 261164 107259 6096 l
261164 107259 265165 103257 6096 l
265165 103257 270393 101092 6096 l
270393 101092 282153 101092 6096 l
282153 101092 285798 102602 6096 l
285798 102602 289442 101092 6096 l
289442 101092 301650 101092 6096 l
301650 101092 302318 101369 6096 l
302318 101369 302987 101092 6096 l
302987 101092 302987 101092 6096 l
302987 101092 302987 101092 6096 l
302987 101092 305847 101092 6096 l
305847 101092 312713 101092 6096 l
312713 101092 316358 102602 6096 l
316358 102602 320003 101092 6096 l
320003 101092 336725 101092 6096 l
336725 101092 337244 101307 6096 l
337244 101307 337764 101092 6096 l
337764 101092 354795 101092 6096 l
354795 101092 356697 99190 6096 l
356697 99190 361925 97025 6096 l
361925 97025 369617 97025 6096 l
369617 97025 374845 99190 6096 l
374845 99190 376747 101092 6096 l
376747 101092 393480 101092 6096 l
393480 101092 398708 103257 6096 l
398708 103257 400741 105291 6096 l
400741 105291 404743 109292 6096 l
404743 109292 406908 114520 6096 l
406908 114520 406908 121386 6096 l
406908 121386 406908 124246 6096 l
406908 124246 406908 124246 6096 l
406908 124246 406908 124247 6096 l
406908 124247 406408 125453 6096 l
406408 125453 404743 129474 6096 l
404743 129474 404743 129474 6096 l
404743 129474 404743 129474 6096 l
404743 129474 402762 131455 6096 l
402762 131455 402709 131508 6096 l
402709 131508 402709 131508 6096 l
402709 131508 402205 132012 6096 l
402205 132012 426638 132012 6096 l
426638 132012 433359 134796 6096 l
433359 134796 438504 139941 6096 l
438504 139941 448355 149792 6096 l
448355 149792 474435 149792 6096 l
474435 149792 474435 145892 6096 l
474435 145892 477809 137747 6096 l
477809 137747 484043 131512 6096 l
484043 131512 492161 128150 6096 l
492161 128150 491769 127758 6096 l
491769 127758 489294 121784 6096 l
489294 121784 489294 120463 6096 l
489294 120463 484043 118288 6096 l
484043 118288 483543 117788 6096 l
483543 117788 444762 117788 6096 l
444762 117788 438041 115004 6096 l
438041 115004 435745 112708 6096 l
435745 112708 433073 112708 6096 l
433073 112708 428218 110697 6096 l
428218 110697 424503 106982 6096 l
424503 106982 422492 102127 6096 l
422492 102127 422492 58773 6096 l
422492 58773 423824 55558 6096 l
423824 55558 73558 55558 6096 l
73558 55558 73558 57890 6096 l
73558 57890 70580 65079 6096 l
70580 65079 70358 65301 6096 l
70358 65301 70358 268969 6096 l
70358 268969 73088 267839 6096 l
73088 267839 97149 267839 6096 l
97149 267839 92872 263562 6096 l
92872 263562 90693 261506 6096 l
90693 261506 90593 261282 6096 l
90593 261282 90419 261108 6096 l
90419 261108 89272 258340 6096 l
89272 258340 79193 235882 6096 l
79193 235882 79019 235708 6096 l
79019 235708 77872 232940 6096 l
77872 232940 76645 230206 6096 l
76645 230206 76638 229961 6096 l
76638 229961 76544 229734 6096 l
76544 229734 76544 226737 6096 l
76544 226737 76457 223742 6096 l
76457 223742 76544 223512 6096 l
76544 223512 76544 185166 6096 l
76544 185166 79019 179192 6096 l
79019 179192 83592 174619 6096 l
83592 174619 84892 173319 6096 l
84892 173319 90866 170844 6096 l
90866 170844 97777 170844 6096 l
97777 170844 100718 167903 6096 l
100718 167903 105573 165892 6096 l
105573 165892 112220 165892 6096 l
112220 165892 112218 165888 6096 l
112218 165888 105152 165888 6096 l
105152 165888 105152 151252 6096 l
105152 151252 103248 151252 6096 l
103248 151252 103248 165888 6096 l
103248 165888 95464 165888 6096 l
95464 165888 94043 165507 6096 l
94043 165507 92769 164772 6096 l
92769 164772 91728 163731 6096 l
91728 163731 90993 162457 6096 l
90993 162457 90612 161036 6096 l
90612 161036 90612 151252 6096 l
90612 151252 103248 151252 6096 l
103248 151252 103248 149348 6096 l
103248 149348 90612 149348 6096 l
90612 149348 90612 139564 6096 l
90612 139564 90993 138143 6096 l
90993 138143 91728 136869 6096 l
91728 136869 92769 135828 6096 l
92769 135828 94043 135093 6096 l
94043 135093 95464 134712 6096 l
95464 134712 103248 134712 6096 l
103248 134712 103248 149348 6096 l
103248 149348 105152 149348 6096 l
105152 149348 105152 134712 6096 l
105152 134712 112218 134712 6096 l
112218 134712 113003 132818 6096 l
113003 132818 116718 129103 6096 l
116718 129103 121573 127092 6096 l
121573 127092 133692 127092 6096 l
133692 127092 133692 111973 6096 l
133692 111973 135703 107118 6096 l
135703 107118 139418 103403 6096 l
139418 103403 144273 101392 6096 l
144273 101392 167527 101392 6096 l
167527 101392 172382 103403 6096 l
172382 103403 176097 107118 6096 l
176097 107118 178108 111973 6096 l
178108 111973 178108 130119 6096 l
178108 130119 179123 129698 6096 l
179123 129698 179418 129403 6096 l
179418 129403 181312 128618 6096 l
181312 128618 181312 128302 6096 l
181312 128302 182076 128302 6096 l
182076 128302 183051 127898 6096 l
183051 127898 181312 127898 6096 l
181312 127898 181312 120864 6096 l
181312 120864 181693 119443 6096 l
181693 119443 182428 118169 6096 l
182428 118169 183469 117128 6096 l
183469 117128 184743 116393 6096 l
184743 116393 186164 116012 6096 l
186164 116012 194198 116012 6096 l
194198 116012 194198 127392 6096 l
194198 127392 194602 127392 6096 l
194602 127392 194602 116012 6096 l
194602 116012 202636 116012 6096 l
202636 116012 204057 116393 6096 l
204057 116393 205331 117128 6096 l
205331 117128 206372 118169 6096 l
206372 118169 207107 119443 6096 l
207107 119443 207488 120864 6096 l
207488 120864 207488 127898 6096 l
207488 127898 205749 127898 6096 l
205749 127898 206724 128302 6096 l
206724 128302 207488 128302 6096 l
207488 128302 207488 128618 6096 l
207488 128618 209382 129403 6096 l
209382 129403 211692 131713 6096 l
211692 131713 211692 111973 6096 l
211692 111973 213703 107118 6096 l
213703 107118 217418 103403 6096 l
217418 103403 222273 101392 6096 l
222273 101392 245527 101392 6096 l
245527 101392 250382 103403 6096 l
250382 103403 254097 107118 6096 l
254097 107118 256108 111973 6096 l
256108 111973 256108 137227 6096 l
256108 137227 255954 137600 6096 l
255954 137600 256108 137973 6096 l
256108 137973 256108 163227 6096 l
256108 163227 255954 163600 6096 l
255954 163600 256108 163973 6096 l
256108 163973 256108 182812 6096 l
256108 182812 265012 182812 6096 l
265012 182812 265012 159362 6096 l
73558 57150 423164 57150 6096 l
71497 62865 422492 62865 6096 l
70358 68580 422492 68580 6096 l
70358 74295 422492 74295 6096 l
70358 80010 422492 80010 6096 l
70358 85725 422492 85725 6096 l
70358 91440 422492 91440 6096 l
70358 97155 361610 97155 6096 l
369932 97155 422492 97155 6096 l
70358 102870 140705 102870 6096 l
171095 102870 218705 102870 6096 l
249095 102870 266101 102870 6096 l
397772 102870 422800 102870 6096 l
70358 108585 135095 108585 6096 l
176705 108585 213095 108585 6096 l
254705 108585 260615 108585 6096 l
404035 108585 426106 108585 6096 l
70358 114300 133692 114300 6096 l
178108 114300 211692 114300 6096 l
256108 114300 258998 114300 6096 l
406817 114300 437337 114300 6096 l
70358 120015 133692 120015 6096 l
178108 120015 181540 120015 6096 l
194198 120015 194602 120015 6096 l
207260 120015 211692 120015 6096 l
256108 120015 258998 120015 6096 l
406908 120015 488213 120015 6096 l
70358 125730 133692 125730 6096 l
178108 125730 181312 125730 6096 l
194198 125730 194602 125730 6096 l
207488 125730 211692 125730 6096 l
256108 125730 258998 125730 6096 l
406293 125730 490929 125730 6096 l
70358 131445 114376 131445 6096 l
211424 131445 211692 131445 6096 l
256108 131445 261138 131445 6096 l
402772 131445 484206 131445 6096 l
70358 137160 91560 137160 6096 l
103248 137160 105152 137160 6096 l
256108 137160 269150 137160 6096 l
435723 137160 478395 137160 6096 l
70358 142875 90612 142875 6096 l
103248 142875 105152 142875 6096 l
256108 142875 277562 142875 6096 l
441438 142875 475685 142875 6096 l
70358 148590 90612 148590 6096 l
103248 148590 105152 148590 6096 l
256108 148590 271847 148590 6096 l
447153 148590 474435 148590 6096 l
70358 154305 90612 154305 6096 l
103248 154305 105152 154305 6096 l
256108 154305 267107 154305 6096 l
70358 160020 90612 160020 6096 l
103248 160020 105152 160020 6096 l
256108 160020 265012 160020 6096 l
70358 165735 94893 165735 6096 l
103248 165735 105152 165735 6096 l
256108 165735 265012 165735 6096 l
70358 171450 89403 171450 6096 l
256108 171450 265012 171450 6096 l
70358 177165 81046 177165 6096 l
256108 177165 265012 177165 6096 l
70358 182880 77491 182880 6096 l
70358 188595 76544 188595 6096 l
70358 194310 76544 194310 6096 l
70358 200025 76544 200025 6096 l
70358 205740 76544 205740 6096 l
70358 211455 76544 211455 6096 l
70358 217170 76544 217170 6096 l
70358 222885 76544 222885 6096 l
70358 228600 76544 228600 6096 l
70358 234315 78442 234315 6096 l
70358 240030 81054 240030 6096 l
70358 245745 83619 245745 6096 l
70358 251460 86184 251460 6096 l
422798 251460 423202 251460 6096 l
70358 257175 88749 257175 6096 l
422798 257175 423202 257175 6096 l
70358 262890 92160 262890 6096 l
70358 268605 71238 268605 6096 l
530188 280035 538442 280035 6096 l
530188 285750 538442 285750 6096 l
530188 291465 538442 291465 6096 l
451956 297180 462184 297180 6096 l
528721 297180 538442 297180 6096 l
524868 302895 538442 302895 6096 l
515788 308610 538442 308610 6096 l
515788 314325 538442 314325 6096 l
517529 320040 538442 320040 6096 l
258408 325755 260518 325755 6096 l
517708 325755 538442 325755 6096 l
258408 331470 263991 331470 6096 l
517708 331470 538442 331470 6096 l
258408 337185 267712 337185 6096 l
298888 337185 309208 337185 6096 l
439256 337185 462912 337185 6096 l
517104 337185 538442 337185 6096 l
258408 342900 282348 342900 6096 l
284252 342900 309208 342900 6096 l
321400 342900 321400 342900 6096 l
439256 342900 462912 342900 6096 l
475500 342900 475500 342900 6096 l
513379 342900 538442 342900 6096 l
258408 348615 267712 348615 6096 l
282348 348615 284252 348615 6096 l
298888 348615 309248 348615 6096 l
321400 348615 321400 348615 6096 l
439256 348615 538442 348615 6096 l
258408 354330 269627 354330 6096 l
282348 354330 284252 354330 6096 l
296973 354330 311362 354330 6096 l
321400 354330 321400 354330 6096 l
439256 354330 538442 354330 6096 l
118708 360045 143172 360045 6096 l
256785 360045 331423 360045 6096 l
439003 360045 538442 360045 6096 l
118708 365760 143172 365760 6096 l
253208 365760 308787 365760 6096 l
319148 365760 321052 365760 6096 l
436429 365760 538442 365760 6096 l
117611 371475 143172 371475 6096 l
156300 371475 156300 371475 6096 l
256421 371475 306512 371475 6096 l
319148 371475 321052 371475 6096 l
430714 371475 538442 371475 6096 l
113189 377190 143617 377190 6096 l
156300 377190 156300 377190 6096 l
258408 377190 306512 377190 6096 l
319148 377190 321052 377190 6096 l
424999 377190 538442 377190 6096 l
70358 382905 146899 382905 6096 l
156300 382905 156300 382905 6096 l
258408 382905 306512 382905 6096 l
420108 382905 538442 382905 6096 l
70358 388620 165931 388620 6096 l
258408 388620 270962 388620 6096 l
295638 388620 306512 388620 6096 l
420108 388620 538442 388620 6096 l
126914 394335 171272 394335 6096 l
258408 394335 265247 394335 6096 l
301353 394335 308232 394335 6096 l
419525 394335 538442 394335 6096 l
130736 400050 176987 400050 6096 l
258408 400050 263488 400050 6096 l
303112 400050 312512 400050 6096 l
415829 400050 538442 400050 6096 l
131408 405765 182702 405765 6096 l
258408 405765 263488 405765 6096 l
303112 405765 323892 405765 6096 l
412256 405765 538442 405765 6096 l
131408 411480 208478 411480 6096 l
412256 411480 538442 411480 6096 l
131408 417195 216417 417195 6096 l
412256 417195 538442 417195 6096 l
131408 422910 141596 422910 6096 l
171004 422910 238101 422910 6096 l
412256 422910 538442 422910 6096 l
410023 428625 538442 428625 6096 l
404649 434340 538442 434340 6096 l
398547 440055 538442 440055 6096 l
309208 445770 538442 445770 6096 l
309208 451485 538442 451485 6096 l
321400 264600 284600 264600 10160 l
284600 264600 283300 263300 10160 l
435700 187100 435700 175700 10160 l
435700 175700 435700 163000 10160 l
435700 163000 423000 150300 10160 l
423000 150300 296000 150300 10160 l
296000 150300 283300 163000 10160 l
283300 163000 283300 201100 10160 l
283300 201100 283300 263300 10160 l
86450 417000 92800 417000 10160 l
92800 417000 118200 442400 10160 l
118200 442400 156300 442400 10160 l
448400 175700 447100 175700 10160 l
447100 175700 435700 187100 10160 l
448400 175700 435700 175700 10160 l
505550 150300 505550 175700 10160 l
505550 175700 505550 194750 10160 l
505550 194750 511900 201100 10160 l
448400 175700 505550 175700 10160 l
232500 201100 283300 201100 10160 l
156300 442400 191200 442400 10160 l
191200 442400 194400 445600 10160 l
321400 264600 321400 290000 6096 l
321400 290000 334100 290000 6096 l
334100 290000 359500 315400 6096 l
359500 315400 410300 315400 6096 l
410300 315400 423000 328100 6096 l
423000 328100 423000 356200 6096 l
191900 442400 197600 442400 10160 l
197600 442400 194400 445600 10160 l
194400 189700 195700 189700 10160 l
195700 189700 207100 201100 10160 l
207100 201100 232500 201100 10160 l
423000 356200 398900 380300 6096 l
283300 404300 283300 421300 6096 l
283300 421300 288000 426000 6096 l
288000 426000 390000 426000 6096 l
390000 426000 396000 420000 6096 l
396000 420000 396000 383200 6096 l
396000 383200 398900 380300 6096 l
283300 404300 283300 418700 6096 l
283300 418700 276000 426000 6096 l
276000 426000 258000 426000 6096 l
258000 426000 240000 444000 6096 l
240000 444000 196000 444000 6096 l
196000 444000 194400 445600 6096 l
118200 215100 155000 215100 10160 l
155000 215100 156300 213800 10160 l
156300 213800 156300 201100 10160 l
232500 263300 232500 251900 10160 l
207100 267800 207100 264600 10160 l
207100 264600 219800 251900 10160 l
219800 251900 232500 251900 10160 l
118200 215100 183000 215100 10160 l
183000 215100 219800 251900 10160 l
283300 314100 332800 314100 10160 l
332800 314100 346800 328100 10160 l
346800 328100 346800 340800 10160 l
283300 302700 283300 291300 10160 l
207100 286800 207100 290000 10160 l
207100 290000 219800 302700 10160 l
219800 302700 232500 302700 10160 l
232500 291300 232500 302700 10160 l
232500 302700 283300 302700 10160 l
283300 302700 296000 302700 10160 l
283300 314100 283300 302700 10160 l
348100 380300 348100 401200 6096 l
348100 401200 343600 405700 6096 l
372200 340800 372200 379000 6096 l
372200 379000 370900 380300 6096 l
370900 380300 348100 380300 6096 l
497500 328100 497500 290000 10160 l
448400 74100 448400 99500 10160 l
448400 99500 505550 99500 10160 l
505550 99500 505550 118550 6096 l
505550 118550 511900 124900 6096 l
511900 124900 520900 124900 6096 l
520900 124900 534000 138000 6096 l
534000 138000 534000 216000 6096 l
534000 216000 522000 228000 6096 l
522000 228000 513400 228000 6096 l
513400 228000 511900 226500 6096 l
497500 290000 511900 290000 10160 l
511900 290000 511900 226500 10160 l
321400 201100 321400 226500 10160 l
321400 226500 346800 251900 10160 l
346800 251900 346800 264600 10160 l
346800 201100 346800 226500 10160 l
346800 226500 372200 251900 10160 l
372200 251900 372200 264600 10160 l
372200 264600 372200 277300 10160 l
372200 277300 384900 290000 10160 l
384900 290000 421700 290000 10160 l
421700 290000 423000 291300 10160 l
475500 280500 445200 280500 6096 l
445200 280500 435700 290000 6096 l
435700 290000 424300 290000 6096 l
424300 290000 423000 291300 6096 l
475500 318600 438900 318600 6096 l
438900 318600 435700 315400 6096 l
435700 315400 435700 290000 6096 l
372200 201100 372200 226500 10160 l
372200 226500 397600 251900 10160 l
397600 251900 397600 264600 10160 l
435700 215100 423000 215100 10160 l
423000 215100 383600 215100 10160 l
383600 215100 372200 226500 10160 l
423000 229700 423000 215100 10160 l
50800 469900 50800 38100 12700 l
54000 480000 558000 480000 12700 l
558000 480000 558000 36000 12700 l
558000 36000 54000 36000 12700 l
54000 36000 54000 54000 12700 l
552000 474000 54000 474000 12700 l
232500 340800 8128 h
232500 391600 8128 h
283300 404300 8128 h
283300 455100 8128 h
232500 302700 8128 h
232500 251900 8128 h
448400 74100 11176 h
448400 175700 11176 h
156300 201100 8128 h
156300 175700 8128 h
232500 175700 8128 h
232500 201100 8128 h
156300 150300 8128 h
156300 124900 8128 h
232500 150300 8128 h
232500 124900 8128 h
321400 264600 8128 h
346800 264600 8128 h
372200 264600 8128 h
397600 264600 8128 h
397600 340800 8128 h
372200 340800 8128 h
346800 340800 8128 h
321400 340800 8128 h
321400 201100 10160 h
346800 201100 10160 h
372200 201100 10160 h
86450 417000 11938 h
86450 467800 11938 h
86450 290000 11938 h
86450 340800 11938 h
181700 366200 10000 h
156300 366200 10000 h
156300 442400 10000 h
156300 467800 10000 h
505550 150300 11938 h
505550 99500 11938 h
511900 201100 10000 h
511900 226500 10000 h
480000 252000 6000 h
456000 300000 6000 h
456000 252000 6000 h
540000 252000 6000 h
