___lwdiv@dividend 37 0 COMRAM 1
_i 2B 0 COMRAM 1
___lwdiv@counter 3D 0 COMRAM 1
_GO 7E11 0 ABS 0
__end_of_HighIsr 524 0 CODE 0
_writeByteUart 5C2 0 CODE 0
__S0 5D8 0 ABS 0
__S1 4D 0 ABS 0
__S4 0 0 ABS 0
__S5 0 0 ABS 0
_RX9 7D5E 0 ABS 0
_TX9 7D66 0 ABS 0
_GIE 7F97 0 ABS 0
_PSA 7EAB 0 ABS 0
__Hintentry 0 0 ABS 0
__Lintentry 0 0 ABS 0
_CHS0 7E12 0 ABS 0
_CHS1 7E13 0 ABS 0
_SCS1 7E99 0 ABS 0
_ADIE 7CEE 0 ABS 0
_ADIF 7CF6 0 ABS 0
_RCIE 7CED 0 ABS 0
_PEIE 7F96 0 ABS 0
_RCIF 7CF5 0 ABS 0
_BRGH 7D62 0 ABS 0
_SYNC 7D64 0 ABS 0
_T0CS 7EAD 0 ABS 0
_CREN 7D5C 0 ABS 0
_IPEN 7E87 0 ABS 0
_ADON 7E10 0 ABS 0
_SPEN 7D5F 0 ABS 0
_TXEN 7D65 0 ABS 0
_main 114 0 CODE 0
___sp 0 0 STACK 2
_NumToUart$1094 42 0 COMRAM 1
btemp 4C 0 COMRAM 1
start 26 0 CODE 0
_adc_conversion_ended 29 0 COMRAM 1
_BRG16 7DC3 0 ABS 0
_PCFG0 7E08 0 ABS 0
_IRCF0 7E9C 0 ABS 0
_VCFG0 7E0C 0 ABS 0
_tmr0flag 2C 0 COMRAM 1
_PCFG1 7E09 0 ABS 0
_IRCF1 7E9D 0 ABS 0
_PCFG2 7E0A 0 ABS 0
_IRCF2 7E9E 0 ABS 0
_PCFG3 7E0B 0 ABS 0
_ADCS0 7E00 0 ABS 0
_ADCS1 7E01 0 ABS 0
_adc_conversion_start 2A 0 COMRAM 1
_T0PS0 7EA8 0 ABS 0
_ADCS2 7E02 0 ABS 0
_T0PS1 7EA9 0 ABS 0
_ACQT0 7E03 0 ABS 0
_T0PS2 7EAA 0 ABS 0
_ACQT1 7E04 0 ABS 0
_ACQT2 7E05 0 ABS 0
adcSelChan@mux_byte 32 0 COMRAM 1
_adc_data 1 0 COMRAM 1
_RCREG FAE 0 ABS 0
_TXREG FAD 0 ABS 0
_SPBRG FAF 0 ABS 0
__Hirdata 0 0 CODE 0
__Lirdata 0 0 CODE 0
__HRAM 0 0 ABS 0
__LRAM 1 0 ABS 0
writeDataUart@data 32 0 COMRAM 1
ttemp5 4D 0 COMRAM 1
ttemp6 50 0 COMRAM 1
ttemp7 54 0 COMRAM 1
wtemp8 4D 0 COMRAM 1
__Hconfig 30000E 0 CONFIG 4
__Lconfig 0 0 CONFIG 4
__end_of_InitUart 584 0 CODE 0
NumToUart@i 45 0 COMRAM 1
_adcAN1digitalOne 5BA 0 CODE 0
__Hbigram 0 0 ABS 0
__Lbigram 0 0 ABS 0
__Hrparam 0 0 COMRAM 1
__Lrparam 0 0 COMRAM 1
__Hram 0 0 ABS 0
__Lram 0 0 ABS 0
__Hcomram 0 0 ABS 0
__Lcomram 0 0 ABS 0
__Hsfr 0 0 ABS 0
__Lsfr 0 0 ABS 0
__Hbss 0 0 RAM 1
__Lbss 0 0 RAM 1
___param_bank 0 0 ABS 0
__Hnvrram 0 0 COMRAM 1
__Lnvrram 0 0 COMRAM 1
int$flags 4C 0 COMRAM 1
_TRISA0 7C90 0 ABS 0
_TRISA1 7C91 0 ABS 0
_TRISA2 7C92 0 ABS 0
_TRISA3 7C93 0 ABS 0
_TRISA4 7C94 0 ABS 0
_TRISB4 7C9C 0 ABS 0
_TRISA6 7C96 0 ABS 0
_TRISB7 7C9F 0 ABS 0
__Hbigsfr 0 0 ABS 0
__Lbigsfr 0 0 ABS 0
__Heeprom_data 0 0 EEDATA 0
__Leeprom_data 0 0 EEDATA 0
_ReadUart 5CA 0 CODE 0
_TMR0IE 7F95 0 ABS 0
__Hintsave_regs 0 0 BIGRAM 1
__Lintsave_regs 0 0 BIGRAM 1
_TMR0IF 7F92 0 ABS 0
_InitUart 568 0 CODE 0
__Hbigbss 0 0 BIGRAM 1
__Lbigbss 0 0 BIGRAM 1
__Hintret 0 0 ABS 0
__Lintret 0 0 ABS 0
__Hramtop 100 0 RAM 0
__Lramtop 100 0 RAM 0
_rx_data_recieved 2E 0 COMRAM 1
__Hstruct 0 0 COMRAM 1
__Lstruct 0 0 COMRAM 1
__Hbigdata 0 0 BIGRAM 1
__Lbigdata 0 0 BIGRAM 1
__Hmediumconst 0 0 MEDIUMCONST 0
__Lmediumconst 0 0 MEDIUMCONST 0
?___lwdiv 37 0 COMRAM 1
__Hfarbss 0 0 FARRAM 0
__Lfarbss 0 0 FARRAM 0
__Hintcode E 0 CODE 0
__Lintcode 8 0 CODE 0
__Hfardata 0 0 FARRAM 0
_TMR0ON 7EAF 0 ABS 0
_ADRESH FC4 0 ABS 0
__Lfardata 0 0 FARRAM 0
__pintcode 8 0 CODE 0
__Habs1 0 0 ABS 0
__Labs1 0 0 ABS 0
_ADRESL FC3 0 ABS 0
isa$xinst 0 0 ABS 0
__HnvFARRAM 0 0 FARRAM 0
__LnvFARRAM 0 0 FARRAM 0
___heap_hi 0 0 ABS 0
__end_of_adcAN1digitalOne 5C2 0 CODE 0
__Hdata 0 0 ABS 0
__Ldata 0 0 ABS 0
isa$std 1 0 ABS 0
stackhi 0 0 ABS 0
__Hheap 0 0 HEAP 7
__Lheap 0 0 HEAP 7
__end_of_adcSelChan 4F8 0 CODE 0
__Htemp 4D 0 COMRAM 1
_LowIsr 18 0 CODE 0
__Ltemp 4C 0 COMRAM 1
stacklo 0 0 ABS 0
__Hrbit 0 0 COMRAM 1
__Lrbit 0 0 COMRAM 1
__Hinit 2A 0 CODE 0
__Linit 26 0 CODE 0
__Hintcodelo 26 0 CODE 0
__Lintcodelo 18 0 CODE 0
___wmul 524 0 CODE 0
__Hrbss 0 0 COMRAM 1
__end_of_main 2A8 0 CODE 0
__Lrbss 0 0 COMRAM 1
__pintcodelo 18 0 CODE 0
__Htext 0 0 ABS 0
__Ltext 0 0 ABS 0
__end_of_ReadUart 5D2 0 CODE 0
___wmul@multiplier 31 0 COMRAM 1
___heap_lo 0 0 ABS 0
end_of_initialization 556 0 CODE 0
NumToUart@numtemp 44 0 COMRAM 1
___wmul@multiplicand 33 0 COMRAM 1
__end_of_InitADC 5B2 0 CODE 0
_NumToUart 2A8 0 CODE 0
_PORTAbits F80 0 ABS 0
_PORTBbits F81 0 ABS 0
_TXSTAbits FAC 0 ABS 0
_InitADC 59C 0 CODE 0
__Hibigdata 0 0 CODE 0
__Libigdata 0 0 CODE 0
__end_of_NumToUart 40C 0 CODE 0
_T016BIT 7EAE 0 ABS 0
__Hifardata 0 0 CODE 0
__Lifardata 0 0 CODE 0
__Hbank0 0 0 ABS 0
__Lbank0 0 0 ABS 0
_adcAN2analogIn 5D2 0 CODE 0
_adcSelChan 4C6 0 CODE 0
__Hpowerup 26 0 CODE 0
__Lpowerup 26 0 CODE 0
ReadUart@data 2F 0 COMRAM 1
__Htext0 0 0 ABS 0
__Ltext0 0 0 ABS 0
__Htext1 0 0 ABS 0
__Ltext1 0 0 ABS 0
__ptext0 114 0 CODE 0
__Htext2 0 0 ABS 0
__Ltext2 0 0 ABS 0
__ptext1 480 0 CODE 0
__Htext3 0 0 ABS 0
__Ltext3 0 0 ABS 0
__ptext2 4C6 0 CODE 0
__Htext4 0 0 ABS 0
__Ltext4 0 0 ABS 0
__ptext3 5B2 0 CODE 0
__Htext5 0 0 ABS 0
__Ltext5 0 0 ABS 0
__ptext4 5D2 0 CODE 0
__Htext6 0 0 ABS 0
__Ltext6 0 0 ABS 0
__ptext5 5BA 0 CODE 0
__Htext7 0 0 ABS 0
__Ltext7 0 0 ABS 0
__ptext6 2A8 0 CODE 0
__HbssCOMRAM 0 0 ABS 0
__LbssCOMRAM 0 0 ABS 0
__Htext8 0 0 ABS 0
__Ltext8 0 0 ABS 0
__ptext7 5C2 0 CODE 0
__pbssCOMRAM 1 0 COMRAM 1
__Htext9 0 0 ABS 0
__Ltext9 0 0 ABS 0
__ptext8 524 0 CODE 0
__ptext9 40C 0 CODE 0
__Hclrtext 0 0 ABS 0
__Lclrtext 0 0 ABS 0
__end_of__initialization 556 0 CODE 0
___rparam_used 1 0 ABS 0
__end_of___lwdiv 480 0 CODE 0
NumToUart@bignum 46 0 COMRAM 1
__end_of_BusyUSART 59C 0 CODE 0
writeByteUart@tx_data 31 0 COMRAM 1
__Hidata 0 0 CODE 0
__Lidata 0 0 CODE 0
__Hrdata 0 0 COMRAM 1
__Lrdata 0 0 COMRAM 1
__Hidloc 200008 0 IDLOC 5
__Lidloc 0 0 IDLOC 5
__Hstack 0 0 STACK 2
__Lstack 0 0 STACK 2
int_func 4F8 0 CODE 0
__Hparam 0 0 COMRAM 1
__Lparam 0 0 COMRAM 1
__Hspace_0 5D8 0 ABS 0
__HcstackCOMRAM 0 0 ABS 0
__Lspace_0 0 0 ABS 0
__LcstackCOMRAM 0 0 ABS 0
__pcstackCOMRAM 2F 0 COMRAM 1
__Hspace_1 4D 0 ABS 0
_HighIsr 8 0 CODE 0
__Lspace_1 0 0 ABS 0
__Hsmallconst 114 0 SMALLCONST 0
__Lsmallconst 100 0 SMALLCONST 0
__psmallconst 100 0 SMALLCONST 0
__Hspace_2 0 0 ABS 0
__Lspace_2 0 0 ABS 0
__Hnvbit 0 0 COMRAM 1
__Lnvbit 0 0 COMRAM 1
?___wmul 31 0 COMRAM 1
__Hcinit 0 0 ABS 0
__Lcinit 0 0 ABS 0
__pcinit 54A 0 CODE 0
__ramtop 100 0 RAM 0
__mediumconst 0 0 MEDIUMCONST 0
___lwdiv 40C 0 CODE 0
__Hconst 0 0 CONST 0
__Lconst 0 0 CONST 0
__Hspace_4 60000E 0 ABS 0
__Lspace_4 0 0 ABS 0
__end_of_LowIsr 26 0 CODE 0
__Htext10 0 0 ABS 0
__Ltext10 0 0 ABS 0
__ptext10 584 0 CODE 0
__Htext11 0 0 ABS 0
__Ltext11 0 0 ABS 0
__ptext11 568 0 CODE 0
__Htext12 0 0 ABS 0
__Ltext12 0 0 ABS 0
__ptext12 59C 0 CODE 0
__Htext15 0 0 ABS 0
__Ltext15 0 0 ABS 0
__end_of_adcAN2analogIn 5D8 0 CODE 0
__ptext15 5CA 0 CODE 0
___inthi_sp 0 0 STACK 2
_NumToUart$1093 40 0 COMRAM 1
_adcAN2digitalZero 5B2 0 CODE 0
___intlo_sp 0 0 STACK 2
__end_of_writeByteUart 5CA 0 CODE 0
_BusyUSART 584 0 CODE 0
___lwdiv@divisor 39 0 COMRAM 1
__smallconst 100 0 SMALLCONST 0
_tx_data_temp 2D 0 COMRAM 1
__Hreset_vec 4 0 CODE 0
__Lreset_vec 0 0 CODE 0
__accesstop 80 0 ABS 0
__Hintcode_body 0 0 ABS 0
__Lintcode_body 0 0 ABS 0
__pintcode_body 4F8 0 CODE 0
intlevel0 0 0 CODE 0
intlevel1 0 0 CODE 0
intlevel2 0 0 CODE 0
intlevel3 0 0 CODE 0
__end_of_adcAN2digitalZero 5BA 0 CODE 0
__end_of___wmul 54A 0 CODE 0
start_initialization 54A 0 CODE 0
___lwdiv@quotient 3B 0 COMRAM 1
_writeDataUart 480 0 CODE 0
__end_of_writeDataUart 4C6 0 CODE 0
__initialization 54A 0 CODE 0
NumToUart@Num 3E 0 COMRAM 1
__activetblptr 1 0 ABS 0
___wmul@product 35 0 COMRAM 1
%segments
reset_vec 0 3 CODE 0 0
intcode 8 D CODE 8 0
intcodelo 18 29 CODE 18 0
smallconst 100 113 SMALLCONST 100 0
bssCOMRAM 1 4C COMRAM 1 1
text0 114 5D7 CODE 114 0
%locals
dist/default/production\Lamp_amazon.X.production.o
C:/Program Files/Microchip/MPLABX/v6.00/packs/Microchip/PIC18Fxxxx_DFP/1.3.36/xc8\pic\include\proc\pic18f1230.h
C:\Users\PMCC_DB\AppData\Local\Temp\xcAsjps.s
1057 54A 0 CODE 0
1059 54A 0 CODE 0
1062 54A 0 CODE 0
1094 54A 0 CODE 0
1095 54E 0 CODE 0
1096 550 0 CODE 0
1097 550 0 CODE 0
1098 552 0 CODE 0
1099 554 0 CODE 0
1105 556 0 CODE 0
1107 556 0 CODE 0
1108 558 0 CODE 0
1110 55A 0 CODE 0
1111 55C 0 CODE 0
1112 55E 0 CODE 0
1113 560 0 CODE 0
1114 562 0 CODE 0
1115 564 0 CODE 0
main.c
77 114 0 CODE 0
80 114 0 CODE 0
81 116 0 CODE 0
82 118 0 CODE 0
84 11A 0 CODE 0
91 11C 0 CODE 0
92 11E 0 CODE 0
93 120 0 CODE 0
94 122 0 CODE 0
97 124 0 CODE 0
98 126 0 CODE 0
99 128 0 CODE 0
100 12A 0 CODE 0
101 12C 0 CODE 0
102 12E 0 CODE 0
103 130 0 CODE 0
104 132 0 CODE 0
105 134 0 CODE 0
109 136 0 CODE 0
110 13A 0 CODE 0
113 146 0 CODE 0
116 14A 0 CODE 0
117 14E 0 CODE 0
118 152 0 CODE 0
121 158 0 CODE 0
122 15A 0 CODE 0
123 15C 0 CODE 0
130 15E 0 CODE 0
133 16E 0 CODE 0
134 174 0 CODE 0
136 188 0 CODE 0
139 19A 0 CODE 0
140 19E 0 CODE 0
141 1A2 0 CODE 0
142 1A6 0 CODE 0
143 1AA 0 CODE 0
144 1B0 0 CODE 0
145 1B2 0 CODE 0
146 1B4 0 CODE 0
149 1B8 0 CODE 0
150 1BC 0 CODE 0
151 1BE 0 CODE 0
153 1C0 0 CODE 0
155 1C0 0 CODE 0
157 1E0 0 CODE 0
159 1F0 0 CODE 0
160 234 0 CODE 0
161 236 0 CODE 0
164 238 0 CODE 0
166 248 0 CODE 0
167 24A 0 CODE 0
168 24C 0 CODE 0
169 250 0 CODE 0
170 254 0 CODE 0
171 270 0 CODE 0
169 27C 0 CODE 0
173 28E 0 CODE 0
174 292 0 CODE 0
175 296 0 CODE 0
179 29C 0 CODE 0
uart.c
36 480 0 CODE 0
38 480 0 CODE 0
40 480 0 CODE 0
41 494 0 CODE 0
42 4A4 0 CODE 0
43 4C4 0 CODE 0
adc.c
21 4C6 0 CODE 0
30 4C8 0 CODE 0
31 4E4 0 CODE 0
32 4F6 0 CODE 0
adc.c
67 5B2 0 CODE 0
70 5B2 0 CODE 0
71 5B4 0 CODE 0
72 5B6 0 CODE 0
73 5B8 0 CODE 0
adc.c
95 5D2 0 CODE 0
97 5D2 0 CODE 0
98 5D4 0 CODE 0
99 5D6 0 CODE 0
adc.c
42 5BA 0 CODE 0
45 5BA 0 CODE 0
46 5BC 0 CODE 0
47 5BE 0 CODE 0
48 5C0 0 CODE 0
uart.c
45 2A8 0 CODE 0
48 2A8 0 CODE 0
49 2B0 0 CODE 0
51 2B4 0 CODE 0
53 2C6 0 CODE 0
54 2CC 0 CODE 0
60 2E4 0 CODE 0
62 30E 0 CODE 0
63 310 0 CODE 0
58 32C 0 CODE 0
68 33C 0 CODE 0
70 354 0 CODE 0
71 3D4 0 CODE 0
72 3E8 0 CODE 0
68 404 0 CODE 0
75 40A 0 CODE 0
uart.c
31 5C2 0 CODE 0
33 5C4 0 CODE 0
34 5C8 0 CODE 0
C:\Program Files\Microchip\xc8\v2.36\pic\sources\c90\common\Umul16.c
15 524 0 CODE 0
37 524 0 CODE 0
38 530 0 CODE 0
39 538 0 CODE 0
52 540 0 CODE 0
53 548 0 CODE 0
C:\Program Files\Microchip\xc8\v2.36\pic\sources\c90\common\lwdiv.c
7 40C 0 CODE 0
13 40C 0 CODE 0
14 414 0 CODE 0
15 426 0 CODE 0
16 42A 0 CODE 0
17 42E 0 CODE 0
18 434 0 CODE 0
16 436 0 CODE 0
21 444 0 CODE 0
22 44A 0 CODE 0
23 460 0 CODE 0
24 468 0 CODE 0
26 46A 0 CODE 0
27 470 0 CODE 0
28 476 0 CODE 0
29 476 0 CODE 0
30 47E 0 CODE 0
uart.c
23 584 0 CODE 0
25 584 0 CODE 0
26 592 0 CODE 0
27 598 0 CODE 0
28 59A 0 CODE 0
uart.c
3 568 0 CODE 0
5 568 0 CODE 0
6 56A 0 CODE 0
7 56C 0 CODE 0
9 56E 0 CODE 0
10 570 0 CODE 0
11 572 0 CODE 0
12 574 0 CODE 0
13 578 0 CODE 0
14 57A 0 CODE 0
17 57C 0 CODE 0
18 57E 0 CODE 0
19 580 0 CODE 0
21 582 0 CODE 0
adc.c
3 59C 0 CODE 0
6 59C 0 CODE 0
8 59E 0 CODE 0
9 5A0 0 CODE 0
10 5A2 0 CODE 0
12 5A4 0 CODE 0
13 5A6 0 CODE 0
14 5A8 0 CODE 0
16 5AA 0 CODE 0
17 5AC 0 CODE 0
18 5AE 0 CODE 0
19 5B0 0 CODE 0
C:\Users\PMCC_DB\AppData\Local\Temp\xcAsjps.s
3013 18 0 CODE 0
main.c
187 18 0 CODE 0
192 1E 0 CODE 0
C:\Users\PMCC_DB\AppData\Local\Temp\xcAsjps.s
3068 8 0 CODE 0
main.c
194 8 0 CODE 0
main.c
194 4F8 0 CODE 0
197 4F8 0 CODE 0
199 506 0 CODE 0
202 50C 0 CODE 0
204 51A 0 CODE 0
205 51E 0 CODE 0
208 520 0 CODE 0
uart.c
78 5CA 0 CODE 0
81 5CA 0 CODE 0
83 5CE 0 CODE 0
85 5D0 0 CODE 0
