Added Component: Designator=*1(Seven_seg_4_digit)
Added Component: Designator=*2(Seven_seg_3_digit)
Added Pin To Net: NetName=E1 Pin=*1-1
Added Pin To Net: NetName=D1 Pin=*1-2
Added Pin To Net: NetName=DP1 Pin=*1-3
Added Pin To Net: NetName=C1 Pin=*1-4
Added Pin To Net: NetName=G1 Pin=*1-5
Added Pin To Net: NetName=DIG4 Pin=*1-6
Added Pin To Net: NetName=B1 Pin=*1-7
Added Pin To Net: NetName=DIG3 Pin=*1-8
Added Pin To Net: NetName=DIG2 Pin=*1-9
Added Pin To Net: NetName=F1 Pin=*1-10
Added Pin To Net: NetName=A1 Pin=*1-11
Added Pin To Net: NetName=DIG1 Pin=*1-12
Added Pin To Net: NetName=E2 Pin=*2-1
Added Pin To Net: NetName=D2 Pin=*2-2
Added Pin To Net: NetName=DP2 Pin=*2-3
Added Pin To Net: NetName=C2 Pin=*2-4
Added Pin To Net: NetName=G2 Pin=*2-5
Added Pin To Net: NetName=B2 Pin=*2-7
Added Pin To Net: NetName=TDIG3 Pin=*2-8
Added Pin To Net: NetName=TDIG2 Pin=*2-9
Added Pin To Net: NetName=F2 Pin=*2-10
Added Pin To Net: NetName=A2 Pin=*2-11
Added Pin To Net: NetName=TDIG1 Pin=*2-12
Added Member To Class: ClassName=Clock_indicator Member=Component *1 Seven_segment_OK_4_d
Added Member To Class: ClassName=Clock_indicator Member=Component *2 Seven_segment_OK_3_digit
Added Room: Name=Clock_indicator
