%!PS-Adobe-3.0 EPSF-3.0
%%Title: EAGLE Drawing D:/Diymicro.ru/Projects/HumTempBaby/PCB/FrontPanel/HumTempBaby.brd
%%Creator: EAGLE
%%Pages: 1
%%BoundingBox: 0 0 281 144
%%EndComments

% Coordinate transfer:

/EU { 254 div 0.072 mul } def
/inch { 72 mul } def

% Linestyle:

1 setlinecap
1 setlinejoin

% Drawing functions:

/l {  % draw a line
   /lw exch def
   /y2 exch def
   /x2 exch def
   /y1 exch def
   /x1 exch def
   newpath
   x1 EU y1 EU moveto
   x2 EU y2 EU lineto
   lw EU setlinewidth
   stroke
   } def

/h {  % draw a hole
   /d  exch def
   /y  exch def
   /x  exch def
   d 0 gt {
     newpath
     x EU y EU d 2 div EU 0 360 arc
     currentgray dup
     1 exch sub setgray
     fill
     setgray
     } if
   } def

/b {  % draw a bar
   /an exch def
   /y2 exch def
   /x2 exch def
   /y1 exch def
   /x1 exch def
   /w2 x2 x1 sub 2 div EU def
   /h2 y2 y1 sub 2 div EU def
   gsave
   x1 x2 add 2 div EU y1 y2 add 2 div EU translate
   an rotate
   newpath
   w2     h2     moveto
   w2 neg h2     lineto
   w2 neg h2 neg lineto
   w2     h2 neg lineto
   closepath
   fill
   grestore
   } def

/c {  % draw a circle
   /lw exch def
   /rd exch def
   /y  exch def
   /x  exch def
   newpath
   lw EU setlinewidth
   x EU y EU rd EU 0 360 arc
   stroke
   } def

/a {  % draw an arc
   /lc exch def
   /ae exch def
   /as exch def
   /lw exch def
   /rd exch def
   /y  exch def
   /x  exch def
   lw rd 2 mul gt {
     /rd rd lw 2 div add 2 div def
     /lw rd 2 mul def
     } if
   currentlinecap currentlinejoin
   lc setlinecap 0 setlinejoin
   newpath
   lw EU setlinewidth
   x EU y EU rd EU as ae arc
   stroke
   setlinejoin setlinecap
   } def

/p {  % draw a pie
   /d exch def
   /y exch def
   /x exch def
   newpath
   x EU y EU d 2 div EU 0 360 arc
   fill
   } def

/edge { 0.20710678119 mul } def

/o {  % draw an octagon
   /an exch def
   /dy exch def
   /dx exch def
   /y  exch def
   /x  exch def
   gsave
   x EU y EU translate
   an dx dy lt { 90 add /dx dy /dy dx def def } if rotate
   newpath
      0 dx 2 div sub EU                    0 dy edge  add EU moveto
      0 dx dy sub 2 div sub dy edge sub EU 0 dy 2 div add EU lineto
      0 dx dy sub 2 div add dy edge add EU 0 dy 2 div add EU lineto
      0 dx 2 div add EU                    0 dy edge  add EU lineto
      0 dx 2 div add EU                    0 dy edge  sub EU lineto
      0 dx dy sub 2 div add dy edge add EU 0 dy 2 div sub EU lineto
      0 dx dy sub 2 div sub dy edge sub EU 0 dy 2 div sub EU lineto
      0 dx 2 div sub EU                    0 dy edge  sub EU lineto
   closepath
   fill
   grestore
   } def

197104 222504 222504 247904 0.0 b
197104 273304 235204 286004 0.0 b
387604 108204 794004 133604 0.0 b
825754 101854 863854 139954 0.0 b
901954 298704 946404 355854 0.0 b
901954 247904 946404 273304 0.0 b
857504 101854 882904 133604 0.0 b
774954 203454 787654 222504 0.0 b
640334 325374 631945 325374 2540 l
631945 325374 629148 328170 2540 l
629148 328170 631945 330967 2540 l
631945 330967 637538 330967 2540 l
637538 330967 640334 333763 2540 l
640334 333763 637538 336560 2540 l
637538 336560 629148 336560 2540 l
619763 336560 614170 336560 2540 l
614170 336560 611374 333763 2540 l
611374 333763 611374 325374 2540 l
611374 325374 619763 325374 2540 l
619763 325374 622559 328170 2540 l
622559 328170 619763 330967 2540 l
619763 330967 611374 330967 2540 l
604784 325374 604784 336560 2540 l
604784 330967 599192 336560 2540 l
599192 336560 596395 336560 2540 l
584379 319781 581583 319781 2540 l
581583 319781 578786 322578 2540 l
578786 322578 578786 336560 2540 l
578786 336560 587176 336560 2540 l
587176 336560 589972 333763 2540 l
589972 333763 589972 328170 2540 l
589972 328170 587176 325374 2540 l
587176 325374 578786 325374 2540 l
563808 325374 569401 325374 2540 l
569401 325374 572197 328170 2540 l
572197 328170 572197 333763 2540 l
572197 333763 569401 336560 2540 l
569401 336560 563808 336560 2540 l
563808 336560 561012 333763 2540 l
561012 333763 561012 330967 2540 l
561012 330967 572197 330967 2540 l
543237 328170 546033 325374 2540 l
546033 325374 551626 325374 2540 l
551626 325374 554422 328170 2540 l
554422 328170 554422 339356 2540 l
554422 339356 551626 342152 2540 l
551626 342152 546033 342152 2540 l
546033 342152 543237 339356 2540 l
543237 339356 543237 333763 2540 l
543237 333763 546033 330967 2540 l
546033 330967 551626 330967 2540 l
551626 330967 551626 336560 2540 l
551626 336560 546033 336560 2540 l
546033 336560 546033 330967 2540 l
525462 342152 525462 325374 2540 l
525462 325374 533851 325374 2540 l
533851 325374 536647 328170 2540 l
536647 328170 536647 333763 2540 l
536647 333763 533851 336560 2540 l
533851 336560 525462 336560 2540 l
518873 336560 516076 336560 2540 l
516076 336560 516076 325374 2540 l
518873 325374 513280 325374 2540 l
516076 344949 516076 342152 2540 l
507023 336560 507023 328170 2540 l
507023 328170 504226 325374 2540 l
504226 325374 495837 325374 2540 l
495837 336560 495837 322578 2540 l
495837 322578 498634 319781 2540 l
498634 319781 501430 319781 2540 l
489248 325374 489248 336560 2540 l
489248 336560 486451 336560 2540 l
486451 336560 483655 333763 2540 l
483655 333763 483655 325374 2540 l
483655 333763 480859 336560 2540 l
480859 336560 478062 333763 2540 l
478062 333763 478062 325374 2540 l
471473 336560 468677 336560 2540 l
468677 336560 468677 325374 2540 l
471473 325374 465880 325374 2540 l
468677 344949 468677 342152 2540 l
448438 336560 456827 336560 2540 l
456827 336560 459623 333763 2540 l
459623 333763 459623 328170 2540 l
459623 328170 456827 325374 2540 l
456827 325374 448438 325374 2540 l
441848 325374 441848 336560 2540 l
441848 330967 436255 336560 2540 l
436255 336560 433459 336560 2540 l
424239 325374 418647 325374 2540 l
418647 325374 415850 328170 2540 l
415850 328170 415850 333763 2540 l
415850 333763 418647 336560 2540 l
418647 336560 424239 336560 2540 l
424239 336560 427036 333763 2540 l
427036 333763 427036 328170 2540 l
427036 328170 424239 325374 2540 l
409261 325374 409261 328170 2540 l
409261 328170 406465 328170 2540 l
406465 328170 406465 325374 2540 l
406465 325374 409261 325374 2540 l
400374 325374 400374 336560 2540 l
400374 330967 394781 336560 2540 l
394781 336560 391984 336560 2540 l
385561 336560 385561 328170 2540 l
385561 328170 382765 325374 2540 l
382765 325374 374376 325374 2540 l
374376 325374 374376 336560 2540 l
6604 6604 19304 501904 0.0 b
6604 6604 984504 19304 0.0 b
971804 19304 984504 501904 0.0 b
19304 489204 984504 501904 0.0 b
789004 239204 799004 253204 180.0 b
779504 217204 789504 231204 180.0 b
798504 217204 808504 231204 180.0 b
786004 286504 802004 313504 270.0 b
786004 258504 802004 285504 270.0 b
824104 210304 840104 237304 270.0 b
824104 182304 840104 209304 270.0 b
851916 108204 837692 108204 14224 l
851916 82804 837692 82804 14224 l
49784 387604 65024 387604 15240 l
49784 362204 65024 362204 15240 l
49784 336804 65024 336804 15240 l
49784 311404 65024 311404 15240 l
64944 286004 49864 286004 15080 l
64944 260604 49864 260604 15080 l
773764 108204 788844 108204 15080 l
773764 82804 788844 82804 15080 l
201804 233104 217804 260104 90.0 b
201804 261104 217804 288104 90.0 b
201804 182304 217804 209304 90.0 b
201804 210304 217804 237304 90.0 b
352904 107404 368904 134404 0.0 b
380904 107404 396904 134404 0.0 b
352904 69304 368904 96304 0.0 b
380904 69304 396904 96304 0.0 b
303864 108204 318944 108204 15080 l
303864 82804 318944 82804 15080 l
120904 362204 19304 p
146304 362204 19304 p
120904 336804 19304 p
146304 336804 19304 p
120904 311404 19304 p
146304 311404 19304 p
120904 286004 19304 p
146304 286004 19304 p
120904 260604 19304 p
146304 260604 19304 p
120904 235204 19304 p
146304 235204 19304 p
120904 209804 19304 p
146304 209804 19304 p
120904 402779 50000 p
120904 168829 50000 p
930204 401179 50000 p
930204 167229 50000 p
930704 311404 19304 p
930704 260604 19304 p
197104 44704 17780 p
237204 44704 17780 p
196704 114604 17780 p
236804 114604 17780 p
108204 44704 17780 p
148304 44704 17780 p
107804 114604 17780 p
147904 114604 17780 p
684864 108204 699944 108204 15080 l
684864 82804 699944 82804 15080 l
851916 159004 837692 159004 14224 l
851916 133604 837692 133604 14224 l
209804 195804 209804 159004 8128 l
209804 159004 197104 146304 8128 l
197104 146304 197104 133604 8128 l
197104 133604 197104 115004 8128 l
197104 115004 196704 114604 8128 l
107804 114604 114604 114604 8128 l
114604 114604 133604 133604 8128 l
133604 133604 197104 133604 8128 l
781304 82804 692404 82804 8128 l
197104 44704 209804 44704 8128 l
209804 44704 228854 63754 8128 l
228854 63754 266954 63754 8128 l
266954 63754 286004 44704 8128 l
286004 44704 400304 44704 8128 l
400304 44704 438404 82804 8128 l
438404 82804 692404 82804 8128 l
784504 224204 784504 213004 4064 l
784504 213004 781304 209804 4064 l
781304 209804 971804 209804 4064 l
120904 209804 57404 209804 8128 l
57404 209804 32004 184404 8128 l
32004 184404 32004 120904 8128 l
32004 120904 38354 114554 8128 l
38354 114554 108204 44704 8128 l
127254 25654 133604 19304 8128 l
133604 19304 171704 19304 8128 l
171704 19304 197104 44704 8128 l
108204 114554 38354 114554 8128 l
781304 82804 806704 57404 8128 l
806704 57404 882904 57404 8128 l
882904 57404 971804 146304 8128 l
971804 146304 971804 209804 8128 l
146304 260604 171704 260604 8128 l
171704 260604 171704 286004 8128 l
171704 286004 197104 311404 8128 l
197104 311404 197104 438404 8128 l
108204 44704 127254 25654 8128 l
248673 132368 240972 135558 8128 l
240972 135558 232636 135558 8128 l
232636 135558 224935 132368 8128 l
224935 132368 219040 126473 8128 l
219040 126473 215850 118772 8128 l
215850 118772 215850 110436 8128 l
215850 110436 219040 102735 8128 l
219040 102735 222843 98932 8128 l
222843 98932 165684 98932 8128 l
165684 98932 163775 100841 8128 l
163775 100841 165668 102735 8128 l
165668 102735 168858 110436 8128 l
168858 110436 168858 118772 8128 l
168858 118772 165668 126473 8128 l
165668 126473 159773 132368 8128 l
159773 132368 152072 135558 8128 l
152072 135558 143736 135558 8128 l
143736 135558 136035 132368 8128 l
136035 132368 130140 126473 8128 l
130140 126473 126950 118772 8128 l
126950 118772 126950 110436 8128 l
126950 110436 130140 102735 8128 l
130140 102735 130176 102699 8128 l
130176 102699 130176 92296 8128 l
130176 92296 132631 86368 8128 l
132631 86368 137168 81831 8128 l
137168 81831 149868 69131 8128 l
149868 69131 155796 66676 8128 l
155796 66676 292268 66676 8128 l
292268 66676 292759 66185 8128 l
292759 66185 299965 63200 8128 l
299965 63200 322843 63200 8128 l
322843 63200 330049 66185 8128 l
330049 66185 330540 66676 8128 l
330540 66676 340935 66676 8128 l
340935 66676 342677 62470 8128 l
342677 62470 346070 59077 8128 l
346070 59077 350504 57240 8128 l
350504 57240 371304 57240 8128 l
371304 57240 374904 58731 8128 l
374904 58731 378504 57240 8128 l
378504 57240 399304 57240 8128 l
399304 57240 403738 59077 8128 l
403738 59077 407131 62470 8128 l
407131 62470 408968 66904 8128 l
408968 66904 408968 92076 8128 l
408968 92076 673268 92076 8128 l
673268 92076 673759 91585 8128 l
673759 91585 673760 91584 8128 l
673760 91584 672767 90217 8128 l
672767 90217 671756 88233 8128 l
671756 88233 671068 86116 8128 l
671068 86116 670720 83917 8128 l
670720 83917 670720 82804 8128 l
670720 82804 692404 82804 8128 l
692404 82804 692404 82804 8128 l
692404 82804 670720 82804 8128 l
670720 82804 670720 81691 8128 l
670720 81691 671068 79492 8128 l
671068 79492 671756 77375 8128 l
671756 77375 672767 75391 8128 l
672767 75391 674076 73590 8128 l
674076 73590 675650 72016 8128 l
675650 72016 677451 70707 8128 l
677451 70707 679435 69696 8128 l
679435 69696 681552 69008 8128 l
681552 69008 683751 68660 8128 l
683751 68660 692404 68660 8128 l
692404 68660 692404 82804 8128 l
692404 82804 692404 82804 8128 l
692404 82804 692404 68660 8128 l
692404 68660 701057 68660 8128 l
701057 68660 703256 69008 8128 l
703256 69008 705373 69696 8128 l
705373 69696 707357 70707 8128 l
707357 70707 709158 72016 8128 l
709158 72016 710732 73590 8128 l
710732 73590 712041 75391 8128 l
712041 75391 713052 77375 8128 l
713052 77375 713740 79492 8128 l
713740 79492 714088 81691 8128 l
714088 81691 714088 82804 8128 l
714088 82804 692404 82804 8128 l
692404 82804 692404 82804 8128 l
692404 82804 714088 82804 8128 l
714088 82804 714088 83917 8128 l
714088 83917 713740 86116 8128 l
713740 86116 713052 88233 8128 l
713052 88233 712041 90217 8128 l
712041 90217 711048 91584 8128 l
711048 91584 711049 91585 8128 l
711049 91585 711540 92076 8128 l
711540 92076 762168 92076 8128 l
762168 92076 762659 91585 8128 l
762659 91585 762660 91584 8128 l
762660 91584 761667 90217 8128 l
761667 90217 760656 88233 8128 l
760656 88233 759968 86116 8128 l
759968 86116 759620 83917 8128 l
759620 83917 759620 82804 8128 l
759620 82804 781304 82804 8128 l
781304 82804 781304 82804 8128 l
781304 82804 759620 82804 8128 l
759620 82804 759620 81691 8128 l
759620 81691 759968 79492 8128 l
759968 79492 760656 77375 8128 l
760656 77375 761667 75391 8128 l
761667 75391 762976 73590 8128 l
762976 73590 764550 72016 8128 l
764550 72016 766351 70707 8128 l
766351 70707 768335 69696 8128 l
768335 69696 770452 69008 8128 l
770452 69008 772651 68660 8128 l
772651 68660 781304 68660 8128 l
781304 68660 781304 82804 8128 l
781304 82804 781304 82804 8128 l
781304 82804 781304 68660 8128 l
781304 68660 789957 68660 8128 l
789957 68660 792156 69008 8128 l
792156 69008 794273 69696 8128 l
794273 69696 796257 70707 8128 l
796257 70707 798058 72016 8128 l
798058 72016 799632 73590 8128 l
799632 73590 800941 75391 8128 l
800941 75391 801952 77375 8128 l
801952 77375 801970 77430 8128 l
801970 77430 810268 69131 8128 l
810268 69131 816196 66676 8128 l
816196 66676 826701 66676 8128 l
826701 66676 826830 66547 8128 l
826830 66547 833878 63628 8128 l
833878 63628 855730 63628 8128 l
855730 63628 862778 66547 8128 l
862778 66547 868173 71942 8128 l
868173 71942 871092 78990 8128 l
871092 78990 871092 86618 8128 l
871092 86618 869778 89790 8128 l
869778 89790 885304 89790 8128 l
885304 89790 889738 91627 8128 l
889738 91627 893131 95020 8128 l
893131 95020 893557 96049 8128 l
893557 96049 896577 99068 8128 l
896577 99068 899032 104996 8128 l
899032 104996 899032 147093 8128 l
899032 147093 900545 144471 8128 l
900545 144471 907446 137570 8128 l
907446 137570 915898 132691 8128 l
915898 132691 925324 130165 8128 l
925324 130165 935084 130165 8128 l
935084 130165 944510 132691 8128 l
944510 132691 952962 137570 8128 l
952962 137570 959740 144349 8128 l
959740 144349 959740 31368 8128 l
959740 31368 253501 31368 8128 l
253501 31368 254968 32835 8128 l
254968 32835 258158 40536 8128 l
258158 40536 258158 48872 8128 l
258158 48872 254968 56573 8128 l
254968 56573 249073 62468 8128 l
249073 62468 241372 65658 8128 l
241372 65658 233036 65658 8128 l
233036 65658 225335 62468 8128 l
225335 62468 219440 56573 8128 l
219440 56573 216250 48872 8128 l
216250 48872 216250 40536 8128 l
216250 40536 219440 32835 8128 l
219440 32835 220907 31368 8128 l
220907 31368 205059 31368 8128 l
205059 31368 205225 31452 8128 l
205225 31452 207198 32886 8128 l
207198 32886 208922 34610 8128 l
208922 34610 210356 36583 8128 l
210356 36583 211463 38756 8128 l
211463 38756 212216 41076 8128 l
212216 41076 212598 43485 8128 l
212598 43485 212598 44704 8128 l
212598 44704 197104 44704 8128 l
197104 44704 197104 44704 8128 l
197104 44704 212598 44704 8128 l
212598 44704 212598 45923 8128 l
212598 45923 212216 48332 8128 l
212216 48332 211463 50652 8128 l
211463 50652 210356 52825 8128 l
210356 52825 208922 54798 8128 l
208922 54798 207198 56522 8128 l
207198 56522 205225 57956 8128 l
205225 57956 203052 59063 8128 l
203052 59063 200732 59816 8128 l
200732 59816 198323 60198 8128 l
198323 60198 197104 60198 8128 l
197104 60198 197104 44704 8128 l
197104 44704 197104 44704 8128 l
197104 44704 197104 60198 8128 l
197104 60198 195885 60198 8128 l
195885 60198 193476 59816 8128 l
193476 59816 191156 59063 8128 l
191156 59063 188983 57956 8128 l
188983 57956 187010 56522 8128 l
187010 56522 185286 54798 8128 l
185286 54798 183852 52825 8128 l
183852 52825 182745 50652 8128 l
182745 50652 181992 48332 8128 l
181992 48332 181610 45923 8128 l
181610 45923 181610 44704 8128 l
181610 44704 197104 44704 8128 l
197104 44704 197104 44704 8128 l
197104 44704 181610 44704 8128 l
181610 44704 181610 43485 8128 l
181610 43485 181992 41076 8128 l
181992 41076 182745 38756 8128 l
182745 38756 183852 36583 8128 l
183852 36583 185286 34610 8128 l
185286 34610 187010 32886 8128 l
187010 32886 188983 31452 8128 l
188983 31452 189149 31368 8128 l
189149 31368 164601 31368 8128 l
164601 31368 166068 32835 8128 l
166068 32835 169258 40536 8128 l
169258 40536 169258 48872 8128 l
169258 48872 166068 56573 8128 l
166068 56573 160173 62468 8128 l
160173 62468 152472 65658 8128 l
152472 65658 144136 65658 8128 l
144136 65658 136435 62468 8128 l
136435 62468 130540 56573 8128 l
130540 56573 127350 48872 8128 l
127350 48872 127350 40536 8128 l
127350 40536 130540 32835 8128 l
130540 32835 132007 31368 8128 l
132007 31368 116159 31368 8128 l
116159 31368 116325 31452 8128 l
116325 31452 118298 32886 8128 l
118298 32886 120022 34610 8128 l
120022 34610 121456 36583 8128 l
121456 36583 122563 38756 8128 l
122563 38756 123316 41076 8128 l
123316 41076 123698 43485 8128 l
123698 43485 123698 44704 8128 l
123698 44704 108204 44704 8128 l
108204 44704 108204 44704 8128 l
108204 44704 123698 44704 8128 l
123698 44704 123698 45923 8128 l
123698 45923 123316 48332 8128 l
123316 48332 122563 50652 8128 l
122563 50652 121456 52825 8128 l
121456 52825 120022 54798 8128 l
120022 54798 118298 56522 8128 l
118298 56522 116325 57956 8128 l
116325 57956 114152 59063 8128 l
114152 59063 111832 59816 8128 l
111832 59816 109423 60198 8128 l
109423 60198 108204 60198 8128 l
108204 60198 108204 44704 8128 l
108204 44704 108204 44704 8128 l
108204 44704 108204 60198 8128 l
108204 60198 106985 60198 8128 l
106985 60198 104576 59816 8128 l
104576 59816 102256 59063 8128 l
102256 59063 100083 57956 8128 l
100083 57956 98110 56522 8128 l
98110 56522 96386 54798 8128 l
96386 54798 94952 52825 8128 l
94952 52825 93845 50652 8128 l
93845 50652 93092 48332 8128 l
93092 48332 92710 45923 8128 l
92710 45923 92710 44704 8128 l
92710 44704 108204 44704 8128 l
108204 44704 108204 44704 8128 l
108204 44704 92710 44704 8128 l
92710 44704 92710 43485 8128 l
92710 43485 93092 41076 8128 l
93092 41076 93845 38756 8128 l
93845 38756 94952 36583 8128 l
94952 36583 96386 34610 8128 l
96386 34610 98110 32886 8128 l
98110 32886 100083 31452 8128 l
100083 31452 100249 31368 8128 l
100249 31368 31368 31368 8128 l
31368 31368 31368 254030 8128 l
31368 254030 33245 249499 8128 l
33245 249499 38759 243985 8128 l
38759 243985 45965 241000 8128 l
45965 241000 68843 241000 8128 l
68843 241000 76049 243985 8128 l
76049 243985 76332 244268 8128 l
76332 244268 94531 226068 8128 l
94531 226068 99068 221531 8128 l
99068 221531 104996 219076 8128 l
104996 219076 106321 219076 8128 l
106321 219076 107060 218337 8128 l
107060 218337 106293 217009 8128 l
106293 217009 105478 215041 8128 l
105478 215041 104926 212982 8128 l
104926 212982 104648 210869 8128 l
104648 210869 104648 209804 8128 l
104648 209804 120904 209804 8128 l
120904 209804 120904 209804 8128 l
120904 209804 104648 209804 8128 l
104648 209804 104648 208739 8128 l
104648 208739 104926 206626 8128 l
104926 206626 105478 204567 8128 l
105478 204567 106095 203077 8128 l
106095 203077 98146 198488 8128 l
98146 198488 91245 191587 8128 l
91245 191587 86366 183135 8128 l
86366 183135 83840 173709 8128 l
83840 173709 83840 163949 8128 l
83840 163949 86366 154523 8128 l
86366 154523 91245 146071 8128 l
91245 146071 98146 139170 8128 l
98146 139170 106598 134291 8128 l
106598 134291 116024 131765 8128 l
116024 131765 125784 131765 8128 l
125784 131765 135210 134291 8128 l
135210 134291 143662 139170 8128 l
143662 139170 150563 146071 8128 l
150563 146071 155442 154523 8128 l
155442 154523 157968 163949 8128 l
157968 163949 157968 173709 8128 l
157968 173709 155442 183135 8128 l
155442 183135 152205 188743 8128 l
152205 188743 158605 191394 8128 l
158605 191394 162919 195708 8128 l
162919 195708 189700 195708 8128 l
189700 195708 189700 187154 8128 l
189700 187154 189954 185878 8128 l
189954 185878 190452 184676 8128 l
190452 184676 191174 183594 8128 l
191174 183594 192094 182674 8128 l
192094 182674 193176 181952 8128 l
193176 181952 194378 181454 8128 l
194378 181454 195654 181200 8128 l
195654 181200 209804 181200 8128 l
209804 181200 209804 195708 8128 l
209804 195708 209804 195708 8128 l
209804 195708 209804 181200 8128 l
209804 181200 223954 181200 8128 l
223954 181200 225230 181454 8128 l
225230 181454 226432 181952 8128 l
226432 181952 227514 182674 8128 l
227514 182674 228434 183594 8128 l
228434 183594 229156 184676 8128 l
229156 184676 229654 185878 8128 l
229654 185878 229908 187154 8128 l
229908 187154 229908 195708 8128 l
229908 195708 238008 195708 8128 l
238008 195708 243189 197854 8128 l
243189 197854 259854 214519 8128 l
259854 214519 261741 219076 8128 l
261741 219076 355524 219076 8128 l
355524 219076 372776 201824 8128 l
372776 201824 372776 145858 8128 l
372776 145858 371304 146468 8128 l
371304 146468 350504 146468 8128 l
350504 146468 346070 144631 8128 l
346070 144631 342677 141238 8128 l
342677 141238 340935 137032 8128 l
340935 137032 333596 137032 8128 l
333596 137032 327668 134577 8128 l
327668 134577 323131 130040 8128 l
323131 130040 323131 130040 8128 l
323131 130040 320900 127808 8128 l
320900 127808 299965 127808 8128 l
299965 127808 292759 124823 8128 l
292759 124823 292476 124540 8128 l
292476 124540 288740 128277 8128 l
288740 128277 282812 130732 8128 l
282812 130732 250309 130732 8128 l
250309 130732 248673 132368 8128 l
196704 130098 196704 114604 8128 l
196704 114604 196704 114604 8128 l
196704 114604 196704 130098 8128 l
196704 130098 195485 130098 8128 l
195485 130098 193076 129716 8128 l
193076 129716 190756 128963 8128 l
190756 128963 188583 127856 8128 l
188583 127856 186610 126422 8128 l
186610 126422 184886 124698 8128 l
184886 124698 183452 122725 8128 l
183452 122725 182345 120552 8128 l
182345 120552 181592 118232 8128 l
181592 118232 181210 115823 8128 l
181210 115823 181210 114604 8128 l
181210 114604 196704 114604 8128 l
196704 114604 196704 114604 8128 l
196704 114604 181210 114604 8128 l
181210 114604 181210 113385 8128 l
181210 113385 181592 110976 8128 l
181592 110976 182345 108656 8128 l
182345 108656 183452 106483 8128 l
183452 106483 184886 104510 8128 l
184886 104510 186610 102786 8128 l
186610 102786 188583 101352 8128 l
188583 101352 190756 100245 8128 l
190756 100245 193076 99492 8128 l
193076 99492 195485 99110 8128 l
195485 99110 196704 99110 8128 l
196704 99110 196704 114604 8128 l
196704 114604 196704 114604 8128 l
196704 114604 196704 99110 8128 l
196704 99110 197923 99110 8128 l
197923 99110 200332 99492 8128 l
200332 99492 202652 100245 8128 l
202652 100245 204825 101352 8128 l
204825 101352 206798 102786 8128 l
206798 102786 208522 104510 8128 l
208522 104510 209956 106483 8128 l
209956 106483 211063 108656 8128 l
211063 108656 211816 110976 8128 l
211816 110976 212198 113385 8128 l
212198 113385 212198 114604 8128 l
212198 114604 196704 114604 8128 l
196704 114604 196704 114604 8128 l
196704 114604 212198 114604 8128 l
212198 114604 212198 115823 8128 l
212198 115823 211816 118232 8128 l
211816 118232 211063 120552 8128 l
211063 120552 209956 122725 8128 l
209956 122725 208522 124698 8128 l
208522 124698 206798 126422 8128 l
206798 126422 204825 127856 8128 l
204825 127856 202652 128963 8128 l
202652 128963 200332 129716 8128 l
200332 129716 197923 130098 8128 l
197923 130098 196704 130098 8128 l
107804 130098 107804 114604 8128 l
107804 114604 107804 114604 8128 l
107804 114604 107804 130098 8128 l
107804 130098 106585 130098 8128 l
106585 130098 104176 129716 8128 l
104176 129716 101856 128963 8128 l
101856 128963 99683 127856 8128 l
99683 127856 97710 126422 8128 l
97710 126422 95986 124698 8128 l
95986 124698 94552 122725 8128 l
94552 122725 93445 120552 8128 l
93445 120552 92692 118232 8128 l
92692 118232 92310 115823 8128 l
92310 115823 92310 114604 8128 l
92310 114604 107804 114604 8128 l
107804 114604 107804 114604 8128 l
107804 114604 92310 114604 8128 l
92310 114604 92310 113385 8128 l
92310 113385 92692 110976 8128 l
92692 110976 93445 108656 8128 l
93445 108656 94552 106483 8128 l
94552 106483 95986 104510 8128 l
95986 104510 97710 102786 8128 l
97710 102786 99683 101352 8128 l
99683 101352 101856 100245 8128 l
101856 100245 104176 99492 8128 l
104176 99492 106585 99110 8128 l
106585 99110 107804 99110 8128 l
107804 99110 107804 114604 8128 l
107804 114604 107804 114604 8128 l
107804 114604 107804 99110 8128 l
107804 99110 109023 99110 8128 l
109023 99110 111432 99492 8128 l
111432 99492 113752 100245 8128 l
113752 100245 115925 101352 8128 l
115925 101352 117898 102786 8128 l
117898 102786 119622 104510 8128 l
119622 104510 121056 106483 8128 l
121056 106483 122163 108656 8128 l
122163 108656 122916 110976 8128 l
122916 110976 123298 113385 8128 l
123298 113385 123298 114604 8128 l
123298 114604 107804 114604 8128 l
107804 114604 107804 114604 8128 l
107804 114604 123298 114604 8128 l
123298 114604 123298 115823 8128 l
123298 115823 122916 118232 8128 l
122916 118232 122163 120552 8128 l
122163 120552 121056 122725 8128 l
121056 122725 119622 124698 8128 l
119622 124698 117898 126422 8128 l
117898 126422 115925 127856 8128 l
115925 127856 113752 128963 8128 l
113752 128963 111432 129716 8128 l
111432 129716 109023 130098 8128 l
109023 130098 107804 130098 8128 l
43731 434840 41276 428912 8128 l
41276 428912 41276 405386 8128 l
41276 405386 38634 404291 8128 l
38634 404291 33097 398754 8128 l
33097 398754 31368 394580 8128 l
31368 394580 31368 477140 8128 l
31368 477140 959740 477140 8128 l
959740 477140 959740 424059 8128 l
959740 424059 952962 430838 8128 l
952962 430838 944510 435717 8128 l
944510 435717 935084 438243 8128 l
935084 438243 925324 438243 8128 l
925324 438243 915898 435717 8128 l
915898 435717 907446 430838 8128 l
907446 430838 900545 423937 8128 l
900545 423937 895666 415485 8128 l
895666 415485 893140 406059 8128 l
893140 406059 893140 396299 8128 l
893140 396299 895666 386873 8128 l
895666 386873 900545 378421 8128 l
900545 378421 907446 371520 8128 l
907446 371520 913686 367918 8128 l
913686 367918 899554 367918 8128 l
899554 367918 895120 366081 8128 l
895120 366081 894671 365632 8128 l
894671 365632 752696 365632 8128 l
752696 365632 746768 363177 8128 l
746768 363177 734068 350477 8128 l
734068 350477 729531 345940 8128 l
729531 345940 727076 340012 8128 l
727076 340012 727076 145668 8128 l
727076 145668 405032 145668 8128 l
405032 145668 405032 211712 8128 l
405032 211712 402577 217640 8128 l
402577 217640 375877 244340 8128 l
375877 244340 371340 248877 8128 l
371340 248877 365412 251332 8128 l
365412 251332 262000 251332 8128 l
262000 251332 262000 263408 8128 l
262000 263408 259854 268589 8128 l
259854 268589 247268 281175 8128 l
247268 281175 247268 288404 8128 l
247268 288404 245431 292838 8128 l
245431 292838 242038 296231 8128 l
242038 296231 237604 298068 8128 l
237604 298068 194704 298068 8128 l
194704 298068 190270 296231 8128 l
190270 296231 186877 292838 8128 l
186877 292838 185040 288404 8128 l
185040 288404 185040 286935 8128 l
185040 286935 184240 285004 8128 l
184240 285004 184240 264204 8128 l
184240 264204 185731 260604 8128 l
185731 260604 184240 257004 8128 l
184240 257004 184240 251332 8128 l
184240 251332 160887 251332 8128 l
160887 251332 160148 252071 8128 l
160148 252071 160915 253399 8128 l
160915 253399 161730 255367 8128 l
161730 255367 162282 257426 8128 l
162282 257426 162560 259539 8128 l
162560 259539 162560 260604 8128 l
162560 260604 146304 260604 8128 l
146304 260604 146304 260604 8128 l
146304 260604 162560 260604 8128 l
162560 260604 162560 261669 8128 l
162560 261669 162282 263782 8128 l
162282 263782 161730 265841 8128 l
161730 265841 160915 267809 8128 l
160915 267809 160148 269137 8128 l
160148 269137 164714 273703 8128 l
164714 273703 168020 281684 8128 l
168020 281684 168020 290324 8128 l
168020 290324 164714 298305 8128 l
164714 298305 164315 298704 8128 l
164315 298704 164714 299103 8128 l
164714 299103 168020 307084 8128 l
168020 307084 168020 315724 8128 l
168020 315724 165418 322004 8128 l
165418 322004 168140 323131 8128 l
168140 323131 185377 340368 8128 l
185377 340368 187832 346296 8128 l
187832 346296 187832 441612 8128 l
187832 441612 185377 447540 8128 l
185377 447540 180840 452077 8128 l
180840 452077 168140 464777 8128 l
168140 464777 162212 467232 8128 l
162212 467232 79596 467232 8128 l
79596 467232 73668 464777 8128 l
73668 464777 69131 460240 8128 l
69131 460240 43731 434840 8128 l
642986 312040 647887 314070 8128 l
647887 314070 651638 317821 8128 l
651638 317821 653668 322722 8128 l
653668 322722 653668 328026 8128 l
653668 328026 653029 329569 8128 l
653029 329569 653668 331111 8128 l
653668 331111 653668 336416 8128 l
653668 336416 652633 338914 8128 l
652633 338914 651638 341316 8128 l
651638 341316 648842 344113 8128 l
648842 344113 645091 347864 8128 l
645091 347864 640190 349894 8128 l
640190 349894 626496 349894 8128 l
626496 349894 624456 349048 8128 l
624456 349048 622415 349894 8128 l
622415 349894 611518 349894 8128 l
611518 349894 609477 349048 8128 l
609477 349048 607437 349894 8128 l
607437 349894 602132 349894 8128 l
602132 349894 601988 349834 8128 l
601988 349834 601844 349894 8128 l
601844 349894 593743 349894 8128 l
593743 349894 591785 349083 8128 l
591785 349083 589828 349894 8128 l
589828 349894 576134 349894 8128 l
576134 349894 574094 349048 8128 l
574094 349048 572053 349894 8128 l
572053 349894 562742 349894 8128 l
562742 349894 559179 353456 8128 l
559179 353456 554278 355486 8128 l
554278 355486 543381 355486 8128 l
543381 355486 538480 353456 8128 l
538480 353456 535747 350724 8128 l
535747 350724 533015 353456 8128 l
533015 353456 528114 355486 8128 l
528114 355486 524396 355486 8128 l
524396 355486 523629 356253 8128 l
523629 356253 518728 358283 8128 l
518728 358283 513424 358283 8128 l
513424 358283 508523 356253 8128 l
508523 356253 504772 352502 8128 l
504772 352502 503551 349554 8128 l
503551 349554 501430 348676 8128 l
501430 348676 498489 349894 8128 l
498489 349894 493185 349894 8128 l
493185 349894 492542 349627 8128 l
492542 349627 491900 349894 8128 l
491900 349894 483799 349894 8128 l
483799 349894 483655 349834 8128 l
483655 349834 483511 349894 8128 l
483511 349894 481061 349894 8128 l
481061 349894 479981 352502 8128 l
479981 352502 476230 356253 8128 l
476230 356253 471329 358283 8128 l
471329 358283 466024 358283 8128 l
466024 358283 461123 356253 8128 l
461123 356253 457373 352502 8128 l
457373 352502 456292 349894 8128 l
456292 349894 445785 349894 8128 l
445785 349894 445143 349627 8128 l
445143 349627 444501 349894 8128 l
444501 349894 439196 349894 8128 l
439196 349894 439052 349834 8128 l
439052 349834 438908 349894 8128 l
438908 349894 430807 349894 8128 l
430807 349894 428849 349083 8128 l
428849 349083 426892 349894 8128 l
426892 349894 415994 349894 8128 l
415994 349894 411094 347864 8128 l
411094 347864 409510 346280 8128 l
409510 346280 407927 347864 8128 l
407927 347864 403026 349894 8128 l
403026 349894 397721 349894 8128 l
397721 349894 397577 349834 8128 l
397577 349834 397433 349894 8128 l
397433 349894 389332 349894 8128 l
389332 349894 388773 349662 8128 l
388773 349662 388214 349894 8128 l
388214 349894 382909 349894 8128 l
382909 349894 379968 348676 8128 l
379968 348676 377028 349894 8128 l
377028 349894 371723 349894 8128 l
371723 349894 366823 347864 8128 l
366823 347864 363072 344113 8128 l
363072 344113 361042 339212 8128 l
361042 339212 361042 322722 8128 l
361042 322722 363072 317821 8128 l
363072 317821 366823 314070 8128 l
366823 314070 371723 312040 8128 l
371723 312040 385417 312040 8128 l
385417 312040 390318 314070 8128 l
390318 314070 391569 315321 8128 l
391569 315321 392820 314070 8128 l
392820 314070 397721 312040 8128 l
397721 312040 403026 312040 8128 l
403026 312040 403419 312203 8128 l
403419 312203 403812 312040 8128 l
403812 312040 411913 312040 8128 l
411913 312040 413954 312885 8128 l
413954 312885 415994 312040 8128 l
415994 312040 426892 312040 8128 l
426892 312040 431793 314070 8128 l
431793 314070 433044 315321 8128 l
433044 315321 434295 314070 8128 l
434295 314070 439196 312040 8128 l
439196 312040 444501 312040 8128 l
444501 312040 445143 312306 8128 l
445143 312306 445785 312040 8128 l
445785 312040 459479 312040 8128 l
459479 312040 461353 312816 8128 l
461353 312816 463228 312040 8128 l
463228 312040 474125 312040 8128 l
474125 312040 474768 312306 8128 l
474768 312306 475410 312040 8128 l
475410 312040 480715 312040 8128 l
480715 312040 480859 312100 8128 l
480859 312100 481003 312040 8128 l
481003 312040 486307 312040 8128 l
486307 312040 486451 312100 8128 l
486451 312100 486596 312040 8128 l
486596 312040 487518 312040 8128 l
487518 312040 491080 308477 8128 l
491080 308477 495981 306447 8128 l
495981 306447 504082 306447 8128 l
504082 306447 508983 308477 8128 l
508983 308477 512546 312040 8128 l
512546 312040 521525 312040 8128 l
521525 312040 522167 312306 8128 l
522167 312306 522810 312040 8128 l
522810 312040 536503 312040 8128 l
536503 312040 539942 313464 8128 l
539942 313464 543381 312040 8128 l
543381 312040 554278 312040 8128 l
554278 312040 557717 313464 8128 l
557717 313464 561156 312040 8128 l
561156 312040 570467 312040 8128 l
570467 312040 571233 311274 8128 l
571233 311274 574030 308477 8128 l
574030 308477 578930 306447 8128 l
578930 306447 587031 306447 8128 l
587031 306447 591932 308477 8128 l
591932 308477 595683 312228 8128 l
595683 312228 596676 314625 8128 l
596676 314625 597231 314070 8128 l
597231 314070 602132 312040 8128 l
602132 312040 607437 312040 8128 l
607437 312040 608079 312306 8128 l
608079 312306 608721 312040 8128 l
608721 312040 622415 312040 8128 l
622415 312040 625854 313464 8128 l
625854 313464 629293 312040 8128 l
629293 312040 634597 312040 8128 l
634597 312040 642986 312040 8128 l
31368 34484 96512 34484 8128 l
119896 34484 129857 34484 8128 l
166751 34484 185412 34484 8128 l
208796 34484 218757 34484 8128 l
255651 34484 959740 34484 8128 l
31368 42600 92850 42600 8128 l
123558 42600 127350 42600 8128 l
169258 42600 181750 42600 8128 l
212458 42600 216250 42600 8128 l
258158 42600 959740 42600 8128 l
31368 50716 93878 50716 8128 l
108204 50716 108204 50716 8128 l
122530 50716 128114 50716 8128 l
168494 50716 182778 50716 8128 l
197104 50716 197104 50716 8128 l
211430 50716 217014 50716 8128 l
257394 50716 959740 50716 8128 l
31368 58832 101803 58832 8128 l
108204 58832 108204 58832 8128 l
114605 58832 132799 58832 8128 l
163809 58832 190703 58832 8128 l
197104 58832 197104 58832 8128 l
203505 58832 221699 58832 8128 l
252709 58832 346661 58832 8128 l
403147 58832 959740 58832 8128 l
31368 66948 155139 66948 8128 l
408968 66948 815539 66948 8128 l
863179 66948 959740 66948 8128 l
31368 75064 143936 75064 8128 l
408968 75064 673004 75064 8128 l
692404 75064 692404 75064 8128 l
711803 75064 761904 75064 8128 l
781304 75064 781304 75064 8128 l
800703 75064 804336 75064 8128 l
869466 75064 959740 75064 8128 l
31368 83180 135820 83180 8128 l
408968 83180 670720 83180 8128 l
714088 83180 759620 83180 8128 l
871092 83180 959740 83180 8128 l
31368 91296 130590 91296 8128 l
408968 91296 673551 91296 8128 l
711257 91296 762451 91296 8128 l
888939 91296 959740 91296 8128 l
31368 99412 104678 99412 8128 l
107804 99412 107804 99412 8128 l
110930 99412 130176 99412 8128 l
165204 99412 193578 99412 8128 l
196704 99412 196704 99412 8128 l
199830 99412 222363 99412 8128 l
896719 99412 959740 99412 8128 l
31368 107528 94020 107528 8128 l
107804 107528 107804 107528 8128 l
121588 107528 128155 107528 8128 l
167653 107528 182920 107528 8128 l
196704 107528 196704 107528 8128 l
210488 107528 217055 107528 8128 l
899032 107528 959740 107528 8128 l
31368 115644 92310 115644 8128 l
107804 115644 107804 115644 8128 l
123298 115644 126950 115644 8128 l
168858 115644 181210 115644 8128 l
196704 115644 196704 115644 8128 l
212198 115644 215850 115644 8128 l
899032 115644 959740 115644 8128 l
31368 123760 95305 123760 8128 l
107804 123760 107804 123760 8128 l
120303 123760 129016 123760 8128 l
166792 123760 184205 123760 8128 l
196704 123760 196704 123760 8128 l
209203 123760 217916 123760 8128 l
899032 123760 959740 123760 8128 l
31368 131876 115610 131876 8128 l
126198 131876 135543 131876 8128 l
160265 131876 224443 131876 8128 l
249165 131876 324968 131876 8128 l
899032 131876 918939 131876 8128 l
941469 131876 959740 131876 8128 l
31368 139992 97325 139992 8128 l
144483 139992 342161 139992 8128 l
899032 139992 905025 139992 8128 l
955383 139992 959740 139992 8128 l
31368 148108 90069 148108 8128 l
151739 148108 372776 148108 8128 l
405032 148108 727076 148108 8128 l
31368 156224 85910 156224 8128 l
155898 156224 372776 156224 8128 l
405032 156224 727076 156224 8128 l
31368 164340 83840 164340 8128 l
157968 164340 372776 164340 8128 l
405032 164340 727076 164340 8128 l
31368 172456 83840 172456 8128 l
157968 172456 372776 172456 8128 l
405032 172456 727076 172456 8128 l
31368 180572 85679 180572 8128 l
156129 180572 372776 180572 8128 l
405032 180572 727076 180572 8128 l
31368 188688 89572 188688 8128 l
152236 188688 189700 188688 8128 l
209804 188688 209804 188688 8128 l
229908 188688 372776 188688 8128 l
405032 188688 727076 188688 8128 l
31368 196804 96463 196804 8128 l
240654 196804 372776 196804 8128 l
405032 196804 727076 196804 8128 l
31368 204920 105383 204920 8128 l
250255 204920 369680 204920 8128 l
405032 204920 727076 204920 8128 l
31368 213036 104941 213036 8128 l
258371 213036 361564 213036 8128 l
404484 213036 727076 213036 8128 l
31368 221152 99984 221152 8128 l
399064 221152 727076 221152 8128 l
31368 229268 91332 229268 8128 l
390948 229268 727076 229268 8128 l
31368 237384 83216 237384 8128 l
382832 237384 727076 237384 8128 l
31368 245500 37244 245500 8128 l
374716 245500 727076 245500 8128 l
31368 253616 31539 253616 8128 l
161005 253616 184240 253616 8128 l
262000 253616 727076 253616 8128 l
162552 261732 185264 261732 8128 l
262000 261732 727076 261732 8128 l
160859 269848 184240 269848 8128 l
258595 269848 727076 269848 8128 l
166479 277964 184240 277964 8128 l
250479 277964 727076 277964 8128 l
168020 286080 184686 286080 8128 l
247268 286080 727076 286080 8128 l
166416 294196 188235 294196 8128 l
244073 294196 727076 294196 8128 l
166043 302312 727076 302312 8128 l
168020 310428 489130 310428 8128 l
510934 310428 572079 310428 8128 l
593883 310428 727076 310428 8128 l
166852 318544 362772 318544 8128 l
651938 318544 727076 318544 8128 l
171668 326660 361042 326660 8128 l
653668 326660 727076 326660 8128 l
179784 334776 361042 334776 8128 l
653668 334776 727076 334776 8128 l
186422 342892 362566 342892 8128 l
650062 342892 728269 342892 8128 l
187832 351008 456754 351008 8128 l
480599 351008 504153 351008 8128 l
535463 351008 536032 351008 8128 l
561627 351008 734600 351008 8128 l
187832 359124 742716 359124 8128 l
187832 367240 897918 367240 8128 l
187832 375356 903611 375356 8128 l
187832 383472 897629 383472 8128 l
187832 391588 894402 391588 8128 l
31368 399704 34047 399704 8128 l
187832 399704 893140 399704 8128 l
31368 407820 41276 407820 8128 l
187832 407820 893612 407820 8128 l
31368 415936 41276 415936 8128 l
187832 415936 895926 415936 8128 l
31368 424052 41276 424052 8128 l
187832 424052 900661 424052 8128 l
31368 432168 42625 432168 8128 l
187832 432168 909751 432168 8128 l
950657 432168 959740 432168 8128 l
31368 440284 49176 440284 8128 l
187832 440284 959740 440284 8128 l
31368 448400 57292 448400 8128 l
184516 448400 959740 448400 8128 l
31368 456516 65408 456516 8128 l
176400 456516 959740 456516 8128 l
31368 464632 73524 464632 8128 l
168284 464632 959740 464632 8128 l
31368 472748 959740 472748 8128 l
44704 463804 50000 p
44704 44704 50000 p
946404 463804 50000 p
946404 44704 50000 p
146304 209804 235204 209804 4064 l
235204 209804 247904 222504 4064 l
247904 222504 247904 235204 4064 l
247904 235204 247904 260604 4064 l
247904 260604 235204 273304 4064 l
235204 273304 211104 273304 4064 l
211104 273304 209804 274604 4064 l
388904 120904 388904 82804 8128 l
388904 120904 388904 208504 8128 l
388904 208504 362204 235204 8128 l
362204 235204 247904 235204 8128 l
692404 108204 743204 108204 8128 l
743204 108204 768604 108204 8128 l
768604 108204 781304 108204 8128 l
844804 82804 819404 82804 8128 l
930704 311404 930704 327104 8128 l
930704 327104 908304 349504 8128 l
908304 349504 755904 349504 8128 l
755904 349504 743204 336804 8128 l
743204 336804 743204 108204 8128 l
908304 311404 930704 311404 4064 l
933704 311404 930704 311404 4064 l
819404 82804 794004 108204 8128 l
794004 108204 781304 108204 8128 l
844804 159004 819404 159004 8128 l
819404 159004 768604 108204 8128 l
692404 108204 401604 108204 8128 l
401604 108204 388904 120904 8128 l
146304 235204 209804 235204 8128 l
209804 246604 209804 235204 8128 l
209804 223804 209804 222504 8128 l
209804 223804 209804 235204 8128 l
794004 246204 794004 272004 8128 l
794004 300004 818104 300004 8128 l
818104 300004 857504 260604 8128 l
857504 260604 930704 260604 8128 l
803504 224204 830404 224204 8128 l
830404 224204 832104 222504 8128 l
832104 222504 832104 223804 8128 l
844804 108204 844804 133604 8128 l
832104 195804 858804 195804 8128 l
858804 195804 882904 171704 8128 l
882904 171704 882904 108204 8128 l
844804 108204 882904 108204 8128 l
159004 336804 146304 336804 8128 l
57404 387604 57404 425704 8128 l
57404 425704 82804 451104 8128 l
82804 451104 159004 451104 8128 l
159004 451104 171704 438404 8128 l
171704 438404 171704 349504 8128 l
171704 349504 159004 336804 8128 l
120904 336804 108204 336804 8128 l
108204 336804 82804 311404 8128 l
82804 311404 57404 311404 8128 l
146304 362204 159004 374904 8128 l
159004 374904 159004 425704 8128 l
159004 425704 146304 438404 8128 l
146304 438404 95504 438404 8128 l
95504 438404 82804 425704 8128 l
82804 425704 82804 406654 8128 l
82804 406654 82804 400304 8128 l
57404 362204 76454 362204 8128 l
76454 362204 82804 368554 8128 l
82804 368554 82804 400304 8128 l
57404 336804 76454 336804 8128 l
76454 336804 101854 362204 8128 l
101854 362204 120904 362204 8128 l
57404 260604 82804 260604 8128 l
82804 260604 108204 235204 8128 l
108204 235204 120904 235204 8128 l
120904 260604 108204 260604 8128 l
108204 260604 82804 286004 8128 l
82804 286004 57404 286004 8128 l
279604 114604 286004 108204 8128 l
286004 108204 311404 108204 8128 l
311404 108204 324104 108204 8128 l
324104 108204 336804 120904 8128 l
336804 120904 360904 120904 8128 l
236804 114604 279604 114604 8128 l
311404 82804 159004 82804 8128 l
159004 82804 146304 95504 8128 l
146304 95504 146304 113004 8128 l
311404 82804 360904 82804 8128 l
147904 114604 146304 113004 8128 l
844804 108204 9144 h
844804 82804 9144 h
57404 387604 10160 h
57404 362204 10160 h
57404 336804 10160 h
57404 311404 10160 h
57404 286004 10000 h
57404 260604 10000 h
781304 108204 10000 h
781304 82804 10000 h
311404 108204 10000 h
311404 82804 10000 h
120904 362204 10000 h
146304 362204 10000 h
120904 336804 10000 h
146304 336804 10000 h
120904 311404 10000 h
146304 311404 10000 h
120904 286004 10000 h
146304 286004 10000 h
120904 260604 10000 h
146304 260604 10000 h
120904 235204 10000 h
146304 235204 10000 h
120904 209804 10000 h
146304 209804 10000 h
120904 402779 25000 h
120904 168829 25000 h
930204 401179 25000 h
930204 167229 25000 h
930704 311404 10000 h
930704 260604 10000 h
197104 44704 8000 h
237204 44704 8000 h
196704 114604 8000 h
236804 114604 8000 h
108204 44704 8000 h
148304 44704 8000 h
107804 114604 8000 h
147904 114604 8000 h
692404 108204 10000 h
692404 82804 10000 h
844804 159004 9144 h
844804 133604 9144 h
44704 463804 25000 h
44704 44704 25000 h
946404 463804 25000 h
946404 44704 25000 h
